%!PS-Adobe-3.0 EPSF-3.0
%%Creator: graphviz version 2.26.3 (20100126.1600)
%%Title: FSA Utilities
%%Pages: 1
%%BoundingBox: 172 140 440 652
%%EndComments
save
%%BeginProlog
/DotDict 200 dict def
DotDict begin

/setupLatin1 {
mark
/EncodingVector 256 array def
 EncodingVector 0

ISOLatin1Encoding 0 255 getinterval putinterval
EncodingVector 45 /hyphen put

% Set up ISO Latin 1 character encoding
/starnetISO {
        dup dup findfont dup length dict begin
        { 1 index /FID ne { def }{ pop pop } ifelse
        } forall
        /Encoding EncodingVector def
        currentdict end definefont
} def
/Times-Roman starnetISO def
/Times-Italic starnetISO def
/Times-Bold starnetISO def
/Times-BoldItalic starnetISO def
/Helvetica starnetISO def
/Helvetica-Oblique starnetISO def
/Helvetica-Bold starnetISO def
/Helvetica-BoldOblique starnetISO def
/Courier starnetISO def
/Courier-Oblique starnetISO def
/Courier-Bold starnetISO def
/Courier-BoldOblique starnetISO def
cleartomark
} bind def

%%BeginResource: procset graphviz 0 0
/coord-font-family /Times-Roman def
/default-font-family /Times-Roman def
/coordfont coord-font-family findfont 8 scalefont def

/InvScaleFactor 1.0 def
/set_scale {
       dup 1 exch div /InvScaleFactor exch def
       scale
} bind def

% styles
/solid { [] 0 setdash } bind def
/dashed { [9 InvScaleFactor mul dup ] 0 setdash } bind def
/dotted { [1 InvScaleFactor mul 6 InvScaleFactor mul] 0 setdash } bind def
/invis {/fill {newpath} def /stroke {newpath} def /show {pop newpath} def} bind def
/bold { 2 setlinewidth } bind def
/filled { } bind def
/unfilled { } bind def
/rounded { } bind def
/diagonals { } bind def

% hooks for setting color 
/nodecolor { sethsbcolor } bind def
/edgecolor { sethsbcolor } bind def
/graphcolor { sethsbcolor } bind def
/nopcolor {pop pop pop} bind def

/beginpage {	% i j npages
	/npages exch def
	/j exch def
	/i exch def
	/str 10 string def
	npages 1 gt {
		gsave
			coordfont setfont
			0 0 moveto
			(\() show i str cvs show (,) show j str cvs show (\)) show
		grestore
	} if
} bind def

/set_font {
	findfont exch
	scalefont setfont
} def

% draw text fitted to its expected width
/alignedtext {			% width text
	/text exch def
	/width exch def
	gsave
		width 0 gt {
			[] 0 setdash
			text stringwidth pop width exch sub text length div 0 text ashow
		} if
	grestore
} def

/boxprim {				% xcorner ycorner xsize ysize
		4 2 roll
		moveto
		2 copy
		exch 0 rlineto
		0 exch rlineto
		pop neg 0 rlineto
		closepath
} bind def

/ellipse_path {
	/ry exch def
	/rx exch def
	/y exch def
	/x exch def
	matrix currentmatrix
	newpath
	x y translate
	rx ry scale
	0 0 1 0 360 arc
	setmatrix
} bind def

/endpage { showpage } bind def
/showpage { } def

/layercolorseq
	[	% layer color sequence - darkest to lightest
		[0 0 0]
		[.2 .8 .8]
		[.4 .8 .8]
		[.6 .8 .8]
		[.8 .8 .8]
	]
def

/layerlen layercolorseq length def

/setlayer {/maxlayer exch def /curlayer exch def
	layercolorseq curlayer 1 sub layerlen mod get
	aload pop sethsbcolor
	/nodecolor {nopcolor} def
	/edgecolor {nopcolor} def
	/graphcolor {nopcolor} def
} bind def

/onlayer { curlayer ne {invis} if } def

/onlayers {
	/myupper exch def
	/mylower exch def
	curlayer mylower lt
	curlayer myupper gt
	or
	{invis} if
} def

/curlayer 0 def

%%EndResource
%%EndProlog
%%BeginSetup
14 default-font-family set_font
1 setmiterlimit
% /arrowlength 10 def
% /arrowwidth 5 def

% make sure pdfmark is harmless for PS-interpreters other than Distiller
/pdfmark where {pop} {userdict /pdfmark /cleartomark load put} ifelse
% make '<<' and '>>' safe on PS Level 1 devices
/languagelevel where {pop languagelevel}{1} ifelse
2 lt {
    userdict (<<) cvn ([) cvn load put
    userdict (>>) cvn ([) cvn load put
} if

%%EndSetup
setupLatin1
%%Page: 1 1
%%PageBoundingBox: 172 140 440 652
%%PageOrientation: Portrait
0 0 1 beginpage
gsave
172 140 268 512 boxprim clip newpath
1 1 set_scale 0 rotate 176.101 145 translate
% start0
gsave
grestore
% 0
gsave
0.83922 0.48235 0.8549 nodecolor
110.8 407 17.98 18.38 ellipse_path fill
1 setlinewidth
filled
0.83922 0.48235 0.8549 nodecolor
110.8 407 17.98 18.38 ellipse_path stroke
1 setlinewidth
filled
0.83922 0.48235 0.8549 nodecolor
110.8 407 21.89 22.38 ellipse_path stroke
0 0 0 nodecolor
14 /Times-Roman set_font
105.8 403.4 moveto 10 (0) alignedtext
grestore
% start0->0
gsave
1 setlinewidth
0 0 0 edgecolor
newpath 110.8 467.68 moveto
110.8 459.38 110.8 449.3 110.8 439.77 curveto
stroke
0 0 0 edgecolor
newpath 114.3 439.74 moveto
110.8 429.74 lineto
107.3 439.74 lineto
closepath fill
1 setlinewidth
solid
0 0 0 edgecolor
newpath 114.3 439.74 moveto
110.8 429.74 lineto
107.3 439.74 lineto
closepath stroke
grestore
% 0->0
gsave
1 setlinewidth
0 0 0 edgecolor
newpath 131.62 414.44 moveto
143.62 415.96 154.8 413.48 154.8 407 curveto
154.8 402.44 149.27 399.86 141.82 399.26 curveto
stroke
0 0 0 edgecolor
newpath 141.52 395.77 moveto
131.62 399.56 lineto
141.72 402.77 lineto
closepath fill
1 setlinewidth
solid
0 0 0 edgecolor
newpath 141.52 395.77 moveto
131.62 399.56 lineto
141.72 402.77 lineto
closepath stroke
0 0 0 edgecolor
14 /Times-Roman set_font
154.8 403.4 moveto 34 ([0,0]) alignedtext
grestore
% 1
gsave
0.54118 0.25098 1 nodecolor
71.8 311 17.89 18.38 ellipse_path fill
1 setlinewidth
filled
0.54118 0.25098 1 nodecolor
71.8 311 17.89 18.38 ellipse_path stroke
0 0 0 nodecolor
14 /Times-Roman set_font
66.8 307.4 moveto 10 (1) alignedtext
grestore
% 0->1
gsave
1 setlinewidth
0 0 0 edgecolor
newpath 96.28 390.04 moveto
90.96 383.01 85.38 374.52 81.8 366 curveto
78.35 357.79 76.09 348.41 74.61 339.74 curveto
stroke
0 0 0 edgecolor
newpath 78.05 339.06 moveto
73.16 329.66 lineto
71.12 340.05 lineto
closepath fill
1 setlinewidth
solid
0 0 0 edgecolor
newpath 78.05 339.06 moveto
73.16 329.66 lineto
71.12 340.05 lineto
closepath stroke
0 0 0 edgecolor
14 /Times-Roman set_font
81.8 353.4 moveto 34 ([0,1]) alignedtext
grestore
% 2
gsave
0.54118 0.25098 1 nodecolor
155.8 311 17.89 18.38 ellipse_path fill
1 setlinewidth
filled
0.54118 0.25098 1 nodecolor
155.8 311 17.89 18.38 ellipse_path stroke
0 0 0 nodecolor
14 /Times-Roman set_font
150.8 307.4 moveto 10 (2) alignedtext
grestore
% 0->2
gsave
1 setlinewidth
0 0 0 edgecolor
newpath 120.34 386.64 moveto
127.14 372.15 136.32 352.55 143.64 336.94 curveto
stroke
0 0 0 edgecolor
newpath 146.84 338.35 moveto
147.92 327.81 lineto
140.5 335.38 lineto
closepath fill
1 setlinewidth
solid
0 0 0 edgecolor
newpath 146.84 338.35 moveto
147.92 327.81 lineto
140.5 335.38 lineto
closepath stroke
0 0 0 edgecolor
14 /Times-Roman set_font
136.8 353.4 moveto 34 ([0,2]) alignedtext
grestore
% 3
gsave
0.54118 0.25098 1 nodecolor
34.8 119 17.89 18.38 ellipse_path fill
1 setlinewidth
filled
0.54118 0.25098 1 nodecolor
34.8 119 17.89 18.38 ellipse_path stroke
0 0 0 nodecolor
14 /Times-Roman set_font
29.8 115.4 moveto 10 (3) alignedtext
grestore
% 1->3
gsave
1 setlinewidth
0 0 0 edgecolor
newpath 56.91 300.37 moveto
40.56 287.68 15.22 264.77 4.8 238 curveto
-7.49 206.45 7.04 168.22 19.82 143.75 curveto
stroke
0 0 0 edgecolor
newpath 23 145.24 moveto
24.76 134.79 lineto
16.87 141.86 lineto
closepath fill
1 setlinewidth
solid
0 0 0 edgecolor
newpath 23 145.24 moveto
24.76 134.79 lineto
16.87 141.86 lineto
closepath stroke
0 0 0 edgecolor
14 /Times-Roman set_font
4.8 211.4 moveto 34 ([0,0]) alignedtext
grestore
% 4
gsave
0.023529 0.72157 1 nodecolor
71.8 215 17.98 18.38 ellipse_path fill
1 setlinewidth
filled
0.023529 0.72157 1 nodecolor
71.8 215 17.98 18.38 ellipse_path stroke
1 setlinewidth
filled
0.023529 0.72157 1 nodecolor
71.8 215 21.89 22.38 ellipse_path stroke
0 0 0 nodecolor
14 /Times-Roman set_font
66.8 211.4 moveto 10 (4) alignedtext
grestore
% 1->4
gsave
1 setlinewidth
0 0 0 edgecolor
newpath 71.8 292.49 moveto
71.8 279.86 71.8 262.79 71.8 247.88 curveto
stroke
0 0 0 edgecolor
newpath 75.3 247.51 moveto
71.8 237.51 lineto
68.3 247.51 lineto
closepath fill
1 setlinewidth
solid
0 0 0 edgecolor
newpath 75.3 247.51 moveto
71.8 237.51 lineto
68.3 247.51 lineto
closepath stroke
0 0 0 edgecolor
14 /Times-Roman set_font
71.8 261.4 moveto 34 ([1,0]) alignedtext
grestore
% 5
gsave
0.54118 0.25098 1 nodecolor
185.8 215 17.89 18.38 ellipse_path fill
1 setlinewidth
filled
0.54118 0.25098 1 nodecolor
185.8 215 17.89 18.38 ellipse_path stroke
0 0 0 nodecolor
14 /Times-Roman set_font
180.8 211.4 moveto 10 (5) alignedtext
grestore
% 2->5
gsave
1 setlinewidth
0 0 0 edgecolor
newpath 161.44 292.94 moveto
165.87 278.77 172.11 258.81 177.16 242.64 curveto
stroke
0 0 0 edgecolor
newpath 180.64 243.24 moveto
180.28 232.65 lineto
173.96 241.15 lineto
closepath fill
1 setlinewidth
solid
0 0 0 edgecolor
newpath 180.64 243.24 moveto
180.28 232.65 lineto
173.96 241.15 lineto
closepath stroke
0 0 0 edgecolor
14 /Times-Roman set_font
171.8 261.4 moveto 34 ([1,2]) alignedtext
grestore
% 3->3
gsave
1 setlinewidth
0 0 0 edgecolor
newpath 51.23 126.7 moveto
63.04 129.2 74.8 126.64 74.8 119 curveto
74.8 113.63 68.98 110.77 61.43 110.41 curveto
stroke
0 0 0 edgecolor
newpath 60.89 106.95 moveto
51.23 111.3 lineto
61.5 113.92 lineto
closepath fill
1 setlinewidth
solid
0 0 0 edgecolor
newpath 60.89 106.95 moveto
51.23 111.3 lineto
61.5 113.92 lineto
closepath stroke
0 0 0 edgecolor
14 /Times-Roman set_font
74.8 115.4 moveto 71 ([1,0] [2,1]) alignedtext
grestore
% 6
gsave
0.023529 0.72157 1 nodecolor
95.8 23 17.98 18.38 ellipse_path fill
1 setlinewidth
filled
0.023529 0.72157 1 nodecolor
95.8 23 17.98 18.38 ellipse_path stroke
1 setlinewidth
filled
0.023529 0.72157 1 nodecolor
95.8 23 21.89 22.38 ellipse_path stroke
0 0 0 nodecolor
14 /Times-Roman set_font
90.8 19.4 moveto 10 (6) alignedtext
grestore
% 3->6
gsave
1 setlinewidth
0 0 0 edgecolor
newpath 28.78 101.34 moveto
26.01 89.99 24.56 75.32 30.8 64 curveto
38.26 50.46 52.29 40.78 65.41 34.24 curveto
stroke
0 0 0 edgecolor
newpath 67.03 37.34 moveto
74.69 30.02 lineto
64.14 30.97 lineto
closepath fill
1 setlinewidth
solid
0 0 0 edgecolor
newpath 67.03 37.34 moveto
74.69 30.02 lineto
64.14 30.97 lineto
closepath stroke
0 0 0 edgecolor
14 /Times-Roman set_font
30.8 69.4 moveto 34 ([2,0]) alignedtext
grestore
% 4->4
gsave
1 setlinewidth
0 0 0 edgecolor
newpath 92.17 223.79 moveto
104.34 225.74 115.8 222.81 115.8 215 curveto
115.8 209.45 110.01 206.36 102.28 205.74 curveto
stroke
0 0 0 edgecolor
newpath 101.99 202.25 moveto
92.17 206.21 lineto
102.32 209.24 lineto
closepath fill
1 setlinewidth
solid
0 0 0 edgecolor
newpath 101.99 202.25 moveto
92.17 206.21 lineto
102.32 209.24 lineto
closepath stroke
0 0 0 edgecolor
14 /Times-Roman set_font
115.8 211.4 moveto 34 ([0,1]) alignedtext
grestore
% 5->3
gsave
1 setlinewidth
0 0 0 edgecolor
newpath 171.63 203.15 moveto
167 199.45 161.77 195.43 156.8 192 curveto
124.39 169.6 84.97 146.75 59.88 132.73 curveto
stroke
0 0 0 edgecolor
newpath 61.45 129.6 moveto
51.01 127.8 lineto
58.05 135.72 lineto
closepath fill
1 setlinewidth
solid
0 0 0 edgecolor
newpath 61.45 129.6 moveto
51.01 127.8 lineto
58.05 135.72 lineto
closepath stroke
0 0 0 edgecolor
14 /Times-Roman set_font
126.8 161.4 moveto 34 ([0,2]) alignedtext
grestore
% 5->5
gsave
1 setlinewidth
0 0 0 edgecolor
newpath 202.23 223.37 moveto
214.04 226.09 225.8 223.3 225.8 215 curveto
225.8 209.16 219.98 206.05 212.43 205.67 curveto
stroke
0 0 0 edgecolor
newpath 211.86 202.2 moveto
202.23 206.63 lineto
212.52 209.17 lineto
closepath fill
1 setlinewidth
solid
0 0 0 edgecolor
newpath 211.86 202.2 moveto
202.23 206.63 lineto
212.52 209.17 lineto
closepath stroke
0 0 0 edgecolor
14 /Times-Roman set_font
225.8 211.4 moveto 34 ([0,1]) alignedtext
grestore
% 5->6
gsave
1 setlinewidth
0 0 0 edgecolor
newpath 182.65 196.74 moveto
178.18 173.41 168.7 132.23 152.8 100 curveto
143.45 81.05 129.34 61.94 117.5 47.5 curveto
stroke
0 0 0 edgecolor
newpath 119.95 44.98 moveto
110.84 39.57 lineto
114.59 49.48 lineto
closepath fill
1 setlinewidth
solid
0 0 0 edgecolor
newpath 119.95 44.98 moveto
110.84 39.57 lineto
114.59 49.48 lineto
closepath stroke
0 0 0 edgecolor
14 /Times-Roman set_font
166.8 115.4 moveto 34 ([1,2]) alignedtext
grestore
% 6->3
gsave
1 setlinewidth
0 0 0 edgecolor
newpath 88.42 44.38 moveto
83.92 56.01 77.54 70.35 69.8 82 curveto
65.79 88.04 60.76 94 55.77 99.32 curveto
stroke
0 0 0 edgecolor
newpath 53.14 97 moveto
48.62 106.59 lineto
58.13 101.91 lineto
closepath fill
1 setlinewidth
solid
0 0 0 edgecolor
newpath 53.14 97 moveto
48.62 106.59 lineto
58.13 101.91 lineto
closepath stroke
0 0 0 edgecolor
14 /Times-Roman set_font
78.8 69.4 moveto 34 ([0,2]) alignedtext
grestore
% 6->6
gsave
1 setlinewidth
0 0 0 edgecolor
newpath 116.17 31.79 moveto
128.34 33.74 139.8 30.81 139.8 23 curveto
139.8 17.45 134.01 14.36 126.28 13.74 curveto
stroke
0 0 0 edgecolor
newpath 125.99 10.25 moveto
116.17 14.21 lineto
126.32 17.24 lineto
closepath fill
1 setlinewidth
solid
0 0 0 edgecolor
newpath 125.99 10.25 moveto
116.17 14.21 lineto
126.32 17.24 lineto
closepath stroke
0 0 0 edgecolor
14 /Times-Roman set_font
139.8 19.4 moveto 71 ([0,1] [1,2]) alignedtext
grestore
endpage
showpage
grestore
%%PageTrailer
%%EndPage: 1
%%Trailer
end
restore
%%EOF
