%!PS-Adobe-3.0 EPSF-3.0
%%Creator: graphviz version 2.36.0 (20140111.2315)
%%Title: FSA Utilities
%%Pages: 1
%%BoundingBox: 101 36 512 850
%%EndComments
save
%%BeginProlog
/DotDict 200 dict def
DotDict begin

/setupLatin1 {
mark
/EncodingVector 256 array def
 EncodingVector 0

ISOLatin1Encoding 0 255 getinterval putinterval
EncodingVector 45 /hyphen put

% Set up ISO Latin 1 character encoding
/starnetISO {
        dup dup findfont dup length dict begin
        { 1 index /FID ne { def }{ pop pop } ifelse
        } forall
        /Encoding EncodingVector def
        currentdict end definefont
} def
/Times-Roman starnetISO def
/Times-Italic starnetISO def
/Times-Bold starnetISO def
/Times-BoldItalic starnetISO def
/Helvetica starnetISO def
/Helvetica-Oblique starnetISO def
/Helvetica-Bold starnetISO def
/Helvetica-BoldOblique starnetISO def
/Courier starnetISO def
/Courier-Oblique starnetISO def
/Courier-Bold starnetISO def
/Courier-BoldOblique starnetISO def
cleartomark
} bind def

%%BeginResource: procset graphviz 0 0
/coord-font-family /Times-Roman def
/default-font-family /Times-Roman def
/coordfont coord-font-family findfont 8 scalefont def

/InvScaleFactor 1.0 def
/set_scale {
       dup 1 exch div /InvScaleFactor exch def
       scale
} bind def

% styles
/solid { [] 0 setdash } bind def
/dashed { [9 InvScaleFactor mul dup ] 0 setdash } bind def
/dotted { [1 InvScaleFactor mul 6 InvScaleFactor mul] 0 setdash } bind def
/invis {/fill {newpath} def /stroke {newpath} def /show {pop newpath} def} bind def
/bold { 2 setlinewidth } bind def
/filled { } bind def
/unfilled { } bind def
/rounded { } bind def
/diagonals { } bind def
/tapered { } bind def

% hooks for setting color 
/nodecolor { sethsbcolor } bind def
/edgecolor { sethsbcolor } bind def
/graphcolor { sethsbcolor } bind def
/nopcolor {pop pop pop} bind def

/beginpage {	% i j npages
	/npages exch def
	/j exch def
	/i exch def
	/str 10 string def
	npages 1 gt {
		gsave
			coordfont setfont
			0 0 moveto
			(\() show i str cvs show (,) show j str cvs show (\)) show
		grestore
	} if
} bind def

/set_font {
	findfont exch
	scalefont setfont
} def

% draw text fitted to its expected width
/alignedtext {			% width text
	/text exch def
	/width exch def
	gsave
		width 0 gt {
			[] 0 setdash
			text stringwidth pop width exch sub text length div 0 text ashow
		} if
	grestore
} def

/boxprim {				% xcorner ycorner xsize ysize
		4 2 roll
		moveto
		2 copy
		exch 0 rlineto
		0 exch rlineto
		pop neg 0 rlineto
		closepath
} bind def

/ellipse_path {
	/ry exch def
	/rx exch def
	/y exch def
	/x exch def
	matrix currentmatrix
	newpath
	x y translate
	rx ry scale
	0 0 1 0 360 arc
	setmatrix
} bind def

/endpage { showpage } bind def
/showpage { } def

/layercolorseq
	[	% layer color sequence - darkest to lightest
		[0 0 0]
		[.2 .8 .8]
		[.4 .8 .8]
		[.6 .8 .8]
		[.8 .8 .8]
	]
def

/layerlen layercolorseq length def

/setlayer {/maxlayer exch def /curlayer exch def
	layercolorseq curlayer 1 sub layerlen mod get
	aload pop sethsbcolor
	/nodecolor {nopcolor} def
	/edgecolor {nopcolor} def
	/graphcolor {nopcolor} def
} bind def

/onlayer { curlayer ne {invis} if } def

/onlayers {
	/myupper exch def
	/mylower exch def
	curlayer mylower lt
	curlayer myupper gt
	or
	{invis} if
} def

/curlayer 0 def

%%EndResource
%%EndProlog
%%BeginSetup
14 default-font-family set_font
1 setmiterlimit
% /arrowlength 10 def
% /arrowwidth 5 def

% make sure pdfmark is harmless for PS-interpreters other than Distiller
/pdfmark where {pop} {userdict /pdfmark /cleartomark load put} ifelse
% make '<<' and '>>' safe on PS Level 1 devices
/languagelevel where {pop languagelevel}{1} ifelse
2 lt {
    userdict (<<) cvn ([) cvn load put
    userdict (>>) cvn ([) cvn load put
} if

%%EndSetup
setupLatin1
%%Page: 1 1
%%PageBoundingBox: 101 36 512 850
%%PageOrientation: Portrait
0 0 1 beginpage
gsave
101 36 411 814 boxprim clip newpath
1 1 set_scale 0 rotate 104.5 40 translate
% start0
gsave
grestore
% 0
gsave
0.83922 0.48235 0.8549 nodecolor
109 710 17.59 18 ellipse_path fill
1 setlinewidth
filled
0.83922 0.48235 0.8549 nodecolor
109 710 17.59 18 ellipse_path stroke
1 setlinewidth
filled
0.83922 0.48235 0.8549 nodecolor
109 710 21.5 22 ellipse_path stroke
0 0 0 nodecolor
14 /Times-Roman set_font
105.5 706.3 moveto 7 (0) alignedtext
grestore
% start0->0
gsave
1 setlinewidth
0 0 0 edgecolor
newpath 109 769.75 moveto
109 761.67 109 751.78 109 742.44 curveto
stroke
0 0 0 edgecolor
newpath 112.5 742.25 moveto
109 732.25 lineto
105.5 742.25 lineto
closepath fill
1 setlinewidth
solid
0 0 0 edgecolor
newpath 112.5 742.25 moveto
109 732.25 lineto
105.5 742.25 lineto
closepath stroke
grestore
% 0->0
gsave
1 setlinewidth
0 0 0 edgecolor
newpath 129.8 717.14 moveto
141.35 718.47 152 716.09 152 710 curveto
152 705.81 146.97 703.38 140.07 702.7 curveto
stroke
0 0 0 edgecolor
newpath 139.74 699.2 moveto
129.8 702.86 lineto
139.85 706.2 lineto
closepath fill
1 setlinewidth
solid
0 0 0 edgecolor
newpath 139.74 699.2 moveto
129.8 702.86 lineto
139.85 706.2 lineto
closepath stroke
0 0 0 edgecolor
14 /Times-Roman set_font
152 706.3 moveto 27 ([0,0]) alignedtext
grestore
% 1
gsave
0.54118 0.25098 1 nodecolor
109 618 18 18 ellipse_path fill
1 setlinewidth
filled
0.54118 0.25098 1 nodecolor
109 618 18 18 ellipse_path stroke
0 0 0 nodecolor
14 /Times-Roman set_font
105.5 614.3 moveto 7 (1) alignedtext
grestore
% 0->1
gsave
1 setlinewidth
0 0 0 edgecolor
newpath 109 687.67 moveto
109 675.28 109 659.55 109 646.27 curveto
stroke
0 0 0 edgecolor
newpath 112.5 646.26 moveto
109 636.26 lineto
105.5 646.26 lineto
closepath fill
1 setlinewidth
solid
0 0 0 edgecolor
newpath 112.5 646.26 moveto
109 636.26 lineto
105.5 646.26 lineto
closepath stroke
0 0 0 edgecolor
14 /Times-Roman set_font
109 658.3 moveto 27 ([0,1]) alignedtext
grestore
% 2
gsave
0.54118 0.25098 1 nodecolor
71 442 18 18 ellipse_path fill
1 setlinewidth
filled
0.54118 0.25098 1 nodecolor
71 442 18 18 ellipse_path stroke
0 0 0 nodecolor
14 /Times-Roman set_font
67.5 438.3 moveto 7 (2) alignedtext
grestore
% 1->2
gsave
1 setlinewidth
0 0 0 edgecolor
newpath 105.36 600.32 moveto
98.75 570.05 84.73 505.85 76.79 469.52 curveto
stroke
0 0 0 edgecolor
newpath 80.19 468.66 moveto
74.63 459.63 lineto
73.35 470.15 lineto
closepath fill
1 setlinewidth
solid
0 0 0 edgecolor
newpath 80.19 468.66 moveto
74.63 459.63 lineto
73.35 470.15 lineto
closepath stroke
0 0 0 edgecolor
14 /Times-Roman set_font
94 526.3 moveto 27 ([0,0]) alignedtext
grestore
% 3
gsave
0.54118 0.25098 1 nodecolor
172 530 18 18 ellipse_path fill
1 setlinewidth
filled
0.54118 0.25098 1 nodecolor
172 530 18 18 ellipse_path stroke
0 0 0 nodecolor
14 /Times-Roman set_font
168.5 526.3 moveto 7 (3) alignedtext
grestore
% 1->3
gsave
1 setlinewidth
0 0 0 edgecolor
newpath 119.4 602.8 moveto
129.31 589.27 144.37 568.71 155.84 553.06 curveto
stroke
0 0 0 edgecolor
newpath 158.7 555.07 moveto
161.79 544.94 lineto
153.06 550.94 lineto
closepath fill
1 setlinewidth
solid
0 0 0 edgecolor
newpath 158.7 555.07 moveto
161.79 544.94 lineto
153.06 550.94 lineto
closepath stroke
0 0 0 edgecolor
14 /Times-Roman set_font
147 570.3 moveto 27 ([0,1]) alignedtext
grestore
% 4
gsave
0.54118 0.25098 1 nodecolor
18 332 18 18 ellipse_path fill
1 setlinewidth
filled
0.54118 0.25098 1 nodecolor
18 332 18 18 ellipse_path stroke
0 0 0 nodecolor
14 /Times-Roman set_font
14.5 328.3 moveto 7 (4) alignedtext
grestore
% 2->4
gsave
1 setlinewidth
0 0 0 edgecolor
newpath 55.34 432.77 moveto
45.5 426.73 33.49 417.58 27 406 curveto
19.29 392.24 16.92 374.76 16.54 360.36 curveto
stroke
0 0 0 edgecolor
newpath 20.04 360.07 moveto
16.58 350.06 lineto
13.04 360.05 lineto
closepath fill
1 setlinewidth
solid
0 0 0 edgecolor
newpath 20.04 360.07 moveto
16.58 350.06 lineto
13.04 360.05 lineto
closepath stroke
0 0 0 edgecolor
14 /Times-Roman set_font
27 384.3 moveto 27 ([0,0]) alignedtext
grestore
% 5
gsave
0.023529 0.72157 1 nodecolor
94 122 17.59 18 ellipse_path fill
1 setlinewidth
filled
0.023529 0.72157 1 nodecolor
94 122 17.59 18 ellipse_path stroke
1 setlinewidth
filled
0.023529 0.72157 1 nodecolor
94 122 21.5 22 ellipse_path stroke
0 0 0 nodecolor
14 /Times-Roman set_font
90.5 118.3 moveto 7 (5) alignedtext
grestore
% 2->5
gsave
1 setlinewidth
0 0 0 edgecolor
newpath 72.24 423.9 moveto
75.93 372.82 86.93 220.79 91.72 154.49 curveto
stroke
0 0 0 edgecolor
newpath 95.23 154.48 moveto
92.46 144.25 lineto
88.25 153.97 lineto
closepath fill
1 setlinewidth
solid
0 0 0 edgecolor
newpath 95.23 154.48 moveto
92.46 144.25 lineto
88.25 153.97 lineto
closepath stroke
0 0 0 edgecolor
14 /Times-Roman set_font
85 270.3 moveto 27 ([1,0]) alignedtext
grestore
% 6
gsave
0.54118 0.25098 1 nodecolor
276 442 18 18 ellipse_path fill
1 setlinewidth
filled
0.54118 0.25098 1 nodecolor
276 442 18 18 ellipse_path stroke
0 0 0 nodecolor
14 /Times-Roman set_font
272.5 438.3 moveto 7 (6) alignedtext
grestore
% 3->6
gsave
1 setlinewidth
0 0 0 edgecolor
newpath 188.72 523.25 moveto
203.63 517.53 225.44 507.63 241 494 curveto
249.6 486.46 257.11 476.37 262.93 467.15 curveto
stroke
0 0 0 edgecolor
newpath 266.07 468.74 moveto
268.18 458.36 lineto
260.05 465.15 lineto
closepath fill
1 setlinewidth
solid
0 0 0 edgecolor
newpath 266.07 468.74 moveto
268.18 458.36 lineto
260.05 465.15 lineto
closepath stroke
0 0 0 edgecolor
14 /Times-Roman set_font
255 482.3 moveto 27 ([0,0]) alignedtext
grestore
% 7
gsave
0.54118 0.25098 1 nodecolor
131 442 18 18 ellipse_path fill
1 setlinewidth
filled
0.54118 0.25098 1 nodecolor
131 442 18 18 ellipse_path stroke
0 0 0 nodecolor
14 /Times-Roman set_font
127.5 438.3 moveto 7 (7) alignedtext
grestore
% 3->7
gsave
1 setlinewidth
0 0 0 edgecolor
newpath 164.34 513.34 moveto
161.4 507.3 158.03 500.34 155 494 curveto
150.93 485.5 146.53 476.17 142.62 467.85 curveto
stroke
0 0 0 edgecolor
newpath 145.72 466.22 moveto
138.3 458.65 lineto
139.38 469.19 lineto
closepath fill
1 setlinewidth
solid
0 0 0 edgecolor
newpath 145.72 466.22 moveto
138.3 458.65 lineto
139.38 469.19 lineto
closepath stroke
0 0 0 edgecolor
14 /Times-Roman set_font
155 482.3 moveto 27 ([0,1]) alignedtext
grestore
% 8
gsave
0.54118 0.25098 1 nodecolor
216 388 18 18 ellipse_path fill
1 setlinewidth
filled
0.54118 0.25098 1 nodecolor
216 388 18 18 ellipse_path stroke
0 0 0 nodecolor
14 /Times-Roman set_font
212.5 384.3 moveto 7 (8) alignedtext
grestore
% 3->8
gsave
1 setlinewidth
0 0 0 edgecolor
newpath 177.13 512.67 moveto
184.64 488.77 198.71 444.02 207.7 415.41 curveto
stroke
0 0 0 edgecolor
newpath 211.1 416.25 moveto
210.76 405.66 lineto
204.43 414.15 lineto
closepath fill
1 setlinewidth
solid
0 0 0 edgecolor
newpath 211.1 416.25 moveto
210.76 405.66 lineto
204.43 414.15 lineto
closepath stroke
0 0 0 edgecolor
14 /Times-Roman set_font
188 482.3 moveto 27 ([1,0]) alignedtext
grestore
% 9
gsave
0.54118 0.25098 1 nodecolor
18 216 18 18 ellipse_path fill
1 setlinewidth
filled
0.54118 0.25098 1 nodecolor
18 216 18 18 ellipse_path stroke
0 0 0 nodecolor
14 /Times-Roman set_font
14.5 212.3 moveto 7 (9) alignedtext
grestore
% 4->9
gsave
1 setlinewidth
0 0 0 edgecolor
newpath 17.44 313.68 moveto
17.26 307.48 17.09 300.43 17 294 curveto
16.76 276.22 16.76 271.78 17 254 curveto
17.04 250.89 17.1 247.63 17.18 244.39 curveto
stroke
0 0 0 edgecolor
newpath 20.68 244.4 moveto
17.44 234.32 lineto
13.68 244.22 lineto
closepath fill
1 setlinewidth
solid
0 0 0 edgecolor
newpath 20.68 244.4 moveto
17.44 234.32 lineto
13.68 244.22 lineto
closepath stroke
0 0 0 edgecolor
14 /Times-Roman set_font
17 270.3 moveto 27 ([1,0]) alignedtext
grestore
% 10
gsave
0.54118 0.25098 1 nodecolor
276 332 19.25 19.5 ellipse_path fill
1 setlinewidth
filled
0.54118 0.25098 1 nodecolor
276 332 19.25 19.5 ellipse_path stroke
0 0 0 nodecolor
14 /Times-Roman set_font
269 328.3 moveto 14 (10) alignedtext
grestore
% 6->10
gsave
1 setlinewidth
0 0 0 edgecolor
newpath 276 423.65 moveto
276 407.05 276 381.69 276 362.02 curveto
stroke
0 0 0 edgecolor
newpath 279.5 361.76 moveto
276 351.76 lineto
272.5 361.76 lineto
closepath fill
1 setlinewidth
solid
0 0 0 edgecolor
newpath 279.5 361.76 moveto
276 351.76 lineto
272.5 361.76 lineto
closepath stroke
0 0 0 edgecolor
14 /Times-Roman set_font
276 384.3 moveto 27 ([0,1]) alignedtext
grestore
% 11
gsave
0.54118 0.25098 1 nodecolor
369 274 19.25 19.5 ellipse_path fill
1 setlinewidth
filled
0.54118 0.25098 1 nodecolor
369 274 19.25 19.5 ellipse_path stroke
0 0 0 nodecolor
14 /Times-Roman set_font
362 270.3 moveto 14 (11) alignedtext
grestore
% 6->11
gsave
1 setlinewidth
0 0 0 edgecolor
newpath 288.86 428.82 moveto
295.14 422.42 302.52 414.22 308 406 curveto
330.22 372.69 348.44 329.99 359.02 302.56 curveto
stroke
0 0 0 edgecolor
newpath 362.43 303.44 moveto
362.69 292.85 lineto
355.88 300.97 lineto
closepath fill
1 setlinewidth
solid
0 0 0 edgecolor
newpath 362.43 303.44 moveto
362.69 292.85 lineto
355.88 300.97 lineto
closepath stroke
0 0 0 edgecolor
14 /Times-Roman set_font
329 384.3 moveto 27 ([1,1]) alignedtext
grestore
% 12
gsave
0.54118 0.25098 1 nodecolor
127 332 19.25 19.5 ellipse_path fill
1 setlinewidth
filled
0.54118 0.25098 1 nodecolor
127 332 19.25 19.5 ellipse_path stroke
0 0 0 nodecolor
14 /Times-Roman set_font
120 328.3 moveto 14 (12) alignedtext
grestore
% 7->12
gsave
1 setlinewidth
0 0 0 edgecolor
newpath 130.36 423.65 moveto
129.74 407.05 128.8 381.69 128.07 362.02 curveto
stroke
0 0 0 edgecolor
newpath 131.56 361.62 moveto
127.69 351.76 lineto
124.57 361.88 lineto
closepath fill
1 setlinewidth
solid
0 0 0 edgecolor
newpath 131.56 361.62 moveto
127.69 351.76 lineto
124.57 361.88 lineto
closepath stroke
0 0 0 edgecolor
14 /Times-Roman set_font
130 384.3 moveto 27 ([1,0]) alignedtext
grestore
% 8->5
gsave
1 setlinewidth
0 0 0 edgecolor
newpath 218.99 370.01 moveto
224.28 334.83 231.85 252.57 199 196 curveto
181.97 166.68 147.89 146.36 123.16 134.74 curveto
stroke
0 0 0 edgecolor
newpath 124.43 131.47 moveto
113.87 130.57 lineto
121.56 137.86 lineto
closepath fill
1 setlinewidth
solid
0 0 0 edgecolor
newpath 124.43 131.47 moveto
113.87 130.57 lineto
121.56 137.86 lineto
closepath stroke
0 0 0 edgecolor
14 /Times-Roman set_font
224 270.3 moveto 27 ([0,1]) alignedtext
grestore
% 9->5
gsave
1 setlinewidth
0 0 0 edgecolor
newpath 17.31 197.86 moveto
17.68 186.74 19.77 172.43 27 162 curveto
36.01 149 50.86 139.72 64.29 133.48 curveto
stroke
0 0 0 edgecolor
newpath 65.89 136.61 moveto
73.72 129.47 lineto
63.15 130.17 lineto
closepath fill
1 setlinewidth
solid
0 0 0 edgecolor
newpath 65.89 136.61 moveto
73.72 129.47 lineto
63.15 130.17 lineto
closepath stroke
0 0 0 edgecolor
14 /Times-Roman set_font
27 166.3 moveto 27 ([1,0]) alignedtext
grestore
% 13
gsave
0.54118 0.25098 1 nodecolor
275 216 19.25 19.5 ellipse_path fill
1 setlinewidth
filled
0.54118 0.25098 1 nodecolor
275 216 19.25 19.5 ellipse_path stroke
0 0 0 nodecolor
14 /Times-Roman set_font
268 212.3 moveto 14 (13) alignedtext
grestore
% 10->13
gsave
1 setlinewidth
0 0 0 edgecolor
newpath 275.84 312.43 moveto
275.68 294.38 275.44 266.7 275.25 245.79 curveto
stroke
0 0 0 edgecolor
newpath 278.75 245.53 moveto
275.16 235.56 lineto
271.75 245.59 lineto
closepath fill
1 setlinewidth
solid
0 0 0 edgecolor
newpath 278.75 245.53 moveto
275.16 235.56 lineto
271.75 245.59 lineto
closepath stroke
0 0 0 edgecolor
14 /Times-Roman set_font
276 270.3 moveto 27 ([1,1]) alignedtext
grestore
% 14
gsave
0.54118 0.25098 1 nodecolor
383 122 19.25 19.5 ellipse_path fill
1 setlinewidth
filled
0.54118 0.25098 1 nodecolor
383 122 19.25 19.5 ellipse_path stroke
0 0 0 nodecolor
14 /Times-Roman set_font
376 118.3 moveto 14 (14) alignedtext
grestore
% 11->14
gsave
1 setlinewidth
0 0 0 edgecolor
newpath 370.74 254.31 moveto
373.15 228.57 377.5 181.97 380.31 151.77 curveto
stroke
0 0 0 edgecolor
newpath 383.83 151.74 moveto
381.28 141.46 lineto
376.86 151.09 lineto
closepath fill
1 setlinewidth
solid
0 0 0 edgecolor
newpath 383.83 151.74 moveto
381.28 141.46 lineto
376.86 151.09 lineto
closepath stroke
0 0 0 edgecolor
14 /Times-Roman set_font
376 212.3 moveto 27 ([0,1]) alignedtext
grestore
% 15
gsave
0.54118 0.25098 1 nodecolor
124 216 19.25 19.5 ellipse_path fill
1 setlinewidth
filled
0.54118 0.25098 1 nodecolor
124 216 19.25 19.5 ellipse_path stroke
0 0 0 nodecolor
14 /Times-Roman set_font
117 212.3 moveto 14 (15) alignedtext
grestore
% 12->15
gsave
1 setlinewidth
0 0 0 edgecolor
newpath 126.51 312.43 moveto
126.04 294.38 125.31 266.7 124.76 245.79 curveto
stroke
0 0 0 edgecolor
newpath 128.25 245.47 moveto
124.49 235.56 lineto
121.25 245.65 lineto
closepath fill
1 setlinewidth
solid
0 0 0 edgecolor
newpath 128.25 245.47 moveto
124.49 235.56 lineto
121.25 245.65 lineto
closepath stroke
0 0 0 edgecolor
14 /Times-Roman set_font
126 270.3 moveto 27 ([0,0]) alignedtext
grestore
% 13->13
gsave
1 setlinewidth
0 0 0 edgecolor
newpath 292.7 223.86 moveto
304.51 226.08 316 223.46 316 216 curveto
316 210.76 310.32 207.9 302.84 207.44 curveto
stroke
0 0 0 edgecolor
newpath 302.44 203.96 moveto
292.7 208.14 lineto
302.92 210.94 lineto
closepath fill
1 setlinewidth
solid
0 0 0 edgecolor
newpath 302.44 203.96 moveto
292.7 208.14 lineto
302.92 210.94 lineto
closepath stroke
0 0 0 edgecolor
14 /Times-Roman set_font
316 212.3 moveto 27 ([0,0]) alignedtext
grestore
% 13->14
gsave
1 setlinewidth
0 0 0 edgecolor
newpath 289.57 202.59 moveto
307.86 187 339.45 160.1 360.77 141.94 curveto
stroke
0 0 0 edgecolor
newpath 363.32 144.36 moveto
368.67 135.21 lineto
358.78 139.03 lineto
closepath fill
1 setlinewidth
solid
0 0 0 edgecolor
newpath 363.32 144.36 moveto
368.67 135.21 lineto
358.78 139.03 lineto
closepath stroke
0 0 0 edgecolor
14 /Times-Roman set_font
336 166.3 moveto 27 ([1,0]) alignedtext
grestore
% 16
gsave
0.54118 0.25098 1 nodecolor
247 122 19.25 19.5 ellipse_path fill
1 setlinewidth
filled
0.54118 0.25098 1 nodecolor
247 122 19.25 19.5 ellipse_path stroke
0 0 0 nodecolor
14 /Times-Roman set_font
240 118.3 moveto 14 (16) alignedtext
grestore
% 13->16
gsave
1 setlinewidth
0 0 0 edgecolor
newpath 269.6 197.26 moveto
265.6 184.11 260.06 165.93 255.47 150.84 curveto
stroke
0 0 0 edgecolor
newpath 258.74 149.55 moveto
252.48 141 lineto
252.04 151.58 lineto
closepath fill
1 setlinewidth
solid
0 0 0 edgecolor
newpath 258.74 149.55 moveto
252.48 141 lineto
252.04 151.58 lineto
closepath stroke
0 0 0 edgecolor
14 /Times-Roman set_font
264 166.3 moveto 27 ([1,1]) alignedtext
grestore
% 17
gsave
0.023529 0.72157 1 nodecolor
325 24 19.29 19.5 ellipse_path fill
1 setlinewidth
filled
0.023529 0.72157 1 nodecolor
325 24 19.29 19.5 ellipse_path stroke
1 setlinewidth
filled
0.023529 0.72157 1 nodecolor
325 24 23.25 23.5 ellipse_path stroke
0 0 0 nodecolor
14 /Times-Roman set_font
318 20.3 moveto 14 (17) alignedtext
grestore
% 14->17
gsave
1 setlinewidth
0 0 0 edgecolor
newpath 373.16 104.71 moveto
364.65 90.63 352.16 69.96 342.03 53.19 curveto
stroke
0 0 0 edgecolor
newpath 344.86 51.1 moveto
336.69 44.35 lineto
338.86 54.72 lineto
closepath fill
1 setlinewidth
solid
0 0 0 edgecolor
newpath 344.86 51.1 moveto
336.69 44.35 lineto
338.86 54.72 lineto
closepath stroke
0 0 0 edgecolor
14 /Times-Roman set_font
360 70.3 moveto 27 ([0,1]) alignedtext
grestore
% 15->5
gsave
1 setlinewidth
0 0 0 edgecolor
newpath 118.22 197.26 moveto
114.12 184.7 108.53 167.56 103.75 152.91 curveto
stroke
0 0 0 edgecolor
newpath 107.03 151.67 moveto
100.6 143.25 lineto
100.37 153.84 lineto
closepath fill
1 setlinewidth
solid
0 0 0 edgecolor
newpath 107.03 151.67 moveto
100.6 143.25 lineto
100.37 153.84 lineto
closepath stroke
0 0 0 edgecolor
14 /Times-Roman set_font
112 166.3 moveto 27 ([1,0]) alignedtext
grestore
% 15->15
gsave
1 setlinewidth
0 0 0 edgecolor
newpath 141.7 223.86 moveto
153.51 226.08 165 223.46 165 216 curveto
165 210.76 159.32 207.9 151.84 207.44 curveto
stroke
0 0 0 edgecolor
newpath 151.44 203.96 moveto
141.7 208.14 lineto
151.92 210.94 lineto
closepath fill
1 setlinewidth
solid
0 0 0 edgecolor
newpath 151.44 203.96 moveto
141.7 208.14 lineto
151.92 210.94 lineto
closepath stroke
0 0 0 edgecolor
14 /Times-Roman set_font
165 212.3 moveto 27 ([0,0]) alignedtext
grestore
% 16->16
gsave
1 setlinewidth
0 0 0 edgecolor
newpath 264.7 130.21 moveto
276.51 132.52 288 129.78 288 122 curveto
288 116.53 282.32 113.55 274.84 113.07 curveto
stroke
0 0 0 edgecolor
newpath 274.43 109.59 moveto
264.7 113.79 lineto
274.92 116.57 lineto
closepath fill
1 setlinewidth
solid
0 0 0 edgecolor
newpath 274.43 109.59 moveto
264.7 113.79 lineto
274.92 116.57 lineto
closepath stroke
0 0 0 edgecolor
14 /Times-Roman set_font
288 118.3 moveto 57 ([0,0] [1,1]) alignedtext
grestore
% 16->17
gsave
1 setlinewidth
0 0 0 edgecolor
newpath 258.85 106.42 moveto
270.89 91.59 289.81 68.32 304.33 50.44 curveto
stroke
0 0 0 edgecolor
newpath 307.06 52.63 moveto
310.65 42.66 lineto
301.63 48.21 lineto
closepath fill
1 setlinewidth
solid
0 0 0 edgecolor
newpath 307.06 52.63 moveto
310.65 42.66 lineto
301.63 48.21 lineto
closepath stroke
0 0 0 edgecolor
14 /Times-Roman set_font
291 70.3 moveto 27 ([1,0]) alignedtext
grestore
% 17->17
gsave
1 setlinewidth
0 0 0 edgecolor
newpath 346.76 32.93 moveto
358.86 34.59 370 31.62 370 24 curveto
370 18.58 364.37 15.52 356.77 14.79 curveto
stroke
0 0 0 edgecolor
newpath 356.66 11.29 moveto
346.76 15.07 lineto
356.86 18.29 lineto
closepath fill
1 setlinewidth
solid
0 0 0 edgecolor
newpath 356.66 11.29 moveto
346.76 15.07 lineto
356.86 18.29 lineto
closepath stroke
0 0 0 edgecolor
14 /Times-Roman set_font
370 20.3 moveto 27 ([0,1]) alignedtext
grestore
endpage
showpage
grestore
%%PageTrailer
%%EndPage: 1
%%Trailer
end
restore
%%EOF
