%!PS-Adobe-3.0 EPSF-3.0
%%Creator: graphviz version 2.38.0 (20140413.2041)
%%Title: FSA Utilities
%%Pages: 1
%%BoundingBox: 183 152 429 641
%%EndComments
save
%%BeginProlog
/DotDict 200 dict def
DotDict begin

/setupLatin1 {
mark
/EncodingVector 256 array def
 EncodingVector 0

ISOLatin1Encoding 0 255 getinterval putinterval
EncodingVector 45 /hyphen put

% Set up ISO Latin 1 character encoding
/starnetISO {
        dup dup findfont dup length dict begin
        { 1 index /FID ne { def }{ pop pop } ifelse
        } forall
        /Encoding EncodingVector def
        currentdict end definefont
} def
/Times-Roman starnetISO def
/Times-Italic starnetISO def
/Times-Bold starnetISO def
/Times-BoldItalic starnetISO def
/Helvetica starnetISO def
/Helvetica-Oblique starnetISO def
/Helvetica-Bold starnetISO def
/Helvetica-BoldOblique starnetISO def
/Courier starnetISO def
/Courier-Oblique starnetISO def
/Courier-Bold starnetISO def
/Courier-BoldOblique starnetISO def
cleartomark
} bind def

%%BeginResource: procset graphviz 0 0
/coord-font-family /Times-Roman def
/default-font-family /Times-Roman def
/coordfont coord-font-family findfont 8 scalefont def

/InvScaleFactor 1.0 def
/set_scale {
       dup 1 exch div /InvScaleFactor exch def
       scale
} bind def

% styles
/solid { [] 0 setdash } bind def
/dashed { [9 InvScaleFactor mul dup ] 0 setdash } bind def
/dotted { [1 InvScaleFactor mul 6 InvScaleFactor mul] 0 setdash } bind def
/invis {/fill {newpath} def /stroke {newpath} def /show {pop newpath} def} bind def
/bold { 2 setlinewidth } bind def
/filled { } bind def
/unfilled { } bind def
/rounded { } bind def
/diagonals { } bind def
/tapered { } bind def

% hooks for setting color 
/nodecolor { sethsbcolor } bind def
/edgecolor { sethsbcolor } bind def
/graphcolor { sethsbcolor } bind def
/nopcolor {pop pop pop} bind def

/beginpage {	% i j npages
	/npages exch def
	/j exch def
	/i exch def
	/str 10 string def
	npages 1 gt {
		gsave
			coordfont setfont
			0 0 moveto
			(\() show i str cvs show (,) show j str cvs show (\)) show
		grestore
	} if
} bind def

/set_font {
	findfont exch
	scalefont setfont
} def

% draw text fitted to its expected width
/alignedtext {			% width text
	/text exch def
	/width exch def
	gsave
		width 0 gt {
			[] 0 setdash
			text stringwidth pop width exch sub text length div 0 text ashow
		} if
	grestore
} def

/boxprim {				% xcorner ycorner xsize ysize
		4 2 roll
		moveto
		2 copy
		exch 0 rlineto
		0 exch rlineto
		pop neg 0 rlineto
		closepath
} bind def

/ellipse_path {
	/ry exch def
	/rx exch def
	/y exch def
	/x exch def
	matrix currentmatrix
	newpath
	x y translate
	rx ry scale
	0 0 1 0 360 arc
	setmatrix
} bind def

/endpage { showpage } bind def
/showpage { } def

/layercolorseq
	[	% layer color sequence - darkest to lightest
		[0 0 0]
		[.2 .8 .8]
		[.4 .8 .8]
		[.6 .8 .8]
		[.8 .8 .8]
	]
def

/layerlen layercolorseq length def

/setlayer {/maxlayer exch def /curlayer exch def
	layercolorseq curlayer 1 sub layerlen mod get
	aload pop sethsbcolor
	/nodecolor {nopcolor} def
	/edgecolor {nopcolor} def
	/graphcolor {nopcolor} def
} bind def

/onlayer { curlayer ne {invis} if } def

/onlayers {
	/myupper exch def
	/mylower exch def
	curlayer mylower lt
	curlayer myupper gt
	or
	{invis} if
} def

/curlayer 0 def

%%EndResource
%%EndProlog
%%BeginSetup
14 default-font-family set_font
1 setmiterlimit
% /arrowlength 10 def
% /arrowwidth 5 def

% make sure pdfmark is harmless for PS-interpreters other than Distiller
/pdfmark where {pop} {userdict /pdfmark /cleartomark load put} ifelse
% make '<<' and '>>' safe on PS Level 1 devices
/languagelevel where {pop languagelevel}{1} ifelse
2 lt {
    userdict (<<) cvn ([) cvn load put
    userdict (>>) cvn ([) cvn load put
} if

%%EndSetup
setupLatin1
%%Page: 1 1
%%PageBoundingBox: 183 152 429 641
%%PageOrientation: Portrait
0 0 1 beginpage
gsave
183 152 246 489 boxprim clip newpath
1 1 set_scale 0 rotate 186.917 155.5 translate
% start0
gsave
grestore
% 0
gsave
0.83922 0.48235 0.8549 nodecolor
101.17 386 18 18 ellipse_path fill
1 setlinewidth
filled
0.83922 0.48235 0.8549 nodecolor
101.17 386 18 18 ellipse_path stroke
1 setlinewidth
filled
0.83922 0.48235 0.8549 nodecolor
101.17 386 22 22 ellipse_path stroke
0 0 0 nodecolor
14 /Times-Roman set_font
97.67 382.3 moveto 7 (0) alignedtext
grestore
% start0->0
gsave
1 setlinewidth
0 0 0 edgecolor
newpath 101.17 444.98 moveto
101.17 437.15 101.17 427.61 101.17 418.54 curveto
stroke
0 0 0 edgecolor
newpath 104.67 418.24 moveto
101.17 408.24 lineto
97.67 418.24 lineto
closepath fill
1 setlinewidth
solid
0 0 0 edgecolor
newpath 104.67 418.24 moveto
101.17 408.24 lineto
97.67 418.24 lineto
closepath stroke
grestore
% 0->0
gsave
1 setlinewidth
0 0 0 edgecolor
newpath 122.45 393.14 moveto
134.27 394.47 145.17 392.09 145.17 386 curveto
145.17 381.72 139.78 379.27 132.47 378.65 curveto
stroke
0 0 0 edgecolor
newpath 132.37 375.15 moveto
122.45 378.86 lineto
132.51 382.15 lineto
closepath fill
1 setlinewidth
solid
0 0 0 edgecolor
newpath 132.37 375.15 moveto
122.45 378.86 lineto
132.51 382.15 lineto
closepath stroke
0 0 0 edgecolor
14 /Times-Roman set_font
145.17 382.3 moveto 27 ([0,0]) alignedtext
grestore
% 1
gsave
0.54118 0.25098 1 nodecolor
64.17 295 18 18 ellipse_path fill
1 setlinewidth
filled
0.54118 0.25098 1 nodecolor
64.17 295 18 18 ellipse_path stroke
0 0 0 nodecolor
14 /Times-Roman set_font
60.67 291.3 moveto 7 (1) alignedtext
grestore
% 0->1
gsave
1 setlinewidth
0 0 0 edgecolor
newpath 91.93 365.68 moveto
89.03 359.44 85.88 352.46 83.17 346 curveto
79.88 338.17 76.52 329.56 73.55 321.72 curveto
stroke
0 0 0 edgecolor
newpath 76.82 320.47 moveto
70.05 312.33 lineto
70.26 322.92 lineto
closepath fill
1 setlinewidth
solid
0 0 0 edgecolor
newpath 76.82 320.47 moveto
70.05 312.33 lineto
70.26 322.92 lineto
closepath stroke
0 0 0 edgecolor
14 /Times-Roman set_font
83.17 334.8 moveto 27 ([0,1]) alignedtext
grestore
% 2
gsave
0.54118 0.25098 1 nodecolor
134.17 295 18 18 ellipse_path fill
1 setlinewidth
filled
0.54118 0.25098 1 nodecolor
134.17 295 18 18 ellipse_path stroke
0 0 0 nodecolor
14 /Times-Roman set_font
130.67 291.3 moveto 7 (2) alignedtext
grestore
% 0->2
gsave
1 setlinewidth
0 0 0 edgecolor
newpath 108.49 365.25 moveto
113.26 352.39 119.52 335.49 124.67 321.61 curveto
stroke
0 0 0 edgecolor
newpath 127.99 322.72 moveto
128.19 312.13 lineto
121.43 320.29 lineto
closepath fill
1 setlinewidth
solid
0 0 0 edgecolor
newpath 127.99 322.72 moveto
128.19 312.13 lineto
121.43 320.29 lineto
closepath stroke
0 0 0 edgecolor
14 /Times-Roman set_font
120.17 334.8 moveto 27 ([0,2]) alignedtext
grestore
% 3
gsave
0.54118 0.25098 1 nodecolor
34.17 113 18 18 ellipse_path fill
1 setlinewidth
filled
0.54118 0.25098 1 nodecolor
34.17 113 18 18 ellipse_path stroke
0 0 0 nodecolor
14 /Times-Roman set_font
30.67 109.3 moveto 7 (3) alignedtext
grestore
% 1->3
gsave
1 setlinewidth
0 0 0 edgecolor
newpath 50.03 283.32 moveto
35.35 271.27 13.3 250.15 4.17 226 curveto
-7.16 196.05 7.18 160.07 19.65 137.12 curveto
stroke
0 0 0 edgecolor
newpath 22.7 138.85 moveto
24.63 128.43 lineto
16.62 135.37 lineto
closepath fill
1 setlinewidth
solid
0 0 0 edgecolor
newpath 22.7 138.85 moveto
24.63 128.43 lineto
16.62 135.37 lineto
closepath stroke
0 0 0 edgecolor
14 /Times-Roman set_font
4.17 200.3 moveto 27 ([0,0]) alignedtext
grestore
% 4
gsave
0.023529 0.72157 1 nodecolor
64.17 204 18 18 ellipse_path fill
1 setlinewidth
filled
0.023529 0.72157 1 nodecolor
64.17 204 18 18 ellipse_path stroke
1 setlinewidth
filled
0.023529 0.72157 1 nodecolor
64.17 204 22 22 ellipse_path stroke
0 0 0 nodecolor
14 /Times-Roman set_font
60.67 200.3 moveto 7 (4) alignedtext
grestore
% 1->4
gsave
1 setlinewidth
0 0 0 edgecolor
newpath 64.17 276.84 moveto
64.17 265.44 64.17 250.13 64.17 236.58 curveto
stroke
0 0 0 edgecolor
newpath 67.67 236.19 moveto
64.17 226.19 lineto
60.67 236.19 lineto
closepath fill
1 setlinewidth
solid
0 0 0 edgecolor
newpath 67.67 236.19 moveto
64.17 226.19 lineto
60.67 236.19 lineto
closepath stroke
0 0 0 edgecolor
14 /Times-Roman set_font
64.17 247.8 moveto 27 ([1,0]) alignedtext
grestore
% 5
gsave
0.54118 0.25098 1 nodecolor
171.17 204 18 18 ellipse_path fill
1 setlinewidth
filled
0.54118 0.25098 1 nodecolor
171.17 204 18 18 ellipse_path stroke
0 0 0 nodecolor
14 /Times-Roman set_font
167.67 200.3 moveto 7 (5) alignedtext
grestore
% 2->5
gsave
1 setlinewidth
0 0 0 edgecolor
newpath 140.78 278.09 moveto
146.31 264.8 154.28 245.61 160.68 230.23 curveto
stroke
0 0 0 edgecolor
newpath 164 231.35 moveto
164.61 220.77 lineto
157.54 228.66 lineto
closepath fill
1 setlinewidth
solid
0 0 0 edgecolor
newpath 164 231.35 moveto
164.61 220.77 lineto
157.54 228.66 lineto
closepath stroke
0 0 0 edgecolor
14 /Times-Roman set_font
154.17 247.8 moveto 27 ([1,2]) alignedtext
grestore
% 3->3
gsave
1 setlinewidth
0 0 0 edgecolor
newpath 51.02 120.11 moveto
62.68 122.26 74.17 119.89 74.17 113 curveto
74.17 108.16 68.49 105.55 61.06 105.17 curveto
stroke
0 0 0 edgecolor
newpath 60.74 101.69 moveto
51.02 105.89 lineto
61.24 108.67 lineto
closepath fill
1 setlinewidth
solid
0 0 0 edgecolor
newpath 60.74 101.69 moveto
51.02 105.89 lineto
61.24 108.67 lineto
closepath stroke
0 0 0 edgecolor
14 /Times-Roman set_font
74.17 109.3 moveto 57 ([1,0] [2,1]) alignedtext
grestore
% 6
gsave
0.023529 0.72157 1 nodecolor
88.17 22 18 18 ellipse_path fill
1 setlinewidth
filled
0.023529 0.72157 1 nodecolor
88.17 22 18 18 ellipse_path stroke
1 setlinewidth
filled
0.023529 0.72157 1 nodecolor
88.17 22 22 22 ellipse_path stroke
0 0 0 nodecolor
14 /Times-Roman set_font
84.67 18.3 moveto 7 (6) alignedtext
grestore
% 3->6
gsave
1 setlinewidth
0 0 0 edgecolor
newpath 28.57 95.77 moveto
26.03 85.52 24.68 72.3 30.17 62 curveto
36.36 50.37 47.74 41.59 58.78 35.33 curveto
stroke
0 0 0 edgecolor
newpath 60.57 38.35 moveto
67.86 30.66 lineto
57.37 32.12 lineto
closepath fill
1 setlinewidth
solid
0 0 0 edgecolor
newpath 60.57 38.35 moveto
67.86 30.66 lineto
57.37 32.12 lineto
closepath stroke
0 0 0 edgecolor
14 /Times-Roman set_font
30.17 65.8 moveto 27 ([2,0]) alignedtext
grestore
% 4->4
gsave
1 setlinewidth
0 0 0 edgecolor
newpath 84.99 212.15 moveto
96.99 213.81 108.17 211.1 108.17 204 curveto
108.17 199.01 102.64 196.18 95.19 195.53 curveto
stroke
0 0 0 edgecolor
newpath 94.87 192.03 moveto
84.99 195.85 lineto
95.1 199.03 lineto
closepath fill
1 setlinewidth
solid
0 0 0 edgecolor
newpath 94.87 192.03 moveto
84.99 195.85 lineto
95.1 199.03 lineto
closepath stroke
0 0 0 edgecolor
14 /Times-Roman set_font
108.17 200.3 moveto 27 ([0,1]) alignedtext
grestore
% 5->3
gsave
1 setlinewidth
0 0 0 edgecolor
newpath 157.14 192.56 moveto
152.42 189.13 147.11 185.34 142.17 182 curveto
113.74 162.78 80.18 141.93 58.1 128.45 curveto
stroke
0 0 0 edgecolor
newpath 59.75 125.36 moveto
49.39 123.16 lineto
56.12 131.34 lineto
closepath fill
1 setlinewidth
solid
0 0 0 edgecolor
newpath 59.75 125.36 moveto
49.39 123.16 lineto
56.12 131.34 lineto
closepath stroke
0 0 0 edgecolor
14 /Times-Roman set_font
112.17 152.8 moveto 27 ([0,2]) alignedtext
grestore
% 5->5
gsave
1 setlinewidth
0 0 0 edgecolor
newpath 187.6 211.7 moveto
199.41 214.2 211.17 211.64 211.17 204 curveto
211.17 198.63 205.35 195.77 197.8 195.41 curveto
stroke
0 0 0 edgecolor
newpath 197.26 191.95 moveto
187.6 196.3 lineto
197.87 198.92 lineto
closepath fill
1 setlinewidth
solid
0 0 0 edgecolor
newpath 197.26 191.95 moveto
187.6 196.3 lineto
197.87 198.92 lineto
closepath stroke
0 0 0 edgecolor
14 /Times-Roman set_font
211.17 200.3 moveto 27 ([0,1]) alignedtext
grestore
% 5->6
gsave
1 setlinewidth
0 0 0 edgecolor
newpath 167.76 186.3 moveto
162.95 164.56 153.06 125.69 138.17 95 curveto
130.05 78.27 118.28 61.1 108.2 47.73 curveto
stroke
0 0 0 edgecolor
newpath 110.76 45.31 moveto
101.88 39.53 lineto
105.22 49.58 lineto
closepath fill
1 setlinewidth
solid
0 0 0 edgecolor
newpath 110.76 45.31 moveto
101.88 39.53 lineto
105.22 49.58 lineto
closepath stroke
0 0 0 edgecolor
14 /Times-Roman set_font
152.17 109.3 moveto 27 ([1,2]) alignedtext
grestore
% 6->3
gsave
1 setlinewidth
0 0 0 edgecolor
newpath 80.04 42.56 moveto
75.35 53.07 69.04 66.08 62.17 77 curveto
59.24 81.66 55.79 86.41 52.34 90.85 curveto
stroke
0 0 0 edgecolor
newpath 49.39 88.93 moveto
45.82 98.9 lineto
54.83 93.33 lineto
closepath fill
1 setlinewidth
solid
0 0 0 edgecolor
newpath 49.39 88.93 moveto
45.82 98.9 lineto
54.83 93.33 lineto
closepath stroke
0 0 0 edgecolor
14 /Times-Roman set_font
70.17 65.8 moveto 27 ([0,2]) alignedtext
grestore
% 6->6
gsave
1 setlinewidth
0 0 0 edgecolor
newpath 108.99 30.15 moveto
120.99 31.81 132.17 29.1 132.17 22 curveto
132.17 17.01 126.64 14.18 119.19 13.53 curveto
stroke
0 0 0 edgecolor
newpath 118.87 10.03 moveto
108.99 13.85 lineto
119.1 17.03 lineto
closepath fill
1 setlinewidth
solid
0 0 0 edgecolor
newpath 118.87 10.03 moveto
108.99 13.85 lineto
119.1 17.03 lineto
closepath stroke
0 0 0 edgecolor
14 /Times-Roman set_font
132.17 18.3 moveto 57 ([0,1] [1,2]) alignedtext
grestore
endpage
showpage
grestore
%%PageTrailer
%%EndPage: 1
%%Trailer
end
restore
%%EOF
