%!PS-Adobe-3.0 EPSF-3.0
%%Creator: graphviz version 2.36.0 (20140111.2315)
%%Title: FSA Utilities
%%Pages: 1
%%BoundingBox: 36 93 605 699
%%EndComments
save
%%BeginProlog
/DotDict 200 dict def
DotDict begin

/setupLatin1 {
mark
/EncodingVector 256 array def
 EncodingVector 0

ISOLatin1Encoding 0 255 getinterval putinterval
EncodingVector 45 /hyphen put

% Set up ISO Latin 1 character encoding
/starnetISO {
        dup dup findfont dup length dict begin
        { 1 index /FID ne { def }{ pop pop } ifelse
        } forall
        /Encoding EncodingVector def
        currentdict end definefont
} def
/Times-Roman starnetISO def
/Times-Italic starnetISO def
/Times-Bold starnetISO def
/Times-BoldItalic starnetISO def
/Helvetica starnetISO def
/Helvetica-Oblique starnetISO def
/Helvetica-Bold starnetISO def
/Helvetica-BoldOblique starnetISO def
/Courier starnetISO def
/Courier-Oblique starnetISO def
/Courier-Bold starnetISO def
/Courier-BoldOblique starnetISO def
cleartomark
} bind def

%%BeginResource: procset graphviz 0 0
/coord-font-family /Times-Roman def
/default-font-family /Times-Roman def
/coordfont coord-font-family findfont 8 scalefont def

/InvScaleFactor 1.0 def
/set_scale {
       dup 1 exch div /InvScaleFactor exch def
       scale
} bind def

% styles
/solid { [] 0 setdash } bind def
/dashed { [9 InvScaleFactor mul dup ] 0 setdash } bind def
/dotted { [1 InvScaleFactor mul 6 InvScaleFactor mul] 0 setdash } bind def
/invis {/fill {newpath} def /stroke {newpath} def /show {pop newpath} def} bind def
/bold { 2 setlinewidth } bind def
/filled { } bind def
/unfilled { } bind def
/rounded { } bind def
/diagonals { } bind def
/tapered { } bind def

% hooks for setting color 
/nodecolor { sethsbcolor } bind def
/edgecolor { sethsbcolor } bind def
/graphcolor { sethsbcolor } bind def
/nopcolor {pop pop pop} bind def

/beginpage {	% i j npages
	/npages exch def
	/j exch def
	/i exch def
	/str 10 string def
	npages 1 gt {
		gsave
			coordfont setfont
			0 0 moveto
			(\() show i str cvs show (,) show j str cvs show (\)) show
		grestore
	} if
} bind def

/set_font {
	findfont exch
	scalefont setfont
} def

% draw text fitted to its expected width
/alignedtext {			% width text
	/text exch def
	/width exch def
	gsave
		width 0 gt {
			[] 0 setdash
			text stringwidth pop width exch sub text length div 0 text ashow
		} if
	grestore
} def

/boxprim {				% xcorner ycorner xsize ysize
		4 2 roll
		moveto
		2 copy
		exch 0 rlineto
		0 exch rlineto
		pop neg 0 rlineto
		closepath
} bind def

/ellipse_path {
	/ry exch def
	/rx exch def
	/y exch def
	/x exch def
	matrix currentmatrix
	newpath
	x y translate
	rx ry scale
	0 0 1 0 360 arc
	setmatrix
} bind def

/endpage { showpage } bind def
/showpage { } def

/layercolorseq
	[	% layer color sequence - darkest to lightest
		[0 0 0]
		[.2 .8 .8]
		[.4 .8 .8]
		[.6 .8 .8]
		[.8 .8 .8]
	]
def

/layerlen layercolorseq length def

/setlayer {/maxlayer exch def /curlayer exch def
	layercolorseq curlayer 1 sub layerlen mod get
	aload pop sethsbcolor
	/nodecolor {nopcolor} def
	/edgecolor {nopcolor} def
	/graphcolor {nopcolor} def
} bind def

/onlayer { curlayer ne {invis} if } def

/onlayers {
	/myupper exch def
	/mylower exch def
	curlayer mylower lt
	curlayer myupper gt
	or
	{invis} if
} def

/curlayer 0 def

%%EndResource
%%EndProlog
%%BeginSetup
14 default-font-family set_font
1 setmiterlimit
% /arrowlength 10 def
% /arrowwidth 5 def

% make sure pdfmark is harmless for PS-interpreters other than Distiller
/pdfmark where {pop} {userdict /pdfmark /cleartomark load put} ifelse
% make '<<' and '>>' safe on PS Level 1 devices
/languagelevel where {pop languagelevel}{1} ifelse
2 lt {
    userdict (<<) cvn ([) cvn load put
    userdict (>>) cvn ([) cvn load put
} if

%%EndSetup
setupLatin1
%%Page: 1 1
%%PageBoundingBox: 36 93 605 699
%%PageOrientation: Portrait
0 0 1 beginpage
gsave
36 93 569 606 boxprim clip newpath
1 1 set_scale 0 rotate 40 97 translate
% start0
gsave
grestore
% 0
gsave
0.83922 0.48235 0.8549 nodecolor
479 502 17.59 18 ellipse_path fill
1 setlinewidth
filled
0.83922 0.48235 0.8549 nodecolor
479 502 17.59 18 ellipse_path stroke
1 setlinewidth
filled
0.83922 0.48235 0.8549 nodecolor
479 502 21.5 22 ellipse_path stroke
0 0 0 nodecolor
14 /Times-Roman set_font
475.5 498.3 moveto 7 (0) alignedtext
grestore
% start0->0
gsave
1 setlinewidth
0 0 0 edgecolor
newpath 479 561.75 moveto
479 553.67 479 543.78 479 534.44 curveto
stroke
0 0 0 edgecolor
newpath 482.5 534.25 moveto
479 524.25 lineto
475.5 534.25 lineto
closepath fill
1 setlinewidth
solid
0 0 0 edgecolor
newpath 482.5 534.25 moveto
479 524.25 lineto
475.5 534.25 lineto
closepath stroke
grestore
% 0->0
gsave
1 setlinewidth
0 0 0 edgecolor
newpath 499.8 509.14 moveto
511.35 510.47 522 508.09 522 502 curveto
522 497.81 516.97 495.38 510.07 494.7 curveto
stroke
0 0 0 edgecolor
newpath 509.74 491.2 moveto
499.8 494.86 lineto
509.85 498.2 lineto
closepath fill
1 setlinewidth
solid
0 0 0 edgecolor
newpath 509.74 491.2 moveto
499.8 494.86 lineto
509.85 498.2 lineto
closepath stroke
0 0 0 edgecolor
14 /Times-Roman set_font
522 498.3 moveto 27 ([0,0]) alignedtext
grestore
% 1
gsave
0.54118 0.25098 1 nodecolor
534 356 18 18 ellipse_path fill
1 setlinewidth
filled
0.54118 0.25098 1 nodecolor
534 356 18 18 ellipse_path stroke
0 0 0 nodecolor
14 /Times-Roman set_font
530.5 352.3 moveto 7 (1) alignedtext
grestore
% 0->1
gsave
1 setlinewidth
0 0 0 edgecolor
newpath 486.53 481.28 moveto
496.33 455.62 513.47 410.75 524.25 382.52 curveto
stroke
0 0 0 edgecolor
newpath 527.61 383.53 moveto
527.91 372.94 lineto
521.07 381.03 lineto
closepath fill
1 setlinewidth
solid
0 0 0 edgecolor
newpath 527.61 383.53 moveto
527.91 372.94 lineto
521.07 381.03 lineto
closepath stroke
0 0 0 edgecolor
14 /Times-Roman set_font
499 450.3 moveto 27 ([0,1]) alignedtext
grestore
% 2
gsave
0.54118 0.25098 1 nodecolor
422 410 18 18 ellipse_path fill
1 setlinewidth
filled
0.54118 0.25098 1 nodecolor
422 410 18 18 ellipse_path stroke
0 0 0 nodecolor
14 /Times-Roman set_font
418.5 406.3 moveto 7 (2) alignedtext
grestore
% 0->2
gsave
1 setlinewidth
0 0 0 edgecolor
newpath 467.74 483.22 moveto
458.93 469.3 446.59 449.83 436.95 434.61 curveto
stroke
0 0 0 edgecolor
newpath 439.66 432.34 moveto
431.35 425.77 lineto
433.75 436.09 lineto
closepath fill
1 setlinewidth
solid
0 0 0 edgecolor
newpath 439.66 432.34 moveto
431.35 425.77 lineto
433.75 436.09 lineto
closepath stroke
0 0 0 edgecolor
14 /Times-Roman set_font
453 450.3 moveto 27 ([0,2]) alignedtext
grestore
% 3
gsave
0.023529 0.72157 1 nodecolor
465 122 17.59 18 ellipse_path fill
1 setlinewidth
filled
0.023529 0.72157 1 nodecolor
465 122 17.59 18 ellipse_path stroke
1 setlinewidth
filled
0.023529 0.72157 1 nodecolor
465 122 21.5 22 ellipse_path stroke
0 0 0 nodecolor
14 /Times-Roman set_font
461.5 118.3 moveto 7 (3) alignedtext
grestore
% 1->3
gsave
1 setlinewidth
0 0 0 edgecolor
newpath 535.3 337.85 moveto
537.2 302.69 537.66 220.8 507 162 curveto
503.05 154.43 497.04 147.56 490.78 141.76 curveto
stroke
0 0 0 edgecolor
newpath 492.75 138.84 moveto
482.86 135.02 lineto
488.21 144.17 lineto
closepath fill
1 setlinewidth
solid
0 0 0 edgecolor
newpath 492.75 138.84 moveto
482.86 135.02 lineto
488.21 144.17 lineto
closepath stroke
0 0 0 edgecolor
14 /Times-Roman set_font
534 254.3 moveto 27 ([1,0]) alignedtext
grestore
% 2->3
gsave
1 setlinewidth
0 0 0 edgecolor
newpath 426.8 392.65 moveto
428.49 386.78 430.38 380.11 432 374 curveto
448.71 311.18 459.17 296.53 467 232 curveto
468.93 216.12 467.22 212 467 196 curveto
466.81 182.33 466.43 167.23 466.05 154.32 curveto
stroke
0 0 0 edgecolor
newpath 469.54 153.97 moveto
465.73 144.08 lineto
462.54 154.18 lineto
closepath fill
1 setlinewidth
solid
0 0 0 edgecolor
newpath 469.54 153.97 moveto
465.73 144.08 lineto
462.54 154.18 lineto
closepath stroke
0 0 0 edgecolor
14 /Times-Roman set_font
464 254.3 moveto 27 ([2,1]) alignedtext
grestore
% 4
gsave
0.54118 0.25098 1 nodecolor
278 302 18 18 ellipse_path fill
1 setlinewidth
filled
0.54118 0.25098 1 nodecolor
278 302 18 18 ellipse_path stroke
0 0 0 nodecolor
14 /Times-Roman set_font
274.5 298.3 moveto 7 (4) alignedtext
grestore
% 2->4
gsave
1 setlinewidth
0 0 0 edgecolor
newpath 403.7 408.17 moveto
378.82 406.09 334.3 398.89 307 374 curveto
294.37 362.48 287.11 344.66 283.02 329.76 curveto
stroke
0 0 0 edgecolor
newpath 286.41 328.91 moveto
280.66 320.02 lineto
279.61 330.56 lineto
closepath fill
1 setlinewidth
solid
0 0 0 edgecolor
newpath 286.41 328.91 moveto
280.66 320.02 lineto
279.61 330.56 lineto
closepath stroke
0 0 0 edgecolor
14 /Times-Roman set_font
307 352.3 moveto 27 ([0,0]) alignedtext
grestore
% 5
gsave
0.54118 0.25098 1 nodecolor
335 214 18 18 ellipse_path fill
1 setlinewidth
filled
0.54118 0.25098 1 nodecolor
335 214 18 18 ellipse_path stroke
0 0 0 nodecolor
14 /Times-Roman set_font
331.5 210.3 moveto 7 (5) alignedtext
grestore
% 2->5
gsave
1 setlinewidth
0 0 0 edgecolor
newpath 412.69 394.29 moveto
401.98 376.98 384.29 347.12 372 320 curveto
360.14 293.83 349.58 262.64 342.81 241.09 curveto
stroke
0 0 0 edgecolor
newpath 346.09 239.87 moveto
339.8 231.35 lineto
339.4 241.94 lineto
closepath fill
1 setlinewidth
solid
0 0 0 edgecolor
newpath 346.09 239.87 moveto
339.8 231.35 lineto
339.4 241.94 lineto
closepath stroke
0 0 0 edgecolor
14 /Times-Roman set_font
372 298.3 moveto 27 ([1,0]) alignedtext
grestore
% 6
gsave
0.54118 0.25098 1 nodecolor
393 214 18 18 ellipse_path fill
1 setlinewidth
filled
0.54118 0.25098 1 nodecolor
393 214 18 18 ellipse_path stroke
0 0 0 nodecolor
14 /Times-Roman set_font
389.5 210.3 moveto 7 (6) alignedtext
grestore
% 2->6
gsave
1 setlinewidth
0 0 0 edgecolor
newpath 419.48 392.12 moveto
414.44 358.44 403.11 282.64 397.03 241.98 curveto
stroke
0 0 0 edgecolor
newpath 400.48 241.35 moveto
395.54 231.98 lineto
393.55 242.38 lineto
closepath fill
1 setlinewidth
solid
0 0 0 edgecolor
newpath 400.48 241.35 moveto
395.54 231.98 lineto
393.55 242.38 lineto
closepath stroke
0 0 0 edgecolor
14 /Times-Roman set_font
409 298.3 moveto 27 ([1,1]) alignedtext
grestore
% 4->6
gsave
1 setlinewidth
0 0 0 edgecolor
newpath 292.1 290.45 moveto
311.67 275.82 347.28 249.19 370.54 231.8 curveto
stroke
0 0 0 edgecolor
newpath 372.87 234.42 moveto
378.78 225.63 lineto
368.68 228.82 lineto
closepath fill
1 setlinewidth
solid
0 0 0 edgecolor
newpath 372.87 234.42 moveto
378.78 225.63 lineto
368.68 228.82 lineto
closepath stroke
0 0 0 edgecolor
14 /Times-Roman set_font
346 254.3 moveto 27 ([2,1]) alignedtext
grestore
% 7
gsave
0.54118 0.25098 1 nodecolor
161 214 18 18 ellipse_path fill
1 setlinewidth
filled
0.54118 0.25098 1 nodecolor
161 214 18 18 ellipse_path stroke
0 0 0 nodecolor
14 /Times-Roman set_font
157.5 210.3 moveto 7 (7) alignedtext
grestore
% 4->7
gsave
1 setlinewidth
0 0 0 edgecolor
newpath 260.62 297.03 moveto
242.42 292.18 213.77 282.5 194 266 curveto
185.38 258.8 178.22 248.77 172.8 239.5 curveto
stroke
0 0 0 edgecolor
newpath 175.82 237.73 moveto
167.96 230.62 lineto
169.67 241.08 lineto
closepath fill
1 setlinewidth
solid
0 0 0 edgecolor
newpath 175.82 237.73 moveto
167.96 230.62 lineto
169.67 241.08 lineto
closepath stroke
0 0 0 edgecolor
14 /Times-Roman set_font
194 254.3 moveto 57 ([1,0] [2,2]) alignedtext
grestore
% 8
gsave
0.54118 0.25098 1 nodecolor
260 122 18 18 ellipse_path fill
1 setlinewidth
filled
0.54118 0.25098 1 nodecolor
260 122 18 18 ellipse_path stroke
0 0 0 nodecolor
14 /Times-Roman set_font
256.5 118.3 moveto 7 (8) alignedtext
grestore
% 4->8
gsave
1 setlinewidth
0 0 0 edgecolor
newpath 276.27 283.93 moveto
273.14 252.97 266.5 187.3 262.74 150.13 curveto
stroke
0 0 0 edgecolor
newpath 266.21 149.61 moveto
261.72 140.02 lineto
259.24 150.32 lineto
closepath fill
1 setlinewidth
solid
0 0 0 edgecolor
newpath 266.21 149.61 moveto
261.72 140.02 lineto
259.24 150.32 lineto
closepath stroke
0 0 0 edgecolor
14 /Times-Roman set_font
271 210.3 moveto 27 ([2,0]) alignedtext
grestore
% 5->3
gsave
1 setlinewidth
0 0 0 edgecolor
newpath 346.84 200.23 moveto
357.46 189.24 373.82 173.4 390 162 curveto
404.33 151.91 421.62 142.74 435.98 135.84 curveto
stroke
0 0 0 edgecolor
newpath 437.81 138.84 moveto
445.38 131.43 lineto
434.84 132.5 lineto
closepath fill
1 setlinewidth
solid
0 0 0 edgecolor
newpath 437.81 138.84 moveto
445.38 131.43 lineto
434.84 132.5 lineto
closepath stroke
0 0 0 edgecolor
14 /Times-Roman set_font
390 166.3 moveto 27 ([0,1]) alignedtext
grestore
% 5->8
gsave
1 setlinewidth
0 0 0 edgecolor
newpath 323.93 199.72 moveto
311.75 185.1 291.98 161.38 277.65 144.18 curveto
stroke
0 0 0 edgecolor
newpath 280.2 141.78 moveto
271.11 136.33 lineto
274.83 146.26 lineto
closepath fill
1 setlinewidth
solid
0 0 0 edgecolor
newpath 280.2 141.78 moveto
271.11 136.33 lineto
274.83 146.26 lineto
closepath stroke
0 0 0 edgecolor
14 /Times-Roman set_font
305 166.3 moveto 27 ([0,2]) alignedtext
grestore
% 6->3
gsave
1 setlinewidth
0 0 0 edgecolor
newpath 403.94 199.33 moveto
414.86 185.68 431.89 164.39 445.19 147.76 curveto
stroke
0 0 0 edgecolor
newpath 448.24 149.55 moveto
451.76 139.55 lineto
442.78 145.18 lineto
closepath fill
1 setlinewidth
solid
0 0 0 edgecolor
newpath 448.24 149.55 moveto
451.76 139.55 lineto
442.78 145.18 lineto
closepath stroke
0 0 0 edgecolor
14 /Times-Roman set_font
433 166.3 moveto 27 ([1,0]) alignedtext
grestore
% 6->6
gsave
1 setlinewidth
0 0 0 edgecolor
newpath 409.44 221.36 moveto
421.24 223.76 433 221.3 433 214 curveto
433 208.86 427.19 206.13 419.63 205.79 curveto
stroke
0 0 0 edgecolor
newpath 419.11 202.32 moveto
409.44 206.64 lineto
419.69 209.29 lineto
closepath fill
1 setlinewidth
solid
0 0 0 edgecolor
newpath 419.11 202.32 moveto
409.44 206.64 lineto
419.69 209.29 lineto
closepath stroke
0 0 0 edgecolor
14 /Times-Roman set_font
433 210.3 moveto 27 ([0,0]) alignedtext
grestore
% 7->7
gsave
1 setlinewidth
0 0 0 edgecolor
newpath 177.44 221.36 moveto
189.24 223.76 201 221.3 201 214 curveto
201 208.86 195.19 206.13 187.63 205.79 curveto
stroke
0 0 0 edgecolor
newpath 187.11 202.32 moveto
177.44 206.64 lineto
187.69 209.29 lineto
closepath fill
1 setlinewidth
solid
0 0 0 edgecolor
newpath 187.11 202.32 moveto
177.44 206.64 lineto
187.69 209.29 lineto
closepath stroke
0 0 0 edgecolor
14 /Times-Roman set_font
201 210.3 moveto 27 ([0,0]) alignedtext
grestore
% 7->8
gsave
1 setlinewidth
0 0 0 edgecolor
newpath 173.94 201.23 moveto
190.62 186.07 219.8 159.55 239.51 141.63 curveto
stroke
0 0 0 edgecolor
newpath 242.01 144.09 moveto
247.05 134.77 lineto
237.3 138.91 lineto
closepath fill
1 setlinewidth
solid
0 0 0 edgecolor
newpath 242.01 144.09 moveto
247.05 134.77 lineto
237.3 138.91 lineto
closepath stroke
0 0 0 edgecolor
14 /Times-Roman set_font
217 166.3 moveto 27 ([1,0]) alignedtext
grestore
% 9
gsave
0.54118 0.25098 1 nodecolor
18 122 18 18 ellipse_path fill
1 setlinewidth
filled
0.54118 0.25098 1 nodecolor
18 122 18 18 ellipse_path stroke
0 0 0 nodecolor
14 /Times-Roman set_font
14.5 118.3 moveto 7 (9) alignedtext
grestore
% 7->9
gsave
1 setlinewidth
0 0 0 edgecolor
newpath 145.97 203.54 moveto
121.01 187.83 70.86 156.27 41.3 137.66 curveto
stroke
0 0 0 edgecolor
newpath 43.16 134.7 moveto
32.83 132.33 lineto
39.43 140.62 lineto
closepath fill
1 setlinewidth
solid
0 0 0 edgecolor
newpath 43.16 134.7 moveto
32.83 132.33 lineto
39.43 140.62 lineto
closepath stroke
0 0 0 edgecolor
14 /Times-Roman set_font
103 166.3 moveto 57 ([1,1] [2,2]) alignedtext
grestore
% 10
gsave
0.023529 0.72157 1 nodecolor
185 24 19.29 19.5 ellipse_path fill
1 setlinewidth
filled
0.023529 0.72157 1 nodecolor
185 24 19.29 19.5 ellipse_path stroke
1 setlinewidth
filled
0.023529 0.72157 1 nodecolor
185 24 23.25 23.5 ellipse_path stroke
0 0 0 nodecolor
14 /Times-Roman set_font
178 20.3 moveto 14 (10) alignedtext
grestore
% 7->10
gsave
1 setlinewidth
0 0 0 edgecolor
newpath 163.17 195.98 moveto
167.15 164.79 175.69 97.95 180.83 57.7 curveto
stroke
0 0 0 edgecolor
newpath 184.32 57.95 moveto
182.12 47.59 lineto
177.38 57.07 lineto
closepath fill
1 setlinewidth
solid
0 0 0 edgecolor
newpath 184.32 57.95 moveto
182.12 47.59 lineto
177.38 57.07 lineto
closepath stroke
0 0 0 edgecolor
14 /Times-Roman set_font
176 118.3 moveto 27 ([2,1]) alignedtext
grestore
% 8->10
gsave
1 setlinewidth
0 0 0 edgecolor
newpath 249.25 107.25 moveto
237.8 92.59 219.41 69.04 205.23 50.89 curveto
stroke
0 0 0 edgecolor
newpath 207.97 48.71 moveto
199.05 42.98 lineto
202.45 53.02 lineto
closepath fill
1 setlinewidth
solid
0 0 0 edgecolor
newpath 207.97 48.71 moveto
199.05 42.98 lineto
202.45 53.02 lineto
closepath stroke
0 0 0 edgecolor
14 /Times-Roman set_font
230 70.3 moveto 27 ([0,2]) alignedtext
grestore
% 9->9
gsave
1 setlinewidth
0 0 0 edgecolor
newpath 34.44 130.03 moveto
46.24 132.65 58 129.97 58 122 curveto
58 116.4 52.19 113.41 44.63 113.04 curveto
stroke
0 0 0 edgecolor
newpath 44.08 109.58 moveto
34.44 113.97 lineto
44.71 116.55 lineto
closepath fill
1 setlinewidth
solid
0 0 0 edgecolor
newpath 44.08 109.58 moveto
34.44 113.97 lineto
44.71 116.55 lineto
closepath stroke
0 0 0 edgecolor
14 /Times-Roman set_font
58 118.3 moveto 87 ([0,0] [1,1] [2,2]) alignedtext
grestore
% 9->10
gsave
1 setlinewidth
0 0 0 edgecolor
newpath 33.07 111.91 moveto
51.4 100.9 83.33 81.85 111 66 curveto
125.71 57.58 142.19 48.42 155.86 40.9 curveto
stroke
0 0 0 edgecolor
newpath 157.73 43.86 moveto
164.81 35.99 lineto
154.36 37.73 lineto
closepath fill
1 setlinewidth
solid
0 0 0 edgecolor
newpath 157.73 43.86 moveto
164.81 35.99 lineto
154.36 37.73 lineto
closepath stroke
0 0 0 edgecolor
14 /Times-Roman set_font
111 70.3 moveto 57 ([1,0] [2,1]) alignedtext
grestore
% 10->10
gsave
1 setlinewidth
0 0 0 edgecolor
newpath 206.76 32.93 moveto
218.86 34.59 230 31.62 230 24 curveto
230 18.58 224.37 15.52 216.77 14.79 curveto
stroke
0 0 0 edgecolor
newpath 216.66 11.29 moveto
206.76 15.07 lineto
216.86 18.29 lineto
closepath fill
1 setlinewidth
solid
0 0 0 edgecolor
newpath 216.66 11.29 moveto
206.76 15.07 lineto
216.86 18.29 lineto
closepath stroke
0 0 0 edgecolor
14 /Times-Roman set_font
230 20.3 moveto 27 ([0,2]) alignedtext
grestore
endpage
showpage
grestore
%%PageTrailer
%%EndPage: 1
%%Trailer
end
restore
%%EOF
