%!PS-Adobe-3.0 EPSF-3.0
%%Creator: graphviz version 2.36.0 (20140111.2315)
%%Title: FSA Utilities
%%Pages: 1
%%BoundingBox: 212 139 400 653
%%EndComments
save
%%BeginProlog
/DotDict 200 dict def
DotDict begin

/setupLatin1 {
mark
/EncodingVector 256 array def
 EncodingVector 0

ISOLatin1Encoding 0 255 getinterval putinterval
EncodingVector 45 /hyphen put

% Set up ISO Latin 1 character encoding
/starnetISO {
        dup dup findfont dup length dict begin
        { 1 index /FID ne { def }{ pop pop } ifelse
        } forall
        /Encoding EncodingVector def
        currentdict end definefont
} def
/Times-Roman starnetISO def
/Times-Italic starnetISO def
/Times-Bold starnetISO def
/Times-BoldItalic starnetISO def
/Helvetica starnetISO def
/Helvetica-Oblique starnetISO def
/Helvetica-Bold starnetISO def
/Helvetica-BoldOblique starnetISO def
/Courier starnetISO def
/Courier-Oblique starnetISO def
/Courier-Bold starnetISO def
/Courier-BoldOblique starnetISO def
cleartomark
} bind def

%%BeginResource: procset graphviz 0 0
/coord-font-family /Times-Roman def
/default-font-family /Times-Roman def
/coordfont coord-font-family findfont 8 scalefont def

/InvScaleFactor 1.0 def
/set_scale {
       dup 1 exch div /InvScaleFactor exch def
       scale
} bind def

% styles
/solid { [] 0 setdash } bind def
/dashed { [9 InvScaleFactor mul dup ] 0 setdash } bind def
/dotted { [1 InvScaleFactor mul 6 InvScaleFactor mul] 0 setdash } bind def
/invis {/fill {newpath} def /stroke {newpath} def /show {pop newpath} def} bind def
/bold { 2 setlinewidth } bind def
/filled { } bind def
/unfilled { } bind def
/rounded { } bind def
/diagonals { } bind def
/tapered { } bind def

% hooks for setting color 
/nodecolor { sethsbcolor } bind def
/edgecolor { sethsbcolor } bind def
/graphcolor { sethsbcolor } bind def
/nopcolor {pop pop pop} bind def

/beginpage {	% i j npages
	/npages exch def
	/j exch def
	/i exch def
	/str 10 string def
	npages 1 gt {
		gsave
			coordfont setfont
			0 0 moveto
			(\() show i str cvs show (,) show j str cvs show (\)) show
		grestore
	} if
} bind def

/set_font {
	findfont exch
	scalefont setfont
} def

% draw text fitted to its expected width
/alignedtext {			% width text
	/text exch def
	/width exch def
	gsave
		width 0 gt {
			[] 0 setdash
			text stringwidth pop width exch sub text length div 0 text ashow
		} if
	grestore
} def

/boxprim {				% xcorner ycorner xsize ysize
		4 2 roll
		moveto
		2 copy
		exch 0 rlineto
		0 exch rlineto
		pop neg 0 rlineto
		closepath
} bind def

/ellipse_path {
	/ry exch def
	/rx exch def
	/y exch def
	/x exch def
	matrix currentmatrix
	newpath
	x y translate
	rx ry scale
	0 0 1 0 360 arc
	setmatrix
} bind def

/endpage { showpage } bind def
/showpage { } def

/layercolorseq
	[	% layer color sequence - darkest to lightest
		[0 0 0]
		[.2 .8 .8]
		[.4 .8 .8]
		[.6 .8 .8]
		[.8 .8 .8]
	]
def

/layerlen layercolorseq length def

/setlayer {/maxlayer exch def /curlayer exch def
	layercolorseq curlayer 1 sub layerlen mod get
	aload pop sethsbcolor
	/nodecolor {nopcolor} def
	/edgecolor {nopcolor} def
	/graphcolor {nopcolor} def
} bind def

/onlayer { curlayer ne {invis} if } def

/onlayers {
	/myupper exch def
	/mylower exch def
	curlayer mylower lt
	curlayer myupper gt
	or
	{invis} if
} def

/curlayer 0 def

%%EndResource
%%EndProlog
%%BeginSetup
14 default-font-family set_font
1 setmiterlimit
% /arrowlength 10 def
% /arrowwidth 5 def

% make sure pdfmark is harmless for PS-interpreters other than Distiller
/pdfmark where {pop} {userdict /pdfmark /cleartomark load put} ifelse
% make '<<' and '>>' safe on PS Level 1 devices
/languagelevel where {pop languagelevel}{1} ifelse
2 lt {
    userdict (<<) cvn ([) cvn load put
    userdict (>>) cvn ([) cvn load put
} if

%%EndSetup
setupLatin1
%%Page: 1 1
%%PageBoundingBox: 212 139 400 653
%%PageOrientation: Portrait
0 0 1 beginpage
gsave
212 139 188 514 boxprim clip newpath
1 1 set_scale 0 rotate 216 143 translate
% start0
gsave
grestore
% 0
gsave
0.83922 0.48235 0.8549 nodecolor
66 410 17.59 18 ellipse_path fill
1 setlinewidth
filled
0.83922 0.48235 0.8549 nodecolor
66 410 17.59 18 ellipse_path stroke
1 setlinewidth
filled
0.83922 0.48235 0.8549 nodecolor
66 410 21.5 22 ellipse_path stroke
0 0 0 nodecolor
14 /Times-Roman set_font
62.5 406.3 moveto 7 (0) alignedtext
grestore
% start0->0
gsave
1 setlinewidth
0 0 0 edgecolor
newpath 66 469.75 moveto
66 461.67 66 451.78 66 442.44 curveto
stroke
0 0 0 edgecolor
newpath 69.5 442.25 moveto
66 432.25 lineto
62.5 442.25 lineto
closepath fill
1 setlinewidth
solid
0 0 0 edgecolor
newpath 69.5 442.25 moveto
66 432.25 lineto
62.5 442.25 lineto
closepath stroke
grestore
% 0->0
gsave
1 setlinewidth
0 0 0 edgecolor
newpath 86.8 417.14 moveto
98.35 418.47 109 416.09 109 410 curveto
109 405.81 103.97 403.38 97.07 402.7 curveto
stroke
0 0 0 edgecolor
newpath 96.74 399.2 moveto
86.8 402.86 lineto
96.85 406.2 lineto
closepath fill
1 setlinewidth
solid
0 0 0 edgecolor
newpath 96.74 399.2 moveto
86.8 402.86 lineto
96.85 406.2 lineto
closepath stroke
0 0 0 edgecolor
14 /Times-Roman set_font
109 406.3 moveto 27 ([0,0]) alignedtext
grestore
% 1
gsave
0.54118 0.25098 1 nodecolor
66 318 18 18 ellipse_path fill
1 setlinewidth
filled
0.54118 0.25098 1 nodecolor
66 318 18 18 ellipse_path stroke
0 0 0 nodecolor
14 /Times-Roman set_font
62.5 314.3 moveto 7 (1) alignedtext
grestore
% 0->1
gsave
1 setlinewidth
0 0 0 edgecolor
newpath 66 387.67 moveto
66 375.28 66 359.55 66 346.27 curveto
stroke
0 0 0 edgecolor
newpath 69.5 346.26 moveto
66 336.26 lineto
62.5 346.26 lineto
closepath fill
1 setlinewidth
solid
0 0 0 edgecolor
newpath 69.5 346.26 moveto
66 336.26 lineto
62.5 346.26 lineto
closepath stroke
0 0 0 edgecolor
14 /Times-Roman set_font
66 358.3 moveto 27 ([0,1]) alignedtext
grestore
% 2
gsave
0.54118 0.25098 1 nodecolor
39 230 18 18 ellipse_path fill
1 setlinewidth
filled
0.54118 0.25098 1 nodecolor
39 230 18 18 ellipse_path stroke
0 0 0 nodecolor
14 /Times-Roman set_font
35.5 226.3 moveto 7 (2) alignedtext
grestore
% 1->2
gsave
1 setlinewidth
0 0 0 edgecolor
newpath 53.47 304.93 moveto
47.89 298.68 41.92 290.57 39 282 curveto
36.45 274.51 35.68 266.03 35.75 258.17 curveto
stroke
0 0 0 edgecolor
newpath 39.26 258.16 moveto
36.3 247.98 lineto
32.27 257.78 lineto
closepath fill
1 setlinewidth
solid
0 0 0 edgecolor
newpath 39.26 258.16 moveto
36.3 247.98 lineto
32.27 257.78 lineto
closepath stroke
0 0 0 edgecolor
14 /Times-Roman set_font
39 270.3 moveto 27 ([0,0]) alignedtext
grestore
% 3
gsave
0.023529 0.72157 1 nodecolor
134 172 17.59 18 ellipse_path fill
1 setlinewidth
filled
0.023529 0.72157 1 nodecolor
134 172 17.59 18 ellipse_path stroke
1 setlinewidth
filled
0.023529 0.72157 1 nodecolor
134 172 21.5 22 ellipse_path stroke
0 0 0 nodecolor
14 /Times-Roman set_font
130.5 168.3 moveto 7 (3) alignedtext
grestore
% 1->3
gsave
1 setlinewidth
0 0 0 edgecolor
newpath 73.41 301.32 moveto
84.71 277.37 106.45 231.34 120.58 201.42 curveto
stroke
0 0 0 edgecolor
newpath 123.77 202.85 moveto
124.88 192.32 lineto
117.44 199.86 lineto
closepath fill
1 setlinewidth
solid
0 0 0 edgecolor
newpath 123.77 202.85 moveto
124.88 192.32 lineto
117.44 199.86 lineto
closepath stroke
0 0 0 edgecolor
14 /Times-Roman set_font
89 270.3 moveto 27 ([1,0]) alignedtext
grestore
% 4
gsave
0.54118 0.25098 1 nodecolor
18 114 18 18 ellipse_path fill
1 setlinewidth
filled
0.54118 0.25098 1 nodecolor
18 114 18 18 ellipse_path stroke
0 0 0 nodecolor
14 /Times-Roman set_font
14.5 110.3 moveto 7 (4) alignedtext
grestore
% 2->4
gsave
1 setlinewidth
0 0 0 edgecolor
newpath 35.9 212.18 moveto
32.49 193.66 26.96 163.62 22.94 141.83 curveto
stroke
0 0 0 edgecolor
newpath 26.37 141.09 moveto
21.11 131.89 lineto
19.48 142.36 lineto
closepath fill
1 setlinewidth
solid
0 0 0 edgecolor
newpath 26.37 141.09 moveto
21.11 131.89 lineto
19.48 142.36 lineto
closepath stroke
0 0 0 edgecolor
14 /Times-Roman set_font
33 168.3 moveto 27 ([1,0]) alignedtext
grestore
% 5
gsave
0.023529 0.72157 1 nodecolor
110 22 17.59 18 ellipse_path fill
1 setlinewidth
filled
0.023529 0.72157 1 nodecolor
110 22 17.59 18 ellipse_path stroke
1 setlinewidth
filled
0.023529 0.72157 1 nodecolor
110 22 21.5 22 ellipse_path stroke
0 0 0 nodecolor
14 /Times-Roman set_font
106.5 18.3 moveto 7 (5) alignedtext
grestore
% 3->5
gsave
1 setlinewidth
0 0 0 edgecolor
newpath 130.66 149.98 moveto
128.27 134.94 124.96 114.22 122 96 curveto
119.74 82.09 117.22 66.7 115.07 53.65 curveto
stroke
0 0 0 edgecolor
newpath 118.52 53.06 moveto
113.44 43.76 lineto
111.61 54.2 lineto
closepath fill
1 setlinewidth
solid
0 0 0 edgecolor
newpath 118.52 53.06 moveto
113.44 43.76 lineto
111.61 54.2 lineto
closepath stroke
0 0 0 edgecolor
14 /Times-Roman set_font
127 110.3 moveto 27 ([0,0]) alignedtext
grestore
% 4->4
gsave
1 setlinewidth
0 0 0 edgecolor
newpath 34.44 121.36 moveto
46.24 123.76 58 121.3 58 114 curveto
58 108.86 52.19 106.13 44.63 105.79 curveto
stroke
0 0 0 edgecolor
newpath 44.11 102.32 moveto
34.44 106.64 lineto
44.69 109.29 lineto
closepath fill
1 setlinewidth
solid
0 0 0 edgecolor
newpath 44.11 102.32 moveto
34.44 106.64 lineto
44.69 109.29 lineto
closepath stroke
0 0 0 edgecolor
14 /Times-Roman set_font
58 110.3 moveto 57 ([0,0] [1,1]) alignedtext
grestore
% 4->5
gsave
1 setlinewidth
0 0 0 edgecolor
newpath 30.41 100.86 moveto
45 86.59 69.51 62.61 87.48 45.03 curveto
stroke
0 0 0 edgecolor
newpath 90.03 47.43 moveto
94.73 37.93 lineto
85.14 42.43 lineto
closepath fill
1 setlinewidth
solid
0 0 0 edgecolor
newpath 90.03 47.43 moveto
94.73 37.93 lineto
85.14 42.43 lineto
closepath stroke
0 0 0 edgecolor
14 /Times-Roman set_font
69 66.3 moveto 27 ([1,0]) alignedtext
grestore
% 5->5
gsave
1 setlinewidth
0 0 0 edgecolor
newpath 129.9 30.44 moveto
141.8 32.31 153 29.5 153 22 curveto
153 16.73 147.46 13.77 140.04 13.13 curveto
stroke
0 0 0 edgecolor
newpath 139.75 9.64 moveto
129.9 13.56 lineto
140.04 16.63 lineto
closepath fill
1 setlinewidth
solid
0 0 0 edgecolor
newpath 139.75 9.64 moveto
129.9 13.56 lineto
140.04 16.63 lineto
closepath stroke
0 0 0 edgecolor
14 /Times-Roman set_font
153 18.3 moveto 27 ([0,1]) alignedtext
grestore
endpage
showpage
grestore
%%PageTrailer
%%EndPage: 1
%%Trailer
end
restore
%%EOF
