%!PS-Adobe-3.0 EPSF-3.0
%%Creator: graphviz version 2.36.0 (20140111.2315)
%%Title: FSA Utilities
%%Pages: 1
%%BoundingBox: 133 105 479 687
%%EndComments
save
%%BeginProlog
/DotDict 200 dict def
DotDict begin

/setupLatin1 {
mark
/EncodingVector 256 array def
 EncodingVector 0

ISOLatin1Encoding 0 255 getinterval putinterval
EncodingVector 45 /hyphen put

% Set up ISO Latin 1 character encoding
/starnetISO {
        dup dup findfont dup length dict begin
        { 1 index /FID ne { def }{ pop pop } ifelse
        } forall
        /Encoding EncodingVector def
        currentdict end definefont
} def
/Times-Roman starnetISO def
/Times-Italic starnetISO def
/Times-Bold starnetISO def
/Times-BoldItalic starnetISO def
/Helvetica starnetISO def
/Helvetica-Oblique starnetISO def
/Helvetica-Bold starnetISO def
/Helvetica-BoldOblique starnetISO def
/Courier starnetISO def
/Courier-Oblique starnetISO def
/Courier-Bold starnetISO def
/Courier-BoldOblique starnetISO def
cleartomark
} bind def

%%BeginResource: procset graphviz 0 0
/coord-font-family /Times-Roman def
/default-font-family /Times-Roman def
/coordfont coord-font-family findfont 8 scalefont def

/InvScaleFactor 1.0 def
/set_scale {
       dup 1 exch div /InvScaleFactor exch def
       scale
} bind def

% styles
/solid { [] 0 setdash } bind def
/dashed { [9 InvScaleFactor mul dup ] 0 setdash } bind def
/dotted { [1 InvScaleFactor mul 6 InvScaleFactor mul] 0 setdash } bind def
/invis {/fill {newpath} def /stroke {newpath} def /show {pop newpath} def} bind def
/bold { 2 setlinewidth } bind def
/filled { } bind def
/unfilled { } bind def
/rounded { } bind def
/diagonals { } bind def
/tapered { } bind def

% hooks for setting color 
/nodecolor { sethsbcolor } bind def
/edgecolor { sethsbcolor } bind def
/graphcolor { sethsbcolor } bind def
/nopcolor {pop pop pop} bind def

/beginpage {	% i j npages
	/npages exch def
	/j exch def
	/i exch def
	/str 10 string def
	npages 1 gt {
		gsave
			coordfont setfont
			0 0 moveto
			(\() show i str cvs show (,) show j str cvs show (\)) show
		grestore
	} if
} bind def

/set_font {
	findfont exch
	scalefont setfont
} def

% draw text fitted to its expected width
/alignedtext {			% width text
	/text exch def
	/width exch def
	gsave
		width 0 gt {
			[] 0 setdash
			text stringwidth pop width exch sub text length div 0 text ashow
		} if
	grestore
} def

/boxprim {				% xcorner ycorner xsize ysize
		4 2 roll
		moveto
		2 copy
		exch 0 rlineto
		0 exch rlineto
		pop neg 0 rlineto
		closepath
} bind def

/ellipse_path {
	/ry exch def
	/rx exch def
	/y exch def
	/x exch def
	matrix currentmatrix
	newpath
	x y translate
	rx ry scale
	0 0 1 0 360 arc
	setmatrix
} bind def

/endpage { showpage } bind def
/showpage { } def

/layercolorseq
	[	% layer color sequence - darkest to lightest
		[0 0 0]
		[.2 .8 .8]
		[.4 .8 .8]
		[.6 .8 .8]
		[.8 .8 .8]
	]
def

/layerlen layercolorseq length def

/setlayer {/maxlayer exch def /curlayer exch def
	layercolorseq curlayer 1 sub layerlen mod get
	aload pop sethsbcolor
	/nodecolor {nopcolor} def
	/edgecolor {nopcolor} def
	/graphcolor {nopcolor} def
} bind def

/onlayer { curlayer ne {invis} if } def

/onlayers {
	/myupper exch def
	/mylower exch def
	curlayer mylower lt
	curlayer myupper gt
	or
	{invis} if
} def

/curlayer 0 def

%%EndResource
%%EndProlog
%%BeginSetup
14 default-font-family set_font
1 setmiterlimit
% /arrowlength 10 def
% /arrowwidth 5 def

% make sure pdfmark is harmless for PS-interpreters other than Distiller
/pdfmark where {pop} {userdict /pdfmark /cleartomark load put} ifelse
% make '<<' and '>>' safe on PS Level 1 devices
/languagelevel where {pop languagelevel}{1} ifelse
2 lt {
    userdict (<<) cvn ([) cvn load put
    userdict (>>) cvn ([) cvn load put
} if

%%EndSetup
setupLatin1
%%Page: 1 1
%%PageBoundingBox: 133 105 479 687
%%PageOrientation: Portrait
0 0 1 beginpage
gsave
133 105 346 582 boxprim clip newpath
1 1 set_scale 0 rotate 137 109 translate
% start0
gsave
grestore
% 0
gsave
0.83922 0.48235 0.8549 nodecolor
140 478 17.59 18 ellipse_path fill
1 setlinewidth
filled
0.83922 0.48235 0.8549 nodecolor
140 478 17.59 18 ellipse_path stroke
1 setlinewidth
filled
0.83922 0.48235 0.8549 nodecolor
140 478 21.5 22 ellipse_path stroke
0 0 0 nodecolor
14 /Times-Roman set_font
136.5 474.3 moveto 7 (0) alignedtext
grestore
% start0->0
gsave
1 setlinewidth
0 0 0 edgecolor
newpath 140 537.75 moveto
140 529.67 140 519.78 140 510.44 curveto
stroke
0 0 0 edgecolor
newpath 143.5 510.25 moveto
140 500.25 lineto
136.5 510.25 lineto
closepath fill
1 setlinewidth
solid
0 0 0 edgecolor
newpath 143.5 510.25 moveto
140 500.25 lineto
136.5 510.25 lineto
closepath stroke
grestore
% 0->0
gsave
1 setlinewidth
0 0 0 edgecolor
newpath 160.8 485.14 moveto
172.35 486.47 183 484.09 183 478 curveto
183 473.81 177.97 471.38 171.07 470.7 curveto
stroke
0 0 0 edgecolor
newpath 170.74 467.2 moveto
160.8 470.86 lineto
170.85 474.2 lineto
closepath fill
1 setlinewidth
solid
0 0 0 edgecolor
newpath 170.74 467.2 moveto
160.8 470.86 lineto
170.85 474.2 lineto
closepath stroke
0 0 0 edgecolor
14 /Times-Roman set_font
183 474.3 moveto 27 ([0,0]) alignedtext
grestore
% 1
gsave
0.54118 0.25098 1 nodecolor
140 386 18 18 ellipse_path fill
1 setlinewidth
filled
0.54118 0.25098 1 nodecolor
140 386 18 18 ellipse_path stroke
0 0 0 nodecolor
14 /Times-Roman set_font
136.5 382.3 moveto 7 (1) alignedtext
grestore
% 0->1
gsave
1 setlinewidth
0 0 0 edgecolor
newpath 140 455.67 moveto
140 443.28 140 427.55 140 414.27 curveto
stroke
0 0 0 edgecolor
newpath 143.5 414.26 moveto
140 404.26 lineto
136.5 414.26 lineto
closepath fill
1 setlinewidth
solid
0 0 0 edgecolor
newpath 143.5 414.26 moveto
140 404.26 lineto
136.5 414.26 lineto
closepath stroke
0 0 0 edgecolor
14 /Times-Roman set_font
140 426.3 moveto 27 ([0,1]) alignedtext
grestore
% 2
gsave
0.54118 0.25098 1 nodecolor
85 298 18 18 ellipse_path fill
1 setlinewidth
filled
0.54118 0.25098 1 nodecolor
85 298 18 18 ellipse_path stroke
0 0 0 nodecolor
14 /Times-Roman set_font
81.5 294.3 moveto 7 (2) alignedtext
grestore
% 1->2
gsave
1 setlinewidth
0 0 0 edgecolor
newpath 126.22 374.21 moveto
118.82 367.82 110 359.2 104 350 curveto
99.16 342.57 95.31 333.74 92.38 325.53 curveto
stroke
0 0 0 edgecolor
newpath 95.69 324.37 moveto
89.26 315.95 lineto
89.03 326.55 lineto
closepath fill
1 setlinewidth
solid
0 0 0 edgecolor
newpath 95.69 324.37 moveto
89.26 315.95 lineto
89.03 326.55 lineto
closepath stroke
0 0 0 edgecolor
14 /Times-Roman set_font
104 338.3 moveto 27 ([0,0]) alignedtext
grestore
% 3
gsave
0.54118 0.25098 1 nodecolor
201 298 18 18 ellipse_path fill
1 setlinewidth
filled
0.54118 0.25098 1 nodecolor
201 298 18 18 ellipse_path stroke
0 0 0 nodecolor
14 /Times-Roman set_font
197.5 294.3 moveto 7 (3) alignedtext
grestore
% 1->3
gsave
1 setlinewidth
0 0 0 edgecolor
newpath 150.24 370.71 moveto
154.77 364.37 160.16 356.82 165 350 curveto
171.59 340.72 178.83 330.47 185.08 321.61 curveto
stroke
0 0 0 edgecolor
newpath 188.03 323.49 moveto
190.93 313.3 lineto
182.31 319.46 lineto
closepath fill
1 setlinewidth
solid
0 0 0 edgecolor
newpath 188.03 323.49 moveto
190.93 313.3 lineto
182.31 319.46 lineto
closepath stroke
0 0 0 edgecolor
14 /Times-Roman set_font
175 338.3 moveto 27 ([0,1]) alignedtext
grestore
% 4
gsave
0.023529 0.72157 1 nodecolor
22 118 17.59 18 ellipse_path fill
1 setlinewidth
filled
0.023529 0.72157 1 nodecolor
22 118 17.59 18 ellipse_path stroke
1 setlinewidth
filled
0.023529 0.72157 1 nodecolor
22 118 21.5 22 ellipse_path stroke
0 0 0 nodecolor
14 /Times-Roman set_font
18.5 114.3 moveto 7 (4) alignedtext
grestore
% 1->4
gsave
1 setlinewidth
0 0 0 edgecolor
newpath 124.73 376.23 moveto
105.97 364.71 74.36 342.77 56 316 curveto
32.28 281.42 28.53 269.42 22 228 curveto
17.9 201.98 18.25 172.02 19.44 150.11 curveto
stroke
0 0 0 edgecolor
newpath 22.94 150.25 moveto
20.07 140.05 lineto
15.95 149.81 lineto
closepath fill
1 setlinewidth
solid
0 0 0 edgecolor
newpath 22.94 150.25 moveto
20.07 140.05 lineto
15.95 149.81 lineto
closepath stroke
0 0 0 edgecolor
14 /Times-Roman set_font
29 250.3 moveto 27 ([1,0]) alignedtext
grestore
% 5
gsave
0.54118 0.25098 1 nodecolor
183 118 18 18 ellipse_path fill
1 setlinewidth
filled
0.54118 0.25098 1 nodecolor
183 118 18 18 ellipse_path stroke
0 0 0 nodecolor
14 /Times-Roman set_font
179.5 114.3 moveto 7 (5) alignedtext
grestore
% 1->5
gsave
1 setlinewidth
0 0 0 edgecolor
newpath 142.76 367.96 moveto
150.04 322.91 169.83 200.45 178.66 145.87 curveto
stroke
0 0 0 edgecolor
newpath 182.13 146.33 moveto
180.27 135.9 lineto
175.22 145.22 lineto
closepath fill
1 setlinewidth
solid
0 0 0 edgecolor
newpath 182.13 146.33 moveto
180.27 135.9 lineto
175.22 145.22 lineto
closepath stroke
0 0 0 edgecolor
14 /Times-Roman set_font
161 250.3 moveto 27 ([1,1]) alignedtext
grestore
% 6
gsave
0.54118 0.25098 1 nodecolor
51 210 18 18 ellipse_path fill
1 setlinewidth
filled
0.54118 0.25098 1 nodecolor
51 210 18 18 ellipse_path stroke
0 0 0 nodecolor
14 /Times-Roman set_font
47.5 206.3 moveto 7 (6) alignedtext
grestore
% 2->6
gsave
1 setlinewidth
0 0 0 edgecolor
newpath 78.6 280.82 moveto
73.67 268.33 66.74 250.81 61.06 236.44 curveto
stroke
0 0 0 edgecolor
newpath 64.3 235.12 moveto
57.37 227.1 lineto
57.79 237.69 lineto
closepath fill
1 setlinewidth
solid
0 0 0 edgecolor
newpath 64.3 235.12 moveto
57.37 227.1 lineto
57.79 237.69 lineto
closepath stroke
0 0 0 edgecolor
14 /Times-Roman set_font
72 250.3 moveto 27 ([1,0]) alignedtext
grestore
% 7
gsave
0.54118 0.25098 1 nodecolor
202 210 18 18 ellipse_path fill
1 setlinewidth
filled
0.54118 0.25098 1 nodecolor
202 210 18 18 ellipse_path stroke
0 0 0 nodecolor
14 /Times-Roman set_font
198.5 206.3 moveto 7 (7) alignedtext
grestore
% 3->7
gsave
1 setlinewidth
0 0 0 edgecolor
newpath 201.2 279.6 moveto
201.34 267.75 201.53 251.82 201.68 238.29 curveto
stroke
0 0 0 edgecolor
newpath 205.18 238.12 moveto
201.8 228.08 lineto
198.19 238.04 lineto
closepath fill
1 setlinewidth
solid
0 0 0 edgecolor
newpath 205.18 238.12 moveto
201.8 228.08 lineto
198.19 238.04 lineto
closepath stroke
0 0 0 edgecolor
14 /Times-Roman set_font
201 250.3 moveto 27 ([1,1]) alignedtext
grestore
% 8
gsave
0.023529 0.72157 1 nodecolor
212 22 17.59 18 ellipse_path fill
1 setlinewidth
filled
0.023529 0.72157 1 nodecolor
212 22 17.59 18 ellipse_path stroke
1 setlinewidth
filled
0.023529 0.72157 1 nodecolor
212 22 21.5 22 ellipse_path stroke
0 0 0 nodecolor
14 /Times-Roman set_font
208.5 18.3 moveto 7 (8) alignedtext
grestore
% 5->8
gsave
1 setlinewidth
0 0 0 edgecolor
newpath 181.64 99.72 moveto
181.32 88.66 181.95 74.16 186 62 curveto
187.59 57.23 189.92 52.5 192.55 48.05 curveto
stroke
0 0 0 edgecolor
newpath 195.65 49.71 moveto
198.21 39.43 lineto
189.8 45.86 lineto
closepath fill
1 setlinewidth
solid
0 0 0 edgecolor
newpath 195.65 49.71 moveto
198.21 39.43 lineto
189.8 45.86 lineto
closepath stroke
0 0 0 edgecolor
14 /Times-Roman set_font
186 66.3 moveto 27 ([0,1]) alignedtext
grestore
% 6->4
gsave
1 setlinewidth
0 0 0 edgecolor
newpath 45.68 192.49 moveto
41.75 180.29 36.29 163.33 31.6 148.78 curveto
stroke
0 0 0 edgecolor
newpath 34.9 147.63 moveto
28.5 139.18 lineto
28.24 149.78 lineto
closepath fill
1 setlinewidth
solid
0 0 0 edgecolor
newpath 34.9 147.63 moveto
28.5 139.18 lineto
28.24 149.78 lineto
closepath stroke
0 0 0 edgecolor
14 /Times-Roman set_font
40 162.3 moveto 27 ([1,0]) alignedtext
grestore
% 6->6
gsave
1 setlinewidth
0 0 0 edgecolor
newpath 67.44 217.36 moveto
79.24 219.76 91 217.3 91 210 curveto
91 204.86 85.19 202.13 77.63 201.79 curveto
stroke
0 0 0 edgecolor
newpath 77.11 198.32 moveto
67.44 202.64 lineto
77.69 205.29 lineto
closepath fill
1 setlinewidth
solid
0 0 0 edgecolor
newpath 77.11 198.32 moveto
67.44 202.64 lineto
77.69 205.29 lineto
closepath stroke
0 0 0 edgecolor
14 /Times-Roman set_font
91 206.3 moveto 27 ([0,0]) alignedtext
grestore
% 7->5
gsave
1 setlinewidth
0 0 0 edgecolor
newpath 194.13 193.7 moveto
191.41 187.71 188.63 180.68 187 174 curveto
184.84 165.14 183.74 155.26 183.2 146.34 curveto
stroke
0 0 0 edgecolor
newpath 186.69 145.93 moveto
182.79 136.07 lineto
179.69 146.21 lineto
closepath fill
1 setlinewidth
solid
0 0 0 edgecolor
newpath 186.69 145.93 moveto
182.79 136.07 lineto
179.69 146.21 lineto
closepath stroke
0 0 0 edgecolor
14 /Times-Roman set_font
187 162.3 moveto 27 ([1,0]) alignedtext
grestore
% 7->7
gsave
1 setlinewidth
0 0 0 edgecolor
newpath 218.44 217.36 moveto
230.24 219.76 242 217.3 242 210 curveto
242 204.86 236.19 202.13 228.63 201.79 curveto
stroke
0 0 0 edgecolor
newpath 228.11 198.32 moveto
218.44 202.64 lineto
228.69 205.29 lineto
closepath fill
1 setlinewidth
solid
0 0 0 edgecolor
newpath 228.11 198.32 moveto
218.44 202.64 lineto
228.69 205.29 lineto
closepath stroke
0 0 0 edgecolor
14 /Times-Roman set_font
242 206.3 moveto 27 ([0,0]) alignedtext
grestore
% 9
gsave
0.54118 0.25098 1 nodecolor
241 118 18 18 ellipse_path fill
1 setlinewidth
filled
0.54118 0.25098 1 nodecolor
241 118 18 18 ellipse_path stroke
0 0 0 nodecolor
14 /Times-Roman set_font
237.5 114.3 moveto 7 (9) alignedtext
grestore
% 7->9
gsave
1 setlinewidth
0 0 0 edgecolor
newpath 208.79 193.32 moveto
214.69 179.73 223.32 159.8 230.16 144.01 curveto
stroke
0 0 0 edgecolor
newpath 233.39 145.37 moveto
234.15 134.8 lineto
226.97 142.58 lineto
closepath fill
1 setlinewidth
solid
0 0 0 edgecolor
newpath 233.39 145.37 moveto
234.15 134.8 lineto
226.97 142.58 lineto
closepath stroke
0 0 0 edgecolor
14 /Times-Roman set_font
223 162.3 moveto 27 ([1,1]) alignedtext
grestore
% 8->8
gsave
1 setlinewidth
0 0 0 edgecolor
newpath 231.9 30.44 moveto
243.8 32.31 255 29.5 255 22 curveto
255 16.73 249.46 13.77 242.04 13.13 curveto
stroke
0 0 0 edgecolor
newpath 241.75 9.64 moveto
231.9 13.56 lineto
242.04 16.63 lineto
closepath fill
1 setlinewidth
solid
0 0 0 edgecolor
newpath 241.75 9.64 moveto
231.9 13.56 lineto
242.04 16.63 lineto
closepath stroke
0 0 0 edgecolor
14 /Times-Roman set_font
255 18.3 moveto 27 ([0,1]) alignedtext
grestore
% 9->8
gsave
1 setlinewidth
0 0 0 edgecolor
newpath 235.95 100.63 moveto
231.9 87.51 226.12 68.75 221.24 52.97 curveto
stroke
0 0 0 edgecolor
newpath 224.5 51.63 moveto
218.2 43.11 lineto
217.81 53.7 lineto
closepath fill
1 setlinewidth
solid
0 0 0 edgecolor
newpath 224.5 51.63 moveto
218.2 43.11 lineto
217.81 53.7 lineto
closepath stroke
0 0 0 edgecolor
14 /Times-Roman set_font
228 66.3 moveto 27 ([1,0]) alignedtext
grestore
% 9->9
gsave
1 setlinewidth
0 0 0 edgecolor
newpath 257.44 126.03 moveto
269.24 128.65 281 125.97 281 118 curveto
281 112.4 275.19 109.41 267.63 109.04 curveto
stroke
0 0 0 edgecolor
newpath 267.08 105.58 moveto
257.44 109.97 lineto
267.71 112.55 lineto
closepath fill
1 setlinewidth
solid
0 0 0 edgecolor
newpath 267.08 105.58 moveto
257.44 109.97 lineto
267.71 112.55 lineto
closepath stroke
0 0 0 edgecolor
14 /Times-Roman set_font
281 114.3 moveto 57 ([0,0] [1,1]) alignedtext
grestore
endpage
showpage
grestore
%%PageTrailer
%%EndPage: 1
%%Trailer
end
restore
%%EOF
