%!PS-Adobe-3.0 EPSF-3.0
%%Creator: graphviz version 2.36.0 (20140111.2315)
%%Title: FSA Utilities
%%Pages: 1
%%BoundingBox: 36 36 985 1358
%%EndComments
save
%%BeginProlog
/DotDict 200 dict def
DotDict begin

/setupLatin1 {
mark
/EncodingVector 256 array def
 EncodingVector 0

ISOLatin1Encoding 0 255 getinterval putinterval
EncodingVector 45 /hyphen put

% Set up ISO Latin 1 character encoding
/starnetISO {
        dup dup findfont dup length dict begin
        { 1 index /FID ne { def }{ pop pop } ifelse
        } forall
        /Encoding EncodingVector def
        currentdict end definefont
} def
/Times-Roman starnetISO def
/Times-Italic starnetISO def
/Times-Bold starnetISO def
/Times-BoldItalic starnetISO def
/Helvetica starnetISO def
/Helvetica-Oblique starnetISO def
/Helvetica-Bold starnetISO def
/Helvetica-BoldOblique starnetISO def
/Courier starnetISO def
/Courier-Oblique starnetISO def
/Courier-Bold starnetISO def
/Courier-BoldOblique starnetISO def
cleartomark
} bind def

%%BeginResource: procset graphviz 0 0
/coord-font-family /Times-Roman def
/default-font-family /Times-Roman def
/coordfont coord-font-family findfont 8 scalefont def

/InvScaleFactor 1.0 def
/set_scale {
       dup 1 exch div /InvScaleFactor exch def
       scale
} bind def

% styles
/solid { [] 0 setdash } bind def
/dashed { [9 InvScaleFactor mul dup ] 0 setdash } bind def
/dotted { [1 InvScaleFactor mul 6 InvScaleFactor mul] 0 setdash } bind def
/invis {/fill {newpath} def /stroke {newpath} def /show {pop newpath} def} bind def
/bold { 2 setlinewidth } bind def
/filled { } bind def
/unfilled { } bind def
/rounded { } bind def
/diagonals { } bind def
/tapered { } bind def

% hooks for setting color 
/nodecolor { sethsbcolor } bind def
/edgecolor { sethsbcolor } bind def
/graphcolor { sethsbcolor } bind def
/nopcolor {pop pop pop} bind def

/beginpage {	% i j npages
	/npages exch def
	/j exch def
	/i exch def
	/str 10 string def
	npages 1 gt {
		gsave
			coordfont setfont
			0 0 moveto
			(\() show i str cvs show (,) show j str cvs show (\)) show
		grestore
	} if
} bind def

/set_font {
	findfont exch
	scalefont setfont
} def

% draw text fitted to its expected width
/alignedtext {			% width text
	/text exch def
	/width exch def
	gsave
		width 0 gt {
			[] 0 setdash
			text stringwidth pop width exch sub text length div 0 text ashow
		} if
	grestore
} def

/boxprim {				% xcorner ycorner xsize ysize
		4 2 roll
		moveto
		2 copy
		exch 0 rlineto
		0 exch rlineto
		pop neg 0 rlineto
		closepath
} bind def

/ellipse_path {
	/ry exch def
	/rx exch def
	/y exch def
	/x exch def
	matrix currentmatrix
	newpath
	x y translate
	rx ry scale
	0 0 1 0 360 arc
	setmatrix
} bind def

/endpage { showpage } bind def
/showpage { } def

/layercolorseq
	[	% layer color sequence - darkest to lightest
		[0 0 0]
		[.2 .8 .8]
		[.4 .8 .8]
		[.6 .8 .8]
		[.8 .8 .8]
	]
def

/layerlen layercolorseq length def

/setlayer {/maxlayer exch def /curlayer exch def
	layercolorseq curlayer 1 sub layerlen mod get
	aload pop sethsbcolor
	/nodecolor {nopcolor} def
	/edgecolor {nopcolor} def
	/graphcolor {nopcolor} def
} bind def

/onlayer { curlayer ne {invis} if } def

/onlayers {
	/myupper exch def
	/mylower exch def
	curlayer mylower lt
	curlayer myupper gt
	or
	{invis} if
} def

/curlayer 0 def

%%EndResource
%%EndProlog
%%BeginSetup
14 default-font-family set_font
1 setmiterlimit
% /arrowlength 10 def
% /arrowwidth 5 def

% make sure pdfmark is harmless for PS-interpreters other than Distiller
/pdfmark where {pop} {userdict /pdfmark /cleartomark load put} ifelse
% make '<<' and '>>' safe on PS Level 1 devices
/languagelevel where {pop languagelevel}{1} ifelse
2 lt {
    userdict (<<) cvn ([) cvn load put
    userdict (>>) cvn ([) cvn load put
} if

%%EndSetup
setupLatin1
%%Page: 1 1
%%PageBoundingBox: 36 36 985 1358
%%PageOrientation: Portrait
0 0 1 beginpage
gsave
36 36 949 1322 boxprim clip newpath
1 1 set_scale 0 rotate 40 40 translate
% start0
gsave
grestore
% 0
gsave
0.83922 0.48235 0.8549 nodecolor
146 1218 17.59 18 ellipse_path fill
1 setlinewidth
filled
0.83922 0.48235 0.8549 nodecolor
146 1218 17.59 18 ellipse_path stroke
1 setlinewidth
filled
0.83922 0.48235 0.8549 nodecolor
146 1218 21.5 22 ellipse_path stroke
0 0 0 nodecolor
14 /Times-Roman set_font
142.5 1214.3 moveto 7 (0) alignedtext
grestore
% start0->0
gsave
1 setlinewidth
0 0 0 edgecolor
newpath 146 1277.75 moveto
146 1269.67 146 1259.78 146 1250.44 curveto
stroke
0 0 0 edgecolor
newpath 149.5 1250.25 moveto
146 1240.25 lineto
142.5 1250.25 lineto
closepath fill
1 setlinewidth
solid
0 0 0 edgecolor
newpath 149.5 1250.25 moveto
146 1240.25 lineto
142.5 1250.25 lineto
closepath stroke
grestore
% 0->0
gsave
1 setlinewidth
0 0 0 edgecolor
newpath 166.8 1225.14 moveto
178.35 1226.47 189 1224.09 189 1218 curveto
189 1213.81 183.97 1211.38 177.07 1210.7 curveto
stroke
0 0 0 edgecolor
newpath 176.74 1207.2 moveto
166.8 1210.86 lineto
176.85 1214.2 lineto
closepath fill
1 setlinewidth
solid
0 0 0 edgecolor
newpath 176.74 1207.2 moveto
166.8 1210.86 lineto
176.85 1214.2 lineto
closepath stroke
0 0 0 edgecolor
14 /Times-Roman set_font
189 1214.3 moveto 27 ([0,0]) alignedtext
grestore
% 1
gsave
0.54118 0.25098 1 nodecolor
146 1126 18 18 ellipse_path fill
1 setlinewidth
filled
0.54118 0.25098 1 nodecolor
146 1126 18 18 ellipse_path stroke
0 0 0 nodecolor
14 /Times-Roman set_font
142.5 1122.3 moveto 7 (1) alignedtext
grestore
% 0->1
gsave
1 setlinewidth
0 0 0 edgecolor
newpath 146 1195.67 moveto
146 1183.28 146 1167.55 146 1154.27 curveto
stroke
0 0 0 edgecolor
newpath 149.5 1154.26 moveto
146 1144.26 lineto
142.5 1154.26 lineto
closepath fill
1 setlinewidth
solid
0 0 0 edgecolor
newpath 149.5 1154.26 moveto
146 1144.26 lineto
142.5 1154.26 lineto
closepath stroke
0 0 0 edgecolor
14 /Times-Roman set_font
146 1166.3 moveto 27 ([0,1]) alignedtext
grestore
% 2
gsave
0.54118 0.25098 1 nodecolor
93 1038 18 18 ellipse_path fill
1 setlinewidth
filled
0.54118 0.25098 1 nodecolor
93 1038 18 18 ellipse_path stroke
0 0 0 nodecolor
14 /Times-Roman set_font
89.5 1034.3 moveto 7 (2) alignedtext
grestore
% 1->2
gsave
1 setlinewidth
0 0 0 edgecolor
newpath 130.53 1116.66 moveto
120.78 1110.57 108.79 1101.41 102 1090 curveto
97.78 1082.91 95.43 1074.35 94.15 1066.28 curveto
stroke
0 0 0 edgecolor
newpath 97.6 1065.68 moveto
93.02 1056.13 lineto
90.65 1066.45 lineto
closepath fill
1 setlinewidth
solid
0 0 0 edgecolor
newpath 97.6 1065.68 moveto
93.02 1056.13 lineto
90.65 1066.45 lineto
closepath stroke
0 0 0 edgecolor
14 /Times-Roman set_font
102 1078.3 moveto 27 ([0,0]) alignedtext
grestore
% 3
gsave
0.54118 0.25098 1 nodecolor
484 1038 18 18 ellipse_path fill
1 setlinewidth
filled
0.54118 0.25098 1 nodecolor
484 1038 18 18 ellipse_path stroke
0 0 0 nodecolor
14 /Times-Roman set_font
480.5 1034.3 moveto 7 (3) alignedtext
grestore
% 1->3
gsave
1 setlinewidth
0 0 0 edgecolor
newpath 163.23 1120.62 moveto
218.26 1106.61 390.15 1062.88 457.01 1045.87 curveto
stroke
0 0 0 edgecolor
newpath 457.98 1049.23 moveto
466.81 1043.37 lineto
456.25 1042.45 lineto
closepath fill
1 setlinewidth
solid
0 0 0 edgecolor
newpath 457.98 1049.23 moveto
466.81 1043.37 lineto
456.25 1042.45 lineto
closepath stroke
0 0 0 edgecolor
14 /Times-Roman set_font
346 1078.3 moveto 27 ([0,1]) alignedtext
grestore
% 4
gsave
0.023529 0.72157 1 nodecolor
490 118 17.59 18 ellipse_path fill
1 setlinewidth
filled
0.023529 0.72157 1 nodecolor
490 118 17.59 18 ellipse_path stroke
1 setlinewidth
filled
0.023529 0.72157 1 nodecolor
490 118 21.5 22 ellipse_path stroke
0 0 0 nodecolor
14 /Times-Roman set_font
486.5 114.3 moveto 7 (4) alignedtext
grestore
% 1->4
gsave
1 setlinewidth
0 0 0 edgecolor
newpath 146 1107.87 moveto
146 1090.51 146 1062.89 146 1039 curveto
146 1039 146 1039 146 215 curveto
146 150.48 373.31 127.42 458.38 121.05 curveto
stroke
0 0 0 edgecolor
newpath 458.76 124.53 moveto
468.48 120.32 lineto
458.26 117.55 lineto
closepath fill
1 setlinewidth
solid
0 0 0 edgecolor
newpath 458.76 124.53 moveto
468.48 120.32 lineto
458.26 117.55 lineto
closepath stroke
0 0 0 edgecolor
14 /Times-Roman set_font
146 616.3 moveto 27 ([1,1]) alignedtext
grestore
% 5
gsave
0.54118 0.25098 1 nodecolor
87 950 18 18 ellipse_path fill
1 setlinewidth
filled
0.54118 0.25098 1 nodecolor
87 950 18 18 ellipse_path stroke
0 0 0 nodecolor
14 /Times-Roman set_font
83.5 946.3 moveto 7 (5) alignedtext
grestore
% 2->5
gsave
1 setlinewidth
0 0 0 edgecolor
newpath 91.81 1020.01 moveto
90.99 1008.19 89.87 992.17 88.92 978.54 curveto
stroke
0 0 0 edgecolor
newpath 92.39 977.98 moveto
88.2 968.25 lineto
85.41 978.47 lineto
closepath fill
1 setlinewidth
solid
0 0 0 edgecolor
newpath 92.39 977.98 moveto
88.2 968.25 lineto
85.41 978.47 lineto
closepath stroke
0 0 0 edgecolor
14 /Times-Roman set_font
91 990.3 moveto 27 ([0,1]) alignedtext
grestore
% 6
gsave
0.54118 0.25098 1 nodecolor
484 950 18 18 ellipse_path fill
1 setlinewidth
filled
0.54118 0.25098 1 nodecolor
484 950 18 18 ellipse_path stroke
0 0 0 nodecolor
14 /Times-Roman set_font
480.5 946.3 moveto 7 (6) alignedtext
grestore
% 3->6
gsave
1 setlinewidth
0 0 0 edgecolor
newpath 484 1019.6 moveto
484 1007.75 484 991.82 484 978.29 curveto
stroke
0 0 0 edgecolor
newpath 487.5 978.08 moveto
484 968.08 lineto
480.5 978.08 lineto
closepath fill
1 setlinewidth
solid
0 0 0 edgecolor
newpath 487.5 978.08 moveto
484 968.08 lineto
480.5 978.08 lineto
closepath stroke
0 0 0 edgecolor
14 /Times-Roman set_font
484 990.3 moveto 27 ([0,0]) alignedtext
grestore
% 7
gsave
0.54118 0.25098 1 nodecolor
739 860 18 18 ellipse_path fill
1 setlinewidth
filled
0.54118 0.25098 1 nodecolor
739 860 18 18 ellipse_path stroke
0 0 0 nodecolor
14 /Times-Roman set_font
735.5 856.3 moveto 7 (7) alignedtext
grestore
% 3->7
gsave
1 setlinewidth
0 0 0 edgecolor
newpath 498.44 1027.03 moveto
540.68 997.88 664.28 912.57 715.91 876.94 curveto
stroke
0 0 0 edgecolor
newpath 718.16 879.64 moveto
724.4 871.08 lineto
714.18 873.88 lineto
closepath fill
1 setlinewidth
solid
0 0 0 edgecolor
newpath 718.16 879.64 moveto
724.4 871.08 lineto
714.18 873.88 lineto
closepath stroke
0 0 0 edgecolor
14 /Times-Roman set_font
633 946.3 moveto 27 ([1,0]) alignedtext
grestore
% 8
gsave
0.023529 0.72157 1 nodecolor
594 22 17.59 18 ellipse_path fill
1 setlinewidth
filled
0.023529 0.72157 1 nodecolor
594 22 17.59 18 ellipse_path stroke
1 setlinewidth
filled
0.023529 0.72157 1 nodecolor
594 22 21.5 22 ellipse_path stroke
0 0 0 nodecolor
14 /Times-Roman set_font
590.5 18.3 moveto 7 (8) alignedtext
grestore
% 4->8
gsave
1 setlinewidth
0 0 0 edgecolor
newpath 505.73 102.45 moveto
517.79 91.32 534.89 75.62 550 62 curveto
556.5 56.14 563.59 49.82 570.14 44.02 curveto
stroke
0 0 0 edgecolor
newpath 572.89 46.26 moveto
578.06 37.02 lineto
568.25 41.02 lineto
closepath fill
1 setlinewidth
solid
0 0 0 edgecolor
newpath 572.89 46.26 moveto
578.06 37.02 lineto
568.25 41.02 lineto
closepath stroke
0 0 0 edgecolor
14 /Times-Roman set_font
550 66.3 moveto 27 ([0,1]) alignedtext
grestore
% 9
gsave
0.54118 0.25098 1 nodecolor
77 860 18 18 ellipse_path fill
1 setlinewidth
filled
0.54118 0.25098 1 nodecolor
77 860 18 18 ellipse_path stroke
0 0 0 nodecolor
14 /Times-Roman set_font
73.5 856.3 moveto 7 (9) alignedtext
grestore
% 5->9
gsave
1 setlinewidth
0 0 0 edgecolor
newpath 85.07 932.03 moveto
83.66 919.62 81.72 902.51 80.09 888.19 curveto
stroke
0 0 0 edgecolor
newpath 83.53 887.46 moveto
78.92 877.92 lineto
76.57 888.25 lineto
closepath fill
1 setlinewidth
solid
0 0 0 edgecolor
newpath 83.53 887.46 moveto
78.92 877.92 lineto
76.57 888.25 lineto
closepath stroke
0 0 0 edgecolor
14 /Times-Roman set_font
83 902.3 moveto 27 ([1,1]) alignedtext
grestore
% 10
gsave
0.54118 0.25098 1 nodecolor
370 860 19.25 19.5 ellipse_path fill
1 setlinewidth
filled
0.54118 0.25098 1 nodecolor
370 860 19.25 19.5 ellipse_path stroke
0 0 0 nodecolor
14 /Times-Roman set_font
363 856.3 moveto 14 (10) alignedtext
grestore
% 6->10
gsave
1 setlinewidth
0 0 0 edgecolor
newpath 470.02 938.21 moveto
450.85 923.41 416.16 896.64 393.1 878.83 curveto
stroke
0 0 0 edgecolor
newpath 395.24 876.06 moveto
385.18 872.72 lineto
390.96 881.6 lineto
closepath fill
1 setlinewidth
solid
0 0 0 edgecolor
newpath 395.24 876.06 moveto
385.18 872.72 lineto
390.96 881.6 lineto
closepath stroke
0 0 0 edgecolor
14 /Times-Roman set_font
438 902.3 moveto 27 ([0,0]) alignedtext
grestore
% 11
gsave
0.54118 0.25098 1 nodecolor
484 860 19.25 19.5 ellipse_path fill
1 setlinewidth
filled
0.54118 0.25098 1 nodecolor
484 860 19.25 19.5 ellipse_path stroke
0 0 0 nodecolor
14 /Times-Roman set_font
477 856.3 moveto 14 (11) alignedtext
grestore
% 6->11
gsave
1 setlinewidth
0 0 0 edgecolor
newpath 484 931.61 moveto
484 919.64 484 903.45 484 889.6 curveto
stroke
0 0 0 edgecolor
newpath 487.5 889.57 moveto
484 879.57 lineto
480.5 889.57 lineto
closepath fill
1 setlinewidth
solid
0 0 0 edgecolor
newpath 487.5 889.57 moveto
484 879.57 lineto
480.5 889.57 lineto
closepath stroke
0 0 0 edgecolor
14 /Times-Roman set_font
484 902.3 moveto 27 ([1,0]) alignedtext
grestore
% 12
gsave
0.54118 0.25098 1 nodecolor
649 802 19.25 19.5 ellipse_path fill
1 setlinewidth
filled
0.54118 0.25098 1 nodecolor
649 802 19.25 19.5 ellipse_path stroke
0 0 0 nodecolor
14 /Times-Roman set_font
642 798.3 moveto 14 (12) alignedtext
grestore
% 6->12
gsave
1 setlinewidth
0 0 0 edgecolor
newpath 497.22 937.3 moveto
525.54 912.24 592.29 853.18 627.07 822.41 curveto
stroke
0 0 0 edgecolor
newpath 629.61 824.83 moveto
634.78 815.58 lineto
624.97 819.59 lineto
closepath fill
1 setlinewidth
solid
0 0 0 edgecolor
newpath 629.61 824.83 moveto
634.78 815.58 lineto
624.97 819.59 lineto
closepath stroke
0 0 0 edgecolor
14 /Times-Roman set_font
539 902.3 moveto 27 ([1,1]) alignedtext
grestore
% 13
gsave
0.54118 0.25098 1 nodecolor
819 744 19.25 19.5 ellipse_path fill
1 setlinewidth
filled
0.54118 0.25098 1 nodecolor
819 744 19.25 19.5 ellipse_path stroke
0 0 0 nodecolor
14 /Times-Roman set_font
812 740.3 moveto 14 (13) alignedtext
grestore
% 7->13
gsave
1 setlinewidth
0 0 0 edgecolor
newpath 749.13 844.56 moveto
762.49 825.52 786.19 791.76 802.24 768.88 curveto
stroke
0 0 0 edgecolor
newpath 805.31 770.61 moveto
808.18 760.41 lineto
799.58 766.59 lineto
closepath fill
1 setlinewidth
solid
0 0 0 edgecolor
newpath 805.31 770.61 moveto
808.18 760.41 lineto
799.58 766.59 lineto
closepath stroke
0 0 0 edgecolor
14 /Times-Roman set_font
790 798.3 moveto 27 ([0,0]) alignedtext
grestore
% 14
gsave
0.54118 0.25098 1 nodecolor
739 620 19.25 19.5 ellipse_path fill
1 setlinewidth
filled
0.54118 0.25098 1 nodecolor
739 620 19.25 19.5 ellipse_path stroke
0 0 0 nodecolor
14 /Times-Roman set_font
732 616.3 moveto 14 (14) alignedtext
grestore
% 7->14
gsave
1 setlinewidth
0 0 0 edgecolor
newpath 739 841.88 moveto
739 801.47 739 699.77 739 649.72 curveto
stroke
0 0 0 edgecolor
newpath 742.5 649.59 moveto
739 639.59 lineto
735.5 649.59 lineto
closepath fill
1 setlinewidth
solid
0 0 0 edgecolor
newpath 742.5 649.59 moveto
739 639.59 lineto
735.5 649.59 lineto
closepath stroke
0 0 0 edgecolor
14 /Times-Roman set_font
739 740.3 moveto 27 ([0,1]) alignedtext
grestore
% 15
gsave
0.54118 0.25098 1 nodecolor
77 744 19.25 19.5 ellipse_path fill
1 setlinewidth
filled
0.54118 0.25098 1 nodecolor
77 744 19.25 19.5 ellipse_path stroke
0 0 0 nodecolor
14 /Times-Roman set_font
70 740.3 moveto 14 (15) alignedtext
grestore
% 9->15
gsave
1 setlinewidth
0 0 0 edgecolor
newpath 77 841.69 moveto
77 823.68 77 795.17 77 773.77 curveto
stroke
0 0 0 edgecolor
newpath 80.5 773.62 moveto
77 763.62 lineto
73.5 773.62 lineto
closepath fill
1 setlinewidth
solid
0 0 0 edgecolor
newpath 80.5 773.62 moveto
77 763.62 lineto
73.5 773.62 lineto
closepath stroke
0 0 0 edgecolor
14 /Times-Roman set_font
77 798.3 moveto 27 ([0,0]) alignedtext
grestore
% 16
gsave
0.023529 0.72157 1 nodecolor
23 682 19.29 19.5 ellipse_path fill
1 setlinewidth
filled
0.023529 0.72157 1 nodecolor
23 682 19.29 19.5 ellipse_path stroke
1 setlinewidth
filled
0.023529 0.72157 1 nodecolor
23 682 23.25 23.5 ellipse_path stroke
0 0 0 nodecolor
14 /Times-Roman set_font
16 678.3 moveto 14 (16) alignedtext
grestore
% 9->16
gsave
1 setlinewidth
0 0 0 edgecolor
newpath 63.79 847.25 moveto
57.08 840.53 49.44 831.55 45 822 curveto
29.23 788.06 24.45 744.97 23.16 715.83 curveto
stroke
0 0 0 edgecolor
newpath 26.66 715.65 moveto
22.83 705.77 lineto
19.66 715.88 lineto
closepath fill
1 setlinewidth
solid
0 0 0 edgecolor
newpath 26.66 715.65 moveto
22.83 705.77 lineto
19.66 715.88 lineto
closepath stroke
0 0 0 edgecolor
14 /Times-Roman set_font
45 798.3 moveto 27 ([1,1]) alignedtext
grestore
% 17
gsave
0.54118 0.25098 1 nodecolor
311 744 19.25 19.5 ellipse_path fill
1 setlinewidth
filled
0.54118 0.25098 1 nodecolor
311 744 19.25 19.5 ellipse_path stroke
0 0 0 nodecolor
14 /Times-Roman set_font
304 740.3 moveto 14 (17) alignedtext
grestore
% 10->17
gsave
1 setlinewidth
0 0 0 edgecolor
newpath 361.29 842.18 moveto
351.52 823.3 335.55 792.44 324.23 770.57 curveto
stroke
0 0 0 edgecolor
newpath 327.25 768.79 moveto
319.55 761.52 lineto
321.04 772.01 lineto
closepath fill
1 setlinewidth
solid
0 0 0 edgecolor
newpath 327.25 768.79 moveto
319.55 761.52 lineto
321.04 772.01 lineto
closepath stroke
0 0 0 edgecolor
14 /Times-Roman set_font
350 798.3 moveto 27 ([1,0]) alignedtext
grestore
% 18
gsave
0.54118 0.25098 1 nodecolor
515 744 19.25 19.5 ellipse_path fill
1 setlinewidth
filled
0.54118 0.25098 1 nodecolor
515 744 19.25 19.5 ellipse_path stroke
0 0 0 nodecolor
14 /Times-Roman set_font
508 740.3 moveto 14 (18) alignedtext
grestore
% 11->18
gsave
1 setlinewidth
0 0 0 edgecolor
newpath 488.91 840.94 moveto
493.9 822.59 501.69 793.94 507.46 772.72 curveto
stroke
0 0 0 edgecolor
newpath 510.86 773.55 moveto
510.11 762.98 lineto
504.11 771.71 lineto
closepath fill
1 setlinewidth
solid
0 0 0 edgecolor
newpath 510.86 773.55 moveto
510.11 762.98 lineto
504.11 771.71 lineto
closepath stroke
0 0 0 edgecolor
14 /Times-Roman set_font
505 798.3 moveto 27 ([0,0]) alignedtext
grestore
% 19
gsave
0.54118 0.25098 1 nodecolor
454 744 19.25 19.5 ellipse_path fill
1 setlinewidth
filled
0.54118 0.25098 1 nodecolor
454 744 19.25 19.5 ellipse_path stroke
0 0 0 nodecolor
14 /Times-Roman set_font
447 740.3 moveto 14 (19) alignedtext
grestore
% 11->19
gsave
1 setlinewidth
0 0 0 edgecolor
newpath 471.84 844.85 moveto
466.95 838.32 461.81 830.22 459 822 curveto
453.73 806.6 452.34 788.47 452.33 773.67 curveto
stroke
0 0 0 edgecolor
newpath 455.83 773.64 moveto
452.53 763.58 lineto
448.83 773.5 lineto
closepath fill
1 setlinewidth
solid
0 0 0 edgecolor
newpath 455.83 773.64 moveto
452.53 763.58 lineto
448.83 773.5 lineto
closepath stroke
0 0 0 edgecolor
14 /Times-Roman set_font
459 798.3 moveto 27 ([0,1]) alignedtext
grestore
% 20
gsave
0.54118 0.25098 1 nodecolor
83 620 19.25 19.5 ellipse_path fill
1 setlinewidth
filled
0.54118 0.25098 1 nodecolor
83 620 19.25 19.5 ellipse_path stroke
0 0 0 nodecolor
14 /Times-Roman set_font
76 616.3 moveto 14 (20) alignedtext
grestore
% 11->20
gsave
1 setlinewidth
0 0 0 edgecolor
newpath 465.2 854.68 moveto
424.2 845.25 330.15 823.53 327 822 curveto
231.19 775.55 140.47 684.07 102.15 642.49 curveto
stroke
0 0 0 edgecolor
newpath 104.73 640.12 moveto
95.4 635.09 lineto
99.55 644.84 lineto
closepath fill
1 setlinewidth
solid
0 0 0 edgecolor
newpath 104.73 640.12 moveto
95.4 635.09 lineto
99.55 644.84 lineto
closepath stroke
0 0 0 edgecolor
14 /Times-Roman set_font
234 740.3 moveto 27 ([1,0]) alignedtext
grestore
% 21
gsave
0.54118 0.25098 1 nodecolor
576 744 19.25 19.5 ellipse_path fill
1 setlinewidth
filled
0.54118 0.25098 1 nodecolor
576 744 19.25 19.5 ellipse_path stroke
0 0 0 nodecolor
14 /Times-Roman set_font
569 740.3 moveto 14 (21) alignedtext
grestore
% 11->21
gsave
1 setlinewidth
0 0 0 edgecolor
newpath 500.93 850.12 moveto
512.24 843.53 526.85 833.69 537 822 curveto
549.65 807.43 559.45 788.03 566.05 772.35 curveto
stroke
0 0 0 edgecolor
newpath 569.46 773.25 moveto
569.93 762.67 lineto
562.96 770.65 lineto
closepath fill
1 setlinewidth
solid
0 0 0 edgecolor
newpath 569.46 773.25 moveto
569.93 762.67 lineto
562.96 770.65 lineto
closepath stroke
0 0 0 edgecolor
14 /Times-Roman set_font
562 798.3 moveto 27 ([1,1]) alignedtext
grestore
% 22
gsave
0.54118 0.25098 1 nodecolor
666 620 19.25 19.5 ellipse_path fill
1 setlinewidth
filled
0.54118 0.25098 1 nodecolor
666 620 19.25 19.5 ellipse_path stroke
0 0 0 nodecolor
14 /Times-Roman set_font
659 616.3 moveto 14 (22) alignedtext
grestore
% 12->22
gsave
1 setlinewidth
0 0 0 edgecolor
newpath 650.76 782.41 moveto
653.73 750.94 659.77 686.94 663.29 649.68 curveto
stroke
0 0 0 edgecolor
newpath 666.8 649.77 moveto
664.25 639.48 lineto
659.83 649.11 lineto
closepath fill
1 setlinewidth
solid
0 0 0 edgecolor
newpath 666.8 649.77 moveto
664.25 639.48 lineto
659.83 649.11 lineto
closepath stroke
0 0 0 edgecolor
14 /Times-Roman set_font
657 740.3 moveto 27 ([1,0]) alignedtext
grestore
% 23
gsave
0.54118 0.25098 1 nodecolor
832 620 19.25 19.5 ellipse_path fill
1 setlinewidth
filled
0.54118 0.25098 1 nodecolor
832 620 19.25 19.5 ellipse_path stroke
0 0 0 nodecolor
14 /Times-Roman set_font
825 616.3 moveto 14 (23) alignedtext
grestore
% 13->23
gsave
1 setlinewidth
0 0 0 edgecolor
newpath 820.97 724.47 moveto
823.08 704.68 826.46 673.03 828.92 649.95 curveto
stroke
0 0 0 edgecolor
newpath 832.43 650.02 moveto
830.01 639.7 lineto
825.47 649.28 lineto
closepath fill
1 setlinewidth
solid
0 0 0 edgecolor
newpath 832.43 650.02 moveto
830.01 639.7 lineto
825.47 649.28 lineto
closepath stroke
0 0 0 edgecolor
14 /Times-Roman set_font
827 678.3 moveto 27 ([0,1]) alignedtext
grestore
% 14->8
gsave
1 setlinewidth
0 0 0 edgecolor
newpath 755.42 609.05 moveto
777.22 594.45 813 565.01 813 529 curveto
813 529 813 529 813 117 curveto
813 36.59 686.8 24.1 626 22.74 curveto
stroke
0 0 0 edgecolor
newpath 625.85 19.24 moveto
615.8 22.6 lineto
625.75 26.24 lineto
closepath fill
1 setlinewidth
solid
0 0 0 edgecolor
newpath 625.85 19.24 moveto
615.8 22.6 lineto
625.75 26.24 lineto
closepath stroke
0 0 0 edgecolor
14 /Times-Roman set_font
813 312.3 moveto 57 ([0,0] [1,1]) alignedtext
grestore
% 15->20
gsave
1 setlinewidth
0 0 0 edgecolor
newpath 74.26 724.68 moveto
72.12 707.41 69.97 680.85 73 658 curveto
73.41 654.93 74 651.76 74.69 648.62 curveto
stroke
0 0 0 edgecolor
newpath 78.09 649.42 moveto
77.15 638.87 lineto
71.31 647.71 lineto
closepath fill
1 setlinewidth
solid
0 0 0 edgecolor
newpath 78.09 649.42 moveto
77.15 638.87 lineto
71.31 647.71 lineto
closepath stroke
0 0 0 edgecolor
14 /Times-Roman set_font
73 678.3 moveto 27 ([0,0]) alignedtext
grestore
% 16->8
gsave
1 setlinewidth
0 0 0 edgecolor
newpath 23.68 658.26 moveto
24.26 636.79 25 603.71 25 575 curveto
25 575 25 575 25 117 curveto
25 98.29 100.59 75.88 165 62 curveto
311.03 30.52 490.35 24.42 562.11 23.26 curveto
stroke
0 0 0 edgecolor
newpath 562.34 26.76 moveto
572.29 23.12 lineto
562.25 19.76 lineto
closepath fill
1 setlinewidth
solid
0 0 0 edgecolor
newpath 562.34 26.76 moveto
572.29 23.12 lineto
562.25 19.76 lineto
closepath stroke
0 0 0 edgecolor
14 /Times-Roman set_font
25 362.3 moveto 27 ([0,0]) alignedtext
grestore
% 24
gsave
0.54118 0.25098 1 nodecolor
283 620 19.25 19.5 ellipse_path fill
1 setlinewidth
filled
0.54118 0.25098 1 nodecolor
283 620 19.25 19.5 ellipse_path stroke
0 0 0 nodecolor
14 /Times-Roman set_font
276 616.3 moveto 14 (24) alignedtext
grestore
% 17->24
gsave
1 setlinewidth
0 0 0 edgecolor
newpath 306.81 724.74 moveto
302.23 704.79 294.84 672.6 289.51 649.36 curveto
stroke
0 0 0 edgecolor
newpath 292.87 648.35 moveto
287.22 639.39 lineto
286.05 649.92 lineto
closepath fill
1 setlinewidth
solid
0 0 0 edgecolor
newpath 292.87 648.35 moveto
287.22 639.39 lineto
286.05 649.92 lineto
closepath stroke
0 0 0 edgecolor
14 /Times-Roman set_font
302 678.3 moveto 27 ([0,0]) alignedtext
grestore
% 25
gsave
0.54118 0.25098 1 nodecolor
214 620 19.25 19.5 ellipse_path fill
1 setlinewidth
filled
0.54118 0.25098 1 nodecolor
214 620 19.25 19.5 ellipse_path stroke
0 0 0 nodecolor
14 /Times-Roman set_font
207 616.3 moveto 14 (25) alignedtext
grestore
% 17->25
gsave
1 setlinewidth
0 0 0 edgecolor
newpath 291.85 741.21 moveto
270.23 738.08 235.89 729.48 219 706 curveto
207.36 689.82 206.6 667.12 208.48 649.24 curveto
stroke
0 0 0 edgecolor
newpath 211.98 649.49 moveto
209.87 639.1 lineto
205.04 648.53 lineto
closepath fill
1 setlinewidth
solid
0 0 0 edgecolor
newpath 211.98 649.49 moveto
209.87 639.1 lineto
205.04 648.53 lineto
closepath stroke
0 0 0 edgecolor
14 /Times-Roman set_font
219 678.3 moveto 27 ([1,0]) alignedtext
grestore
% 26
gsave
0.54118 0.25098 1 nodecolor
315 528 19.25 19.5 ellipse_path fill
1 setlinewidth
filled
0.54118 0.25098 1 nodecolor
315 528 19.25 19.5 ellipse_path stroke
0 0 0 nodecolor
14 /Times-Roman set_font
308 524.3 moveto 14 (26) alignedtext
grestore
% 17->26
gsave
1 setlinewidth
0 0 0 edgecolor
newpath 322.68 728.43 moveto
327.15 721.96 331.72 714 334 706 curveto
338.29 690.96 339.66 594.23 333 566 curveto
332.07 562.05 330.66 558.02 329.04 554.16 curveto
stroke
0 0 0 edgecolor
newpath 332.14 552.53 moveto
324.7 545 lineto
325.81 555.53 lineto
closepath fill
1 setlinewidth
solid
0 0 0 edgecolor
newpath 332.14 552.53 moveto
324.7 545 lineto
325.81 555.53 lineto
closepath stroke
0 0 0 edgecolor
14 /Times-Roman set_font
338 616.3 moveto 27 ([1,1]) alignedtext
grestore
% 18->14
gsave
1 setlinewidth
0 0 0 edgecolor
newpath 530.51 731.96 moveto
535.29 728.98 540.69 726.03 546 724 curveto
587.35 708.16 604.49 725.99 644 706 curveto
671.77 691.95 671.75 678.69 695 658 curveto
701.86 651.9 709.47 645.4 716.41 639.58 curveto
stroke
0 0 0 edgecolor
newpath 718.71 642.22 moveto
724.16 633.13 lineto
714.23 636.84 lineto
closepath fill
1 setlinewidth
solid
0 0 0 edgecolor
newpath 718.71 642.22 moveto
724.16 633.13 lineto
714.23 636.84 lineto
closepath stroke
0 0 0 edgecolor
14 /Times-Roman set_font
695 678.3 moveto 27 ([1,1]) alignedtext
grestore
% 27
gsave
0.54118 0.25098 1 nodecolor
219 412 19.25 19.5 ellipse_path fill
1 setlinewidth
filled
0.54118 0.25098 1 nodecolor
219 412 19.25 19.5 ellipse_path stroke
0 0 0 nodecolor
14 /Times-Roman set_font
212 408.3 moveto 14 (27) alignedtext
grestore
% 18->27
gsave
1 setlinewidth
0 0 0 edgecolor
newpath 501.41 730.17 moveto
494.4 723.28 485.9 714.48 479 706 curveto
411.91 623.6 427.48 574.99 345 508 curveto
328.6 494.68 318.11 502.4 301 490 curveto
282.11 476.3 283.89 466.1 267 450 curveto
259.62 442.96 250.94 435.95 243.01 429.95 curveto
stroke
0 0 0 edgecolor
newpath 244.92 427.01 moveto
234.8 423.89 lineto
240.77 432.64 lineto
closepath fill
1 setlinewidth
solid
0 0 0 edgecolor
newpath 244.92 427.01 moveto
234.8 423.89 lineto
240.77 432.64 lineto
closepath stroke
0 0 0 edgecolor
14 /Times-Roman set_font
408 570.3 moveto 27 ([0,1]) alignedtext
grestore
% 19->22
gsave
1 setlinewidth
0 0 0 edgecolor
newpath 469.5 731.94 moveto
474.28 728.97 479.69 726.02 485 724 curveto
527.62 707.81 549.03 732.69 586 706 curveto
605.67 691.8 595.76 676.03 612 658 curveto
619.95 649.17 630.42 641.38 640.02 635.25 curveto
stroke
0 0 0 edgecolor
newpath 642.11 638.08 moveto
648.85 629.91 lineto
638.48 632.09 lineto
closepath fill
1 setlinewidth
solid
0 0 0 edgecolor
newpath 642.11 638.08 moveto
648.85 629.91 lineto
638.48 632.09 lineto
closepath stroke
0 0 0 edgecolor
14 /Times-Roman set_font
612 678.3 moveto 27 ([1,1]) alignedtext
grestore
% 28
gsave
0.54118 0.25098 1 nodecolor
492 620 19.25 19.5 ellipse_path fill
1 setlinewidth
filled
0.54118 0.25098 1 nodecolor
492 620 19.25 19.5 ellipse_path stroke
0 0 0 nodecolor
14 /Times-Roman set_font
485 616.3 moveto 14 (28) alignedtext
grestore
% 19->28
gsave
1 setlinewidth
0 0 0 edgecolor
newpath 443.4 727.51 moveto
439.65 721.14 435.9 713.5 434 706 curveto
428.77 685.32 423.74 676.71 434 658 curveto
440.59 645.97 452.94 637.29 464.56 631.37 curveto
stroke
0 0 0 edgecolor
newpath 466.37 634.39 moveto
474 627.04 lineto
463.45 628.03 lineto
closepath fill
1 setlinewidth
solid
0 0 0 edgecolor
newpath 466.37 634.39 moveto
474 627.04 lineto
463.45 628.03 lineto
closepath stroke
0 0 0 edgecolor
14 /Times-Roman set_font
434 678.3 moveto 27 ([0,0]) alignedtext
grestore
% 29
gsave
0.54118 0.25098 1 nodecolor
558 620 19.25 19.5 ellipse_path fill
1 setlinewidth
filled
0.54118 0.25098 1 nodecolor
558 620 19.25 19.5 ellipse_path stroke
0 0 0 nodecolor
14 /Times-Roman set_font
551 616.3 moveto 14 (29) alignedtext
grestore
% 19->29
gsave
1 setlinewidth
0 0 0 edgecolor
newpath 465.63 727.98 moveto
479.09 710.77 502.08 681.87 523 658 curveto
527.7 652.64 532.91 646.99 537.84 641.75 curveto
stroke
0 0 0 edgecolor
newpath 540.42 644.13 moveto
544.78 634.48 lineto
535.35 639.3 lineto
closepath fill
1 setlinewidth
solid
0 0 0 edgecolor
newpath 540.42 644.13 moveto
544.78 634.48 lineto
535.35 639.3 lineto
closepath stroke
0 0 0 edgecolor
14 /Times-Roman set_font
523 678.3 moveto 27 ([1,0]) alignedtext
grestore
% 20->8
gsave
1 setlinewidth
0 0 0 edgecolor
newpath 83.33 600.38 moveto
83.62 582.19 84 553.69 84 529 curveto
84 529 84 529 84 117 curveto
84 68.15 450.52 34.57 562.13 25.48 curveto
stroke
0 0 0 edgecolor
newpath 562.72 28.94 moveto
572.41 24.65 lineto
562.16 21.96 lineto
closepath fill
1 setlinewidth
solid
0 0 0 edgecolor
newpath 562.72 28.94 moveto
572.41 24.65 lineto
562.16 21.96 lineto
closepath stroke
0 0 0 edgecolor
14 /Times-Roman set_font
84 312.3 moveto 27 ([1,1]) alignedtext
grestore
% 21->23
gsave
1 setlinewidth
0 0 0 edgecolor
newpath 593.92 735.75 moveto
604.08 731.85 617.11 727.2 629 724 curveto
671.76 712.49 686.77 724.5 727 706 curveto
745.07 697.69 785.3 663.07 810.39 640.65 curveto
stroke
0 0 0 edgecolor
newpath 812.85 643.14 moveto
817.95 633.86 lineto
808.17 637.94 lineto
closepath fill
1 setlinewidth
solid
0 0 0 edgecolor
newpath 812.85 643.14 moveto
817.95 633.86 lineto
808.17 637.94 lineto
closepath stroke
0 0 0 edgecolor
14 /Times-Roman set_font
789 678.3 moveto 27 ([0,0]) alignedtext
grestore
% 21->29
gsave
1 setlinewidth
0 0 0 edgecolor
newpath 566.26 727.01 moveto
562.95 720.7 559.67 713.24 558 706 curveto
553.76 687.6 553.76 666.35 554.82 649.71 curveto
stroke
0 0 0 edgecolor
newpath 558.33 649.76 moveto
555.63 639.51 lineto
551.35 649.2 lineto
closepath fill
1 setlinewidth
solid
0 0 0 edgecolor
newpath 558.33 649.76 moveto
555.63 639.51 lineto
551.35 649.2 lineto
closepath stroke
0 0 0 edgecolor
14 /Times-Roman set_font
558 678.3 moveto 27 ([0,1]) alignedtext
grestore
% 30
gsave
0.54118 0.25098 1 nodecolor
650 216 19.25 19.5 ellipse_path fill
1 setlinewidth
filled
0.54118 0.25098 1 nodecolor
650 216 19.25 19.5 ellipse_path stroke
0 0 0 nodecolor
14 /Times-Roman set_font
643 212.3 moveto 14 (30) alignedtext
grestore
% 22->30
gsave
1 setlinewidth
0 0 0 edgecolor
newpath 680.13 606.51 moveto
696.72 590.4 722 560.65 722 529 curveto
722 529 722 529 722 315 curveto
722 281.64 694.57 252.12 673.57 234.42 curveto
stroke
0 0 0 edgecolor
newpath 675.6 231.56 moveto
665.62 228.01 lineto
671.21 237.01 lineto
closepath fill
1 setlinewidth
solid
0 0 0 edgecolor
newpath 675.6 231.56 moveto
665.62 228.01 lineto
671.21 237.01 lineto
closepath stroke
0 0 0 edgecolor
14 /Times-Roman set_font
722 408.3 moveto 57 ([0,0] [1,1]) alignedtext
grestore
% 31
gsave
0.54118 0.25098 1 nodecolor
666 528 19.25 19.5 ellipse_path fill
1 setlinewidth
filled
0.54118 0.25098 1 nodecolor
666 528 19.25 19.5 ellipse_path stroke
0 0 0 nodecolor
14 /Times-Roman set_font
659 524.3 moveto 14 (31) alignedtext
grestore
% 22->31
gsave
1 setlinewidth
0 0 0 edgecolor
newpath 666 600.35 moveto
666 588.04 666 571.67 666 557.72 curveto
stroke
0 0 0 edgecolor
newpath 669.5 557.62 moveto
666 547.62 lineto
662.5 557.62 lineto
closepath fill
1 setlinewidth
solid
0 0 0 edgecolor
newpath 669.5 557.62 moveto
666 547.62 lineto
662.5 557.62 lineto
closepath stroke
0 0 0 edgecolor
14 /Times-Roman set_font
666 570.3 moveto 27 ([1,0]) alignedtext
grestore
% 23->8
gsave
1 setlinewidth
0 0 0 edgecolor
newpath 848.99 610.2 moveto
873.01 596.41 914 567.26 914 529 curveto
914 529 914 529 914 117 curveto
914 57.29 706.31 32.78 625.57 25.51 curveto
stroke
0 0 0 edgecolor
newpath 625.76 22.01 moveto
615.49 24.63 lineto
625.15 28.98 lineto
closepath fill
1 setlinewidth
solid
0 0 0 edgecolor
newpath 625.76 22.01 moveto
615.49 24.63 lineto
625.15 28.98 lineto
closepath stroke
0 0 0 edgecolor
14 /Times-Roman set_font
914 312.3 moveto 27 ([0,0]) alignedtext
grestore
% 24->17
gsave
1 setlinewidth
0 0 0 edgecolor
newpath 270.09 634.99 moveto
264.96 641.49 259.65 649.62 257 658 curveto
250.57 678.34 247.05 687.13 257 706 curveto
262.86 717.12 273.74 725.54 284.2 731.51 curveto
stroke
0 0 0 edgecolor
newpath 282.66 734.66 moveto
293.15 736.14 lineto
285.88 728.44 lineto
closepath fill
1 setlinewidth
solid
0 0 0 edgecolor
newpath 282.66 734.66 moveto
293.15 736.14 lineto
285.88 728.44 lineto
closepath stroke
0 0 0 edgecolor
14 /Times-Roman set_font
257 678.3 moveto 27 ([0,0]) alignedtext
grestore
% 24->26
gsave
1 setlinewidth
0 0 0 edgecolor
newpath 289.32 601.22 moveto
293.88 588.4 300.12 570.86 305.3 556.27 curveto
stroke
0 0 0 edgecolor
newpath 308.64 557.34 moveto
308.69 546.74 lineto
302.04 554.99 lineto
closepath fill
1 setlinewidth
solid
0 0 0 edgecolor
newpath 308.64 557.34 moveto
308.69 546.74 lineto
302.04 554.99 lineto
closepath stroke
0 0 0 edgecolor
14 /Times-Roman set_font
301 570.3 moveto 27 ([1,1]) alignedtext
grestore
% 32
gsave
0.54118 0.25098 1 nodecolor
203 528 19.25 19.5 ellipse_path fill
1 setlinewidth
filled
0.54118 0.25098 1 nodecolor
203 528 19.25 19.5 ellipse_path stroke
0 0 0 nodecolor
14 /Times-Roman set_font
196 524.3 moveto 14 (32) alignedtext
grestore
% 24->32
gsave
1 setlinewidth
0 0 0 edgecolor
newpath 270.5 604.94 moveto
257.58 590.41 237.25 567.54 222.28 550.69 curveto
stroke
0 0 0 edgecolor
newpath 224.67 548.11 moveto
215.41 542.96 lineto
219.44 552.76 lineto
closepath fill
1 setlinewidth
solid
0 0 0 edgecolor
newpath 224.67 548.11 moveto
215.41 542.96 lineto
219.44 552.76 lineto
closepath stroke
0 0 0 edgecolor
14 /Times-Roman set_font
248 570.3 moveto 27 ([1,0]) alignedtext
grestore
% 25->32
gsave
1 setlinewidth
0 0 0 edgecolor
newpath 207.68 601.54 moveto
205.78 595.44 203.95 588.5 203 582 curveto
201.87 574.24 201.49 565.77 201.49 557.92 curveto
stroke
0 0 0 edgecolor
newpath 205 557.8 moveto
201.69 547.74 lineto
198 557.67 lineto
closepath fill
1 setlinewidth
solid
0 0 0 edgecolor
newpath 205 557.8 moveto
201.69 547.74 lineto
198 557.67 lineto
closepath stroke
0 0 0 edgecolor
14 /Times-Roman set_font
203 570.3 moveto 27 ([0,1]) alignedtext
grestore
% 26->27
gsave
1 setlinewidth
0 0 0 edgecolor
newpath 296.24 522.68 moveto
278.87 517.71 253.59 507.83 239 490 curveto
227.98 476.54 222.97 457.69 220.71 442.01 curveto
stroke
0 0 0 edgecolor
newpath 224.15 441.31 moveto
219.55 431.76 lineto
217.2 442.09 lineto
closepath fill
1 setlinewidth
solid
0 0 0 edgecolor
newpath 224.15 441.31 moveto
219.55 431.76 lineto
217.2 442.09 lineto
closepath stroke
0 0 0 edgecolor
14 /Times-Roman set_font
239 466.3 moveto 27 ([1,0]) alignedtext
grestore
% 33
gsave
0.54118 0.25098 1 nodecolor
301 412 19.25 19.5 ellipse_path fill
1 setlinewidth
filled
0.54118 0.25098 1 nodecolor
301 412 19.25 19.5 ellipse_path stroke
0 0 0 nodecolor
14 /Times-Roman set_font
294 408.3 moveto 14 (33) alignedtext
grestore
% 26->33
gsave
1 setlinewidth
0 0 0 edgecolor
newpath 312.72 508.43 moveto
310.49 490.3 307.07 462.45 304.5 441.5 curveto
stroke
0 0 0 edgecolor
newpath 307.97 441.06 moveto
303.28 431.56 lineto
301.02 441.91 lineto
closepath fill
1 setlinewidth
solid
0 0 0 edgecolor
newpath 307.97 441.06 moveto
303.28 431.56 lineto
301.02 441.91 lineto
closepath stroke
0 0 0 edgecolor
14 /Times-Roman set_font
311 466.3 moveto 57 ([0,0] [1,1]) alignedtext
grestore
% 34
gsave
0.54118 0.25098 1 nodecolor
199 316 19.25 19.5 ellipse_path fill
1 setlinewidth
filled
0.54118 0.25098 1 nodecolor
199 316 19.25 19.5 ellipse_path stroke
0 0 0 nodecolor
14 /Times-Roman set_font
192 312.3 moveto 14 (34) alignedtext
grestore
% 27->34
gsave
1 setlinewidth
0 0 0 edgecolor
newpath 206.09 397.01 moveto
200.96 390.51 195.65 382.38 193 374 curveto
190.08 364.76 190.25 354.31 191.58 344.9 curveto
stroke
0 0 0 edgecolor
newpath 195.06 345.31 moveto
193.47 334.84 lineto
188.18 344.02 lineto
closepath fill
1 setlinewidth
solid
0 0 0 edgecolor
newpath 195.06 345.31 moveto
193.47 334.84 lineto
188.18 344.02 lineto
closepath stroke
0 0 0 edgecolor
14 /Times-Roman set_font
193 362.3 moveto 27 ([0,1]) alignedtext
grestore
% 35
gsave
0.54118 0.25098 1 nodecolor
502 528 19.25 19.5 ellipse_path fill
1 setlinewidth
filled
0.54118 0.25098 1 nodecolor
502 528 19.25 19.5 ellipse_path stroke
0 0 0 nodecolor
14 /Times-Roman set_font
495 524.3 moveto 14 (35) alignedtext
grestore
% 28->35
gsave
1 setlinewidth
0 0 0 edgecolor
newpath 494.07 600.35 moveto
495.44 588.04 497.26 571.67 498.81 557.72 curveto
stroke
0 0 0 edgecolor
newpath 502.3 557.95 moveto
499.93 547.62 lineto
495.35 557.18 lineto
closepath fill
1 setlinewidth
solid
0 0 0 edgecolor
newpath 502.3 557.95 moveto
499.93 547.62 lineto
495.35 557.18 lineto
closepath stroke
0 0 0 edgecolor
14 /Times-Roman set_font
498 570.3 moveto 27 ([0,0]) alignedtext
grestore
% 36
gsave
0.54118 0.25098 1 nodecolor
403 470 19.25 19.5 ellipse_path fill
1 setlinewidth
filled
0.54118 0.25098 1 nodecolor
403 470 19.25 19.5 ellipse_path stroke
0 0 0 nodecolor
14 /Times-Roman set_font
396 466.3 moveto 14 (36) alignedtext
grestore
% 28->36
gsave
1 setlinewidth
0 0 0 edgecolor
newpath 480.54 604.17 moveto
475.57 597.52 469.81 589.5 465 582 curveto
446.76 553.54 428.16 519.41 416.15 496.58 curveto
stroke
0 0 0 edgecolor
newpath 419.16 494.78 moveto
411.43 487.54 lineto
412.96 498.02 lineto
closepath fill
1 setlinewidth
solid
0 0 0 edgecolor
newpath 419.16 494.78 moveto
411.43 487.54 lineto
412.96 498.02 lineto
closepath stroke
0 0 0 edgecolor
14 /Times-Roman set_font
465 570.3 moveto 27 ([1,0]) alignedtext
grestore
% 37
gsave
0.54118 0.25098 1 nodecolor
591 316 19.25 19.5 ellipse_path fill
1 setlinewidth
filled
0.54118 0.25098 1 nodecolor
591 316 19.25 19.5 ellipse_path stroke
0 0 0 nodecolor
14 /Times-Roman set_font
584 312.3 moveto 14 (37) alignedtext
grestore
% 28->37
gsave
1 setlinewidth
0 0 0 edgecolor
newpath 506.54 607 moveto
514.16 600.21 523.29 591.24 530 582 curveto
573.71 521.87 587.11 504.39 604 432 curveto
610.85 402.64 605.2 368.2 599.36 344.71 curveto
stroke
0 0 0 edgecolor
newpath 602.66 343.51 moveto
596.7 334.75 lineto
595.9 345.32 lineto
closepath fill
1 setlinewidth
solid
0 0 0 edgecolor
newpath 602.66 343.51 moveto
596.7 334.75 lineto
595.9 345.32 lineto
closepath stroke
0 0 0 edgecolor
14 /Times-Roman set_font
600 466.3 moveto 27 ([1,1]) alignedtext
grestore
% 29->31
gsave
1 setlinewidth
0 0 0 edgecolor
newpath 572.57 606.86 moveto
590.76 591.7 622.1 565.59 643.41 547.82 curveto
stroke
0 0 0 edgecolor
newpath 645.88 550.32 moveto
651.32 541.23 lineto
641.4 544.95 lineto
closepath fill
1 setlinewidth
solid
0 0 0 edgecolor
newpath 645.88 550.32 moveto
651.32 541.23 lineto
641.4 544.95 lineto
closepath stroke
0 0 0 edgecolor
14 /Times-Roman set_font
619 570.3 moveto 27 ([0,1]) alignedtext
grestore
% 30->8
gsave
1 setlinewidth
0 0 0 edgecolor
newpath 646.36 196.82 moveto
640.35 167.88 627.36 109.71 611 62 curveto
609.84 58.61 608.51 55.11 607.11 51.66 curveto
stroke
0 0 0 edgecolor
newpath 610.23 50.04 moveto
603.1 42.2 lineto
603.78 52.77 lineto
closepath fill
1 setlinewidth
solid
0 0 0 edgecolor
newpath 610.23 50.04 moveto
603.1 42.2 lineto
603.78 52.77 lineto
closepath stroke
0 0 0 edgecolor
14 /Times-Roman set_font
633 114.3 moveto 27 ([1,0]) alignedtext
grestore
% 31->8
gsave
1 setlinewidth
0 0 0 edgecolor
newpath 667.37 508.23 moveto
669.5 465.61 669.19 359.93 621 292 curveto
611.78 279.01 597.95 287.81 590 274 curveto
586.45 267.84 589.94 265.11 590 258 curveto
590.62 184.91 592.33 99.04 593.3 54.06 curveto
stroke
0 0 0 edgecolor
newpath 596.8 54.14 moveto
593.52 44.06 lineto
589.8 53.99 lineto
closepath fill
1 setlinewidth
solid
0 0 0 edgecolor
newpath 596.8 54.14 moveto
593.52 44.06 lineto
589.8 53.99 lineto
closepath stroke
0 0 0 edgecolor
14 /Times-Roman set_font
590 262.3 moveto 27 ([0,1]) alignedtext
grestore
% 32->27
gsave
1 setlinewidth
0 0 0 edgecolor
newpath 193.26 511.01 moveto
189.95 504.7 186.67 497.24 185 490 curveto
181.01 472.68 178.55 466.56 185 450 curveto
187.6 443.34 192.02 437.15 196.82 431.81 curveto
stroke
0 0 0 edgecolor
newpath 199.39 434.2 moveto
203.98 424.65 lineto
194.44 429.25 lineto
closepath fill
1 setlinewidth
solid
0 0 0 edgecolor
newpath 199.39 434.2 moveto
203.98 424.65 lineto
194.44 429.25 lineto
closepath stroke
0 0 0 edgecolor
14 /Times-Roman set_font
185 466.3 moveto 27 ([0,1]) alignedtext
grestore
% 33->34
gsave
1 setlinewidth
0 0 0 edgecolor
newpath 284.57 401.37 moveto
273.41 394.46 258.63 384.53 247 374 curveto
235.95 364 225.13 351.45 216.56 340.68 curveto
stroke
0 0 0 edgecolor
newpath 219.11 338.26 moveto
210.22 332.51 lineto
213.58 342.55 lineto
closepath fill
1 setlinewidth
solid
0 0 0 edgecolor
newpath 219.11 338.26 moveto
210.22 332.51 lineto
213.58 342.55 lineto
closepath stroke
0 0 0 edgecolor
14 /Times-Roman set_font
247 362.3 moveto 27 ([1,0]) alignedtext
grestore
% 38
gsave
0.54118 0.25098 1 nodecolor
260 316 19.25 19.5 ellipse_path fill
1 setlinewidth
filled
0.54118 0.25098 1 nodecolor
260 316 19.25 19.5 ellipse_path stroke
0 0 0 nodecolor
14 /Times-Roman set_font
253 312.3 moveto 14 (38) alignedtext
grestore
% 33->38
gsave
1 setlinewidth
0 0 0 edgecolor
newpath 293.48 393.76 moveto
287.35 379.71 278.6 359.64 271.58 343.55 curveto
stroke
0 0 0 edgecolor
newpath 274.68 341.9 moveto
267.47 334.13 lineto
268.26 344.7 lineto
closepath fill
1 setlinewidth
solid
0 0 0 edgecolor
newpath 274.68 341.9 moveto
267.47 334.13 lineto
268.26 344.7 lineto
closepath stroke
0 0 0 edgecolor
14 /Times-Roman set_font
285 362.3 moveto 57 ([0,0] [1,1]) alignedtext
grestore
% 39
gsave
0.023529 0.72157 1 nodecolor
231 216 19.29 19.5 ellipse_path fill
1 setlinewidth
filled
0.023529 0.72157 1 nodecolor
231 216 19.29 19.5 ellipse_path stroke
1 setlinewidth
filled
0.023529 0.72157 1 nodecolor
231 216 23.25 23.5 ellipse_path stroke
0 0 0 nodecolor
14 /Times-Roman set_font
224 212.3 moveto 14 (39) alignedtext
grestore
% 34->39
gsave
1 setlinewidth
0 0 0 edgecolor
newpath 202.15 296.76 moveto
204.35 285.44 207.67 270.68 212 258 curveto
213.3 254.18 214.85 250.25 216.49 246.39 curveto
stroke
0 0 0 edgecolor
newpath 219.76 247.65 moveto
220.67 237.09 lineto
213.38 244.78 lineto
closepath fill
1 setlinewidth
solid
0 0 0 edgecolor
newpath 219.76 247.65 moveto
220.67 237.09 lineto
213.38 244.78 lineto
closepath stroke
0 0 0 edgecolor
14 /Times-Roman set_font
212 262.3 moveto 27 ([0,1]) alignedtext
grestore
% 35->37
gsave
1 setlinewidth
0 0 0 edgecolor
newpath 517.16 515.42 moveto
524.97 508.74 534.07 499.76 540 490 curveto
554.87 465.51 574.54 387.64 584.55 345.21 curveto
stroke
0 0 0 edgecolor
newpath 588.01 345.78 moveto
586.88 335.24 lineto
581.2 344.18 lineto
closepath fill
1 setlinewidth
solid
0 0 0 edgecolor
newpath 588.01 345.78 moveto
586.88 335.24 lineto
581.2 344.18 lineto
closepath stroke
0 0 0 edgecolor
14 /Times-Roman set_font
573 408.3 moveto 27 ([1,1]) alignedtext
grestore
% 40
gsave
0.54118 0.25098 1 nodecolor
494 412 19.25 19.5 ellipse_path fill
1 setlinewidth
filled
0.54118 0.25098 1 nodecolor
494 412 19.25 19.5 ellipse_path stroke
0 0 0 nodecolor
14 /Times-Roman set_font
487 408.3 moveto 14 (40) alignedtext
grestore
% 35->40
gsave
1 setlinewidth
0 0 0 edgecolor
newpath 505.1 508.53 moveto
507.22 492.86 509.14 469.83 506 450 curveto
505.48 446.73 504.72 443.36 503.84 440.04 curveto
stroke
0 0 0 edgecolor
newpath 507.16 438.95 moveto
500.89 430.41 lineto
500.47 441 lineto
closepath fill
1 setlinewidth
solid
0 0 0 edgecolor
newpath 507.16 438.95 moveto
500.89 430.41 lineto
500.47 441 lineto
closepath stroke
0 0 0 edgecolor
14 /Times-Roman set_font
508 466.3 moveto 27 ([0,0]) alignedtext
grestore
% 41
gsave
0.023529 0.72157 1 nodecolor
450 216 19.29 19.5 ellipse_path fill
1 setlinewidth
filled
0.023529 0.72157 1 nodecolor
450 216 19.29 19.5 ellipse_path stroke
1 setlinewidth
filled
0.023529 0.72157 1 nodecolor
450 216 23.25 23.5 ellipse_path stroke
0 0 0 nodecolor
14 /Times-Roman set_font
443 212.3 moveto 14 (41) alignedtext
grestore
% 35->41
gsave
1 setlinewidth
0 0 0 edgecolor
newpath 487.93 514.69 moveto
481.33 508.07 474.04 499.35 470 490 curveto
435.07 409.2 440.22 302.39 445.73 249.52 curveto
stroke
0 0 0 edgecolor
newpath 449.23 249.72 moveto
446.86 239.39 lineto
442.28 248.94 lineto
closepath fill
1 setlinewidth
solid
0 0 0 edgecolor
newpath 449.23 249.72 moveto
446.86 239.39 lineto
442.28 248.94 lineto
closepath stroke
0 0 0 edgecolor
14 /Times-Roman set_font
444 362.3 moveto 27 ([1,0]) alignedtext
grestore
% 36->41
gsave
1 setlinewidth
0 0 0 edgecolor
newpath 396.42 451.28 moveto
389.12 429.35 379.12 390.86 385 358 curveto
393.35 311.35 400.25 300.1 422 258 curveto
424.46 253.24 427.37 248.37 430.38 243.74 curveto
stroke
0 0 0 edgecolor
newpath 433.46 245.42 moveto
436.17 235.18 lineto
427.67 241.5 lineto
closepath fill
1 setlinewidth
solid
0 0 0 edgecolor
newpath 433.46 245.42 moveto
436.17 235.18 lineto
427.67 241.5 lineto
closepath stroke
0 0 0 edgecolor
14 /Times-Roman set_font
385 362.3 moveto 27 ([0,1]) alignedtext
grestore
% 37->4
gsave
1 setlinewidth
0 0 0 edgecolor
newpath 581.17 298.78 moveto
576.73 291.3 571.48 282.27 567 274 curveto
543.49 230.62 518.45 179.11 503.53 147.75 curveto
stroke
0 0 0 edgecolor
newpath 506.5 145.85 moveto
499.05 138.31 lineto
500.17 148.85 lineto
closepath fill
1 setlinewidth
solid
0 0 0 edgecolor
newpath 506.5 145.85 moveto
499.05 138.31 lineto
500.17 148.85 lineto
closepath stroke
0 0 0 edgecolor
14 /Times-Roman set_font
549 212.3 moveto 27 ([1,0]) alignedtext
grestore
% 37->30
gsave
1 setlinewidth
0 0 0 edgecolor
newpath 603.2 300.3 moveto
609.22 292.7 616.38 283.12 622 274 curveto
627.94 264.35 633.62 253.27 638.3 243.45 curveto
stroke
0 0 0 edgecolor
newpath 641.57 244.71 moveto
642.61 234.16 lineto
635.23 241.76 lineto
closepath fill
1 setlinewidth
solid
0 0 0 edgecolor
newpath 641.57 244.71 moveto
642.61 234.16 lineto
635.23 241.76 lineto
closepath stroke
0 0 0 edgecolor
14 /Times-Roman set_font
631 262.3 moveto 57 ([0,0] [1,1]) alignedtext
grestore
% 38->38
gsave
1 setlinewidth
0 0 0 edgecolor
newpath 277.7 324.55 moveto
289.51 326.96 301 324.11 301 316 curveto
301 310.3 295.32 307.2 287.84 306.7 curveto
stroke
0 0 0 edgecolor
newpath 287.41 303.22 moveto
277.7 307.45 lineto
287.93 310.2 lineto
closepath fill
1 setlinewidth
solid
0 0 0 edgecolor
newpath 287.41 303.22 moveto
277.7 307.45 lineto
287.93 310.2 lineto
closepath stroke
0 0 0 edgecolor
14 /Times-Roman set_font
301 312.3 moveto 57 ([0,0] [1,1]) alignedtext
grestore
% 38->39
gsave
1 setlinewidth
0 0 0 edgecolor
newpath 254.68 297.03 moveto
250.68 283.52 245.11 264.67 240.37 248.65 curveto
stroke
0 0 0 edgecolor
newpath 243.59 247.22 moveto
237.4 238.62 lineto
236.88 249.21 lineto
closepath fill
1 setlinewidth
solid
0 0 0 edgecolor
newpath 243.59 247.22 moveto
237.4 238.62 lineto
236.88 249.21 lineto
closepath stroke
0 0 0 edgecolor
14 /Times-Roman set_font
248 262.3 moveto 27 ([1,0]) alignedtext
grestore
% 39->39
gsave
1 setlinewidth
0 0 0 edgecolor
newpath 252.76 224.93 moveto
264.86 226.59 276 223.62 276 216 curveto
276 210.58 270.37 207.52 262.77 206.79 curveto
stroke
0 0 0 edgecolor
newpath 262.66 203.29 moveto
252.76 207.07 lineto
262.86 210.29 lineto
closepath fill
1 setlinewidth
solid
0 0 0 edgecolor
newpath 262.66 203.29 moveto
252.76 207.07 lineto
262.86 210.29 lineto
closepath stroke
0 0 0 edgecolor
14 /Times-Roman set_font
276 212.3 moveto 27 ([0,1]) alignedtext
grestore
% 40->35
gsave
1 setlinewidth
0 0 0 edgecolor
newpath 485.17 429.47 moveto
482.28 435.72 479.45 443.01 478 450 curveto
474.4 467.41 472.96 472.95 478 490 curveto
479.42 494.8 481.68 499.55 484.25 503.98 curveto
stroke
0 0 0 edgecolor
newpath 481.42 506.04 moveto
489.82 512.5 lineto
487.28 502.22 lineto
closepath fill
1 setlinewidth
solid
0 0 0 edgecolor
newpath 481.42 506.04 moveto
489.82 512.5 lineto
487.28 502.22 lineto
closepath stroke
0 0 0 edgecolor
14 /Times-Roman set_font
478 466.3 moveto 27 ([0,0]) alignedtext
grestore
% 40->37
gsave
1 setlinewidth
0 0 0 edgecolor
newpath 507.38 397.36 moveto
518.01 386.58 533.33 371.19 547 358 curveto
554.28 350.97 562.36 343.39 569.58 336.67 curveto
stroke
0 0 0 edgecolor
newpath 572.05 339.16 moveto
577.01 329.8 lineto
567.29 334.02 lineto
closepath fill
1 setlinewidth
solid
0 0 0 edgecolor
newpath 572.05 339.16 moveto
577.01 329.8 lineto
567.29 334.02 lineto
closepath stroke
0 0 0 edgecolor
14 /Times-Roman set_font
547 362.3 moveto 27 ([1,1]) alignedtext
grestore
% 42
gsave
0.023529 0.72157 1 nodecolor
496 316 19.29 19.5 ellipse_path fill
1 setlinewidth
filled
0.023529 0.72157 1 nodecolor
496 316 19.29 19.5 ellipse_path stroke
1 setlinewidth
filled
0.023529 0.72157 1 nodecolor
496 316 23.25 23.5 ellipse_path stroke
0 0 0 nodecolor
14 /Times-Roman set_font
489 312.3 moveto 14 (42) alignedtext
grestore
% 40->42
gsave
1 setlinewidth
0 0 0 edgecolor
newpath 493.39 392.18 moveto
493.23 386.35 493.08 379.91 493 374 curveto
492.9 366.89 492.74 365.11 493 358 curveto
493.1 355.29 493.24 352.47 493.39 349.65 curveto
stroke
0 0 0 edgecolor
newpath 496.9 349.75 moveto
494.05 339.54 lineto
489.91 349.29 lineto
closepath fill
1 setlinewidth
solid
0 0 0 edgecolor
newpath 496.9 349.75 moveto
494.05 339.54 lineto
489.91 349.29 lineto
closepath stroke
0 0 0 edgecolor
14 /Times-Roman set_font
493 362.3 moveto 27 ([1,0]) alignedtext
grestore
% 41->4
gsave
1 setlinewidth
0 0 0 edgecolor
newpath 458.68 194.17 moveto
464.33 180.6 471.79 162.71 478.01 147.78 curveto
stroke
0 0 0 edgecolor
newpath 481.27 149.06 moveto
481.88 138.48 lineto
474.81 146.37 lineto
closepath fill
1 setlinewidth
solid
0 0 0 edgecolor
newpath 481.27 149.06 moveto
481.88 138.48 lineto
474.81 146.37 lineto
closepath stroke
0 0 0 edgecolor
14 /Times-Roman set_font
474 162.3 moveto 27 ([0,1]) alignedtext
grestore
% 42->41
gsave
1 setlinewidth
0 0 0 edgecolor
newpath 486.24 294.22 moveto
479.74 280.35 471.08 261.91 463.86 246.53 curveto
stroke
0 0 0 edgecolor
newpath 467 244.98 moveto
459.58 237.42 lineto
460.66 247.96 lineto
closepath fill
1 setlinewidth
solid
0 0 0 edgecolor
newpath 467 244.98 moveto
459.58 237.42 lineto
460.66 247.96 lineto
closepath stroke
0 0 0 edgecolor
14 /Times-Roman set_font
476 262.3 moveto 27 ([0,1]) alignedtext
grestore
endpage
showpage
grestore
%%PageTrailer
%%EndPage: 1
%%Trailer
end
restore
%%EOF
