%!PS-Adobe-3.0 EPSF-3.0
%%Creator: graphviz version 2.38.0 (20140413.2041)
%%Title: FSA Utilities
%%Pages: 1
%%BoundingBox: 107 47 505 745
%%EndComments
save
%%BeginProlog
/DotDict 200 dict def
DotDict begin

/setupLatin1 {
mark
/EncodingVector 256 array def
 EncodingVector 0

ISOLatin1Encoding 0 255 getinterval putinterval
EncodingVector 45 /hyphen put

% Set up ISO Latin 1 character encoding
/starnetISO {
        dup dup findfont dup length dict begin
        { 1 index /FID ne { def }{ pop pop } ifelse
        } forall
        /Encoding EncodingVector def
        currentdict end definefont
} def
/Times-Roman starnetISO def
/Times-Italic starnetISO def
/Times-Bold starnetISO def
/Times-BoldItalic starnetISO def
/Helvetica starnetISO def
/Helvetica-Oblique starnetISO def
/Helvetica-Bold starnetISO def
/Helvetica-BoldOblique starnetISO def
/Courier starnetISO def
/Courier-Oblique starnetISO def
/Courier-Bold starnetISO def
/Courier-BoldOblique starnetISO def
cleartomark
} bind def

%%BeginResource: procset graphviz 0 0
/coord-font-family /Times-Roman def
/default-font-family /Times-Roman def
/coordfont coord-font-family findfont 8 scalefont def

/InvScaleFactor 1.0 def
/set_scale {
       dup 1 exch div /InvScaleFactor exch def
       scale
} bind def

% styles
/solid { [] 0 setdash } bind def
/dashed { [9 InvScaleFactor mul dup ] 0 setdash } bind def
/dotted { [1 InvScaleFactor mul 6 InvScaleFactor mul] 0 setdash } bind def
/invis {/fill {newpath} def /stroke {newpath} def /show {pop newpath} def} bind def
/bold { 2 setlinewidth } bind def
/filled { } bind def
/unfilled { } bind def
/rounded { } bind def
/diagonals { } bind def
/tapered { } bind def

% hooks for setting color 
/nodecolor { sethsbcolor } bind def
/edgecolor { sethsbcolor } bind def
/graphcolor { sethsbcolor } bind def
/nopcolor {pop pop pop} bind def

/beginpage {	% i j npages
	/npages exch def
	/j exch def
	/i exch def
	/str 10 string def
	npages 1 gt {
		gsave
			coordfont setfont
			0 0 moveto
			(\() show i str cvs show (,) show j str cvs show (\)) show
		grestore
	} if
} bind def

/set_font {
	findfont exch
	scalefont setfont
} def

% draw text fitted to its expected width
/alignedtext {			% width text
	/text exch def
	/width exch def
	gsave
		width 0 gt {
			[] 0 setdash
			text stringwidth pop width exch sub text length div 0 text ashow
		} if
	grestore
} def

/boxprim {				% xcorner ycorner xsize ysize
		4 2 roll
		moveto
		2 copy
		exch 0 rlineto
		0 exch rlineto
		pop neg 0 rlineto
		closepath
} bind def

/ellipse_path {
	/ry exch def
	/rx exch def
	/y exch def
	/x exch def
	matrix currentmatrix
	newpath
	x y translate
	rx ry scale
	0 0 1 0 360 arc
	setmatrix
} bind def

/endpage { showpage } bind def
/showpage { } def

/layercolorseq
	[	% layer color sequence - darkest to lightest
		[0 0 0]
		[.2 .8 .8]
		[.4 .8 .8]
		[.6 .8 .8]
		[.8 .8 .8]
	]
def

/layerlen layercolorseq length def

/setlayer {/maxlayer exch def /curlayer exch def
	layercolorseq curlayer 1 sub layerlen mod get
	aload pop sethsbcolor
	/nodecolor {nopcolor} def
	/edgecolor {nopcolor} def
	/graphcolor {nopcolor} def
} bind def

/onlayer { curlayer ne {invis} if } def

/onlayers {
	/myupper exch def
	/mylower exch def
	curlayer mylower lt
	curlayer myupper gt
	or
	{invis} if
} def

/curlayer 0 def

%%EndResource
%%EndProlog
%%BeginSetup
14 default-font-family set_font
1 setmiterlimit
% /arrowlength 10 def
% /arrowwidth 5 def

% make sure pdfmark is harmless for PS-interpreters other than Distiller
/pdfmark where {pop} {userdict /pdfmark /cleartomark load put} ifelse
% make '<<' and '>>' safe on PS Level 1 devices
/languagelevel where {pop languagelevel}{1} ifelse
2 lt {
    userdict (<<) cvn ([) cvn load put
    userdict (>>) cvn ([) cvn load put
} if

%%EndSetup
setupLatin1
%%Page: 1 1
%%PageBoundingBox: 107 47 505 745
%%PageOrientation: Portrait
0 0 1 beginpage
gsave
107 47 398 698 boxprim clip newpath
1 1 set_scale 0 rotate 111.251 51.0035 translate
% start0
gsave
grestore
% 0
gsave
0.83922 0.48235 0.8549 nodecolor
65 594.99 18 18 ellipse_path fill
1 setlinewidth
filled
0.83922 0.48235 0.8549 nodecolor
65 594.99 18 18 ellipse_path stroke
1 setlinewidth
filled
0.83922 0.48235 0.8549 nodecolor
65 594.99 22 22 ellipse_path stroke
0 0 0 nodecolor
14 /Times-Roman set_font
61.5 591.29 moveto 7 (0) alignedtext
grestore
% start0->0
gsave
1 setlinewidth
0 0 0 edgecolor
newpath 65 653.97 moveto
65 646.15 65 636.6 65 627.53 curveto
stroke
0 0 0 edgecolor
newpath 68.5 627.24 moveto
65 617.24 lineto
61.5 627.24 lineto
closepath fill
1 setlinewidth
solid
0 0 0 edgecolor
newpath 68.5 627.24 moveto
65 617.24 lineto
61.5 627.24 lineto
closepath stroke
grestore
% 0->0
gsave
1 setlinewidth
0 0 0 edgecolor
newpath 86.28 602.13 moveto
98.11 603.47 109 601.09 109 594.99 curveto
109 590.71 103.61 588.26 96.31 587.65 curveto
stroke
0 0 0 edgecolor
newpath 96.2 584.15 moveto
86.28 587.85 lineto
96.35 591.15 lineto
closepath fill
1 setlinewidth
solid
0 0 0 edgecolor
newpath 96.2 584.15 moveto
86.28 587.85 lineto
96.35 591.15 lineto
closepath stroke
0 0 0 edgecolor
14 /Times-Roman set_font
109 591.29 moveto 27 ([0,0]) alignedtext
grestore
% 1
gsave
0.54118 0.25098 1 nodecolor
65 503.99 18 18 ellipse_path fill
1 setlinewidth
filled
0.54118 0.25098 1 nodecolor
65 503.99 18 18 ellipse_path stroke
0 0 0 nodecolor
14 /Times-Roman set_font
61.5 500.29 moveto 7 (1) alignedtext
grestore
% 0->1
gsave
1 setlinewidth
0 0 0 edgecolor
newpath 65 572.9 moveto
65 560.77 65 545.4 65 532.35 curveto
stroke
0 0 0 edgecolor
newpath 68.5 532.06 moveto
65 522.06 lineto
61.5 532.06 lineto
closepath fill
1 setlinewidth
solid
0 0 0 edgecolor
newpath 68.5 532.06 moveto
65 522.06 lineto
61.5 532.06 lineto
closepath stroke
0 0 0 edgecolor
14 /Times-Roman set_font
65 543.79 moveto 27 ([0,1]) alignedtext
grestore
% 2
gsave
0.54118 0.25098 1 nodecolor
101 416.99 18 18 ellipse_path fill
1 setlinewidth
filled
0.54118 0.25098 1 nodecolor
101 416.99 18 18 ellipse_path stroke
0 0 0 nodecolor
14 /Times-Roman set_font
97.5 413.29 moveto 7 (2) alignedtext
grestore
% 1->2
gsave
1 setlinewidth
0 0 0 edgecolor
newpath 71.77 487.01 moveto
77 474.66 84.34 457.34 90.35 443.14 curveto
stroke
0 0 0 edgecolor
newpath 93.58 444.48 moveto
94.26 433.91 lineto
87.14 441.75 lineto
closepath fill
1 setlinewidth
solid
0 0 0 edgecolor
newpath 93.58 444.48 moveto
94.26 433.91 lineto
87.14 441.75 lineto
closepath stroke
0 0 0 edgecolor
14 /Times-Roman set_font
87 456.79 moveto 27 ([0,1]) alignedtext
grestore
% 3
gsave
0.023529 0.72157 1 nodecolor
22 358.99 18 18 ellipse_path fill
1 setlinewidth
filled
0.023529 0.72157 1 nodecolor
22 358.99 18 18 ellipse_path stroke
1 setlinewidth
filled
0.023529 0.72157 1 nodecolor
22 358.99 22 22 ellipse_path stroke
0 0 0 nodecolor
14 /Times-Roman set_font
18.5 355.29 moveto 7 (3) alignedtext
grestore
% 1->3
gsave
1 setlinewidth
0 0 0 edgecolor
newpath 57.21 487.56 moveto
54.37 481.56 51.3 474.55 49 467.99 curveto
40.11 442.6 32.9 412.88 28.18 391.06 curveto
stroke
0 0 0 edgecolor
newpath 31.55 390.09 moveto
26.06 381.03 lineto
24.7 391.54 lineto
closepath fill
1 setlinewidth
solid
0 0 0 edgecolor
newpath 31.55 390.09 moveto
26.06 381.03 lineto
24.7 391.54 lineto
closepath stroke
0 0 0 edgecolor
14 /Times-Roman set_font
49 456.79 moveto 27 ([1,1]) alignedtext
grestore
% 4
gsave
0.54118 0.25098 1 nodecolor
188 300.99 18 18 ellipse_path fill
1 setlinewidth
filled
0.54118 0.25098 1 nodecolor
188 300.99 18 18 ellipse_path stroke
0 0 0 nodecolor
14 /Times-Roman set_font
184.5 297.29 moveto 7 (4) alignedtext
grestore
% 2->4
gsave
1 setlinewidth
0 0 0 edgecolor
newpath 112.66 402.92 moveto
118.33 396.43 125.16 388.41 131 380.99 curveto
145.65 362.38 161.33 340.49 172.53 324.47 curveto
stroke
0 0 0 edgecolor
newpath 175.42 326.45 moveto
178.26 316.24 lineto
169.67 322.45 lineto
closepath fill
1 setlinewidth
solid
0 0 0 edgecolor
newpath 175.42 326.45 moveto
178.26 316.24 lineto
169.67 322.45 lineto
closepath stroke
0 0 0 edgecolor
14 /Times-Roman set_font
165 355.29 moveto 27 ([0,0]) alignedtext
grestore
% 5
gsave
0.54118 0.25098 1 nodecolor
101 300.99 18 18 ellipse_path fill
1 setlinewidth
filled
0.54118 0.25098 1 nodecolor
101 300.99 18 18 ellipse_path stroke
0 0 0 nodecolor
14 /Times-Roman set_font
97.5 297.29 moveto 7 (5) alignedtext
grestore
% 2->5
gsave
1 setlinewidth
0 0 0 edgecolor
newpath 101 398.68 moveto
101 380.24 101 350.81 101 329.26 curveto
stroke
0 0 0 edgecolor
newpath 104.5 329.1 moveto
101 319.1 lineto
97.5 329.1 lineto
closepath fill
1 setlinewidth
solid
0 0 0 edgecolor
newpath 104.5 329.1 moveto
101 319.1 lineto
97.5 329.1 lineto
closepath stroke
0 0 0 edgecolor
14 /Times-Roman set_font
101 355.29 moveto 27 ([1,0]) alignedtext
grestore
% 6
gsave
0.023529 0.72157 1 nodecolor
70 120 18 18 ellipse_path fill
1 setlinewidth
filled
0.023529 0.72157 1 nodecolor
70 120 18 18 ellipse_path stroke
1 setlinewidth
filled
0.023529 0.72157 1 nodecolor
70 120 22 22 ellipse_path stroke
0 0 0 nodecolor
14 /Times-Roman set_font
66.5 116.3 moveto 7 (6) alignedtext
grestore
% 3->6
gsave
1 setlinewidth
0 0 0 edgecolor
newpath 22.63 336.83 moveto
23.97 305.12 28.15 243.58 41 193 curveto
44.75 178.22 50.86 162.44 56.5 149.43 curveto
stroke
0 0 0 edgecolor
newpath 59.79 150.64 moveto
60.67 140.08 lineto
53.4 147.78 lineto
closepath fill
1 setlinewidth
solid
0 0 0 edgecolor
newpath 59.79 150.64 moveto
60.67 140.08 lineto
53.4 147.78 lineto
closepath stroke
0 0 0 edgecolor
14 /Times-Roman set_font
31 253.79 moveto 27 ([0,1]) alignedtext
grestore
% 7
gsave
0.54118 0.25098 1 nodecolor
188 212.49 18 18 ellipse_path fill
1 setlinewidth
filled
0.54118 0.25098 1 nodecolor
188 212.49 18 18 ellipse_path stroke
0 0 0 nodecolor
14 /Times-Roman set_font
184.5 208.79 moveto 7 (7) alignedtext
grestore
% 4->7
gsave
1 setlinewidth
0 0 0 edgecolor
newpath 188 282.9 moveto
188 270.94 188 254.69 188 240.93 curveto
stroke
0 0 0 edgecolor
newpath 191.5 240.55 moveto
188 230.55 lineto
184.5 240.55 lineto
closepath fill
1 setlinewidth
solid
0 0 0 edgecolor
newpath 191.5 240.55 moveto
188 230.55 lineto
184.5 240.55 lineto
closepath stroke
0 0 0 edgecolor
14 /Times-Roman set_font
188 253.79 moveto 27 ([1,0]) alignedtext
grestore
% 8
gsave
0.54118 0.25098 1 nodecolor
246 212.49 18 18 ellipse_path fill
1 setlinewidth
filled
0.54118 0.25098 1 nodecolor
246 212.49 18 18 ellipse_path stroke
0 0 0 nodecolor
14 /Times-Roman set_font
242.5 208.79 moveto 7 (8) alignedtext
grestore
% 4->8
gsave
1 setlinewidth
0 0 0 edgecolor
newpath 200.08 287.23 moveto
205.85 280.81 212.64 272.77 218 264.99 curveto
223.77 256.62 229.3 246.95 233.89 238.26 curveto
stroke
0 0 0 edgecolor
newpath 237.03 239.81 moveto
238.49 229.32 lineto
230.8 236.61 lineto
closepath fill
1 setlinewidth
solid
0 0 0 edgecolor
newpath 237.03 239.81 moveto
238.49 229.32 lineto
230.8 236.61 lineto
closepath stroke
0 0 0 edgecolor
14 /Times-Roman set_font
228 253.79 moveto 27 ([1,1]) alignedtext
grestore
% 9
gsave
0.54118 0.25098 1 nodecolor
70 212.49 18 18 ellipse_path fill
1 setlinewidth
filled
0.54118 0.25098 1 nodecolor
70 212.49 18 18 ellipse_path stroke
0 0 0 nodecolor
14 /Times-Roman set_font
66.5 208.79 moveto 7 (9) alignedtext
grestore
% 5->9
gsave
1 setlinewidth
0 0 0 edgecolor
newpath 91.38 285.5 moveto
87.68 279.39 83.7 272.05 81 264.99 curveto
78.05 257.27 75.81 248.58 74.15 240.57 curveto
stroke
0 0 0 edgecolor
newpath 77.56 239.76 moveto
72.29 230.57 lineto
70.68 241.04 lineto
closepath fill
1 setlinewidth
solid
0 0 0 edgecolor
newpath 77.56 239.76 moveto
72.29 230.57 lineto
70.68 241.04 lineto
closepath stroke
0 0 0 edgecolor
14 /Times-Roman set_font
81 253.79 moveto 27 ([0,0]) alignedtext
grestore
% 10
gsave
0.54118 0.25098 1 nodecolor
129 212.49 19.5 19.5 ellipse_path fill
1 setlinewidth
filled
0.54118 0.25098 1 nodecolor
129 212.49 19.5 19.5 ellipse_path stroke
0 0 0 nodecolor
14 /Times-Roman set_font
122 208.79 moveto 14 (10) alignedtext
grestore
% 5->10
gsave
1 setlinewidth
0 0 0 edgecolor
newpath 106.27 283.72 moveto
110.17 271.67 115.57 254.97 120.14 240.88 curveto
stroke
0 0 0 edgecolor
newpath 123.53 241.77 moveto
123.28 231.18 lineto
116.87 239.62 lineto
closepath fill
1 setlinewidth
solid
0 0 0 edgecolor
newpath 123.53 241.77 moveto
123.28 231.18 lineto
116.87 239.62 lineto
closepath stroke
0 0 0 edgecolor
14 /Times-Roman set_font
117 253.79 moveto 27 ([0,1]) alignedtext
grestore
% 7->6
gsave
1 setlinewidth
0 0 0 edgecolor
newpath 181.41 195.32 moveto
176.18 184.18 167.93 169.69 157 160 curveto
140.98 145.8 118.94 135.99 101.05 129.76 curveto
stroke
0 0 0 edgecolor
newpath 101.94 126.37 moveto
91.34 126.58 lineto
99.76 133.02 lineto
closepath fill
1 setlinewidth
solid
0 0 0 edgecolor
newpath 101.94 126.37 moveto
91.34 126.58 lineto
99.76 133.02 lineto
closepath stroke
0 0 0 edgecolor
14 /Times-Roman set_font
170 163.8 moveto 27 ([1,0]) alignedtext
grestore
% 11
gsave
0.54118 0.25098 1 nodecolor
291 120 19.5 19.5 ellipse_path fill
1 setlinewidth
filled
0.54118 0.25098 1 nodecolor
291 120 19.5 19.5 ellipse_path stroke
0 0 0 nodecolor
14 /Times-Roman set_font
284 116.3 moveto 14 (11) alignedtext
grestore
% 8->11
gsave
1 setlinewidth
0 0 0 edgecolor
newpath 254.06 196.28 moveto
257.48 189.75 261.48 182.02 265 175 curveto
269.52 165.98 274.34 156.05 278.59 147.19 curveto
stroke
0 0 0 edgecolor
newpath 281.79 148.62 moveto
282.94 138.09 lineto
275.47 145.6 lineto
closepath fill
1 setlinewidth
solid
0 0 0 edgecolor
newpath 281.79 148.62 moveto
282.94 138.09 lineto
275.47 145.6 lineto
closepath stroke
0 0 0 edgecolor
14 /Times-Roman set_font
273 163.8 moveto 57 ([0,0] [1,1]) alignedtext
grestore
% 12
gsave
0.54118 0.25098 1 nodecolor
230 120 19.5 19.5 ellipse_path fill
1 setlinewidth
filled
0.54118 0.25098 1 nodecolor
230 120 19.5 19.5 ellipse_path stroke
0 0 0 nodecolor
14 /Times-Roman set_font
223 116.3 moveto 14 (12) alignedtext
grestore
% 8->12
gsave
1 setlinewidth
0 0 0 edgecolor
newpath 241.48 194.86 moveto
239.9 188.66 238.23 181.54 237 175 curveto
235.46 166.76 234.14 157.76 233.09 149.51 curveto
stroke
0 0 0 edgecolor
newpath 236.56 149.08 moveto
231.88 139.57 lineto
229.61 149.92 lineto
closepath fill
1 setlinewidth
solid
0 0 0 edgecolor
newpath 236.56 149.08 moveto
231.88 139.57 lineto
229.61 149.92 lineto
closepath stroke
0 0 0 edgecolor
14 /Times-Roman set_font
237 163.8 moveto 27 ([1,0]) alignedtext
grestore
% 9->6
gsave
1 setlinewidth
0 0 0 edgecolor
newpath 70 194.47 moveto
70 182.64 70 166.52 70 152.39 curveto
stroke
0 0 0 edgecolor
newpath 73.5 152.08 moveto
70 142.08 lineto
66.5 152.08 lineto
closepath fill
1 setlinewidth
solid
0 0 0 edgecolor
newpath 73.5 152.08 moveto
70 142.08 lineto
66.5 152.08 lineto
closepath stroke
0 0 0 edgecolor
14 /Times-Roman set_font
70 163.8 moveto 27 ([0,1]) alignedtext
grestore
% 10->12
gsave
1 setlinewidth
0 0 0 edgecolor
newpath 124.22 193.32 moveto
122.53 182.71 122.43 169.58 129 160 curveto
144.86 136.88 176.52 127.46 200.19 123.62 curveto
stroke
0 0 0 edgecolor
newpath 200.99 127.05 moveto
210.42 122.23 lineto
200.04 120.11 lineto
closepath fill
1 setlinewidth
solid
0 0 0 edgecolor
newpath 200.99 127.05 moveto
210.42 122.23 lineto
200.04 120.11 lineto
closepath stroke
0 0 0 edgecolor
14 /Times-Roman set_font
129 163.8 moveto 27 ([0,1]) alignedtext
grestore
% 11->11
gsave
1 setlinewidth
0 0 0 edgecolor
newpath 308.92 127.86 moveto
320.87 130.08 332.5 127.45 332.5 120 curveto
332.5 114.7 326.62 111.84 318.93 111.42 curveto
stroke
0 0 0 edgecolor
newpath 318.64 107.94 moveto
308.92 112.13 lineto
319.14 114.92 lineto
closepath fill
1 setlinewidth
solid
0 0 0 edgecolor
newpath 318.64 107.94 moveto
308.92 112.13 lineto
319.14 114.92 lineto
closepath stroke
0 0 0 edgecolor
14 /Times-Roman set_font
332.5 116.3 moveto 57 ([0,0] [1,1]) alignedtext
grestore
% 13
gsave
0.023529 0.72157 1 nodecolor
261 23.5 19.5 19.5 ellipse_path fill
1 setlinewidth
filled
0.023529 0.72157 1 nodecolor
261 23.5 19.5 19.5 ellipse_path stroke
1 setlinewidth
filled
0.023529 0.72157 1 nodecolor
261 23.5 23.5 23.5 ellipse_path stroke
0 0 0 nodecolor
14 /Times-Roman set_font
254 19.8 moveto 14 (13) alignedtext
grestore
% 11->13
gsave
1 setlinewidth
0 0 0 edgecolor
newpath 285.36 101.22 moveto
281.33 88.54 275.81 71.13 271.04 56.11 curveto
stroke
0 0 0 edgecolor
newpath 274.24 54.65 moveto
267.88 46.17 lineto
267.57 56.76 lineto
closepath fill
1 setlinewidth
solid
0 0 0 edgecolor
newpath 274.24 54.65 moveto
267.88 46.17 lineto
267.57 56.76 lineto
closepath stroke
0 0 0 edgecolor
14 /Times-Roman set_font
278 68.8 moveto 27 ([1,0]) alignedtext
grestore
% 12->13
gsave
1 setlinewidth
0 0 0 edgecolor
newpath 233.52 100.76 moveto
235.78 90.18 239.03 76.68 243 65 curveto
244.21 61.44 245.61 57.76 247.09 54.14 curveto
stroke
0 0 0 edgecolor
newpath 250.37 55.38 moveto
251.1 44.81 lineto
243.94 52.61 lineto
closepath fill
1 setlinewidth
solid
0 0 0 edgecolor
newpath 250.37 55.38 moveto
251.1 44.81 lineto
243.94 52.61 lineto
closepath stroke
0 0 0 edgecolor
14 /Times-Roman set_font
243 68.8 moveto 27 ([0,1]) alignedtext
grestore
% 13->13
gsave
1 setlinewidth
0 0 0 edgecolor
newpath 283 32.07 moveto
295.23 33.67 306.5 30.81 306.5 23.5 curveto
306.5 18.3 300.81 15.35 293.12 14.66 curveto
stroke
0 0 0 edgecolor
newpath 292.91 11.16 moveto
283 14.93 lineto
293.09 18.16 lineto
closepath fill
1 setlinewidth
solid
0 0 0 edgecolor
newpath 292.91 11.16 moveto
283 14.93 lineto
293.09 18.16 lineto
closepath stroke
0 0 0 edgecolor
14 /Times-Roman set_font
306.5 19.8 moveto 27 ([0,1]) alignedtext
grestore
endpage
showpage
grestore
%%PageTrailer
%%EndPage: 1
%%Trailer
end
restore
%%EOF
