%!PS-Adobe-3.0 EPSF-3.0
%%Creator: graphviz version 2.38.0 (20140413.2041)
%%Title: FSA Utilities
%%Pages: 1
%%BoundingBox: 263 195 349 597
%%EndComments
save
%%BeginProlog
/DotDict 200 dict def
DotDict begin

/setupLatin1 {
mark
/EncodingVector 256 array def
 EncodingVector 0

ISOLatin1Encoding 0 255 getinterval putinterval
EncodingVector 45 /hyphen put

% Set up ISO Latin 1 character encoding
/starnetISO {
        dup dup findfont dup length dict begin
        { 1 index /FID ne { def }{ pop pop } ifelse
        } forall
        /Encoding EncodingVector def
        currentdict end definefont
} def
/Times-Roman starnetISO def
/Times-Italic starnetISO def
/Times-Bold starnetISO def
/Times-BoldItalic starnetISO def
/Helvetica starnetISO def
/Helvetica-Oblique starnetISO def
/Helvetica-Bold starnetISO def
/Helvetica-BoldOblique starnetISO def
/Courier starnetISO def
/Courier-Oblique starnetISO def
/Courier-Bold starnetISO def
/Courier-BoldOblique starnetISO def
cleartomark
} bind def

%%BeginResource: procset graphviz 0 0
/coord-font-family /Times-Roman def
/default-font-family /Times-Roman def
/coordfont coord-font-family findfont 8 scalefont def

/InvScaleFactor 1.0 def
/set_scale {
       dup 1 exch div /InvScaleFactor exch def
       scale
} bind def

% styles
/solid { [] 0 setdash } bind def
/dashed { [9 InvScaleFactor mul dup ] 0 setdash } bind def
/dotted { [1 InvScaleFactor mul 6 InvScaleFactor mul] 0 setdash } bind def
/invis {/fill {newpath} def /stroke {newpath} def /show {pop newpath} def} bind def
/bold { 2 setlinewidth } bind def
/filled { } bind def
/unfilled { } bind def
/rounded { } bind def
/diagonals { } bind def
/tapered { } bind def

% hooks for setting color 
/nodecolor { sethsbcolor } bind def
/edgecolor { sethsbcolor } bind def
/graphcolor { sethsbcolor } bind def
/nopcolor {pop pop pop} bind def

/beginpage {	% i j npages
	/npages exch def
	/j exch def
	/i exch def
	/str 10 string def
	npages 1 gt {
		gsave
			coordfont setfont
			0 0 moveto
			(\() show i str cvs show (,) show j str cvs show (\)) show
		grestore
	} if
} bind def

/set_font {
	findfont exch
	scalefont setfont
} def

% draw text fitted to its expected width
/alignedtext {			% width text
	/text exch def
	/width exch def
	gsave
		width 0 gt {
			[] 0 setdash
			text stringwidth pop width exch sub text length div 0 text ashow
		} if
	grestore
} def

/boxprim {				% xcorner ycorner xsize ysize
		4 2 roll
		moveto
		2 copy
		exch 0 rlineto
		0 exch rlineto
		pop neg 0 rlineto
		closepath
} bind def

/ellipse_path {
	/ry exch def
	/rx exch def
	/y exch def
	/x exch def
	matrix currentmatrix
	newpath
	x y translate
	rx ry scale
	0 0 1 0 360 arc
	setmatrix
} bind def

/endpage { showpage } bind def
/showpage { } def

/layercolorseq
	[	% layer color sequence - darkest to lightest
		[0 0 0]
		[.2 .8 .8]
		[.4 .8 .8]
		[.6 .8 .8]
		[.8 .8 .8]
	]
def

/layerlen layercolorseq length def

/setlayer {/maxlayer exch def /curlayer exch def
	layercolorseq curlayer 1 sub layerlen mod get
	aload pop sethsbcolor
	/nodecolor {nopcolor} def
	/edgecolor {nopcolor} def
	/graphcolor {nopcolor} def
} bind def

/onlayer { curlayer ne {invis} if } def

/onlayers {
	/myupper exch def
	/mylower exch def
	curlayer mylower lt
	curlayer myupper gt
	or
	{invis} if
} def

/curlayer 0 def

%%EndResource
%%EndProlog
%%BeginSetup
14 default-font-family set_font
1 setmiterlimit
% /arrowlength 10 def
% /arrowwidth 5 def

% make sure pdfmark is harmless for PS-interpreters other than Distiller
/pdfmark where {pop} {userdict /pdfmark /cleartomark load put} ifelse
% make '<<' and '>>' safe on PS Level 1 devices
/languagelevel where {pop languagelevel}{1} ifelse
2 lt {
    userdict (<<) cvn ([) cvn load put
    userdict (>>) cvn ([) cvn load put
} if

%%EndSetup
setupLatin1
%%Page: 1 1
%%PageBoundingBox: 263 195 349 597
%%PageOrientation: Portrait
0 0 1 beginpage
gsave
263 195 86 402 boxprim clip newpath
1 1 set_scale 0 rotate 267 199 translate
% start0
gsave
grestore
% 0
gsave
0.21961 0.75686 1 nodecolor
27 303 18 18 ellipse_path fill
1 setlinewidth
filled
0.21961 0.75686 1 nodecolor
27 303 18 18 ellipse_path stroke
0 0 0 nodecolor
14 /Times-Roman set_font
23.5 299.3 moveto 7 (0) alignedtext
grestore
% start0->0
gsave
1 setlinewidth
0 0 0 edgecolor
newpath 27 357.81 moveto
27 349.79 27 340.05 27 331.07 curveto
stroke
0 0 0 edgecolor
newpath 30.5 331.03 moveto
27 321.03 lineto
23.5 331.03 lineto
closepath fill
1 setlinewidth
solid
0 0 0 edgecolor
newpath 30.5 331.03 moveto
27 321.03 lineto
23.5 331.03 lineto
closepath stroke
grestore
% 1
gsave
0.023529 0.72157 1 nodecolor
27 212 18 18 ellipse_path fill
1 setlinewidth
filled
0.023529 0.72157 1 nodecolor
27 212 18 18 ellipse_path stroke
1 setlinewidth
filled
0.023529 0.72157 1 nodecolor
27 212 22 22 ellipse_path stroke
0 0 0 nodecolor
14 /Times-Roman set_font
23.5 208.3 moveto 7 (1) alignedtext
grestore
% 0->1
gsave
1 setlinewidth
0 0 0 edgecolor
newpath 27 284.84 moveto
27 273.44 27 258.13 27 244.58 curveto
stroke
0 0 0 edgecolor
newpath 30.5 244.19 moveto
27 234.19 lineto
23.5 244.19 lineto
closepath fill
1 setlinewidth
solid
0 0 0 edgecolor
newpath 30.5 244.19 moveto
27 234.19 lineto
23.5 244.19 lineto
closepath stroke
0 0 0 edgecolor
14 /Times-Roman set_font
27 255.8 moveto 7 (1) alignedtext
grestore
% 2
gsave
0.023529 0.72157 1 nodecolor
27 117 18 18 ellipse_path fill
1 setlinewidth
filled
0.023529 0.72157 1 nodecolor
27 117 18 18 ellipse_path stroke
1 setlinewidth
filled
0.023529 0.72157 1 nodecolor
27 117 22 22 ellipse_path stroke
0 0 0 nodecolor
14 /Times-Roman set_font
23.5 113.3 moveto 7 (2) alignedtext
grestore
% 1->2
gsave
1 setlinewidth
0 0 0 edgecolor
newpath 19.07 191.37 moveto
15.86 181.18 13.27 168.49 15 157 curveto
15.46 153.95 16.11 150.8 16.87 147.69 curveto
stroke
0 0 0 edgecolor
newpath 20.27 148.55 moveto
19.6 137.98 lineto
13.53 146.66 lineto
closepath fill
1 setlinewidth
solid
0 0 0 edgecolor
newpath 20.27 148.55 moveto
19.6 137.98 lineto
13.53 146.66 lineto
closepath stroke
0 0 0 edgecolor
14 /Times-Roman set_font
15 160.8 moveto 7 (0) alignedtext
grestore
% 2->1
gsave
1 setlinewidth
0 0 0 edgecolor
newpath 27 139.02 moveto
27 151.01 27 166.28 27 179.66 curveto
stroke
0 0 0 edgecolor
newpath 23.5 179.9 moveto
27 189.9 lineto
30.5 179.9 lineto
closepath fill
1 setlinewidth
solid
0 0 0 edgecolor
newpath 23.5 179.9 moveto
27 189.9 lineto
30.5 179.9 lineto
closepath stroke
0 0 0 edgecolor
14 /Times-Roman set_font
27 160.8 moveto 7 (1) alignedtext
grestore
% 3
gsave
0.023529 0.72157 1 nodecolor
27 22 18 18 ellipse_path fill
1 setlinewidth
filled
0.023529 0.72157 1 nodecolor
27 22 18 18 ellipse_path stroke
1 setlinewidth
filled
0.023529 0.72157 1 nodecolor
27 22 22 22 ellipse_path stroke
0 0 0 nodecolor
14 /Times-Roman set_font
23.5 18.3 moveto 7 (3) alignedtext
grestore
% 2->3
gsave
1 setlinewidth
0 0 0 edgecolor
newpath 27 94.9 moveto
27 82.89 27 67.62 27 54.24 curveto
stroke
0 0 0 edgecolor
newpath 30.5 54.02 moveto
27 44.02 lineto
23.5 54.02 lineto
closepath fill
1 setlinewidth
solid
0 0 0 edgecolor
newpath 30.5 54.02 moveto
27 44.02 lineto
23.5 54.02 lineto
closepath stroke
0 0 0 edgecolor
14 /Times-Roman set_font
27 65.8 moveto 7 (0) alignedtext
grestore
% 3->3
gsave
1 setlinewidth
0 0 0 edgecolor
newpath 47.82 30.15 moveto
59.83 31.81 71 29.1 71 22 curveto
71 17.01 65.48 14.18 58.02 13.53 curveto
stroke
0 0 0 edgecolor
newpath 57.71 10.03 moveto
47.82 13.85 lineto
57.93 17.03 lineto
closepath fill
1 setlinewidth
solid
0 0 0 edgecolor
newpath 57.71 10.03 moveto
47.82 13.85 lineto
57.93 17.03 lineto
closepath stroke
0 0 0 edgecolor
14 /Times-Roman set_font
71 18.3 moveto 7 (0) alignedtext
grestore
endpage
showpage
grestore
%%PageTrailer
%%EndPage: 1
%%Trailer
end
restore
%%EOF
