%!PS-Adobe-3.0 EPSF-3.0
%%Creator: graphviz version 2.38.0 (20140413.2041)
%%Title: FSA Utilities
%%Pages: 1
%%BoundingBox: 233 108 379 684
%%EndComments
save
%%BeginProlog
/DotDict 200 dict def
DotDict begin

/setupLatin1 {
mark
/EncodingVector 256 array def
 EncodingVector 0

ISOLatin1Encoding 0 255 getinterval putinterval
EncodingVector 45 /hyphen put

% Set up ISO Latin 1 character encoding
/starnetISO {
        dup dup findfont dup length dict begin
        { 1 index /FID ne { def }{ pop pop } ifelse
        } forall
        /Encoding EncodingVector def
        currentdict end definefont
} def
/Times-Roman starnetISO def
/Times-Italic starnetISO def
/Times-Bold starnetISO def
/Times-BoldItalic starnetISO def
/Helvetica starnetISO def
/Helvetica-Oblique starnetISO def
/Helvetica-Bold starnetISO def
/Helvetica-BoldOblique starnetISO def
/Courier starnetISO def
/Courier-Oblique starnetISO def
/Courier-Bold starnetISO def
/Courier-BoldOblique starnetISO def
cleartomark
} bind def

%%BeginResource: procset graphviz 0 0
/coord-font-family /Times-Roman def
/default-font-family /Times-Roman def
/coordfont coord-font-family findfont 8 scalefont def

/InvScaleFactor 1.0 def
/set_scale {
       dup 1 exch div /InvScaleFactor exch def
       scale
} bind def

% styles
/solid { [] 0 setdash } bind def
/dashed { [9 InvScaleFactor mul dup ] 0 setdash } bind def
/dotted { [1 InvScaleFactor mul 6 InvScaleFactor mul] 0 setdash } bind def
/invis {/fill {newpath} def /stroke {newpath} def /show {pop newpath} def} bind def
/bold { 2 setlinewidth } bind def
/filled { } bind def
/unfilled { } bind def
/rounded { } bind def
/diagonals { } bind def
/tapered { } bind def

% hooks for setting color 
/nodecolor { sethsbcolor } bind def
/edgecolor { sethsbcolor } bind def
/graphcolor { sethsbcolor } bind def
/nopcolor {pop pop pop} bind def

/beginpage {	% i j npages
	/npages exch def
	/j exch def
	/i exch def
	/str 10 string def
	npages 1 gt {
		gsave
			coordfont setfont
			0 0 moveto
			(\() show i str cvs show (,) show j str cvs show (\)) show
		grestore
	} if
} bind def

/set_font {
	findfont exch
	scalefont setfont
} def

% draw text fitted to its expected width
/alignedtext {			% width text
	/text exch def
	/width exch def
	gsave
		width 0 gt {
			[] 0 setdash
			text stringwidth pop width exch sub text length div 0 text ashow
		} if
	grestore
} def

/boxprim {				% xcorner ycorner xsize ysize
		4 2 roll
		moveto
		2 copy
		exch 0 rlineto
		0 exch rlineto
		pop neg 0 rlineto
		closepath
} bind def

/ellipse_path {
	/ry exch def
	/rx exch def
	/y exch def
	/x exch def
	matrix currentmatrix
	newpath
	x y translate
	rx ry scale
	0 0 1 0 360 arc
	setmatrix
} bind def

/endpage { showpage } bind def
/showpage { } def

/layercolorseq
	[	% layer color sequence - darkest to lightest
		[0 0 0]
		[.2 .8 .8]
		[.4 .8 .8]
		[.6 .8 .8]
		[.8 .8 .8]
	]
def

/layerlen layercolorseq length def

/setlayer {/maxlayer exch def /curlayer exch def
	layercolorseq curlayer 1 sub layerlen mod get
	aload pop sethsbcolor
	/nodecolor {nopcolor} def
	/edgecolor {nopcolor} def
	/graphcolor {nopcolor} def
} bind def

/onlayer { curlayer ne {invis} if } def

/onlayers {
	/myupper exch def
	/mylower exch def
	curlayer mylower lt
	curlayer myupper gt
	or
	{invis} if
} def

/curlayer 0 def

%%EndResource
%%EndProlog
%%BeginSetup
14 default-font-family set_font
1 setmiterlimit
% /arrowlength 10 def
% /arrowwidth 5 def

% make sure pdfmark is harmless for PS-interpreters other than Distiller
/pdfmark where {pop} {userdict /pdfmark /cleartomark load put} ifelse
% make '<<' and '>>' safe on PS Level 1 devices
/languagelevel where {pop languagelevel}{1} ifelse
2 lt {
    userdict (<<) cvn ([) cvn load put
    userdict (>>) cvn ([) cvn load put
} if

%%EndSetup
setupLatin1
%%Page: 1 1
%%PageBoundingBox: 233 108 379 684
%%PageOrientation: Portrait
0 0 1 beginpage
gsave
233 108 146 576 boxprim clip newpath
1 1 set_scale 0 rotate 237 112 translate
% start0
gsave
grestore
% 0
gsave
0.21961 0.75686 1 nodecolor
71 477 18 18 ellipse_path fill
1 setlinewidth
filled
0.21961 0.75686 1 nodecolor
71 477 18 18 ellipse_path stroke
0 0 0 nodecolor
14 /Times-Roman set_font
67.5 473.3 moveto 7 (0) alignedtext
grestore
% start0->0
gsave
1 setlinewidth
0 0 0 edgecolor
newpath 71 531.81 moveto
71 523.79 71 514.05 71 505.07 curveto
stroke
0 0 0 edgecolor
newpath 74.5 505.03 moveto
71 495.03 lineto
67.5 505.03 lineto
closepath fill
1 setlinewidth
solid
0 0 0 edgecolor
newpath 74.5 505.03 moveto
71 495.03 lineto
67.5 505.03 lineto
closepath stroke
grestore
% 0->0
gsave
1 setlinewidth
0 0 0 edgecolor
newpath 88.27 483.16 moveto
99.79 484.89 111 482.84 111 477 curveto
111 472.99 105.7 470.76 98.64 470.33 curveto
stroke
0 0 0 edgecolor
newpath 98.08 466.85 moveto
88.27 470.84 lineto
98.43 473.84 lineto
closepath fill
1 setlinewidth
solid
0 0 0 edgecolor
newpath 98.08 466.85 moveto
88.27 470.84 lineto
98.43 473.84 lineto
closepath stroke
0 0 0 edgecolor
14 /Times-Roman set_font
111 473.3 moveto 27 ([0,0]) alignedtext
grestore
% 1
gsave
0.54118 0.25098 1 nodecolor
18 390 18 18 ellipse_path fill
1 setlinewidth
filled
0.54118 0.25098 1 nodecolor
18 390 18 18 ellipse_path stroke
0 0 0 nodecolor
14 /Times-Roman set_font
14.5 386.3 moveto 7 (1) alignedtext
grestore
% 0->1
gsave
1 setlinewidth
0 0 0 edgecolor
newpath 53.86 470.87 moveto
40.09 465.74 21.67 456.36 13 441 curveto
9 433.92 8.58 425.37 9.66 417.36 curveto
stroke
0 0 0 edgecolor
newpath 13.14 417.81 moveto
11.76 407.31 lineto
6.29 416.38 lineto
closepath fill
1 setlinewidth
solid
0 0 0 edgecolor
newpath 13.14 417.81 moveto
11.76 407.31 lineto
6.29 416.38 lineto
closepath stroke
0 0 0 edgecolor
14 /Times-Roman set_font
13 429.8 moveto 27 ([0,1]) alignedtext
grestore
% 1->0
gsave
1 setlinewidth
0 0 0 edgecolor
newpath 29.09 404.22 moveto
34.22 410.61 40.21 418.5 45 426 curveto
50.07 433.94 55.01 442.99 59.19 451.18 curveto
stroke
0 0 0 edgecolor
newpath 56.13 452.89 moveto
63.72 460.29 lineto
62.4 449.77 lineto
closepath fill
1 setlinewidth
solid
0 0 0 edgecolor
newpath 56.13 452.89 moveto
63.72 460.29 lineto
62.4 449.77 lineto
closepath stroke
0 0 0 edgecolor
14 /Times-Roman set_font
53 429.8 moveto 27 ([1,1]) alignedtext
grestore
% 2
gsave
0.54118 0.25098 1 nodecolor
18 303 18 18 ellipse_path fill
1 setlinewidth
filled
0.54118 0.25098 1 nodecolor
18 303 18 18 ellipse_path stroke
0 0 0 nodecolor
14 /Times-Roman set_font
14.5 299.3 moveto 7 (2) alignedtext
grestore
% 1->2
gsave
1 setlinewidth
0 0 0 edgecolor
newpath 18 371.8 moveto
18 360.16 18 344.55 18 331.24 curveto
stroke
0 0 0 edgecolor
newpath 21.5 331.18 moveto
18 321.18 lineto
14.5 331.18 lineto
closepath fill
1 setlinewidth
solid
0 0 0 edgecolor
newpath 21.5 331.18 moveto
18 321.18 lineto
14.5 331.18 lineto
closepath stroke
0 0 0 edgecolor
14 /Times-Roman set_font
18 342.8 moveto 27 ([0,0]) alignedtext
grestore
% 2->2
gsave
1 setlinewidth
0 0 0 edgecolor
newpath 34.85 310.11 moveto
46.52 312.26 58 309.89 58 303 curveto
58 298.16 52.32 295.55 44.9 295.17 curveto
stroke
0 0 0 edgecolor
newpath 44.58 291.69 moveto
34.85 295.89 lineto
45.08 298.67 lineto
closepath fill
1 setlinewidth
solid
0 0 0 edgecolor
newpath 44.58 291.69 moveto
34.85 295.89 lineto
45.08 298.67 lineto
closepath stroke
0 0 0 edgecolor
14 /Times-Roman set_font
58 299.3 moveto 27 ([1,1]) alignedtext
grestore
% 3
gsave
0.023529 0.72157 1 nodecolor
100 212 18 18 ellipse_path fill
1 setlinewidth
filled
0.023529 0.72157 1 nodecolor
100 212 18 18 ellipse_path stroke
1 setlinewidth
filled
0.023529 0.72157 1 nodecolor
100 212 22 22 ellipse_path stroke
0 0 0 nodecolor
14 /Times-Roman set_font
96.5 208.3 moveto 7 (3) alignedtext
grestore
% 2->3
gsave
1 setlinewidth
0 0 0 edgecolor
newpath 29.75 289.25 moveto
42.38 275.53 62.75 253.43 78.31 236.54 curveto
stroke
0 0 0 edgecolor
newpath 81.31 238.45 moveto
85.51 228.73 lineto
76.16 233.71 lineto
closepath fill
1 setlinewidth
solid
0 0 0 edgecolor
newpath 81.31 238.45 moveto
85.51 228.73 lineto
76.16 233.71 lineto
closepath stroke
0 0 0 edgecolor
14 /Times-Roman set_font
63 255.8 moveto 27 ([1,0]) alignedtext
grestore
% 3->0
gsave
1 setlinewidth
0 0 0 edgecolor
newpath 100.8 234.06 moveto
101.86 274.66 101.94 366.34 85 441 curveto
84.26 444.25 83.26 447.6 82.13 450.88 curveto
stroke
0 0 0 edgecolor
newpath 78.83 449.72 moveto
78.5 460.31 lineto
85.36 452.24 lineto
closepath fill
1 setlinewidth
solid
0 0 0 edgecolor
newpath 78.83 449.72 moveto
78.5 460.31 lineto
85.36 452.24 lineto
closepath stroke
0 0 0 edgecolor
14 /Times-Roman set_font
98 342.8 moveto 27 ([1,1]) alignedtext
grestore
% 4
gsave
0.023529 0.72157 1 nodecolor
57 117 18 18 ellipse_path fill
1 setlinewidth
filled
0.023529 0.72157 1 nodecolor
57 117 18 18 ellipse_path stroke
1 setlinewidth
filled
0.023529 0.72157 1 nodecolor
57 117 22 22 ellipse_path stroke
0 0 0 nodecolor
14 /Times-Roman set_font
53.5 113.3 moveto 7 (4) alignedtext
grestore
% 3->4
gsave
1 setlinewidth
0 0 0 edgecolor
newpath 96.01 190.13 moveto
93.6 179.84 90 167.44 85 157 curveto
82.67 152.14 79.74 147.26 76.65 142.66 curveto
stroke
0 0 0 edgecolor
newpath 79.31 140.36 moveto
70.64 134.27 lineto
73.62 144.44 lineto
closepath fill
1 setlinewidth
solid
0 0 0 edgecolor
newpath 79.31 140.36 moveto
70.64 134.27 lineto
73.62 144.44 lineto
closepath stroke
0 0 0 edgecolor
14 /Times-Roman set_font
90 160.8 moveto 27 ([0,0]) alignedtext
grestore
% 4->2
gsave
1 setlinewidth
0 0 0 edgecolor
newpath 51.96 138.44 moveto
48.46 152.82 43.77 172.55 40 190 curveto
33.71 219.09 27.23 252.61 22.94 275.33 curveto
stroke
0 0 0 edgecolor
newpath 19.48 274.79 moveto
21.08 285.26 lineto
26.37 276.08 lineto
closepath fill
1 setlinewidth
solid
0 0 0 edgecolor
newpath 19.48 274.79 moveto
21.08 285.26 lineto
26.37 276.08 lineto
closepath stroke
0 0 0 edgecolor
14 /Times-Roman set_font
40 208.3 moveto 27 ([1,1]) alignedtext
grestore
% 4->3
gsave
1 setlinewidth
0 0 0 edgecolor
newpath 53.14 138.82 moveto
52.16 149.21 52.44 161.71 57 172 curveto
60.64 180.21 66.96 187.43 73.64 193.36 curveto
stroke
0 0 0 edgecolor
newpath 71.54 196.16 moveto
81.53 199.7 lineto
75.93 190.71 lineto
closepath fill
1 setlinewidth
solid
0 0 0 edgecolor
newpath 71.54 196.16 moveto
81.53 199.7 lineto
75.93 190.71 lineto
closepath stroke
0 0 0 edgecolor
14 /Times-Roman set_font
57 160.8 moveto 27 ([1,0]) alignedtext
grestore
% 5
gsave
0.023529 0.72157 1 nodecolor
57 22 18 18 ellipse_path fill
1 setlinewidth
filled
0.023529 0.72157 1 nodecolor
57 22 18 18 ellipse_path stroke
1 setlinewidth
filled
0.023529 0.72157 1 nodecolor
57 22 22 22 ellipse_path stroke
0 0 0 nodecolor
14 /Times-Roman set_font
53.5 18.3 moveto 7 (5) alignedtext
grestore
% 4->5
gsave
1 setlinewidth
0 0 0 edgecolor
newpath 57 94.9 moveto
57 82.89 57 67.62 57 54.24 curveto
stroke
0 0 0 edgecolor
newpath 60.5 54.02 moveto
57 44.02 lineto
53.5 54.02 lineto
closepath fill
1 setlinewidth
solid
0 0 0 edgecolor
newpath 60.5 54.02 moveto
57 44.02 lineto
53.5 54.02 lineto
closepath stroke
0 0 0 edgecolor
14 /Times-Roman set_font
57 65.8 moveto 27 ([0,0]) alignedtext
grestore
% 5->5
gsave
1 setlinewidth
0 0 0 edgecolor
newpath 77.82 30.15 moveto
89.83 31.81 101 29.1 101 22 curveto
101 17.01 95.48 14.18 88.02 13.53 curveto
stroke
0 0 0 edgecolor
newpath 87.71 10.03 moveto
77.82 13.85 lineto
87.93 17.03 lineto
closepath fill
1 setlinewidth
solid
0 0 0 edgecolor
newpath 87.71 10.03 moveto
77.82 13.85 lineto
87.93 17.03 lineto
closepath stroke
0 0 0 edgecolor
14 /Times-Roman set_font
101 18.3 moveto 27 ([0,0]) alignedtext
grestore
endpage
showpage
grestore
%%PageTrailer
%%EndPage: 1
%%Trailer
end
restore
%%EOF
