%!PS-Adobe-3.0 EPSF-3.0
%%Creator: graphviz version 2.26.3 (20100126.1600)
%%Title: FSA Utilities
%%Pages: 1
%%BoundingBox: 36 36 774 880
%%EndComments
save
%%BeginProlog
/DotDict 200 dict def
DotDict begin

/setupLatin1 {
mark
/EncodingVector 256 array def
 EncodingVector 0

ISOLatin1Encoding 0 255 getinterval putinterval
EncodingVector 45 /hyphen put

% Set up ISO Latin 1 character encoding
/starnetISO {
        dup dup findfont dup length dict begin
        { 1 index /FID ne { def }{ pop pop } ifelse
        } forall
        /Encoding EncodingVector def
        currentdict end definefont
} def
/Times-Roman starnetISO def
/Times-Italic starnetISO def
/Times-Bold starnetISO def
/Times-BoldItalic starnetISO def
/Helvetica starnetISO def
/Helvetica-Oblique starnetISO def
/Helvetica-Bold starnetISO def
/Helvetica-BoldOblique starnetISO def
/Courier starnetISO def
/Courier-Oblique starnetISO def
/Courier-Bold starnetISO def
/Courier-BoldOblique starnetISO def
cleartomark
} bind def

%%BeginResource: procset graphviz 0 0
/coord-font-family /Times-Roman def
/default-font-family /Times-Roman def
/coordfont coord-font-family findfont 8 scalefont def

/InvScaleFactor 1.0 def
/set_scale {
       dup 1 exch div /InvScaleFactor exch def
       scale
} bind def

% styles
/solid { [] 0 setdash } bind def
/dashed { [9 InvScaleFactor mul dup ] 0 setdash } bind def
/dotted { [1 InvScaleFactor mul 6 InvScaleFactor mul] 0 setdash } bind def
/invis {/fill {newpath} def /stroke {newpath} def /show {pop newpath} def} bind def
/bold { 2 setlinewidth } bind def
/filled { } bind def
/unfilled { } bind def
/rounded { } bind def
/diagonals { } bind def

% hooks for setting color 
/nodecolor { sethsbcolor } bind def
/edgecolor { sethsbcolor } bind def
/graphcolor { sethsbcolor } bind def
/nopcolor {pop pop pop} bind def

/beginpage {	% i j npages
	/npages exch def
	/j exch def
	/i exch def
	/str 10 string def
	npages 1 gt {
		gsave
			coordfont setfont
			0 0 moveto
			(\() show i str cvs show (,) show j str cvs show (\)) show
		grestore
	} if
} bind def

/set_font {
	findfont exch
	scalefont setfont
} def

% draw text fitted to its expected width
/alignedtext {			% width text
	/text exch def
	/width exch def
	gsave
		width 0 gt {
			[] 0 setdash
			text stringwidth pop width exch sub text length div 0 text ashow
		} if
	grestore
} def

/boxprim {				% xcorner ycorner xsize ysize
		4 2 roll
		moveto
		2 copy
		exch 0 rlineto
		0 exch rlineto
		pop neg 0 rlineto
		closepath
} bind def

/ellipse_path {
	/ry exch def
	/rx exch def
	/y exch def
	/x exch def
	matrix currentmatrix
	newpath
	x y translate
	rx ry scale
	0 0 1 0 360 arc
	setmatrix
} bind def

/endpage { showpage } bind def
/showpage { } def

/layercolorseq
	[	% layer color sequence - darkest to lightest
		[0 0 0]
		[.2 .8 .8]
		[.4 .8 .8]
		[.6 .8 .8]
		[.8 .8 .8]
	]
def

/layerlen layercolorseq length def

/setlayer {/maxlayer exch def /curlayer exch def
	layercolorseq curlayer 1 sub layerlen mod get
	aload pop sethsbcolor
	/nodecolor {nopcolor} def
	/edgecolor {nopcolor} def
	/graphcolor {nopcolor} def
} bind def

/onlayer { curlayer ne {invis} if } def

/onlayers {
	/myupper exch def
	/mylower exch def
	curlayer mylower lt
	curlayer myupper gt
	or
	{invis} if
} def

/curlayer 0 def

%%EndResource
%%EndProlog
%%BeginSetup
14 default-font-family set_font
1 setmiterlimit
% /arrowlength 10 def
% /arrowwidth 5 def

% make sure pdfmark is harmless for PS-interpreters other than Distiller
/pdfmark where {pop} {userdict /pdfmark /cleartomark load put} ifelse
% make '<<' and '>>' safe on PS Level 1 devices
/languagelevel where {pop languagelevel}{1} ifelse
2 lt {
    userdict (<<) cvn ([) cvn load put
    userdict (>>) cvn ([) cvn load put
} if

%%EndSetup
setupLatin1
%%Page: 1 1
%%PageBoundingBox: 36 36 774 880
%%PageOrientation: Portrait
0 0 1 beginpage
gsave
36 36 738 844 boxprim clip newpath
1 1 set_scale 0 rotate 40 41 translate
% start0
gsave
grestore
% 0
gsave
0.83922 0.48235 0.8549 nodecolor
127 739 17.98 18.38 ellipse_path fill
1 setlinewidth
filled
0.83922 0.48235 0.8549 nodecolor
127 739 17.98 18.38 ellipse_path stroke
1 setlinewidth
filled
0.83922 0.48235 0.8549 nodecolor
127 739 21.89 22.38 ellipse_path stroke
0 0 0 nodecolor
14 /Times-Roman set_font
122 735.4 moveto 10 (0) alignedtext
grestore
% start0->0
gsave
1 setlinewidth
0 0 0 edgecolor
newpath 127 799.68 moveto
127 791.38 127 781.3 127 771.77 curveto
stroke
0 0 0 edgecolor
newpath 130.5 771.74 moveto
127 761.74 lineto
123.5 771.74 lineto
closepath fill
1 setlinewidth
solid
0 0 0 edgecolor
newpath 130.5 771.74 moveto
127 761.74 lineto
123.5 771.74 lineto
closepath stroke
grestore
% 0->0
gsave
1 setlinewidth
0 0 0 edgecolor
newpath 147.82 746.44 moveto
159.83 747.96 171 745.48 171 739 curveto
171 734.44 165.48 731.86 158.02 731.26 curveto
stroke
0 0 0 edgecolor
newpath 157.72 727.77 moveto
147.82 731.56 lineto
157.92 734.77 lineto
closepath fill
1 setlinewidth
solid
0 0 0 edgecolor
newpath 157.72 727.77 moveto
147.82 731.56 lineto
157.92 734.77 lineto
closepath stroke
0 0 0 edgecolor
14 /Times-Roman set_font
171 735.4 moveto 34 ([0,0]) alignedtext
grestore
% 1
gsave
0.54118 0.25098 1 nodecolor
472 643 17.89 18.38 ellipse_path fill
1 setlinewidth
filled
0.54118 0.25098 1 nodecolor
472 643 17.89 18.38 ellipse_path stroke
0 0 0 nodecolor
14 /Times-Roman set_font
467 639.4 moveto 10 (1) alignedtext
grestore
% 0->1
gsave
1 setlinewidth
0 0 0 edgecolor
newpath 148.32 733.07 moveto
208.28 716.38 378.35 669.06 444.86 650.55 curveto
stroke
0 0 0 edgecolor
newpath 445.92 653.89 moveto
454.61 647.84 lineto
444.04 647.15 lineto
closepath fill
1 setlinewidth
solid
0 0 0 edgecolor
newpath 445.92 653.89 moveto
454.61 647.84 lineto
444.04 647.15 lineto
closepath stroke
0 0 0 edgecolor
14 /Times-Roman set_font
330 685.4 moveto 34 ([0,1]) alignedtext
grestore
% 2
gsave
0.023529 0.72157 1 nodecolor
339 23 17.98 18.38 ellipse_path fill
1 setlinewidth
filled
0.023529 0.72157 1 nodecolor
339 23 17.98 18.38 ellipse_path stroke
1 setlinewidth
filled
0.023529 0.72157 1 nodecolor
339 23 21.89 22.38 ellipse_path stroke
0 0 0 nodecolor
14 /Times-Roman set_font
334 19.4 moveto 10 (2) alignedtext
grestore
% 0->2
gsave
1 setlinewidth
0 0 0 edgecolor
newpath 105.46 733.45 moveto
69.22 722.67 0 695.24 0 643 curveto
0 643 0 643 0 125 curveto
0 61.27 222.46 33.86 306.96 25.74 curveto
stroke
0 0 0 edgecolor
newpath 307.39 29.22 moveto
317.02 24.81 lineto
306.74 22.25 lineto
closepath fill
1 setlinewidth
solid
0 0 0 edgecolor
newpath 307.39 29.22 moveto
317.02 24.81 lineto
306.74 22.25 lineto
closepath stroke
0 0 0 edgecolor
14 /Times-Roman set_font
0 379.4 moveto 34 ([1,2]) alignedtext
grestore
% 1->2
gsave
1 setlinewidth
0 0 0 edgecolor
newpath 489.9 640.92 moveto
530.87 635.08 628 614.51 628 551 curveto
628 551 628 551 628 125 curveto
628 71.12 447.1 38.65 371.55 27.44 curveto
stroke
0 0 0 edgecolor
newpath 371.6 23.91 moveto
361.2 25.94 lineto
370.59 30.84 lineto
closepath fill
1 setlinewidth
solid
0 0 0 edgecolor
newpath 371.6 23.91 moveto
361.2 25.94 lineto
370.59 30.84 lineto
closepath stroke
0 0 0 edgecolor
14 /Times-Roman set_font
628 323.4 moveto 34 ([2,2]) alignedtext
grestore
% 3
gsave
0.54118 0.25098 1 nodecolor
382 551 17.89 18.38 ellipse_path fill
1 setlinewidth
filled
0.54118 0.25098 1 nodecolor
382 551 17.89 18.38 ellipse_path stroke
0 0 0 nodecolor
14 /Times-Roman set_font
377 547.4 moveto 10 (3) alignedtext
grestore
% 1->3
gsave
1 setlinewidth
0 0 0 edgecolor
newpath 456.25 633.5 moveto
445.61 626.65 431.62 616.73 421 606 curveto
412.05 596.95 403.67 585.67 396.99 575.68 curveto
stroke
0 0 0 edgecolor
newpath 399.73 573.48 moveto
391.36 566.98 lineto
393.85 577.27 lineto
closepath fill
1 setlinewidth
solid
0 0 0 edgecolor
newpath 399.73 573.48 moveto
391.36 566.98 lineto
393.85 577.27 lineto
closepath stroke
0 0 0 edgecolor
14 /Times-Roman set_font
421 593.4 moveto 34 ([0,0]) alignedtext
grestore
% 4
gsave
0.54118 0.25098 1 nodecolor
261 551 17.89 18.38 ellipse_path fill
1 setlinewidth
filled
0.54118 0.25098 1 nodecolor
261 551 17.89 18.38 ellipse_path stroke
0 0 0 nodecolor
14 /Times-Roman set_font
256 547.4 moveto 10 (4) alignedtext
grestore
% 1->4
gsave
1 setlinewidth
0 0 0 edgecolor
newpath 454.62 637.7 moveto
433.56 631.09 397.15 619.06 367 606 curveto
338.46 593.64 306.97 576.88 285.78 565.12 curveto
stroke
0 0 0 edgecolor
newpath 287.26 561.93 moveto
276.82 560.1 lineto
283.84 568.04 lineto
closepath fill
1 setlinewidth
solid
0 0 0 edgecolor
newpath 287.26 561.93 moveto
276.82 560.1 lineto
283.84 568.04 lineto
closepath stroke
0 0 0 edgecolor
14 /Times-Roman set_font
367 593.4 moveto 34 ([0,1]) alignedtext
grestore
% 5
gsave
0.54118 0.25098 1 nodecolor
690 495 17.89 18.38 ellipse_path fill
1 setlinewidth
filled
0.54118 0.25098 1 nodecolor
690 495 17.89 18.38 ellipse_path stroke
0 0 0 nodecolor
14 /Times-Roman set_font
685 491.4 moveto 10 (5) alignedtext
grestore
% 1->5
gsave
1 setlinewidth
0 0 0 edgecolor
newpath 490.13 641.27 moveto
529.58 637.16 621.53 625.69 645 606 curveto
669.67 585.3 680.96 549.02 686.03 523.59 curveto
stroke
0 0 0 edgecolor
newpath 689.53 523.89 moveto
687.84 513.43 lineto
682.64 522.66 lineto
closepath fill
1 setlinewidth
solid
0 0 0 edgecolor
newpath 689.53 523.89 moveto
687.84 513.43 lineto
682.64 522.66 lineto
closepath stroke
0 0 0 edgecolor
14 /Times-Roman set_font
660 593.4 moveto 34 ([1,0]) alignedtext
grestore
% 6
gsave
0.54118 0.25098 1 nodecolor
473 383 17.89 18.38 ellipse_path fill
1 setlinewidth
filled
0.54118 0.25098 1 nodecolor
473 383 17.89 18.38 ellipse_path stroke
0 0 0 nodecolor
14 /Times-Roman set_font
468 379.4 moveto 10 (6) alignedtext
grestore
% 1->6
gsave
1 setlinewidth
0 0 0 edgecolor
newpath 471.96 624.15 moveto
471.93 602.06 471.89 564.37 472 532 curveto
472.14 490.3 472.5 442.03 472.75 412.01 curveto
stroke
0 0 0 edgecolor
newpath 476.25 411.85 moveto
472.83 401.82 lineto
469.25 411.79 lineto
closepath fill
1 setlinewidth
solid
0 0 0 edgecolor
newpath 476.25 411.85 moveto
472.83 401.82 lineto
469.25 411.79 lineto
closepath stroke
0 0 0 edgecolor
14 /Times-Roman set_font
472 547.4 moveto 34 ([1,1]) alignedtext
grestore
% 7
gsave
0.54118 0.25098 1 nodecolor
524 439 17.89 18.38 ellipse_path fill
1 setlinewidth
filled
0.54118 0.25098 1 nodecolor
524 439 17.89 18.38 ellipse_path stroke
0 0 0 nodecolor
14 /Times-Roman set_font
519 435.4 moveto 10 (7) alignedtext
grestore
% 1->7
gsave
1 setlinewidth
0 0 0 edgecolor
newpath 482.4 627.83 moveto
491.6 613.58 504.53 591.31 511 570 curveto
521.33 535.98 523.91 494.93 524.34 467.96 curveto
stroke
0 0 0 edgecolor
newpath 527.84 467.69 moveto
524.41 457.67 lineto
520.84 467.64 lineto
closepath fill
1 setlinewidth
solid
0 0 0 edgecolor
newpath 527.84 467.69 moveto
524.41 457.67 lineto
520.84 467.64 lineto
closepath stroke
0 0 0 edgecolor
14 /Times-Roman set_font
519 547.4 moveto 34 ([1,2]) alignedtext
grestore
% 3->7
gsave
1 setlinewidth
0 0 0 edgecolor
newpath 396.4 539.64 moveto
421.17 520.11 472.02 479.99 501.5 456.74 curveto
stroke
0 0 0 edgecolor
newpath 503.88 459.33 moveto
509.56 450.39 lineto
499.55 453.83 lineto
closepath fill
1 setlinewidth
solid
0 0 0 edgecolor
newpath 503.88 459.33 moveto
509.56 450.39 lineto
499.55 453.83 lineto
closepath stroke
0 0 0 edgecolor
14 /Times-Roman set_font
474 491.4 moveto 34 ([2,2]) alignedtext
grestore
% 8
gsave
0.54118 0.25098 1 nodecolor
147 439 17.89 18.38 ellipse_path fill
1 setlinewidth
filled
0.54118 0.25098 1 nodecolor
147 439 17.89 18.38 ellipse_path stroke
0 0 0 nodecolor
14 /Times-Roman set_font
142 435.4 moveto 10 (8) alignedtext
grestore
% 3->8
gsave
1 setlinewidth
0 0 0 edgecolor
newpath 364.82 544.52 moveto
347.85 537.82 321.4 526.6 300 514 curveto
275.64 499.66 273.89 489.41 249 476 curveto
224.91 463.02 195.33 452.86 174.23 446.5 curveto
stroke
0 0 0 edgecolor
newpath 175.2 443.14 moveto
164.62 443.68 lineto
173.24 449.85 lineto
closepath fill
1 setlinewidth
solid
0 0 0 edgecolor
newpath 175.2 443.14 moveto
164.62 443.68 lineto
173.24 449.85 lineto
closepath stroke
0 0 0 edgecolor
14 /Times-Roman set_font
300 491.4 moveto 34 ([1,0]) alignedtext
grestore
% 9
gsave
0.54118 0.25098 1 nodecolor
256 327 17.89 18.38 ellipse_path fill
1 setlinewidth
filled
0.54118 0.25098 1 nodecolor
256 327 17.89 18.38 ellipse_path stroke
0 0 0 nodecolor
14 /Times-Roman set_font
251 323.4 moveto 10 (9) alignedtext
grestore
% 3->9
gsave
1 setlinewidth
0 0 0 edgecolor
newpath 372.94 534.89 moveto
351.24 496.32 296.18 398.43 270.11 352.08 curveto
stroke
0 0 0 edgecolor
newpath 273.1 350.26 moveto
265.15 343.26 lineto
267 353.7 lineto
closepath fill
1 setlinewidth
solid
0 0 0 edgecolor
newpath 273.1 350.26 moveto
265.15 343.26 lineto
267 353.7 lineto
closepath stroke
0 0 0 edgecolor
14 /Times-Roman set_font
329 435.4 moveto 34 ([1,1]) alignedtext
grestore
% 10
gsave
0.54118 0.25098 1 nodecolor
339 125 24.24 24.75 ellipse_path fill
1 setlinewidth
filled
0.54118 0.25098 1 nodecolor
339 125 24.24 24.75 ellipse_path stroke
0 0 0 nodecolor
14 /Times-Roman set_font
329.5 121.4 moveto 19 (10) alignedtext
grestore
% 3->10
gsave
1 setlinewidth
0 0 0 edgecolor
newpath 386.47 532.98 moveto
393.66 502.37 407 438.14 407 383 curveto
407 383 407 383 407 229 curveto
407 197.01 384.18 167.18 364.97 147.74 curveto
stroke
0 0 0 edgecolor
newpath 367.2 145.02 moveto
357.58 140.57 lineto
362.32 150.05 lineto
closepath fill
1 setlinewidth
solid
0 0 0 edgecolor
newpath 367.2 145.02 moveto
357.58 140.57 lineto
362.32 150.05 lineto
closepath stroke
0 0 0 edgecolor
14 /Times-Roman set_font
407 323.4 moveto 34 ([2,1]) alignedtext
grestore
% 4->8
gsave
1 setlinewidth
0 0 0 edgecolor
newpath 245.52 541.22 moveto
235 534.24 221.05 524.29 210 514 curveto
192.89 498.06 175.98 477.6 163.99 462.08 curveto
stroke
0 0 0 edgecolor
newpath 166.71 459.87 moveto
157.87 454.02 lineto
161.14 464.1 lineto
closepath fill
1 setlinewidth
solid
0 0 0 edgecolor
newpath 166.71 459.87 moveto
157.87 454.02 lineto
161.14 464.1 lineto
closepath stroke
0 0 0 edgecolor
14 /Times-Roman set_font
210 491.4 moveto 34 ([2,1]) alignedtext
grestore
% 4->9
gsave
1 setlinewidth
0 0 0 edgecolor
newpath 260.58 532.29 moveto
259.71 493.07 257.68 402.06 256.64 355.52 curveto
stroke
0 0 0 edgecolor
newpath 260.14 355.42 moveto
256.41 345.5 lineto
253.14 355.58 lineto
closepath fill
1 setlinewidth
solid
0 0 0 edgecolor
newpath 260.14 355.42 moveto
256.41 345.5 lineto
253.14 355.58 lineto
closepath stroke
0 0 0 edgecolor
14 /Times-Roman set_font
259 435.4 moveto 34 ([2,2]) alignedtext
grestore
% 5->2
gsave
1 setlinewidth
0 0 0 edgecolor
newpath 691.61 476.39 moveto
693.39 454.18 696 415.91 696 383 curveto
696 383 696 383 696 125 curveto
696 89.66 675.95 81.06 645 64 curveto
598.44 38.33 440.28 27.82 371.44 24.39 curveto
stroke
0 0 0 edgecolor
newpath 371.35 20.89 moveto
361.2 23.9 lineto
371.02 27.88 lineto
closepath fill
1 setlinewidth
solid
0 0 0 edgecolor
newpath 371.35 20.89 moveto
361.2 23.9 lineto
371.02 27.88 lineto
closepath stroke
0 0 0 edgecolor
14 /Times-Roman set_font
696 277.4 moveto 34 ([0,2]) alignedtext
grestore
% 6->10
gsave
1 setlinewidth
0 0 0 edgecolor
newpath 473.78 364.4 moveto
474.48 324.16 470.79 227.88 424 168 curveto
411.03 151.4 389.91 140.67 371.98 134.08 curveto
stroke
0 0 0 edgecolor
newpath 373 130.73 moveto
362.41 130.84 lineto
370.75 137.36 lineto
closepath fill
1 setlinewidth
solid
0 0 0 edgecolor
newpath 373 130.73 moveto
362.41 130.84 lineto
370.75 137.36 lineto
closepath stroke
0 0 0 edgecolor
14 /Times-Roman set_font
469 277.4 moveto 34 ([0,2]) alignedtext
grestore
% 7->2
gsave
1 setlinewidth
0 0 0 edgecolor
newpath 525.88 420.39 moveto
527.95 398.19 531 359.93 531 327 curveto
531 327 531 327 531 125 curveto
531 53.52 425.93 31.98 371.24 25.61 curveto
stroke
0 0 0 edgecolor
newpath 371.34 22.1 moveto
361.02 24.52 lineto
370.6 29.06 lineto
closepath fill
1 setlinewidth
solid
0 0 0 edgecolor
newpath 371.34 22.1 moveto
361.02 24.52 lineto
370.6 29.06 lineto
closepath stroke
0 0 0 edgecolor
14 /Times-Roman set_font
531 225.4 moveto 34 ([1,0]) alignedtext
grestore
% 7->7
gsave
1 setlinewidth
0 0 0 edgecolor
newpath 540.02 448.26 moveto
551.96 451.49 564 448.41 564 439 curveto
564 432.31 557.92 428.82 550.11 428.52 curveto
stroke
0 0 0 edgecolor
newpath 549.53 425.07 moveto
540.02 429.74 lineto
550.37 432.01 lineto
closepath fill
1 setlinewidth
solid
0 0 0 edgecolor
newpath 549.53 425.07 moveto
540.02 429.74 lineto
550.37 432.01 lineto
closepath stroke
0 0 0 edgecolor
14 /Times-Roman set_font
564 435.4 moveto 34 ([0,0]) alignedtext
grestore
% 8->2
gsave
1 setlinewidth
0 0 0 edgecolor
newpath 131.15 429.46 moveto
105.08 412.42 56 374.1 56 327 curveto
56 327 56 327 56 125 curveto
56 72.24 232.31 39.22 306.61 27.65 curveto
stroke
0 0 0 edgecolor
newpath 307.43 31.06 moveto
316.79 26.1 lineto
306.38 24.14 lineto
closepath fill
1 setlinewidth
solid
0 0 0 edgecolor
newpath 307.43 31.06 moveto
316.79 26.1 lineto
306.38 24.14 lineto
closepath stroke
0 0 0 edgecolor
14 /Times-Roman set_font
56 225.4 moveto 34 ([2,2]) alignedtext
grestore
% 8->8
gsave
1 setlinewidth
0 0 0 edgecolor
newpath 163.02 448.26 moveto
174.96 451.49 187 448.41 187 439 curveto
187 432.31 180.92 428.82 173.11 428.52 curveto
stroke
0 0 0 edgecolor
newpath 172.53 425.07 moveto
163.02 429.74 lineto
173.37 432.01 lineto
closepath fill
1 setlinewidth
solid
0 0 0 edgecolor
newpath 172.53 425.07 moveto
163.02 429.74 lineto
173.37 432.01 lineto
closepath stroke
0 0 0 edgecolor
14 /Times-Roman set_font
187 435.4 moveto 34 ([0,0]) alignedtext
grestore
% 8->9
gsave
1 setlinewidth
0 0 0 edgecolor
newpath 160.63 426.55 moveto
167.9 419.62 176.81 410.67 184 402 curveto
197.07 386.25 196.1 379.02 210 364 curveto
216.85 356.6 225.23 349.42 232.95 343.39 curveto
stroke
0 0 0 edgecolor
newpath 235.1 346.15 moveto
240.97 337.33 lineto
230.88 340.57 lineto
closepath fill
1 setlinewidth
solid
0 0 0 edgecolor
newpath 235.1 346.15 moveto
240.97 337.33 lineto
230.88 340.57 lineto
closepath stroke
0 0 0 edgecolor
14 /Times-Roman set_font
210 379.4 moveto 34 ([0,1]) alignedtext
grestore
% 8->10
gsave
1 setlinewidth
0 0 0 edgecolor
newpath 140.25 421.64 moveto
124.85 378.78 92.49 266.89 147 204 curveto
196.71 146.65 241.99 185.63 309 150 curveto
310.31 149.3 311.61 148.54 312.91 147.74 curveto
stroke
0 0 0 edgecolor
newpath 315.01 150.53 moveto
321.14 141.89 lineto
310.96 144.83 lineto
closepath fill
1 setlinewidth
solid
0 0 0 edgecolor
newpath 315.01 150.53 moveto
321.14 141.89 lineto
310.96 144.83 lineto
closepath stroke
0 0 0 edgecolor
14 /Times-Roman set_font
119 277.4 moveto 34 ([1,1]) alignedtext
grestore
% 11
gsave
0.54118 0.25098 1 nodecolor
182 229 24.24 24.75 ellipse_path fill
1 setlinewidth
filled
0.54118 0.25098 1 nodecolor
182 229 24.24 24.75 ellipse_path stroke
0 0 0 nodecolor
14 /Times-Roman set_font
172.5 225.4 moveto 19 (11) alignedtext
grestore
% 8->11
gsave
1 setlinewidth
0 0 0 edgecolor
newpath 150.04 420.73 moveto
155.89 385.64 168.78 308.33 176.28 263.33 curveto
stroke
0 0 0 edgecolor
newpath 179.74 263.87 moveto
177.93 253.44 lineto
172.83 262.72 lineto
closepath fill
1 setlinewidth
solid
0 0 0 edgecolor
newpath 179.74 263.87 moveto
177.93 253.44 lineto
172.83 262.72 lineto
closepath stroke
0 0 0 edgecolor
14 /Times-Roman set_font
169 323.4 moveto 34 ([1,2]) alignedtext
grestore
% 9->9
gsave
1 setlinewidth
0 0 0 edgecolor
newpath 272.44 334.7 moveto
284.24 337.2 296 334.64 296 327 curveto
296 321.63 290.19 318.77 282.63 318.41 curveto
stroke
0 0 0 edgecolor
newpath 282.09 314.95 moveto
272.44 319.3 lineto
282.7 321.92 lineto
closepath fill
1 setlinewidth
solid
0 0 0 edgecolor
newpath 282.09 314.95 moveto
272.44 319.3 lineto
282.7 321.92 lineto
closepath stroke
0 0 0 edgecolor
14 /Times-Roman set_font
296 323.4 moveto 71 ([1,0] [2,2]) alignedtext
grestore
% 9->10
gsave
1 setlinewidth
0 0 0 edgecolor
newpath 270.79 316.12 moveto
278.96 309.41 288.71 300.16 295 290 curveto
320.02 249.56 330.96 195.02 335.64 159.92 curveto
stroke
0 0 0 edgecolor
newpath 339.16 160.05 moveto
336.9 149.69 lineto
332.21 159.19 lineto
closepath fill
1 setlinewidth
solid
0 0 0 edgecolor
newpath 339.16 160.05 moveto
336.9 149.69 lineto
332.21 159.19 lineto
closepath stroke
0 0 0 edgecolor
14 /Times-Roman set_font
327 225.4 moveto 34 ([2,0]) alignedtext
grestore
% 9->11
gsave
1 setlinewidth
0 0 0 edgecolor
newpath 240.37 317.18 moveto
230.65 310.46 218.44 300.83 210 290 curveto
203.45 281.59 198 271.4 193.71 261.77 curveto
stroke
0 0 0 edgecolor
newpath 196.89 260.3 moveto
189.8 252.43 lineto
190.43 263 lineto
closepath fill
1 setlinewidth
solid
0 0 0 edgecolor
newpath 196.89 260.3 moveto
189.8 252.43 lineto
190.43 263 lineto
closepath stroke
0 0 0 edgecolor
14 /Times-Roman set_font
210 277.4 moveto 34 ([2,1]) alignedtext
grestore
% 10->2
gsave
1 setlinewidth
0 0 0 edgecolor
newpath 339 100.31 moveto
339 86.93 339 70.22 339 55.77 curveto
stroke
0 0 0 edgecolor
newpath 342.5 55.72 moveto
339 45.72 lineto
335.5 55.72 lineto
closepath fill
1 setlinewidth
solid
0 0 0 edgecolor
newpath 342.5 55.72 moveto
339 45.72 lineto
335.5 55.72 lineto
closepath stroke
0 0 0 edgecolor
14 /Times-Roman set_font
339 69.4 moveto 34 ([0,1]) alignedtext
grestore
% 10->10
gsave
1 setlinewidth
0 0 0 edgecolor
newpath 361.25 134.28 moveto
373.61 136.02 385 132.92 385 125 curveto
385 119.37 379.24 116.18 371.47 115.42 curveto
stroke
0 0 0 edgecolor
newpath 371.14 111.93 moveto
361.25 115.72 lineto
371.34 118.93 lineto
closepath fill
1 setlinewidth
solid
0 0 0 edgecolor
newpath 371.14 111.93 moveto
361.25 115.72 lineto
371.34 118.93 lineto
closepath stroke
0 0 0 edgecolor
14 /Times-Roman set_font
385 121.4 moveto 34 ([0,2]) alignedtext
grestore
% 11->2
gsave
1 setlinewidth
0 0 0 edgecolor
newpath 187.27 204.59 moveto
194.16 177 208.36 131.78 233 100 curveto
253.92 73.02 286.74 51.21 310.32 37.78 curveto
stroke
0 0 0 edgecolor
newpath 312.12 40.79 moveto
319.17 32.88 lineto
308.73 34.66 lineto
closepath fill
1 setlinewidth
solid
0 0 0 edgecolor
newpath 312.12 40.79 moveto
319.17 32.88 lineto
308.73 34.66 lineto
closepath stroke
0 0 0 edgecolor
14 /Times-Roman set_font
233 121.4 moveto 71 ([1,0] [2,2]) alignedtext
grestore
% 11->9
gsave
1 setlinewidth
0 0 0 edgecolor
newpath 204.76 237.56 moveto
219.87 244.48 238.74 255.76 249 272 curveto
253.88 279.72 256.1 289.27 256.97 298.24 curveto
stroke
0 0 0 edgecolor
newpath 253.48 298.52 moveto
257.44 308.35 lineto
260.47 298.2 lineto
closepath fill
1 setlinewidth
solid
0 0 0 edgecolor
newpath 253.48 298.52 moveto
257.44 308.35 lineto
260.47 298.2 lineto
closepath stroke
0 0 0 edgecolor
14 /Times-Roman set_font
256 277.4 moveto 34 ([0,1]) alignedtext
grestore
% 11->10
gsave
1 setlinewidth
0 0 0 edgecolor
newpath 202.2 215.62 moveto
229.49 197.54 278.31 165.2 309.64 144.45 curveto
stroke
0 0 0 edgecolor
newpath 311.97 147.1 moveto
318.38 138.66 lineto
308.11 141.27 lineto
closepath fill
1 setlinewidth
solid
0 0 0 edgecolor
newpath 311.97 147.1 moveto
318.38 138.66 lineto
308.11 141.27 lineto
closepath stroke
0 0 0 edgecolor
14 /Times-Roman set_font
270 173.4 moveto 34 ([1,1]) alignedtext
grestore
% 11->11
gsave
1 setlinewidth
0 0 0 edgecolor
newpath 204.25 238.28 moveto
216.61 240.02 228 236.92 228 229 curveto
228 223.37 222.24 220.18 214.47 219.42 curveto
stroke
0 0 0 edgecolor
newpath 214.14 215.93 moveto
204.25 219.72 lineto
214.34 222.93 lineto
closepath fill
1 setlinewidth
solid
0 0 0 edgecolor
newpath 214.14 215.93 moveto
204.25 219.72 lineto
214.34 222.93 lineto
closepath stroke
0 0 0 edgecolor
14 /Times-Roman set_font
228 225.4 moveto 71 ([0,0] [1,2]) alignedtext
grestore
endpage
showpage
grestore
%%PageTrailer
%%EndPage: 1
%%Trailer
end
restore
%%EOF
