%!PS-Adobe-3.0 EPSF-3.0
%%Creator: graphviz version 2.26.3 (20100126.1600)
%%Title: FSA Utilities
%%Pages: 1
%%BoundingBox: 36 36 803 1268
%%EndComments
save
%%BeginProlog
/DotDict 200 dict def
DotDict begin

/setupLatin1 {
mark
/EncodingVector 256 array def
 EncodingVector 0

ISOLatin1Encoding 0 255 getinterval putinterval
EncodingVector 45 /hyphen put

% Set up ISO Latin 1 character encoding
/starnetISO {
        dup dup findfont dup length dict begin
        { 1 index /FID ne { def }{ pop pop } ifelse
        } forall
        /Encoding EncodingVector def
        currentdict end definefont
} def
/Times-Roman starnetISO def
/Times-Italic starnetISO def
/Times-Bold starnetISO def
/Times-BoldItalic starnetISO def
/Helvetica starnetISO def
/Helvetica-Oblique starnetISO def
/Helvetica-Bold starnetISO def
/Helvetica-BoldOblique starnetISO def
/Courier starnetISO def
/Courier-Oblique starnetISO def
/Courier-Bold starnetISO def
/Courier-BoldOblique starnetISO def
cleartomark
} bind def

%%BeginResource: procset graphviz 0 0
/coord-font-family /Times-Roman def
/default-font-family /Times-Roman def
/coordfont coord-font-family findfont 8 scalefont def

/InvScaleFactor 1.0 def
/set_scale {
       dup 1 exch div /InvScaleFactor exch def
       scale
} bind def

% styles
/solid { [] 0 setdash } bind def
/dashed { [9 InvScaleFactor mul dup ] 0 setdash } bind def
/dotted { [1 InvScaleFactor mul 6 InvScaleFactor mul] 0 setdash } bind def
/invis {/fill {newpath} def /stroke {newpath} def /show {pop newpath} def} bind def
/bold { 2 setlinewidth } bind def
/filled { } bind def
/unfilled { } bind def
/rounded { } bind def
/diagonals { } bind def

% hooks for setting color 
/nodecolor { sethsbcolor } bind def
/edgecolor { sethsbcolor } bind def
/graphcolor { sethsbcolor } bind def
/nopcolor {pop pop pop} bind def

/beginpage {	% i j npages
	/npages exch def
	/j exch def
	/i exch def
	/str 10 string def
	npages 1 gt {
		gsave
			coordfont setfont
			0 0 moveto
			(\() show i str cvs show (,) show j str cvs show (\)) show
		grestore
	} if
} bind def

/set_font {
	findfont exch
	scalefont setfont
} def

% draw text fitted to its expected width
/alignedtext {			% width text
	/text exch def
	/width exch def
	gsave
		width 0 gt {
			[] 0 setdash
			text stringwidth pop width exch sub text length div 0 text ashow
		} if
	grestore
} def

/boxprim {				% xcorner ycorner xsize ysize
		4 2 roll
		moveto
		2 copy
		exch 0 rlineto
		0 exch rlineto
		pop neg 0 rlineto
		closepath
} bind def

/ellipse_path {
	/ry exch def
	/rx exch def
	/y exch def
	/x exch def
	matrix currentmatrix
	newpath
	x y translate
	rx ry scale
	0 0 1 0 360 arc
	setmatrix
} bind def

/endpage { showpage } bind def
/showpage { } def

/layercolorseq
	[	% layer color sequence - darkest to lightest
		[0 0 0]
		[.2 .8 .8]
		[.4 .8 .8]
		[.6 .8 .8]
		[.8 .8 .8]
	]
def

/layerlen layercolorseq length def

/setlayer {/maxlayer exch def /curlayer exch def
	layercolorseq curlayer 1 sub layerlen mod get
	aload pop sethsbcolor
	/nodecolor {nopcolor} def
	/edgecolor {nopcolor} def
	/graphcolor {nopcolor} def
} bind def

/onlayer { curlayer ne {invis} if } def

/onlayers {
	/myupper exch def
	/mylower exch def
	curlayer mylower lt
	curlayer myupper gt
	or
	{invis} if
} def

/curlayer 0 def

%%EndResource
%%EndProlog
%%BeginSetup
14 default-font-family set_font
1 setmiterlimit
% /arrowlength 10 def
% /arrowwidth 5 def

% make sure pdfmark is harmless for PS-interpreters other than Distiller
/pdfmark where {pop} {userdict /pdfmark /cleartomark load put} ifelse
% make '<<' and '>>' safe on PS Level 1 devices
/languagelevel where {pop languagelevel}{1} ifelse
2 lt {
    userdict (<<) cvn ([) cvn load put
    userdict (>>) cvn ([) cvn load put
} if

%%EndSetup
setupLatin1
%%Page: 1 1
%%PageBoundingBox: 36 36 803 1268
%%PageOrientation: Portrait
0 0 1 beginpage
gsave
36 36 767 1232 boxprim clip newpath
1 1 set_scale 0 rotate 40 41 translate
% start0
gsave
grestore
% 0
gsave
0.83922 0.48235 0.8549 nodecolor
606 1127 17.98 18.38 ellipse_path fill
1 setlinewidth
filled
0.83922 0.48235 0.8549 nodecolor
606 1127 17.98 18.38 ellipse_path stroke
1 setlinewidth
filled
0.83922 0.48235 0.8549 nodecolor
606 1127 21.89 22.38 ellipse_path stroke
0 0 0 nodecolor
14 /Times-Roman set_font
601 1123.4 moveto 10 (0) alignedtext
grestore
% start0->0
gsave
1 setlinewidth
0 0 0 edgecolor
newpath 606 1187.68 moveto
606 1179.38 606 1169.3 606 1159.77 curveto
stroke
0 0 0 edgecolor
newpath 609.5 1159.74 moveto
606 1149.74 lineto
602.5 1159.74 lineto
closepath fill
1 setlinewidth
solid
0 0 0 edgecolor
newpath 609.5 1159.74 moveto
606 1149.74 lineto
602.5 1159.74 lineto
closepath stroke
grestore
% 0->0
gsave
1 setlinewidth
0 0 0 edgecolor
newpath 626.82 1134.44 moveto
638.83 1135.96 650 1133.48 650 1127 curveto
650 1122.44 644.48 1119.86 637.02 1119.26 curveto
stroke
0 0 0 edgecolor
newpath 636.72 1115.77 moveto
626.82 1119.56 lineto
636.92 1122.77 lineto
closepath fill
1 setlinewidth
solid
0 0 0 edgecolor
newpath 636.72 1115.77 moveto
626.82 1119.56 lineto
636.92 1122.77 lineto
closepath stroke
0 0 0 edgecolor
14 /Times-Roman set_font
650 1123.4 moveto 34 ([0,0]) alignedtext
grestore
% 1
gsave
0.54118 0.25098 1 nodecolor
606 1031 17.89 18.38 ellipse_path fill
1 setlinewidth
filled
0.54118 0.25098 1 nodecolor
606 1031 17.89 18.38 ellipse_path stroke
0 0 0 nodecolor
14 /Times-Roman set_font
601 1027.4 moveto 10 (1) alignedtext
grestore
% 0->1
gsave
1 setlinewidth
0 0 0 edgecolor
newpath 606 1104.25 moveto
606 1090.99 606 1074.15 606 1059.95 curveto
stroke
0 0 0 edgecolor
newpath 609.5 1059.72 moveto
606 1049.72 lineto
602.5 1059.72 lineto
closepath fill
1 setlinewidth
solid
0 0 0 edgecolor
newpath 609.5 1059.72 moveto
606 1049.72 lineto
602.5 1059.72 lineto
closepath stroke
0 0 0 edgecolor
14 /Times-Roman set_font
606 1073.4 moveto 34 ([0,1]) alignedtext
grestore
% 2
gsave
0.54118 0.25098 1 nodecolor
606 939 17.89 18.38 ellipse_path fill
1 setlinewidth
filled
0.54118 0.25098 1 nodecolor
606 939 17.89 18.38 ellipse_path stroke
0 0 0 nodecolor
14 /Times-Roman set_font
601 935.4 moveto 10 (2) alignedtext
grestore
% 1->2
gsave
1 setlinewidth
0 0 0 edgecolor
newpath 606 1012.38 moveto
606 999.54 606 982.22 606 967.63 curveto
stroke
0 0 0 edgecolor
newpath 609.5 967.59 moveto
606 957.59 lineto
602.5 967.59 lineto
closepath fill
1 setlinewidth
solid
0 0 0 edgecolor
newpath 609.5 967.59 moveto
606 957.59 lineto
602.5 967.59 lineto
closepath stroke
0 0 0 edgecolor
14 /Times-Roman set_font
606 981.4 moveto 34 ([0,0]) alignedtext
grestore
% 3
gsave
0.023529 0.72157 1 nodecolor
474 23 17.98 18.38 ellipse_path fill
1 setlinewidth
filled
0.023529 0.72157 1 nodecolor
474 23 17.98 18.38 ellipse_path stroke
1 setlinewidth
filled
0.023529 0.72157 1 nodecolor
474 23 21.89 22.38 ellipse_path stroke
0 0 0 nodecolor
14 /Times-Roman set_font
469 19.4 moveto 10 (3) alignedtext
grestore
% 1->3
gsave
1 setlinewidth
0 0 0 edgecolor
newpath 623.56 1026.34 moveto
656.66 1016.37 725 989.66 725 939 curveto
725 939 725 939 725 125 curveto
725 86.97 698.33 82.32 665 64 curveto
637.99 49.15 553.06 34.72 506.06 27.6 curveto
stroke
0 0 0 edgecolor
newpath 506.5 24.13 moveto
496.09 26.11 lineto
505.47 31.05 lineto
closepath fill
1 setlinewidth
solid
0 0 0 edgecolor
newpath 506.5 24.13 moveto
496.09 26.11 lineto
505.47 31.05 lineto
closepath stroke
0 0 0 edgecolor
14 /Times-Roman set_font
725 533.4 moveto 34 ([1,0]) alignedtext
grestore
% 4
gsave
0.54118 0.25098 1 nodecolor
499 469 17.89 18.38 ellipse_path fill
1 setlinewidth
filled
0.54118 0.25098 1 nodecolor
499 469 17.89 18.38 ellipse_path stroke
0 0 0 nodecolor
14 /Times-Roman set_font
494 465.4 moveto 10 (4) alignedtext
grestore
% 1->4
gsave
1 setlinewidth
0 0 0 edgecolor
newpath 588.24 1027.47 moveto
536.42 1016.68 389 982.17 389 939 curveto
389 939 389 939 389 605 curveto
389 550.87 442.33 506.19 474.72 484.04 curveto
stroke
0 0 0 edgecolor
newpath 476.83 486.84 moveto
483.24 478.4 lineto
472.97 481 lineto
closepath fill
1 setlinewidth
solid
0 0 0 edgecolor
newpath 476.83 486.84 moveto
483.24 478.4 lineto
472.97 481 lineto
closepath stroke
0 0 0 edgecolor
14 /Times-Roman set_font
389 787.4 moveto 34 ([1,1]) alignedtext
grestore
% 5
gsave
0.54118 0.25098 1 nodecolor
511 847 17.89 18.38 ellipse_path fill
1 setlinewidth
filled
0.54118 0.25098 1 nodecolor
511 847 17.89 18.38 ellipse_path stroke
0 0 0 nodecolor
14 /Times-Roman set_font
506 843.4 moveto 10 (5) alignedtext
grestore
% 2->5
gsave
1 setlinewidth
0 0 0 edgecolor
newpath 589.27 931.56 moveto
576.12 925.12 557.93 914.82 545 902 curveto
536.54 893.61 529.26 882.73 523.62 872.86 curveto
stroke
0 0 0 edgecolor
newpath 526.57 870.96 moveto
518.74 863.83 lineto
520.41 874.29 lineto
closepath fill
1 setlinewidth
solid
0 0 0 edgecolor
newpath 526.57 870.96 moveto
518.74 863.83 lineto
520.41 874.29 lineto
closepath stroke
0 0 0 edgecolor
14 /Times-Roman set_font
545 889.4 moveto 34 ([0,0]) alignedtext
grestore
% 6
gsave
0.54118 0.25098 1 nodecolor
606 791 17.89 18.38 ellipse_path fill
1 setlinewidth
filled
0.54118 0.25098 1 nodecolor
606 791 17.89 18.38 ellipse_path stroke
0 0 0 nodecolor
14 /Times-Roman set_font
601 787.4 moveto 10 (6) alignedtext
grestore
% 2->6
gsave
1 setlinewidth
0 0 0 edgecolor
newpath 606 920.26 moveto
606 894.9 606 849.44 606 819.75 curveto
stroke
0 0 0 edgecolor
newpath 609.5 819.59 moveto
606 809.59 lineto
602.5 819.59 lineto
closepath fill
1 setlinewidth
solid
0 0 0 edgecolor
newpath 609.5 819.59 moveto
606 809.59 lineto
602.5 819.59 lineto
closepath stroke
0 0 0 edgecolor
14 /Times-Roman set_font
606 889.4 moveto 34 ([0,1]) alignedtext
grestore
% 7
gsave
0.54118 0.25098 1 nodecolor
673 791 17.89 18.38 ellipse_path fill
1 setlinewidth
filled
0.54118 0.25098 1 nodecolor
673 791 17.89 18.38 ellipse_path stroke
0 0 0 nodecolor
14 /Times-Roman set_font
668 787.4 moveto 10 (7) alignedtext
grestore
% 2->7
gsave
1 setlinewidth
0 0 0 edgecolor
newpath 620.98 928.23 moveto
629.22 921.56 638.97 912.31 645 902 curveto
659.97 876.41 667 842.96 670.26 819.5 curveto
stroke
0 0 0 edgecolor
newpath 673.75 819.84 moveto
671.51 809.48 lineto
666.8 818.97 lineto
closepath fill
1 setlinewidth
solid
0 0 0 edgecolor
newpath 673.75 819.84 moveto
671.51 809.48 lineto
666.8 818.97 lineto
closepath stroke
0 0 0 edgecolor
14 /Times-Roman set_font
653 889.4 moveto 34 ([1,1]) alignedtext
grestore
% 4->3
gsave
1 setlinewidth
0 0 0 edgecolor
newpath 501 450.55 moveto
503.65 424.42 508 375.12 508 333 curveto
508 333 508 333 508 125 curveto
508 99.33 498.19 71.81 489.11 51.83 curveto
stroke
0 0 0 edgecolor
newpath 492.21 50.2 moveto
484.76 42.67 lineto
485.89 53.21 lineto
closepath fill
1 setlinewidth
solid
0 0 0 edgecolor
newpath 492.21 50.2 moveto
484.76 42.67 lineto
485.89 53.21 lineto
closepath stroke
0 0 0 edgecolor
14 /Times-Roman set_font
508 225.4 moveto 34 ([0,0]) alignedtext
grestore
% 8
gsave
0.54118 0.25098 1 nodecolor
544 735 17.89 18.38 ellipse_path fill
1 setlinewidth
filled
0.54118 0.25098 1 nodecolor
544 735 17.89 18.38 ellipse_path stroke
0 0 0 nodecolor
14 /Times-Roman set_font
539 731.4 moveto 10 (8) alignedtext
grestore
% 5->8
gsave
1 setlinewidth
0 0 0 edgecolor
newpath 516.3 829.01 moveto
521.57 811.13 529.72 783.46 535.82 762.76 curveto
stroke
0 0 0 edgecolor
newpath 539.24 763.53 moveto
538.71 752.95 lineto
532.53 761.55 lineto
closepath fill
1 setlinewidth
solid
0 0 0 edgecolor
newpath 539.24 763.53 moveto
538.71 752.95 lineto
532.53 761.55 lineto
closepath stroke
0 0 0 edgecolor
14 /Times-Roman set_font
532 787.4 moveto 34 ([0,0]) alignedtext
grestore
% 9
gsave
0.54118 0.25098 1 nodecolor
250 735 17.89 18.38 ellipse_path fill
1 setlinewidth
filled
0.54118 0.25098 1 nodecolor
250 735 17.89 18.38 ellipse_path stroke
0 0 0 nodecolor
14 /Times-Roman set_font
245 731.4 moveto 10 (9) alignedtext
grestore
% 5->9
gsave
1 setlinewidth
0 0 0 edgecolor
newpath 494.43 839.4 moveto
481.37 832.86 463.22 822.52 450 810 curveto
435.14 795.93 441 783.39 424 772 curveto
400.4 756.2 320.91 744 278.01 738.39 curveto
stroke
0 0 0 edgecolor
newpath 278.31 734.9 moveto
267.95 737.11 lineto
277.42 741.84 lineto
closepath fill
1 setlinewidth
solid
0 0 0 edgecolor
newpath 278.31 734.9 moveto
267.95 737.11 lineto
277.42 741.84 lineto
closepath stroke
0 0 0 edgecolor
14 /Times-Roman set_font
450 787.4 moveto 34 ([0,1]) alignedtext
grestore
% 10
gsave
0.54118 0.25098 1 nodecolor
468 605 24.24 24.75 ellipse_path fill
1 setlinewidth
filled
0.54118 0.25098 1 nodecolor
468 605 24.24 24.75 ellipse_path stroke
0 0 0 nodecolor
14 /Times-Roman set_font
458.5 601.4 moveto 19 (10) alignedtext
grestore
% 5->10
gsave
1 setlinewidth
0 0 0 edgecolor
newpath 504.17 829.83 moveto
497.14 811.4 486.48 781.1 481 754 curveto
473.17 715.3 470.06 670 468.82 639.6 curveto
stroke
0 0 0 edgecolor
newpath 472.31 639.37 moveto
468.45 629.5 lineto
465.32 639.62 lineto
closepath fill
1 setlinewidth
solid
0 0 0 edgecolor
newpath 472.31 639.37 moveto
468.45 629.5 lineto
465.32 639.62 lineto
closepath stroke
0 0 0 edgecolor
14 /Times-Roman set_font
481 731.4 moveto 34 ([1,1]) alignedtext
grestore
% 11
gsave
0.54118 0.25098 1 nodecolor
606 673 24.24 24.75 ellipse_path fill
1 setlinewidth
filled
0.54118 0.25098 1 nodecolor
606 673 24.24 24.75 ellipse_path stroke
0 0 0 nodecolor
14 /Times-Roman set_font
596.5 669.4 moveto 19 (11) alignedtext
grestore
% 6->11
gsave
1 setlinewidth
0 0 0 edgecolor
newpath 606 772.3 moveto
606 755.07 606 729.05 606 707.96 curveto
stroke
0 0 0 edgecolor
newpath 609.5 707.77 moveto
606 697.77 lineto
602.5 707.77 lineto
closepath fill
1 setlinewidth
solid
0 0 0 edgecolor
newpath 609.5 707.77 moveto
606 697.77 lineto
602.5 707.77 lineto
closepath stroke
0 0 0 edgecolor
14 /Times-Roman set_font
606 731.4 moveto 34 ([1,0]) alignedtext
grestore
% 7->3
gsave
1 setlinewidth
0 0 0 edgecolor
newpath 673.26 772.2 moveto
673.55 748.91 674 708.03 674 673 curveto
674 673 674 673 674 125 curveto
674 50.67 563.01 30.48 506.39 25.01 curveto
stroke
0 0 0 edgecolor
newpath 506.43 21.51 moveto
496.17 24.13 lineto
505.83 28.48 lineto
closepath fill
1 setlinewidth
solid
0 0 0 edgecolor
newpath 506.43 21.51 moveto
496.17 24.13 lineto
505.83 28.48 lineto
closepath stroke
0 0 0 edgecolor
14 /Times-Roman set_font
674 397.4 moveto 34 ([1,0]) alignedtext
grestore
% 12
gsave
0.54118 0.25098 1 nodecolor
538 605 24.24 24.75 ellipse_path fill
1 setlinewidth
filled
0.54118 0.25098 1 nodecolor
538 605 24.24 24.75 ellipse_path stroke
0 0 0 nodecolor
14 /Times-Roman set_font
528.5 601.4 moveto 19 (12) alignedtext
grestore
% 8->12
gsave
1 setlinewidth
0 0 0 edgecolor
newpath 539.83 716.65 moveto
538.67 710.73 537.57 704.12 537 698 curveto
535.2 678.83 535.3 657.34 535.91 639.85 curveto
stroke
0 0 0 edgecolor
newpath 539.42 639.67 moveto
536.35 629.53 lineto
532.43 639.38 lineto
closepath fill
1 setlinewidth
solid
0 0 0 edgecolor
newpath 539.42 639.67 moveto
536.35 629.53 lineto
532.43 639.38 lineto
closepath stroke
0 0 0 edgecolor
14 /Times-Roman set_font
537 669.4 moveto 34 ([1,1]) alignedtext
grestore
% 13
gsave
0.54118 0.25098 1 nodecolor
250 605 24.24 24.75 ellipse_path fill
1 setlinewidth
filled
0.54118 0.25098 1 nodecolor
250 605 24.24 24.75 ellipse_path stroke
0 0 0 nodecolor
14 /Times-Roman set_font
240.5 601.4 moveto 19 (13) alignedtext
grestore
% 9->13
gsave
1 setlinewidth
0 0 0 edgecolor
newpath 250 716.37 moveto
250 696.47 250 664.46 250 639.86 curveto
stroke
0 0 0 edgecolor
newpath 253.5 639.82 moveto
250 629.82 lineto
246.5 639.82 lineto
closepath fill
1 setlinewidth
solid
0 0 0 edgecolor
newpath 253.5 639.82 moveto
250 629.82 lineto
246.5 639.82 lineto
closepath stroke
0 0 0 edgecolor
14 /Times-Roman set_font
250 669.4 moveto 34 ([1,0]) alignedtext
grestore
% 14
gsave
0.54118 0.25098 1 nodecolor
92 605 24.24 24.75 ellipse_path fill
1 setlinewidth
filled
0.54118 0.25098 1 nodecolor
92 605 24.24 24.75 ellipse_path stroke
0 0 0 nodecolor
14 /Times-Roman set_font
82.5 601.4 moveto 19 (14) alignedtext
grestore
% 9->14
gsave
1 setlinewidth
0 0 0 edgecolor
newpath 235.7 723.23 moveto
209.3 701.51 152.53 654.8 118.78 627.03 curveto
stroke
0 0 0 edgecolor
newpath 120.68 624.06 moveto
110.73 620.41 lineto
116.23 629.47 lineto
closepath fill
1 setlinewidth
solid
0 0 0 edgecolor
newpath 120.68 624.06 moveto
110.73 620.41 lineto
116.23 629.47 lineto
closepath stroke
0 0 0 edgecolor
14 /Times-Roman set_font
204 669.4 moveto 34 ([1,1]) alignedtext
grestore
% 10->4
gsave
1 setlinewidth
0 0 0 edgecolor
newpath 467.88 580.44 moveto
468.38 561.41 470.39 534.57 477 512 curveto
478.78 505.92 481.43 499.68 484.27 493.9 curveto
stroke
0 0 0 edgecolor
newpath 487.54 495.21 moveto
489.14 484.74 lineto
481.36 491.93 lineto
closepath fill
1 setlinewidth
solid
0 0 0 edgecolor
newpath 487.54 495.21 moveto
489.14 484.74 lineto
481.36 491.93 lineto
closepath stroke
0 0 0 edgecolor
14 /Times-Roman set_font
477 533.4 moveto 34 ([0,0]) alignedtext
grestore
% 15
gsave
0.54118 0.25098 1 nodecolor
438 229 24.24 24.75 ellipse_path fill
1 setlinewidth
filled
0.54118 0.25098 1 nodecolor
438 229 24.24 24.75 ellipse_path stroke
0 0 0 nodecolor
14 /Times-Roman set_font
428.5 225.4 moveto 19 (15) alignedtext
grestore
% 10->15
gsave
1 setlinewidth
0 0 0 edgecolor
newpath 464.97 580.46 moveto
464.28 574.43 463.57 567.99 463 562 curveto
452.61 453.39 443.99 324.5 440.15 263.84 curveto
stroke
0 0 0 edgecolor
newpath 443.63 263.44 moveto
439.51 253.68 lineto
436.64 263.88 lineto
closepath fill
1 setlinewidth
solid
0 0 0 edgecolor
newpath 443.63 263.44 moveto
439.51 253.68 lineto
436.64 263.88 lineto
closepath stroke
0 0 0 edgecolor
14 /Times-Roman set_font
451 397.4 moveto 34 ([0,1]) alignedtext
grestore
% 16
gsave
0.54118 0.25098 1 nodecolor
604 537 24.24 24.75 ellipse_path fill
1 setlinewidth
filled
0.54118 0.25098 1 nodecolor
604 537 24.24 24.75 ellipse_path stroke
0 0 0 nodecolor
14 /Times-Roman set_font
594.5 533.4 moveto 19 (16) alignedtext
grestore
% 11->16
gsave
1 setlinewidth
0 0 0 edgecolor
newpath 605.64 648.37 moveto
605.32 627.03 604.87 595.92 604.51 572 curveto
stroke
0 0 0 edgecolor
newpath 608.01 571.85 moveto
604.37 561.9 lineto
601.01 571.96 lineto
closepath fill
1 setlinewidth
solid
0 0 0 edgecolor
newpath 608.01 571.85 moveto
604.37 561.9 lineto
601.01 571.96 lineto
closepath stroke
0 0 0 edgecolor
14 /Times-Roman set_font
605 601.4 moveto 34 ([0,0]) alignedtext
grestore
% 12->4
gsave
1 setlinewidth
0 0 0 edgecolor
newpath 531.51 581.26 moveto
526.33 562.45 518.84 535.5 512 512 curveto
510.58 507.11 509.03 501.91 507.52 496.89 curveto
stroke
0 0 0 edgecolor
newpath 510.77 495.53 moveto
504.52 486.97 lineto
504.07 497.55 lineto
closepath fill
1 setlinewidth
solid
0 0 0 edgecolor
newpath 510.77 495.53 moveto
504.52 486.97 lineto
504.07 497.55 lineto
closepath stroke
0 0 0 edgecolor
14 /Times-Roman set_font
525 533.4 moveto 34 ([1,1]) alignedtext
grestore
% 17
gsave
0.54118 0.25098 1 nodecolor
250 469 24.24 24.75 ellipse_path fill
1 setlinewidth
filled
0.54118 0.25098 1 nodecolor
250 469 24.24 24.75 ellipse_path stroke
0 0 0 nodecolor
14 /Times-Roman set_font
240.5 465.4 moveto 19 (17) alignedtext
grestore
% 13->17
gsave
1 setlinewidth
0 0 0 edgecolor
newpath 250 580.37 moveto
250 559.03 250 527.92 250 504 curveto
stroke
0 0 0 edgecolor
newpath 253.5 503.9 moveto
250 493.9 lineto
246.5 503.9 lineto
closepath fill
1 setlinewidth
solid
0 0 0 edgecolor
newpath 253.5 503.9 moveto
250 493.9 lineto
246.5 503.9 lineto
closepath stroke
0 0 0 edgecolor
14 /Times-Roman set_font
250 533.4 moveto 34 ([0,0]) alignedtext
grestore
% 18
gsave
0.54118 0.25098 1 nodecolor
132 333 24.24 24.75 ellipse_path fill
1 setlinewidth
filled
0.54118 0.25098 1 nodecolor
132 333 24.24 24.75 ellipse_path stroke
0 0 0 nodecolor
14 /Times-Roman set_font
122.5 329.4 moveto 19 (18) alignedtext
grestore
% 13->18
gsave
1 setlinewidth
0 0 0 edgecolor
newpath 235.35 585.03 moveto
220.07 563.47 196.28 527.68 181 494 curveto
161.94 451.98 147.75 400.54 139.68 367.29 curveto
stroke
0 0 0 edgecolor
newpath 142.99 366.09 moveto
137.27 357.17 lineto
136.18 367.71 lineto
closepath fill
1 setlinewidth
solid
0 0 0 edgecolor
newpath 142.99 366.09 moveto
137.27 357.17 lineto
136.18 367.71 lineto
closepath stroke
0 0 0 edgecolor
14 /Times-Roman set_font
181 465.4 moveto 34 ([0,1]) alignedtext
grestore
% 19
gsave
0.54118 0.25098 1 nodecolor
350 229 24.24 24.75 ellipse_path fill
1 setlinewidth
filled
0.54118 0.25098 1 nodecolor
350 229 24.24 24.75 ellipse_path stroke
0 0 0 nodecolor
14 /Times-Roman set_font
340.5 225.4 moveto 19 (19) alignedtext
grestore
% 13->19
gsave
1 setlinewidth
0 0 0 edgecolor
newpath 268.64 588.81 moveto
289.92 568.97 323.52 533.12 337 494 curveto
364.17 415.16 359.41 315.31 354.3 263.59 curveto
stroke
0 0 0 edgecolor
newpath 357.77 263.18 moveto
353.25 253.6 lineto
350.81 263.92 lineto
closepath fill
1 setlinewidth
solid
0 0 0 edgecolor
newpath 357.77 263.18 moveto
353.25 253.6 lineto
350.81 263.92 lineto
closepath stroke
0 0 0 edgecolor
14 /Times-Roman set_font
358 397.4 moveto 34 ([1,1]) alignedtext
grestore
% 14->18
gsave
1 setlinewidth
0 0 0 edgecolor
newpath 93.84 580.35 moveto
96.38 548.68 101.5 492.04 109 444 curveto
113.06 417.98 119.16 388.84 124.06 366.94 curveto
stroke
0 0 0 edgecolor
newpath 127.48 367.65 moveto
126.28 357.13 lineto
120.66 366.11 lineto
closepath fill
1 setlinewidth
solid
0 0 0 edgecolor
newpath 127.48 367.65 moveto
126.28 357.13 lineto
120.66 366.11 lineto
closepath stroke
0 0 0 edgecolor
14 /Times-Roman set_font
109 465.4 moveto 34 ([1,1]) alignedtext
grestore
% 20
gsave
0.54118 0.25098 1 nodecolor
24 469 24.24 24.75 ellipse_path fill
1 setlinewidth
filled
0.54118 0.25098 1 nodecolor
24 469 24.24 24.75 ellipse_path stroke
0 0 0 nodecolor
14 /Times-Roman set_font
14.5 465.4 moveto 19 (20) alignedtext
grestore
% 14->20
gsave
1 setlinewidth
0 0 0 edgecolor
newpath 71.31 592.58 moveto
60.59 585.07 48.26 574.52 41 562 curveto
30.83 544.47 26.52 522.22 24.78 503.88 curveto
stroke
0 0 0 edgecolor
newpath 28.27 503.59 moveto
24.04 493.87 lineto
21.28 504.1 lineto
closepath fill
1 setlinewidth
solid
0 0 0 edgecolor
newpath 28.27 503.59 moveto
24.04 493.87 lineto
21.28 504.1 lineto
closepath stroke
0 0 0 edgecolor
14 /Times-Roman set_font
41 533.4 moveto 34 ([1,0]) alignedtext
grestore
% 15->3
gsave
1 setlinewidth
0 0 0 edgecolor
newpath 441.06 204.66 moveto
444.45 178.67 450.33 136.29 457 100 curveto
459.72 85.19 463.24 68.9 466.37 55.13 curveto
stroke
0 0 0 edgecolor
newpath 469.84 55.68 moveto
468.67 45.15 lineto
463.01 54.11 lineto
closepath fill
1 setlinewidth
solid
0 0 0 edgecolor
newpath 469.84 55.68 moveto
468.67 45.15 lineto
463.01 54.11 lineto
closepath stroke
0 0 0 edgecolor
14 /Times-Roman set_font
457 121.4 moveto 34 ([1,0]) alignedtext
grestore
% 21
gsave
0.54118 0.25098 1 nodecolor
230 125 24.24 24.75 ellipse_path fill
1 setlinewidth
filled
0.54118 0.25098 1 nodecolor
230 125 24.24 24.75 ellipse_path stroke
0 0 0 nodecolor
14 /Times-Roman set_font
220.5 121.4 moveto 19 (21) alignedtext
grestore
% 15->21
gsave
1 setlinewidth
0 0 0 edgecolor
newpath 417.89 215.34 moveto
398.1 202.23 366.74 182.36 338 168 curveto
313.26 155.64 284.07 144.19 262.27 136.22 curveto
stroke
0 0 0 edgecolor
newpath 263.42 132.92 moveto
252.82 132.81 lineto
261.04 139.5 lineto
closepath fill
1 setlinewidth
solid
0 0 0 edgecolor
newpath 263.42 132.92 moveto
252.82 132.81 lineto
261.04 139.5 lineto
closepath stroke
0 0 0 edgecolor
14 /Times-Roman set_font
370 173.4 moveto 34 ([0,1]) alignedtext
grestore
% 22
gsave
0.54118 0.25098 1 nodecolor
571 401 24.24 24.75 ellipse_path fill
1 setlinewidth
filled
0.54118 0.25098 1 nodecolor
571 401 24.24 24.75 ellipse_path stroke
0 0 0 nodecolor
14 /Times-Roman set_font
561.5 397.4 moveto 19 (22) alignedtext
grestore
% 16->22
gsave
1 setlinewidth
0 0 0 edgecolor
newpath 598.18 513 moveto
592.93 491.38 585.16 459.36 579.27 435.09 curveto
stroke
0 0 0 edgecolor
newpath 582.64 434.11 moveto
576.88 425.22 lineto
575.83 435.76 lineto
closepath fill
1 setlinewidth
solid
0 0 0 edgecolor
newpath 582.64 434.11 moveto
576.88 425.22 lineto
575.83 435.76 lineto
closepath stroke
0 0 0 edgecolor
14 /Times-Roman set_font
593 465.4 moveto 34 ([0,0]) alignedtext
grestore
% 17->17
gsave
1 setlinewidth
0 0 0 edgecolor
newpath 271.29 480.95 moveto
284.02 483.61 296 479.63 296 469 curveto
296 461.28 289.68 457.07 281.34 456.36 curveto
stroke
0 0 0 edgecolor
newpath 281.03 452.87 moveto
271.29 457.05 lineto
281.51 459.85 lineto
closepath fill
1 setlinewidth
solid
0 0 0 edgecolor
newpath 281.03 452.87 moveto
271.29 457.05 lineto
281.51 459.85 lineto
closepath stroke
0 0 0 edgecolor
14 /Times-Roman set_font
296 465.4 moveto 34 ([0,0]) alignedtext
grestore
% 17->18
gsave
1 setlinewidth
0 0 0 edgecolor
newpath 232.05 452.41 moveto
224.41 444.8 215.72 435.4 209 426 curveto
194.44 405.62 198.65 395.56 183 376 curveto
176.38 367.73 167.98 359.87 159.91 353.2 curveto
stroke
0 0 0 edgecolor
newpath 162.04 350.42 moveto
152.04 346.94 lineto
157.69 355.9 lineto
closepath fill
1 setlinewidth
solid
0 0 0 edgecolor
newpath 162.04 350.42 moveto
152.04 346.94 lineto
157.69 355.9 lineto
closepath stroke
0 0 0 edgecolor
14 /Times-Roman set_font
209 397.4 moveto 34 ([0,1]) alignedtext
grestore
% 17->21
gsave
1 setlinewidth
0 0 0 edgecolor
newpath 249.08 444.51 moveto
247.26 397.73 242.85 292.48 237 204 curveto
236.04 189.44 234.67 173.39 233.4 159.59 curveto
stroke
0 0 0 edgecolor
newpath 236.88 159.16 moveto
232.46 149.53 lineto
229.91 159.82 lineto
closepath fill
1 setlinewidth
solid
0 0 0 edgecolor
newpath 236.88 159.16 moveto
232.46 149.53 lineto
229.91 159.82 lineto
closepath stroke
0 0 0 edgecolor
14 /Times-Roman set_font
242 277.4 moveto 34 ([1,1]) alignedtext
grestore
% 18->18
gsave
1 setlinewidth
0 0 0 edgecolor
newpath 154.25 342.28 moveto
166.61 344.02 178 340.92 178 333 curveto
178 327.37 172.24 324.18 164.47 323.42 curveto
stroke
0 0 0 edgecolor
newpath 164.14 319.93 moveto
154.25 323.72 lineto
164.34 326.93 lineto
closepath fill
1 setlinewidth
solid
0 0 0 edgecolor
newpath 164.14 319.93 moveto
154.25 323.72 lineto
164.34 326.93 lineto
closepath stroke
0 0 0 edgecolor
14 /Times-Roman set_font
178 329.4 moveto 34 ([1,1]) alignedtext
grestore
% 23
gsave
0.54118 0.25098 1 nodecolor
150 229 24.24 24.75 ellipse_path fill
1 setlinewidth
filled
0.54118 0.25098 1 nodecolor
150 229 24.24 24.75 ellipse_path stroke
0 0 0 nodecolor
14 /Times-Roman set_font
140.5 225.4 moveto 19 (23) alignedtext
grestore
% 18->23
gsave
1 setlinewidth
0 0 0 edgecolor
newpath 136.22 308.62 moveto
138.57 295.06 141.53 277.96 144.1 263.1 curveto
stroke
0 0 0 edgecolor
newpath 147.55 263.68 moveto
145.81 253.23 lineto
140.65 262.49 lineto
closepath fill
1 setlinewidth
solid
0 0 0 edgecolor
newpath 147.55 263.68 moveto
145.81 253.23 lineto
140.65 262.49 lineto
closepath stroke
0 0 0 edgecolor
14 /Times-Roman set_font
143 277.4 moveto 34 ([1,0]) alignedtext
grestore
% 19->3
gsave
1 setlinewidth
0 0 0 edgecolor
newpath 354.58 204.67 moveto
357.18 193.26 360.94 179.65 366 168 curveto
386.85 120.06 426.29 73.12 451.3 46.17 curveto
stroke
0 0 0 edgecolor
newpath 453.94 48.47 moveto
458.25 38.8 lineto
448.84 43.67 lineto
closepath fill
1 setlinewidth
solid
0 0 0 edgecolor
newpath 453.94 48.47 moveto
458.25 38.8 lineto
448.84 43.67 lineto
closepath stroke
0 0 0 edgecolor
14 /Times-Roman set_font
405 121.4 moveto 34 ([1,1]) alignedtext
grestore
% 19->21
gsave
1 setlinewidth
0 0 0 edgecolor
newpath 331.02 213.18 moveto
321.38 205.1 309.52 195.08 299 186 curveto
284.57 173.54 268.61 159.45 255.68 147.96 curveto
stroke
0 0 0 edgecolor
newpath 257.85 145.21 moveto
248.06 141.17 lineto
253.2 150.43 lineto
closepath fill
1 setlinewidth
solid
0 0 0 edgecolor
newpath 257.85 145.21 moveto
248.06 141.17 lineto
253.2 150.43 lineto
closepath stroke
0 0 0 edgecolor
14 /Times-Roman set_font
299 173.4 moveto 34 ([0,1]) alignedtext
grestore
% 20->18
gsave
1 setlinewidth
0 0 0 edgecolor
newpath 31.88 445.84 moveto
40.31 422.02 53.69 386.93 63 376 curveto
73.16 364.07 87.49 354.39 100.46 347.27 curveto
stroke
0 0 0 edgecolor
newpath 102.32 350.25 moveto
109.58 342.53 lineto
99.09 344.03 lineto
closepath fill
1 setlinewidth
solid
0 0 0 edgecolor
newpath 102.32 350.25 moveto
109.58 342.53 lineto
99.09 344.03 lineto
closepath stroke
0 0 0 edgecolor
14 /Times-Roman set_font
63 397.4 moveto 34 ([0,1]) alignedtext
grestore
% 20->21
gsave
1 setlinewidth
0 0 0 edgecolor
newpath 19.68 444.82 moveto
13.96 405.84 7.85 327.81 38 272 curveto
80.84 192.7 127.19 203.13 200 150 curveto
201.2 149.13 202.41 148.22 203.63 147.29 curveto
stroke
0 0 0 edgecolor
newpath 205.92 149.94 moveto
211.57 140.98 lineto
201.56 144.46 lineto
closepath fill
1 setlinewidth
solid
0 0 0 edgecolor
newpath 205.92 149.94 moveto
211.57 140.98 lineto
201.56 144.46 lineto
closepath stroke
0 0 0 edgecolor
14 /Times-Roman set_font
38 277.4 moveto 34 ([1,1]) alignedtext
grestore
% 20->23
gsave
1 setlinewidth
0 0 0 edgecolor
newpath 25.7 444.54 moveto
28.89 411.57 37.91 351.96 63 308 curveto
77.09 283.3 101.63 262.08 121.06 247.87 curveto
stroke
0 0 0 edgecolor
newpath 123.16 250.67 moveto
129.3 242.03 lineto
119.11 244.96 lineto
closepath fill
1 setlinewidth
solid
0 0 0 edgecolor
newpath 123.16 250.67 moveto
129.3 242.03 lineto
119.11 244.96 lineto
closepath stroke
0 0 0 edgecolor
14 /Times-Roman set_font
63 329.4 moveto 34 ([0,0]) alignedtext
grestore
% 21->3
gsave
1 setlinewidth
0 0 0 edgecolor
newpath 246.05 106.54 moveto
259 92.8 278.4 74.65 299 64 curveto
345.17 40.14 405.34 29.97 441.75 25.78 curveto
stroke
0 0 0 edgecolor
newpath 442.23 29.25 moveto
451.8 24.7 lineto
441.49 22.29 lineto
closepath fill
1 setlinewidth
solid
0 0 0 edgecolor
newpath 442.23 29.25 moveto
451.8 24.7 lineto
441.49 22.29 lineto
closepath stroke
0 0 0 edgecolor
14 /Times-Roman set_font
299 69.4 moveto 34 ([0,0]) alignedtext
grestore
% 21->21
gsave
1 setlinewidth
0 0 0 edgecolor
newpath 252.25 134.28 moveto
264.61 136.02 276 132.92 276 125 curveto
276 119.37 270.24 116.18 262.47 115.42 curveto
stroke
0 0 0 edgecolor
newpath 262.14 111.93 moveto
252.25 115.72 lineto
262.34 118.93 lineto
closepath fill
1 setlinewidth
solid
0 0 0 edgecolor
newpath 262.14 111.93 moveto
252.25 115.72 lineto
262.34 118.93 lineto
closepath stroke
0 0 0 edgecolor
14 /Times-Roman set_font
276 121.4 moveto 34 ([0,1]) alignedtext
grestore
% 22->3
gsave
1 setlinewidth
0 0 0 edgecolor
newpath 575.83 376.75 moveto
580.21 352.59 586 314.38 586 281 curveto
586 281 586 281 586 125 curveto
586 80.6 537.29 50.4 504.11 34.98 curveto
stroke
0 0 0 edgecolor
newpath 505.36 31.71 moveto
494.8 30.85 lineto
502.52 38.1 lineto
closepath fill
1 setlinewidth
solid
0 0 0 edgecolor
newpath 505.36 31.71 moveto
494.8 30.85 lineto
502.52 38.1 lineto
closepath stroke
0 0 0 edgecolor
14 /Times-Roman set_font
586 225.4 moveto 34 ([1,0]) alignedtext
grestore
% 22->22
gsave
1 setlinewidth
0 0 0 edgecolor
newpath 592.29 412.95 moveto
605.02 415.61 617 411.63 617 401 curveto
617 393.28 610.68 389.07 602.34 388.36 curveto
stroke
0 0 0 edgecolor
newpath 602.03 384.87 moveto
592.29 389.05 lineto
602.51 391.85 lineto
closepath fill
1 setlinewidth
solid
0 0 0 edgecolor
newpath 602.03 384.87 moveto
592.29 389.05 lineto
602.51 391.85 lineto
closepath stroke
0 0 0 edgecolor
14 /Times-Roman set_font
617 397.4 moveto 34 ([0,0]) alignedtext
grestore
% 23->3
gsave
1 setlinewidth
0 0 0 edgecolor
newpath 144.81 204.77 moveto
140.23 176.5 137.5 129.84 161 100 curveto
195.81 55.79 369.09 33.52 441.8 26 curveto
stroke
0 0 0 edgecolor
newpath 442.17 29.49 moveto
451.77 25 lineto
441.47 22.52 lineto
closepath fill
1 setlinewidth
solid
0 0 0 edgecolor
newpath 442.17 29.49 moveto
451.77 25 lineto
441.47 22.52 lineto
closepath stroke
0 0 0 edgecolor
14 /Times-Roman set_font
161 121.4 moveto 34 ([1,0]) alignedtext
grestore
% 23->18
gsave
1 setlinewidth
0 0 0 edgecolor
newpath 128.97 241.31 moveto
118.47 248.73 106.79 259.22 101 272 curveto
95.53 284.07 100.72 297.21 108.31 308.19 curveto
stroke
0 0 0 edgecolor
newpath 105.56 310.35 moveto
114.45 316.11 lineto
111.09 306.06 lineto
closepath fill
1 setlinewidth
solid
0 0 0 edgecolor
newpath 105.56 310.35 moveto
114.45 316.11 lineto
111.09 306.06 lineto
closepath stroke
0 0 0 edgecolor
14 /Times-Roman set_font
101 277.4 moveto 34 ([0,1]) alignedtext
grestore
% 23->21
gsave
1 setlinewidth
0 0 0 edgecolor
newpath 165.05 209.44 moveto
177.34 193.46 194.86 170.68 208.61 152.8 curveto
stroke
0 0 0 edgecolor
newpath 211.7 154.53 moveto
215.02 144.47 lineto
206.15 150.27 lineto
closepath fill
1 setlinewidth
solid
0 0 0 edgecolor
newpath 211.7 154.53 moveto
215.02 144.47 lineto
206.15 150.27 lineto
closepath stroke
0 0 0 edgecolor
14 /Times-Roman set_font
195 173.4 moveto 34 ([1,1]) alignedtext
grestore
% 23->23
gsave
1 setlinewidth
0 0 0 edgecolor
newpath 172.25 238.28 moveto
184.61 240.02 196 236.92 196 229 curveto
196 223.37 190.24 220.18 182.47 219.42 curveto
stroke
0 0 0 edgecolor
newpath 182.14 215.93 moveto
172.25 219.72 lineto
182.34 222.93 lineto
closepath fill
1 setlinewidth
solid
0 0 0 edgecolor
newpath 182.14 215.93 moveto
172.25 219.72 lineto
182.34 222.93 lineto
closepath stroke
0 0 0 edgecolor
14 /Times-Roman set_font
196 225.4 moveto 34 ([0,0]) alignedtext
grestore
endpage
showpage
grestore
%%PageTrailer
%%EndPage: 1
%%Trailer
end
restore
%%EOF
