%!PS-Adobe-3.0 EPSF-3.0
%%Creator: graphviz version 2.26.3 (20100126.1600)
%%Title: FSA Utilities
%%Pages: 1
%%BoundingBox: 36 36 1153 1448
%%EndComments
save
%%BeginProlog
/DotDict 200 dict def
DotDict begin

/setupLatin1 {
mark
/EncodingVector 256 array def
 EncodingVector 0

ISOLatin1Encoding 0 255 getinterval putinterval
EncodingVector 45 /hyphen put

% Set up ISO Latin 1 character encoding
/starnetISO {
        dup dup findfont dup length dict begin
        { 1 index /FID ne { def }{ pop pop } ifelse
        } forall
        /Encoding EncodingVector def
        currentdict end definefont
} def
/Times-Roman starnetISO def
/Times-Italic starnetISO def
/Times-Bold starnetISO def
/Times-BoldItalic starnetISO def
/Helvetica starnetISO def
/Helvetica-Oblique starnetISO def
/Helvetica-Bold starnetISO def
/Helvetica-BoldOblique starnetISO def
/Courier starnetISO def
/Courier-Oblique starnetISO def
/Courier-Bold starnetISO def
/Courier-BoldOblique starnetISO def
cleartomark
} bind def

%%BeginResource: procset graphviz 0 0
/coord-font-family /Times-Roman def
/default-font-family /Times-Roman def
/coordfont coord-font-family findfont 8 scalefont def

/InvScaleFactor 1.0 def
/set_scale {
       dup 1 exch div /InvScaleFactor exch def
       scale
} bind def

% styles
/solid { [] 0 setdash } bind def
/dashed { [9 InvScaleFactor mul dup ] 0 setdash } bind def
/dotted { [1 InvScaleFactor mul 6 InvScaleFactor mul] 0 setdash } bind def
/invis {/fill {newpath} def /stroke {newpath} def /show {pop newpath} def} bind def
/bold { 2 setlinewidth } bind def
/filled { } bind def
/unfilled { } bind def
/rounded { } bind def
/diagonals { } bind def

% hooks for setting color 
/nodecolor { sethsbcolor } bind def
/edgecolor { sethsbcolor } bind def
/graphcolor { sethsbcolor } bind def
/nopcolor {pop pop pop} bind def

/beginpage {	% i j npages
	/npages exch def
	/j exch def
	/i exch def
	/str 10 string def
	npages 1 gt {
		gsave
			coordfont setfont
			0 0 moveto
			(\() show i str cvs show (,) show j str cvs show (\)) show
		grestore
	} if
} bind def

/set_font {
	findfont exch
	scalefont setfont
} def

% draw text fitted to its expected width
/alignedtext {			% width text
	/text exch def
	/width exch def
	gsave
		width 0 gt {
			[] 0 setdash
			text stringwidth pop width exch sub text length div 0 text ashow
		} if
	grestore
} def

/boxprim {				% xcorner ycorner xsize ysize
		4 2 roll
		moveto
		2 copy
		exch 0 rlineto
		0 exch rlineto
		pop neg 0 rlineto
		closepath
} bind def

/ellipse_path {
	/ry exch def
	/rx exch def
	/y exch def
	/x exch def
	matrix currentmatrix
	newpath
	x y translate
	rx ry scale
	0 0 1 0 360 arc
	setmatrix
} bind def

/endpage { showpage } bind def
/showpage { } def

/layercolorseq
	[	% layer color sequence - darkest to lightest
		[0 0 0]
		[.2 .8 .8]
		[.4 .8 .8]
		[.6 .8 .8]
		[.8 .8 .8]
	]
def

/layerlen layercolorseq length def

/setlayer {/maxlayer exch def /curlayer exch def
	layercolorseq curlayer 1 sub layerlen mod get
	aload pop sethsbcolor
	/nodecolor {nopcolor} def
	/edgecolor {nopcolor} def
	/graphcolor {nopcolor} def
} bind def

/onlayer { curlayer ne {invis} if } def

/onlayers {
	/myupper exch def
	/mylower exch def
	curlayer mylower lt
	curlayer myupper gt
	or
	{invis} if
} def

/curlayer 0 def

%%EndResource
%%EndProlog
%%BeginSetup
14 default-font-family set_font
1 setmiterlimit
% /arrowlength 10 def
% /arrowwidth 5 def

% make sure pdfmark is harmless for PS-interpreters other than Distiller
/pdfmark where {pop} {userdict /pdfmark /cleartomark load put} ifelse
% make '<<' and '>>' safe on PS Level 1 devices
/languagelevel where {pop languagelevel}{1} ifelse
2 lt {
    userdict (<<) cvn ([) cvn load put
    userdict (>>) cvn ([) cvn load put
} if

%%EndSetup
setupLatin1
%%Page: 1 1
%%PageBoundingBox: 36 36 1153 1448
%%PageOrientation: Portrait
0 0 1 beginpage
gsave
36 36 1117 1412 boxprim clip newpath
1 1 set_scale 0 rotate 40 41 translate
% start0
gsave
grestore
% 0
gsave
0.83922 0.48235 0.8549 nodecolor
430.38 1307 17.98 18.38 ellipse_path fill
1 setlinewidth
filled
0.83922 0.48235 0.8549 nodecolor
430.38 1307 17.98 18.38 ellipse_path stroke
1 setlinewidth
filled
0.83922 0.48235 0.8549 nodecolor
430.38 1307 21.89 22.38 ellipse_path stroke
0 0 0 nodecolor
14 /Times-Roman set_font
425.38 1303.4 moveto 10 (0) alignedtext
grestore
% start0->0
gsave
1 setlinewidth
0 0 0 edgecolor
newpath 430.38 1367.68 moveto
430.38 1359.38 430.38 1349.3 430.38 1339.77 curveto
stroke
0 0 0 edgecolor
newpath 433.88 1339.74 moveto
430.38 1329.74 lineto
426.88 1339.74 lineto
closepath fill
1 setlinewidth
solid
0 0 0 edgecolor
newpath 433.88 1339.74 moveto
430.38 1329.74 lineto
426.88 1339.74 lineto
closepath stroke
grestore
% 0->0
gsave
1 setlinewidth
0 0 0 edgecolor
newpath 451.21 1314.44 moveto
463.21 1315.96 474.38 1313.48 474.38 1307 curveto
474.38 1302.44 468.86 1299.86 461.41 1299.26 curveto
stroke
0 0 0 edgecolor
newpath 461.1 1295.77 moveto
451.21 1299.56 lineto
461.3 1302.77 lineto
closepath fill
1 setlinewidth
solid
0 0 0 edgecolor
newpath 461.1 1295.77 moveto
451.21 1299.56 lineto
461.3 1302.77 lineto
closepath stroke
0 0 0 edgecolor
14 /Times-Roman set_font
474.38 1303.4 moveto 34 ([0,0]) alignedtext
grestore
% 1
gsave
0.54118 0.25098 1 nodecolor
430.38 1211 17.89 18.38 ellipse_path fill
1 setlinewidth
filled
0.54118 0.25098 1 nodecolor
430.38 1211 17.89 18.38 ellipse_path stroke
0 0 0 nodecolor
14 /Times-Roman set_font
425.38 1207.4 moveto 10 (1) alignedtext
grestore
% 0->1
gsave
1 setlinewidth
0 0 0 edgecolor
newpath 430.38 1284.25 moveto
430.38 1270.99 430.38 1254.15 430.38 1239.95 curveto
stroke
0 0 0 edgecolor
newpath 433.88 1239.72 moveto
430.38 1229.72 lineto
426.88 1239.72 lineto
closepath fill
1 setlinewidth
solid
0 0 0 edgecolor
newpath 433.88 1239.72 moveto
430.38 1229.72 lineto
426.88 1239.72 lineto
closepath stroke
0 0 0 edgecolor
14 /Times-Roman set_font
430.38 1253.4 moveto 34 ([0,1]) alignedtext
grestore
% 2
gsave
0.54118 0.25098 1 nodecolor
202.38 1027 17.89 18.38 ellipse_path fill
1 setlinewidth
filled
0.54118 0.25098 1 nodecolor
202.38 1027 17.89 18.38 ellipse_path stroke
0 0 0 nodecolor
14 /Times-Roman set_font
197.38 1023.4 moveto 10 (2) alignedtext
grestore
% 1->2
gsave
1 setlinewidth
0 0 0 edgecolor
newpath 416.12 1199.49 moveto
377.57 1168.38 271.1 1082.45 224.59 1044.93 curveto
stroke
0 0 0 edgecolor
newpath 226.62 1042.06 moveto
216.64 1038.51 lineto
222.22 1047.51 lineto
closepath fill
1 setlinewidth
solid
0 0 0 edgecolor
newpath 226.62 1042.06 moveto
216.64 1038.51 lineto
222.22 1047.51 lineto
closepath stroke
0 0 0 edgecolor
14 /Times-Roman set_font
338.38 1115.4 moveto 34 ([0,0]) alignedtext
grestore
% 3
gsave
0.54118 0.25098 1 nodecolor
430.38 1119 17.89 18.38 ellipse_path fill
1 setlinewidth
filled
0.54118 0.25098 1 nodecolor
430.38 1119 17.89 18.38 ellipse_path stroke
0 0 0 nodecolor
14 /Times-Roman set_font
425.38 1115.4 moveto 10 (3) alignedtext
grestore
% 1->3
gsave
1 setlinewidth
0 0 0 edgecolor
newpath 430.38 1192.38 moveto
430.38 1179.54 430.38 1162.22 430.38 1147.63 curveto
stroke
0 0 0 edgecolor
newpath 433.88 1147.59 moveto
430.38 1137.59 lineto
426.88 1147.59 lineto
closepath fill
1 setlinewidth
solid
0 0 0 edgecolor
newpath 433.88 1147.59 moveto
430.38 1137.59 lineto
426.88 1147.59 lineto
closepath stroke
0 0 0 edgecolor
14 /Times-Roman set_font
430.38 1161.4 moveto 34 ([0,1]) alignedtext
grestore
% 4
gsave
0.023529 0.72157 1 nodecolor
627.38 123 17.98 18.38 ellipse_path fill
1 setlinewidth
filled
0.023529 0.72157 1 nodecolor
627.38 123 17.98 18.38 ellipse_path stroke
1 setlinewidth
filled
0.023529 0.72157 1 nodecolor
627.38 123 21.89 22.38 ellipse_path stroke
0 0 0 nodecolor
14 /Times-Roman set_font
622.38 119.4 moveto 10 (4) alignedtext
grestore
% 1->4
gsave
1 setlinewidth
0 0 0 edgecolor
newpath 448.65 1210.37 moveto
553.61 1206.52 1075.38 1184.11 1075.38 1119 curveto
1075.38 1119 1075.38 1119 1075.38 229 curveto
1075.38 143.51 762.53 126.88 659.7 123.72 curveto
stroke
0 0 0 edgecolor
newpath 659.69 120.22 moveto
649.6 123.43 lineto
659.5 127.22 lineto
closepath fill
1 setlinewidth
solid
0 0 0 edgecolor
newpath 659.69 120.22 moveto
649.6 123.43 lineto
659.5 127.22 lineto
closepath stroke
0 0 0 edgecolor
14 /Times-Roman set_font
1075.38 685.4 moveto 34 ([1,0]) alignedtext
grestore
% 5
gsave
0.54118 0.25098 1 nodecolor
294.38 861 17.89 18.38 ellipse_path fill
1 setlinewidth
filled
0.54118 0.25098 1 nodecolor
294.38 861 17.89 18.38 ellipse_path stroke
0 0 0 nodecolor
14 /Times-Roman set_font
289.38 857.4 moveto 10 (5) alignedtext
grestore
% 2->5
gsave
1 setlinewidth
0 0 0 edgecolor
newpath 217.91 1017.27 moveto
236.13 1004.94 265.71 981.91 280.38 954 curveto
290.78 934.22 294.06 909 294.86 889.81 curveto
stroke
0 0 0 edgecolor
newpath 298.37 889.65 moveto
295.08 879.58 lineto
291.37 889.5 lineto
closepath fill
1 setlinewidth
solid
0 0 0 edgecolor
newpath 298.37 889.65 moveto
295.08 879.58 lineto
291.37 889.5 lineto
closepath stroke
0 0 0 edgecolor
14 /Times-Roman set_font
267.38 977.4 moveto 34 ([0,0]) alignedtext
grestore
% 6
gsave
0.54118 0.25098 1 nodecolor
114.38 929 17.89 18.38 ellipse_path fill
1 setlinewidth
filled
0.54118 0.25098 1 nodecolor
114.38 929 17.89 18.38 ellipse_path stroke
0 0 0 nodecolor
14 /Times-Roman set_font
109.38 925.4 moveto 10 (6) alignedtext
grestore
% 2->6
gsave
1 setlinewidth
0 0 0 edgecolor
newpath 190.15 1013.37 moveto
175.52 997.08 150.86 969.62 133.66 950.47 curveto
stroke
0 0 0 edgecolor
newpath 136.08 947.93 moveto
126.8 942.83 lineto
130.88 952.61 lineto
closepath fill
1 setlinewidth
solid
0 0 0 edgecolor
newpath 136.08 947.93 moveto
126.8 942.83 lineto
130.88 952.61 lineto
closepath stroke
0 0 0 edgecolor
14 /Times-Roman set_font
168.38 977.4 moveto 34 ([0,1]) alignedtext
grestore
% 7
gsave
0.54118 0.25098 1 nodecolor
576.38 1027 17.89 18.38 ellipse_path fill
1 setlinewidth
filled
0.54118 0.25098 1 nodecolor
576.38 1027 17.89 18.38 ellipse_path stroke
0 0 0 nodecolor
14 /Times-Roman set_font
571.38 1023.4 moveto 10 (7) alignedtext
grestore
% 3->7
gsave
1 setlinewidth
0 0 0 edgecolor
newpath 445.73 1109.33 moveto
471.08 1093.36 521.88 1061.35 552.12 1042.29 curveto
stroke
0 0 0 edgecolor
newpath 554.21 1045.11 moveto
560.8 1036.82 lineto
550.47 1039.19 lineto
closepath fill
1 setlinewidth
solid
0 0 0 edgecolor
newpath 554.21 1045.11 moveto
560.8 1036.82 lineto
550.47 1039.19 lineto
closepath stroke
0 0 0 edgecolor
14 /Times-Roman set_font
516.38 1069.4 moveto 34 ([0,0]) alignedtext
grestore
% 8
gsave
0.54118 0.25098 1 nodecolor
251.38 929 17.89 18.38 ellipse_path fill
1 setlinewidth
filled
0.54118 0.25098 1 nodecolor
251.38 929 17.89 18.38 ellipse_path stroke
0 0 0 nodecolor
14 /Times-Roman set_font
246.38 925.4 moveto 10 (8) alignedtext
grestore
% 3->8
gsave
1 setlinewidth
0 0 0 edgecolor
newpath 414.91 1108.98 moveto
385.44 1089.25 320.61 1042.69 280.38 990 curveto
272.57 979.76 266.12 967.08 261.31 955.94 curveto
stroke
0 0 0 edgecolor
newpath 264.53 954.57 moveto
257.5 946.64 lineto
258.05 957.22 lineto
closepath fill
1 setlinewidth
solid
0 0 0 edgecolor
newpath 264.53 954.57 moveto
257.5 946.64 lineto
258.05 957.22 lineto
closepath stroke
0 0 0 edgecolor
14 /Times-Roman set_font
331.38 1023.4 moveto 34 ([1,0]) alignedtext
grestore
% 9
gsave
0.023529 0.72157 1 nodecolor
272.38 23 17.98 18.38 ellipse_path fill
1 setlinewidth
filled
0.023529 0.72157 1 nodecolor
272.38 23 17.98 18.38 ellipse_path stroke
1 setlinewidth
filled
0.023529 0.72157 1 nodecolor
272.38 23 21.89 22.38 ellipse_path stroke
0 0 0 nodecolor
14 /Times-Roman set_font
267.38 19.4 moveto 10 (9) alignedtext
grestore
% 4->9
gsave
1 setlinewidth
0 0 0 edgecolor
newpath 608.59 110.57 moveto
587.17 97 550.68 75.65 516.38 64 curveto
443.03 39.08 351.92 28.92 304.49 25.1 curveto
stroke
0 0 0 edgecolor
newpath 304.74 21.6 moveto
294.5 24.33 lineto
304.21 28.58 lineto
closepath fill
1 setlinewidth
solid
0 0 0 edgecolor
newpath 304.74 21.6 moveto
294.5 24.33 lineto
304.21 28.58 lineto
closepath stroke
0 0 0 edgecolor
14 /Times-Roman set_font
557.38 69.4 moveto 34 ([0,1]) alignedtext
grestore
% 10
gsave
0.54118 0.25098 1 nodecolor
348.38 229 24.24 24.75 ellipse_path fill
1 setlinewidth
filled
0.54118 0.25098 1 nodecolor
348.38 229 24.24 24.75 ellipse_path stroke
0 0 0 nodecolor
14 /Times-Roman set_font
338.88 225.4 moveto 19 (10) alignedtext
grestore
% 5->10
gsave
1 setlinewidth
0 0 0 edgecolor
newpath 302.2 843.92 moveto
311.96 821 327.38 778.81 327.38 741 curveto
327.38 741 327.38 741 327.38 517 curveto
327.38 425.35 338.09 317.73 344.21 263.69 curveto
stroke
0 0 0 edgecolor
newpath 347.71 263.95 moveto
345.37 253.61 lineto
340.75 263.15 lineto
closepath fill
1 setlinewidth
solid
0 0 0 edgecolor
newpath 347.71 263.95 moveto
345.37 253.61 lineto
340.75 263.15 lineto
closepath stroke
0 0 0 edgecolor
14 /Times-Roman set_font
327.38 581.4 moveto 34 ([1,0]) alignedtext
grestore
% 11
gsave
0.54118 0.25098 1 nodecolor
64.38 793 24.24 24.75 ellipse_path fill
1 setlinewidth
filled
0.54118 0.25098 1 nodecolor
64.38 793 24.24 24.75 ellipse_path stroke
0 0 0 nodecolor
14 /Times-Roman set_font
54.88 789.4 moveto 19 (11) alignedtext
grestore
% 6->11
gsave
1 setlinewidth
0 0 0 edgecolor
newpath 107.95 911.5 moveto
100.01 889.9 86.35 852.74 76.43 825.78 curveto
stroke
0 0 0 edgecolor
newpath 79.7 824.53 moveto
72.97 816.35 lineto
73.13 826.95 lineto
closepath fill
1 setlinewidth
solid
0 0 0 edgecolor
newpath 79.7 824.53 moveto
72.97 816.35 lineto
73.13 826.95 lineto
closepath stroke
0 0 0 edgecolor
14 /Times-Roman set_font
98.38 857.4 moveto 34 ([1,1]) alignedtext
grestore
% 12
gsave
0.54118 0.25098 1 nodecolor
742.38 929 24.24 24.75 ellipse_path fill
1 setlinewidth
filled
0.54118 0.25098 1 nodecolor
742.38 929 24.24 24.75 ellipse_path stroke
0 0 0 nodecolor
14 /Times-Roman set_font
732.88 925.4 moveto 19 (12) alignedtext
grestore
% 7->12
gsave
1 setlinewidth
0 0 0 edgecolor
newpath 592.21 1018.14 moveto
605.41 1010.72 624.69 999.79 641.38 990 curveto
665.59 975.8 692.82 959.33 712.9 947.08 curveto
stroke
0 0 0 edgecolor
newpath 714.88 949.98 moveto
721.59 941.78 lineto
711.23 944 lineto
closepath fill
1 setlinewidth
solid
0 0 0 edgecolor
newpath 714.88 949.98 moveto
721.59 941.78 lineto
711.23 944 lineto
closepath stroke
0 0 0 edgecolor
14 /Times-Roman set_font
668.38 977.4 moveto 34 ([0,0]) alignedtext
grestore
% 13
gsave
0.54118 0.25098 1 nodecolor
479.38 929 24.24 24.75 ellipse_path fill
1 setlinewidth
filled
0.54118 0.25098 1 nodecolor
479.38 929 24.24 24.75 ellipse_path stroke
0 0 0 nodecolor
14 /Times-Roman set_font
469.88 925.4 moveto 19 (13) alignedtext
grestore
% 7->13
gsave
1 setlinewidth
0 0 0 edgecolor
newpath 563.3 1013.78 moveto
548.05 998.38 522.54 972.6 503.63 953.5 curveto
stroke
0 0 0 edgecolor
newpath 506.02 950.93 moveto
496.5 946.29 lineto
501.04 955.86 lineto
closepath fill
1 setlinewidth
solid
0 0 0 edgecolor
newpath 506.02 950.93 moveto
496.5 946.29 lineto
501.04 955.86 lineto
closepath stroke
0 0 0 edgecolor
14 /Times-Roman set_font
539.38 977.4 moveto 34 ([1,0]) alignedtext
grestore
% 14
gsave
0.54118 0.25098 1 nodecolor
619.38 861 24.24 24.75 ellipse_path fill
1 setlinewidth
filled
0.54118 0.25098 1 nodecolor
619.38 861 24.24 24.75 ellipse_path stroke
0 0 0 nodecolor
14 /Times-Roman set_font
609.88 857.4 moveto 19 (14) alignedtext
grestore
% 7->14
gsave
1 setlinewidth
0 0 0 edgecolor
newpath 581.07 1008.92 moveto
588.13 981.66 601.63 929.55 610.57 895.03 curveto
stroke
0 0 0 edgecolor
newpath 614.06 895.49 moveto
613.18 884.93 lineto
607.29 893.73 lineto
closepath fill
1 setlinewidth
solid
0 0 0 edgecolor
newpath 614.06 895.49 moveto
613.18 884.93 lineto
607.29 893.73 lineto
closepath stroke
0 0 0 edgecolor
14 /Times-Roman set_font
589.38 977.4 moveto 34 ([1,1]) alignedtext
grestore
% 15
gsave
0.54118 0.25098 1 nodecolor
137.38 793 24.24 24.75 ellipse_path fill
1 setlinewidth
filled
0.54118 0.25098 1 nodecolor
137.38 793 24.24 24.75 ellipse_path stroke
0 0 0 nodecolor
14 /Times-Roman set_font
127.88 789.4 moveto 19 (15) alignedtext
grestore
% 8->15
gsave
1 setlinewidth
0 0 0 edgecolor
newpath 237.74 916.27 moveto
229.04 907.93 217.7 896.65 208.38 886 curveto
190.17 865.18 171.25 840.21 157.52 821.38 curveto
stroke
0 0 0 edgecolor
newpath 160.3 819.25 moveto
151.6 813.2 lineto
154.63 823.35 lineto
closepath fill
1 setlinewidth
solid
0 0 0 edgecolor
newpath 160.3 819.25 moveto
151.6 813.2 lineto
154.63 823.35 lineto
closepath stroke
0 0 0 edgecolor
14 /Times-Roman set_font
208.38 857.4 moveto 34 ([0,0]) alignedtext
grestore
% 16
gsave
0.54118 0.25098 1 nodecolor
269.38 689 24.24 24.75 ellipse_path fill
1 setlinewidth
filled
0.54118 0.25098 1 nodecolor
269.38 689 24.24 24.75 ellipse_path stroke
0 0 0 nodecolor
14 /Times-Roman set_font
259.88 685.4 moveto 19 (16) alignedtext
grestore
% 8->16
gsave
1 setlinewidth
0 0 0 edgecolor
newpath 253.24 910.45 moveto
256.49 880.29 264.05 818.86 276.38 768 curveto
278.37 759.8 281.03 758.32 282.38 750 curveto
283.88 740.76 282.89 730.8 280.91 721.67 curveto
stroke
0 0 0 edgecolor
newpath 284.24 720.58 moveto
278.34 711.78 lineto
277.47 722.34 lineto
closepath fill
1 setlinewidth
solid
0 0 0 edgecolor
newpath 284.24 720.58 moveto
278.34 711.78 lineto
277.47 722.34 lineto
closepath stroke
0 0 0 edgecolor
14 /Times-Roman set_font
276.38 789.4 moveto 34 ([0,1]) alignedtext
grestore
% 10->9
gsave
1 setlinewidth
0 0 0 edgecolor
newpath 339.81 205.77 moveto
326.08 168.54 299.12 95.48 283.78 53.89 curveto
stroke
0 0 0 edgecolor
newpath 286.98 52.46 moveto
280.24 44.29 lineto
280.41 54.88 lineto
closepath fill
1 setlinewidth
solid
0 0 0 edgecolor
newpath 286.98 52.46 moveto
280.24 44.29 lineto
280.41 54.88 lineto
closepath stroke
0 0 0 edgecolor
14 /Times-Roman set_font
316.38 119.4 moveto 34 ([1,0]) alignedtext
grestore
% 17
gsave
0.54118 0.25098 1 nodecolor
25.38 689 24.24 24.75 ellipse_path fill
1 setlinewidth
filled
0.54118 0.25098 1 nodecolor
25.38 689 24.24 24.75 ellipse_path stroke
0 0 0 nodecolor
14 /Times-Roman set_font
15.88 685.4 moveto 19 (17) alignedtext
grestore
% 11->17
gsave
1 setlinewidth
0 0 0 edgecolor
newpath 42.09 783.82 moveto
28.2 776.8 11.49 765.64 3.38 750 curveto
-1.99 739.64 .59 727.67 5.57 717.09 curveto
stroke
0 0 0 edgecolor
newpath 8.69 718.68 moveto
10.42 708.23 lineto
2.55 715.32 lineto
closepath fill
1 setlinewidth
solid
0 0 0 edgecolor
newpath 8.69 718.68 moveto
10.42 708.23 lineto
2.55 715.32 lineto
closepath stroke
0 0 0 edgecolor
14 /Times-Roman set_font
3.38 737.4 moveto 34 ([0,0]) alignedtext
grestore
% 18
gsave
0.54118 0.25098 1 nodecolor
117.38 689 24.24 24.75 ellipse_path fill
1 setlinewidth
filled
0.54118 0.25098 1 nodecolor
117.38 689 24.24 24.75 ellipse_path stroke
0 0 0 nodecolor
14 /Times-Roman set_font
107.88 685.4 moveto 19 (18) alignedtext
grestore
% 11->18
gsave
1 setlinewidth
0 0 0 edgecolor
newpath 69.67 769.02 moveto
72.76 757.44 77.27 743.58 83.38 732 curveto
86.41 726.26 90.25 720.52 94.23 715.19 curveto
stroke
0 0 0 edgecolor
newpath 97.08 717.23 moveto
100.54 707.22 lineto
91.59 712.89 lineto
closepath fill
1 setlinewidth
solid
0 0 0 edgecolor
newpath 97.08 717.23 moveto
100.54 707.22 lineto
91.59 712.89 lineto
closepath stroke
0 0 0 edgecolor
14 /Times-Roman set_font
83.38 737.4 moveto 34 ([1,1]) alignedtext
grestore
% 19
gsave
0.54118 0.25098 1 nodecolor
877.38 793 24.24 24.75 ellipse_path fill
1 setlinewidth
filled
0.54118 0.25098 1 nodecolor
877.38 793 24.24 24.75 ellipse_path stroke
0 0 0 nodecolor
14 /Times-Roman set_font
867.88 789.4 moveto 19 (19) alignedtext
grestore
% 12->19
gsave
1 setlinewidth
0 0 0 edgecolor
newpath 759.48 911.78 moveto
783.09 887.99 825.8 844.96 852.82 817.74 curveto
stroke
0 0 0 edgecolor
newpath 855.44 820.08 moveto
860 810.51 lineto
850.47 815.15 lineto
closepath fill
1 setlinewidth
solid
0 0 0 edgecolor
newpath 855.44 820.08 moveto
860 810.51 lineto
850.47 815.15 lineto
closepath stroke
0 0 0 edgecolor
14 /Times-Roman set_font
833.38 857.4 moveto 34 ([1,0]) alignedtext
grestore
% 20
gsave
0.54118 0.25098 1 nodecolor
479.38 793 24.24 24.75 ellipse_path fill
1 setlinewidth
filled
0.54118 0.25098 1 nodecolor
479.38 793 24.24 24.75 ellipse_path stroke
0 0 0 nodecolor
14 /Times-Roman set_font
469.88 789.4 moveto 19 (20) alignedtext
grestore
% 13->20
gsave
1 setlinewidth
0 0 0 edgecolor
newpath 479.38 904.37 moveto
479.38 883.03 479.38 851.92 479.38 828 curveto
stroke
0 0 0 edgecolor
newpath 482.88 827.9 moveto
479.38 817.9 lineto
475.88 827.9 lineto
closepath fill
1 setlinewidth
solid
0 0 0 edgecolor
newpath 482.88 827.9 moveto
479.38 817.9 lineto
475.88 827.9 lineto
closepath stroke
0 0 0 edgecolor
14 /Times-Roman set_font
479.38 857.4 moveto 34 ([0,0]) alignedtext
grestore
% 21
gsave
0.54118 0.25098 1 nodecolor
549.38 793 24.24 24.75 ellipse_path fill
1 setlinewidth
filled
0.54118 0.25098 1 nodecolor
549.38 793 24.24 24.75 ellipse_path stroke
0 0 0 nodecolor
14 /Times-Roman set_font
539.88 789.4 moveto 19 (21) alignedtext
grestore
% 13->21
gsave
1 setlinewidth
0 0 0 edgecolor
newpath 497.51 912.33 moveto
504.8 904.85 512.79 895.57 518.38 886 curveto
529.11 867.65 536.75 845.08 541.76 826.76 curveto
stroke
0 0 0 edgecolor
newpath 545.15 827.64 moveto
544.28 817.08 lineto
538.37 825.88 lineto
closepath fill
1 setlinewidth
solid
0 0 0 edgecolor
newpath 545.15 827.64 moveto
544.28 817.08 lineto
538.37 825.88 lineto
closepath stroke
0 0 0 edgecolor
14 /Times-Roman set_font
538.38 857.4 moveto 34 ([0,1]) alignedtext
grestore
% 22
gsave
0.54118 0.25098 1 nodecolor
170.38 585 24.24 24.75 ellipse_path fill
1 setlinewidth
filled
0.54118 0.25098 1 nodecolor
170.38 585 24.24 24.75 ellipse_path stroke
0 0 0 nodecolor
14 /Times-Roman set_font
160.88 581.4 moveto 19 (22) alignedtext
grestore
% 13->22
gsave
1 setlinewidth
0 0 0 edgecolor
newpath 458.8 915.83 moveto
428.03 896.54 367.85 860.26 313.38 836 curveto
290.66 825.88 280.72 832.32 260.38 818 curveto
195.53 772.34 177.41 672.99 172.34 619.98 curveto
stroke
0 0 0 edgecolor
newpath 175.81 619.38 moveto
171.47 609.71 lineto
168.83 619.97 lineto
closepath fill
1 setlinewidth
solid
0 0 0 edgecolor
newpath 175.81 619.38 moveto
171.47 609.71 lineto
168.83 619.97 lineto
closepath stroke
0 0 0 edgecolor
14 /Times-Roman set_font
204.38 737.4 moveto 34 ([1,0]) alignedtext
grestore
% 23
gsave
0.54118 0.25098 1 nodecolor
409.38 793 24.24 24.75 ellipse_path fill
1 setlinewidth
filled
0.54118 0.25098 1 nodecolor
409.38 793 24.24 24.75 ellipse_path stroke
0 0 0 nodecolor
14 /Times-Roman set_font
399.88 789.4 moveto 19 (23) alignedtext
grestore
% 13->23
gsave
1 setlinewidth
0 0 0 edgecolor
newpath 461.26 912.33 moveto
453.97 904.85 445.98 895.57 440.38 886 curveto
429.65 867.65 422.02 845.08 417.01 826.76 curveto
stroke
0 0 0 edgecolor
newpath 420.39 825.88 moveto
414.49 817.08 lineto
413.62 827.64 lineto
closepath fill
1 setlinewidth
solid
0 0 0 edgecolor
newpath 420.39 825.88 moveto
414.49 817.08 lineto
413.62 827.64 lineto
closepath stroke
0 0 0 edgecolor
14 /Times-Roman set_font
440.38 857.4 moveto 34 ([1,1]) alignedtext
grestore
% 24
gsave
0.54118 0.25098 1 nodecolor
527.38 689 24.24 24.75 ellipse_path fill
1 setlinewidth
filled
0.54118 0.25098 1 nodecolor
527.38 689 24.24 24.75 ellipse_path stroke
0 0 0 nodecolor
14 /Times-Roman set_font
517.88 685.4 moveto 19 (24) alignedtext
grestore
% 14->24
gsave
1 setlinewidth
0 0 0 edgecolor
newpath 615.78 836.41 moveto
610.86 809.05 600.05 764.44 578.38 732 curveto
572.45 723.12 564.17 715.05 556 708.37 curveto
stroke
0 0 0 edgecolor
newpath 558.02 705.51 moveto
547.97 702.17 lineto
553.75 711.05 lineto
closepath fill
1 setlinewidth
solid
0 0 0 edgecolor
newpath 558.02 705.51 moveto
547.97 702.17 lineto
553.75 711.05 lineto
closepath stroke
0 0 0 edgecolor
14 /Times-Roman set_font
611.38 789.4 moveto 34 ([1,0]) alignedtext
grestore
% 15->18
gsave
1 setlinewidth
0 0 0 edgecolor
newpath 130.17 769.49 moveto
128.42 763.2 126.68 756.38 125.38 750 curveto
123.65 741.52 122.22 732.29 121.06 723.65 curveto
stroke
0 0 0 edgecolor
newpath 124.5 722.96 moveto
119.79 713.47 lineto
117.56 723.83 lineto
closepath fill
1 setlinewidth
solid
0 0 0 edgecolor
newpath 124.5 722.96 moveto
119.79 713.47 lineto
117.56 723.83 lineto
closepath stroke
0 0 0 edgecolor
14 /Times-Roman set_font
125.38 737.4 moveto 34 ([0,1]) alignedtext
grestore
% 16->9
gsave
1 setlinewidth
0 0 0 edgecolor
newpath 255.96 668.43 moveto
244 648.09 228.38 615.66 228.38 585 curveto
228.38 585 228.38 585 228.38 123 curveto
228.38 96.47 241.51 69.09 253.43 49.69 curveto
stroke
0 0 0 edgecolor
newpath 256.48 51.42 moveto
258.94 41.12 lineto
250.59 47.64 lineto
closepath fill
1 setlinewidth
solid
0 0 0 edgecolor
newpath 256.48 51.42 moveto
258.94 41.12 lineto
250.59 47.64 lineto
closepath stroke
0 0 0 edgecolor
14 /Times-Roman set_font
228.38 337.4 moveto 71 ([0,0] [1,1]) alignedtext
grestore
% 17->22
gsave
1 setlinewidth
0 0 0 edgecolor
newpath 45.24 674.76 moveto
70.26 656.81 113.44 625.84 141.96 605.39 curveto
stroke
0 0 0 edgecolor
newpath 144.21 608.08 moveto
150.3 599.4 lineto
140.13 602.39 lineto
closepath fill
1 setlinewidth
solid
0 0 0 edgecolor
newpath 144.21 608.08 moveto
150.3 599.4 lineto
140.13 602.39 lineto
closepath stroke
0 0 0 edgecolor
14 /Times-Roman set_font
107.38 633.4 moveto 34 ([0,0]) alignedtext
grestore
% 18->9
gsave
1 setlinewidth
0 0 0 edgecolor
newpath 112.62 664.73 moveto
108.91 643.72 104.38 612.48 104.38 585 curveto
104.38 585 104.38 585 104.38 123 curveto
104.38 60.39 191.61 36.09 240.36 27.39 curveto
stroke
0 0 0 edgecolor
newpath 241.13 30.81 moveto
250.42 25.72 lineto
239.98 23.91 lineto
closepath fill
1 setlinewidth
solid
0 0 0 edgecolor
newpath 241.13 30.81 moveto
250.42 25.72 lineto
239.98 23.91 lineto
closepath stroke
0 0 0 edgecolor
14 /Times-Roman set_font
104.38 337.4 moveto 34 ([0,0]) alignedtext
grestore
% 25
gsave
0.54118 0.25098 1 nodecolor
903.38 689 24.24 24.75 ellipse_path fill
1 setlinewidth
filled
0.54118 0.25098 1 nodecolor
903.38 689 24.24 24.75 ellipse_path stroke
0 0 0 nodecolor
14 /Times-Roman set_font
893.88 685.4 moveto 19 (25) alignedtext
grestore
% 19->25
gsave
1 setlinewidth
0 0 0 edgecolor
newpath 895.46 776.32 moveto
902.13 768.98 908.9 759.8 912.38 750 curveto
915.51 741.21 915.46 731.33 914.04 722.12 curveto
stroke
0 0 0 edgecolor
newpath 917.42 721.18 moveto
911.95 712.11 lineto
910.57 722.61 lineto
closepath fill
1 setlinewidth
solid
0 0 0 edgecolor
newpath 917.42 721.18 moveto
911.95 712.11 lineto
910.57 722.61 lineto
closepath stroke
0 0 0 edgecolor
14 /Times-Roman set_font
914.38 737.4 moveto 34 ([0,0]) alignedtext
grestore
% 26
gsave
0.54118 0.25098 1 nodecolor
816.38 689 24.24 24.75 ellipse_path fill
1 setlinewidth
filled
0.54118 0.25098 1 nodecolor
816.38 689 24.24 24.75 ellipse_path stroke
0 0 0 nodecolor
14 /Times-Roman set_font
806.88 685.4 moveto 19 (26) alignedtext
grestore
% 19->26
gsave
1 setlinewidth
0 0 0 edgecolor
newpath 858.58 777.42 moveto
850.47 769.86 841.48 760.22 835.38 750 curveto
830.46 741.74 826.69 732.09 823.86 722.93 curveto
stroke
0 0 0 edgecolor
newpath 827.22 721.95 moveto
821.15 713.27 lineto
820.48 723.84 lineto
closepath fill
1 setlinewidth
solid
0 0 0 edgecolor
newpath 827.22 721.95 moveto
821.15 713.27 lineto
820.48 723.84 lineto
closepath stroke
0 0 0 edgecolor
14 /Times-Roman set_font
835.38 737.4 moveto 34 ([1,0]) alignedtext
grestore
% 27
gsave
0.54118 0.25098 1 nodecolor
959.38 585 24.24 24.75 ellipse_path fill
1 setlinewidth
filled
0.54118 0.25098 1 nodecolor
959.38 585 24.24 24.75 ellipse_path stroke
0 0 0 nodecolor
14 /Times-Roman set_font
949.88 581.4 moveto 19 (27) alignedtext
grestore
% 19->27
gsave
1 setlinewidth
0 0 0 edgecolor
newpath 900.62 785.83 moveto
917.88 779.28 940.56 767.85 953.38 750 curveto
985.44 705.38 981.99 682.27 973.38 628 curveto
972.84 624.56 972.06 621.02 971.15 617.53 curveto
stroke
0 0 0 edgecolor
newpath 974.49 616.48 moveto
968.3 607.88 lineto
967.78 618.46 lineto
closepath fill
1 setlinewidth
solid
0 0 0 edgecolor
newpath 974.49 616.48 moveto
968.3 607.88 lineto
967.78 618.46 lineto
closepath stroke
0 0 0 edgecolor
14 /Times-Roman set_font
978.38 685.4 moveto 34 ([1,1]) alignedtext
grestore
% 20->16
gsave
1 setlinewidth
0 0 0 edgecolor
newpath 460.5 777.74 moveto
455.47 774.18 449.9 770.66 444.38 768 curveto
418.15 755.35 408.33 761.03 381.38 750 curveto
352.21 738.06 320.84 720.53 298.74 707.32 curveto
stroke
0 0 0 edgecolor
newpath 300.54 704.32 moveto
290.17 702.14 lineto
296.91 710.31 lineto
closepath fill
1 setlinewidth
solid
0 0 0 edgecolor
newpath 300.54 704.32 moveto
290.17 702.14 lineto
296.91 710.31 lineto
closepath stroke
0 0 0 edgecolor
14 /Times-Roman set_font
381.38 737.4 moveto 34 ([1,1]) alignedtext
grestore
% 28
gsave
0.54118 0.25098 1 nodecolor
858.38 449 24.24 24.75 ellipse_path fill
1 setlinewidth
filled
0.54118 0.25098 1 nodecolor
858.38 449 24.24 24.75 ellipse_path stroke
0 0 0 nodecolor
14 /Times-Roman set_font
848.88 445.4 moveto 19 (28) alignedtext
grestore
% 20->28
gsave
1 setlinewidth
0 0 0 edgecolor
newpath 498.26 777.72 moveto
503.29 774.16 508.86 770.65 514.38 768 curveto
541.02 755.22 550.71 760.36 578.38 750 curveto
595.88 743.45 598.77 738.24 616.38 732 curveto
648.29 720.7 662.76 733.56 690.38 714 curveto
774.26 654.61 825.76 538.82 847.04 482.02 curveto
stroke
0 0 0 edgecolor
newpath 850.39 483.05 moveto
850.55 472.46 lineto
843.82 480.64 lineto
closepath fill
1 setlinewidth
solid
0 0 0 edgecolor
newpath 850.39 483.05 moveto
850.55 472.46 lineto
843.82 480.64 lineto
closepath stroke
0 0 0 edgecolor
14 /Times-Roman set_font
770.38 633.4 moveto 34 ([0,1]) alignedtext
grestore
% 21->24
gsave
1 setlinewidth
0 0 0 edgecolor
newpath 544.28 768.88 moveto
541.39 755.23 537.73 737.94 534.56 722.94 curveto
stroke
0 0 0 edgecolor
newpath 537.95 722.05 moveto
532.46 712.99 lineto
531.1 723.5 lineto
closepath fill
1 setlinewidth
solid
0 0 0 edgecolor
newpath 537.95 722.05 moveto
532.46 712.99 lineto
531.1 723.5 lineto
closepath stroke
0 0 0 edgecolor
14 /Times-Roman set_font
539.38 737.4 moveto 34 ([1,1]) alignedtext
grestore
% 29
gsave
0.54118 0.25098 1 nodecolor
655.38 689 24.24 24.75 ellipse_path fill
1 setlinewidth
filled
0.54118 0.25098 1 nodecolor
655.38 689 24.24 24.75 ellipse_path stroke
0 0 0 nodecolor
14 /Times-Roman set_font
645.88 685.4 moveto 19 (29) alignedtext
grestore
% 21->29
gsave
1 setlinewidth
0 0 0 edgecolor
newpath 566.89 775.83 moveto
584.22 758.82 610.94 732.6 630.49 713.43 curveto
stroke
0 0 0 edgecolor
newpath 633.17 715.7 moveto
637.85 706.2 lineto
628.26 710.7 lineto
closepath fill
1 setlinewidth
solid
0 0 0 edgecolor
newpath 633.17 715.7 moveto
637.85 706.2 lineto
628.26 710.7 lineto
closepath stroke
0 0 0 edgecolor
14 /Times-Roman set_font
608.38 737.4 moveto 34 ([0,0]) alignedtext
grestore
% 30
gsave
0.54118 0.25098 1 nodecolor
434.38 689 24.24 24.75 ellipse_path fill
1 setlinewidth
filled
0.54118 0.25098 1 nodecolor
434.38 689 24.24 24.75 ellipse_path stroke
0 0 0 nodecolor
14 /Times-Roman set_font
424.88 685.4 moveto 19 (30) alignedtext
grestore
% 21->30
gsave
1 setlinewidth
0 0 0 edgecolor
newpath 530.31 777.82 moveto
520.34 769.74 508.03 759.53 497.38 750 curveto
484.35 738.34 470.34 724.86 458.84 713.55 curveto
stroke
0 0 0 edgecolor
newpath 461.25 711.01 moveto
451.68 706.47 lineto
456.33 715.99 lineto
closepath fill
1 setlinewidth
solid
0 0 0 edgecolor
newpath 461.25 711.01 moveto
451.68 706.47 lineto
456.33 715.99 lineto
closepath stroke
0 0 0 edgecolor
14 /Times-Roman set_font
497.38 737.4 moveto 34 ([1,0]) alignedtext
grestore
% 22->9
gsave
1 setlinewidth
0 0 0 edgecolor
newpath 170.96 560.43 moveto
171.55 533.2 172.38 487.96 172.38 449 curveto
172.38 449 172.38 449 172.38 123 curveto
172.38 82.68 213.54 52.94 243.04 36.79 curveto
stroke
0 0 0 edgecolor
newpath 244.91 39.77 moveto
252.15 32.04 lineto
241.66 33.57 lineto
closepath fill
1 setlinewidth
solid
0 0 0 edgecolor
newpath 244.91 39.77 moveto
252.15 32.04 lineto
241.66 33.57 lineto
closepath stroke
0 0 0 edgecolor
14 /Times-Roman set_font
172.38 281.4 moveto 34 ([1,1]) alignedtext
grestore
% 23->18
gsave
1 setlinewidth
0 0 0 edgecolor
newpath 386.47 784.84 moveto
334.87 766.46 209.43 721.78 149.84 700.56 curveto
stroke
0 0 0 edgecolor
newpath 150.78 697.18 moveto
140.19 697.12 lineto
148.43 703.78 lineto
closepath fill
1 setlinewidth
solid
0 0 0 edgecolor
newpath 150.78 697.18 moveto
140.19 697.12 lineto
148.43 703.78 lineto
closepath stroke
0 0 0 edgecolor
14 /Times-Roman set_font
280.38 737.4 moveto 34 ([0,0]) alignedtext
grestore
% 23->30
gsave
1 setlinewidth
0 0 0 edgecolor
newpath 415.12 769.14 moveto
418.4 755.5 422.57 738.16 426.19 723.1 curveto
stroke
0 0 0 edgecolor
newpath 429.65 723.65 moveto
428.59 713.11 lineto
422.85 722.01 lineto
closepath fill
1 setlinewidth
solid
0 0 0 edgecolor
newpath 429.65 723.65 moveto
428.59 713.11 lineto
422.85 722.01 lineto
closepath stroke
0 0 0 edgecolor
14 /Times-Roman set_font
422.38 737.4 moveto 34 ([0,1]) alignedtext
grestore
% 24->10
gsave
1 setlinewidth
0 0 0 edgecolor
newpath 505.09 679.45 moveto
480.23 668.61 442.88 651.69 438.38 646 curveto
391.04 586.13 361.59 352.33 351.91 263.5 curveto
stroke
0 0 0 edgecolor
newpath 355.37 262.98 moveto
350.83 253.41 lineto
348.41 263.73 lineto
closepath fill
1 setlinewidth
solid
0 0 0 edgecolor
newpath 355.37 262.98 moveto
350.83 253.41 lineto
348.41 263.73 lineto
closepath stroke
0 0 0 edgecolor
14 /Times-Roman set_font
382.38 445.4 moveto 71 ([0,0] [1,1]) alignedtext
grestore
% 31
gsave
0.54118 0.25098 1 nodecolor
488.38 585 24.24 24.75 ellipse_path fill
1 setlinewidth
filled
0.54118 0.25098 1 nodecolor
488.38 585 24.24 24.75 ellipse_path stroke
0 0 0 nodecolor
14 /Times-Roman set_font
478.88 581.4 moveto 19 (31) alignedtext
grestore
% 24->31
gsave
1 setlinewidth
0 0 0 edgecolor
newpath 510.7 671.04 moveto
504.89 663.78 498.95 655 495.38 646 curveto
492.14 637.81 490.26 628.55 489.2 619.76 curveto
stroke
0 0 0 edgecolor
newpath 492.69 619.41 moveto
488.31 609.76 lineto
485.71 620.03 lineto
closepath fill
1 setlinewidth
solid
0 0 0 edgecolor
newpath 492.69 619.41 moveto
488.31 609.76 lineto
485.71 620.03 lineto
closepath stroke
0 0 0 edgecolor
14 /Times-Roman set_font
495.38 633.4 moveto 34 ([1,0]) alignedtext
grestore
% 25->19
gsave
1 setlinewidth
0 0 0 edgecolor
newpath 888.52 708.51 moveto
884.03 715.53 879.68 723.76 877.38 732 curveto
875.06 740.34 874.22 749.58 874.15 758.28 curveto
stroke
0 0 0 edgecolor
newpath 870.66 758.64 moveto
874.41 768.55 lineto
877.66 758.46 lineto
closepath fill
1 setlinewidth
solid
0 0 0 edgecolor
newpath 870.66 758.64 moveto
874.41 768.55 lineto
877.66 758.46 lineto
closepath stroke
0 0 0 edgecolor
14 /Times-Roman set_font
877.38 737.4 moveto 34 ([0,0]) alignedtext
grestore
% 25->27
gsave
1 setlinewidth
0 0 0 edgecolor
newpath 914.99 667.45 moveto
923.1 652.39 934.04 632.07 943.03 615.37 curveto
stroke
0 0 0 edgecolor
newpath 946.13 616.99 moveto
947.79 606.52 lineto
939.97 613.67 lineto
closepath fill
1 setlinewidth
solid
0 0 0 edgecolor
newpath 946.13 616.99 moveto
947.79 606.52 lineto
939.97 613.67 lineto
closepath stroke
0 0 0 edgecolor
14 /Times-Roman set_font
934.38 633.4 moveto 34 ([1,1]) alignedtext
grestore
% 32
gsave
0.54118 0.25098 1 nodecolor
857.38 585 24.24 24.75 ellipse_path fill
1 setlinewidth
filled
0.54118 0.25098 1 nodecolor
857.38 585 24.24 24.75 ellipse_path stroke
0 0 0 nodecolor
14 /Times-Roman set_font
847.88 581.4 moveto 19 (32) alignedtext
grestore
% 25->32
gsave
1 setlinewidth
0 0 0 edgecolor
newpath 889.7 668.53 moveto
885.41 661.56 880.88 653.61 877.38 646 curveto
873.35 637.22 869.76 627.4 866.77 618.24 curveto
stroke
0 0 0 edgecolor
newpath 870.1 617.15 moveto
863.77 608.65 lineto
863.41 619.24 lineto
closepath fill
1 setlinewidth
solid
0 0 0 edgecolor
newpath 870.1 617.15 moveto
863.77 608.65 lineto
863.41 619.24 lineto
closepath stroke
0 0 0 edgecolor
14 /Times-Roman set_font
877.38 633.4 moveto 34 ([1,0]) alignedtext
grestore
% 26->32
gsave
1 setlinewidth
0 0 0 edgecolor
newpath 812.31 664.75 moveto
811.38 653.23 811.78 639.5 816.38 628 curveto
819.51 620.19 824.81 612.99 830.57 606.81 curveto
stroke
0 0 0 edgecolor
newpath 833.29 609.04 moveto
838 599.55 lineto
828.4 604.04 lineto
closepath fill
1 setlinewidth
solid
0 0 0 edgecolor
newpath 833.29 609.04 moveto
838 599.55 lineto
828.4 604.04 lineto
closepath stroke
0 0 0 edgecolor
14 /Times-Roman set_font
816.38 633.4 moveto 34 ([0,1]) alignedtext
grestore
% 27->28
gsave
1 setlinewidth
0 0 0 edgecolor
newpath 944.03 565.48 moveto
938.39 558.19 932.01 549.78 926.38 542 curveto
910.64 520.22 908.28 513.67 892.38 492 curveto
888.54 486.76 884.33 481.26 880.22 476.01 curveto
stroke
0 0 0 edgecolor
newpath 882.86 473.71 moveto
873.91 468.04 lineto
877.37 478.05 lineto
closepath fill
1 setlinewidth
solid
0 0 0 edgecolor
newpath 882.86 473.71 moveto
873.91 468.04 lineto
877.37 478.05 lineto
closepath stroke
0 0 0 edgecolor
14 /Times-Roman set_font
926.38 513.4 moveto 34 ([1,0]) alignedtext
grestore
% 33
gsave
0.54118 0.25098 1 nodecolor
979.38 449 24.24 24.75 ellipse_path fill
1 setlinewidth
filled
0.54118 0.25098 1 nodecolor
979.38 449 24.24 24.75 ellipse_path stroke
0 0 0 nodecolor
14 /Times-Roman set_font
969.88 445.4 moveto 19 (33) alignedtext
grestore
% 27->33
gsave
1 setlinewidth
0 0 0 edgecolor
newpath 962.96 560.69 moveto
966.11 539.26 970.74 507.79 974.28 483.71 curveto
stroke
0 0 0 edgecolor
newpath 977.78 483.96 moveto
975.77 473.56 lineto
970.85 482.95 lineto
closepath fill
1 setlinewidth
solid
0 0 0 edgecolor
newpath 977.78 483.96 moveto
975.77 473.56 lineto
970.85 482.95 lineto
closepath stroke
0 0 0 edgecolor
14 /Times-Roman set_font
972.38 513.4 moveto 71 ([0,0] [1,1]) alignedtext
grestore
% 34
gsave
0.54118 0.25098 1 nodecolor
858.38 341 24.24 24.75 ellipse_path fill
1 setlinewidth
filled
0.54118 0.25098 1 nodecolor
858.38 341 24.24 24.75 ellipse_path stroke
0 0 0 nodecolor
14 /Times-Roman set_font
848.88 337.4 moveto 19 (34) alignedtext
grestore
% 28->34
gsave
1 setlinewidth
0 0 0 edgecolor
newpath 858.38 424.49 moveto
858.38 410.23 858.38 392.02 858.38 376.24 curveto
stroke
0 0 0 edgecolor
newpath 861.88 375.78 moveto
858.38 365.78 lineto
854.88 375.78 lineto
closepath fill
1 setlinewidth
solid
0 0 0 edgecolor
newpath 861.88 375.78 moveto
858.38 365.78 lineto
854.88 375.78 lineto
closepath stroke
0 0 0 edgecolor
14 /Times-Roman set_font
858.38 393.4 moveto 34 ([0,1]) alignedtext
grestore
% 35
gsave
0.54118 0.25098 1 nodecolor
633.38 585 24.24 24.75 ellipse_path fill
1 setlinewidth
filled
0.54118 0.25098 1 nodecolor
633.38 585 24.24 24.75 ellipse_path stroke
0 0 0 nodecolor
14 /Times-Roman set_font
623.88 581.4 moveto 19 (35) alignedtext
grestore
% 29->35
gsave
1 setlinewidth
0 0 0 edgecolor
newpath 642.32 668.34 moveto
638.69 661.5 635.23 653.66 633.38 646 curveto
631.37 637.66 630.63 628.48 630.57 619.84 curveto
stroke
0 0 0 edgecolor
newpath 634.07 619.72 moveto
630.77 609.65 lineto
627.07 619.58 lineto
closepath fill
1 setlinewidth
solid
0 0 0 edgecolor
newpath 634.07 619.72 moveto
630.77 609.65 lineto
627.07 619.58 lineto
closepath stroke
0 0 0 edgecolor
14 /Times-Roman set_font
633.38 633.4 moveto 34 ([0,0]) alignedtext
grestore
% 36
gsave
0.54118 0.25098 1 nodecolor
777.38 517 24.24 24.75 ellipse_path fill
1 setlinewidth
filled
0.54118 0.25098 1 nodecolor
777.38 517 24.24 24.75 ellipse_path stroke
0 0 0 nodecolor
14 /Times-Roman set_font
767.88 513.4 moveto 19 (36) alignedtext
grestore
% 29->36
gsave
1 setlinewidth
0 0 0 edgecolor
newpath 668.19 668.14 moveto
675.63 656.24 685.3 641.13 694.38 628 curveto
714.54 598.88 738.96 566.55 756.07 544.33 curveto
stroke
0 0 0 edgecolor
newpath 758.9 546.39 moveto
762.25 536.33 lineto
753.37 542.11 lineto
closepath fill
1 setlinewidth
solid
0 0 0 edgecolor
newpath 758.9 546.39 moveto
762.25 536.33 lineto
753.37 542.11 lineto
closepath stroke
0 0 0 edgecolor
14 /Times-Roman set_font
694.38 633.4 moveto 34 ([1,0]) alignedtext
grestore
% 37
gsave
0.54118 0.25098 1 nodecolor
575.38 341 24.24 24.75 ellipse_path fill
1 setlinewidth
filled
0.54118 0.25098 1 nodecolor
575.38 341 24.24 24.75 ellipse_path stroke
0 0 0 nodecolor
14 /Times-Roman set_font
565.88 337.4 moveto 19 (37) alignedtext
grestore
% 29->37
gsave
1 setlinewidth
0 0 0 edgecolor
newpath 638.49 671.39 moveto
615.08 645.53 574.09 594.64 560.38 542 curveto
545.41 484.53 556.89 414.91 566.32 374.52 curveto
stroke
0 0 0 edgecolor
newpath 569.75 375.2 moveto
568.72 364.66 lineto
562.95 373.55 lineto
closepath fill
1 setlinewidth
solid
0 0 0 edgecolor
newpath 569.75 375.2 moveto
568.72 364.66 lineto
562.95 373.55 lineto
closepath stroke
0 0 0 edgecolor
14 /Times-Roman set_font
560.38 513.4 moveto 34 ([1,1]) alignedtext
grestore
% 30->31
gsave
1 setlinewidth
0 0 0 edgecolor
newpath 438.61 664.61 moveto
441.24 653.06 445.32 639.34 451.38 628 curveto
454.75 621.7 459.19 615.51 463.81 609.89 curveto
stroke
0 0 0 edgecolor
newpath 466.67 611.93 moveto
470.61 602.09 lineto
461.4 607.32 lineto
closepath fill
1 setlinewidth
solid
0 0 0 edgecolor
newpath 466.67 611.93 moveto
470.61 602.09 lineto
461.4 607.32 lineto
closepath stroke
0 0 0 edgecolor
14 /Times-Roman set_font
451.38 633.4 moveto 34 ([0,1]) alignedtext
grestore
% 31->9
gsave
1 setlinewidth
0 0 0 edgecolor
newpath 491.52 560.55 moveto
497.45 507.25 506.88 377.21 473.38 276 curveto
439.55 173.76 343.43 82.58 297.46 43.37 curveto
stroke
0 0 0 edgecolor
newpath 299.66 40.64 moveto
289.75 36.88 lineto
295.15 46 lineto
closepath fill
1 setlinewidth
solid
0 0 0 edgecolor
newpath 299.66 40.64 moveto
289.75 36.88 lineto
295.15 46 lineto
closepath stroke
0 0 0 edgecolor
14 /Times-Roman set_font
478.38 281.4 moveto 34 ([0,1]) alignedtext
grestore
% 32->28
gsave
1 setlinewidth
0 0 0 edgecolor
newpath 857.23 560.13 moveto
857.15 541.4 857.11 515.09 857.38 492 curveto
857.41 489.29 857.46 486.49 857.51 483.67 curveto
stroke
0 0 0 edgecolor
newpath 861.01 483.63 moveto
857.71 473.56 lineto
854.01 483.48 lineto
closepath fill
1 setlinewidth
solid
0 0 0 edgecolor
newpath 861.01 483.63 moveto
857.71 473.56 lineto
854.01 483.48 lineto
closepath stroke
0 0 0 edgecolor
14 /Times-Roman set_font
857.38 513.4 moveto 34 ([0,1]) alignedtext
grestore
% 33->34
gsave
1 setlinewidth
0 0 0 edgecolor
newpath 958.22 436.72 moveto
945.25 428.74 928.65 417.67 915.38 406 curveto
902.56 394.73 889.88 380.64 879.75 368.46 curveto
stroke
0 0 0 edgecolor
newpath 882.2 365.93 moveto
873.17 360.4 lineto
876.78 370.36 lineto
closepath fill
1 setlinewidth
solid
0 0 0 edgecolor
newpath 882.2 365.93 moveto
873.17 360.4 lineto
876.78 370.36 lineto
closepath stroke
0 0 0 edgecolor
14 /Times-Roman set_font
915.38 393.4 moveto 34 ([1,0]) alignedtext
grestore
% 38
gsave
0.54118 0.25098 1 nodecolor
928.38 341 24.24 24.75 ellipse_path fill
1 setlinewidth
filled
0.54118 0.25098 1 nodecolor
928.38 341 24.24 24.75 ellipse_path stroke
0 0 0 nodecolor
14 /Times-Roman set_font
918.88 337.4 moveto 19 (38) alignedtext
grestore
% 33->38
gsave
1 setlinewidth
0 0 0 edgecolor
newpath 970.74 426.13 moveto
966.19 414.56 960.32 400.38 954.38 388 curveto
951.75 382.51 948.76 376.75 945.78 371.23 curveto
stroke
0 0 0 edgecolor
newpath 948.72 369.32 moveto
940.82 362.25 lineto
942.59 372.7 lineto
closepath fill
1 setlinewidth
solid
0 0 0 edgecolor
newpath 948.72 369.32 moveto
940.82 362.25 lineto
942.59 372.7 lineto
closepath stroke
0 0 0 edgecolor
14 /Times-Roman set_font
961.38 393.4 moveto 71 ([0,0] [1,1]) alignedtext
grestore
% 39
gsave
0.023529 0.72157 1 nodecolor
891.38 229 24.31 24.75 ellipse_path fill
1 setlinewidth
filled
0.023529 0.72157 1 nodecolor
891.38 229 24.31 24.75 ellipse_path stroke
1 setlinewidth
filled
0.023529 0.72157 1 nodecolor
891.38 229 28.24 28.75 ellipse_path stroke
0 0 0 nodecolor
14 /Times-Roman set_font
881.88 225.4 moveto 19 (39) alignedtext
grestore
% 34->39
gsave
1 setlinewidth
0 0 0 edgecolor
newpath 858.73 316.45 moveto
859.48 304.08 861.28 288.99 865.38 276 curveto
866.85 271.35 868.8 266.65 870.98 262.1 curveto
stroke
0 0 0 edgecolor
newpath 874.18 263.54 moveto
875.68 253.05 lineto
867.97 260.31 lineto
closepath fill
1 setlinewidth
solid
0 0 0 edgecolor
newpath 874.18 263.54 moveto
875.68 253.05 lineto
867.97 260.31 lineto
closepath stroke
0 0 0 edgecolor
14 /Times-Roman set_font
865.38 281.4 moveto 34 ([0,1]) alignedtext
grestore
% 35->37
gsave
1 setlinewidth
0 0 0 edgecolor
newpath 621.92 563.11 moveto
618.8 556.46 615.65 549.05 613.38 542 curveto
595.12 485.2 584.46 416.4 579.29 375.8 curveto
stroke
0 0 0 edgecolor
newpath 582.74 375.11 moveto
578.04 365.62 lineto
575.79 375.97 lineto
closepath fill
1 setlinewidth
solid
0 0 0 edgecolor
newpath 582.74 375.11 moveto
578.04 365.62 lineto
575.79 375.97 lineto
closepath stroke
0 0 0 edgecolor
14 /Times-Roman set_font
594.38 445.4 moveto 34 ([1,1]) alignedtext
grestore
% 40
gsave
0.54118 0.25098 1 nodecolor
673.38 449 24.24 24.75 ellipse_path fill
1 setlinewidth
filled
0.54118 0.25098 1 nodecolor
673.38 449 24.24 24.75 ellipse_path stroke
0 0 0 nodecolor
14 /Times-Roman set_font
663.88 445.4 moveto 19 (40) alignedtext
grestore
% 35->40
gsave
1 setlinewidth
0 0 0 edgecolor
newpath 647.82 564.84 moveto
652.17 557.89 656.54 549.88 659.38 542 curveto
666.11 523.39 669.6 501.55 671.42 483.72 curveto
stroke
0 0 0 edgecolor
newpath 674.91 484 moveto
672.31 473.73 lineto
667.93 483.38 lineto
closepath fill
1 setlinewidth
solid
0 0 0 edgecolor
newpath 674.91 484 moveto
672.31 473.73 lineto
667.93 483.38 lineto
closepath stroke
0 0 0 edgecolor
14 /Times-Roman set_font
670.38 513.4 moveto 34 ([0,0]) alignedtext
grestore
% 41
gsave
0.023529 0.72157 1 nodecolor
714.38 229 24.31 24.75 ellipse_path fill
1 setlinewidth
filled
0.023529 0.72157 1 nodecolor
714.38 229 24.31 24.75 ellipse_path stroke
1 setlinewidth
filled
0.023529 0.72157 1 nodecolor
714.38 229 28.24 28.75 ellipse_path stroke
0 0 0 nodecolor
14 /Times-Roman set_font
704.88 225.4 moveto 19 (41) alignedtext
grestore
% 35->41
gsave
1 setlinewidth
0 0 0 edgecolor
newpath 656.65 578.58 moveto
674.4 572.36 697.73 561 709.38 542 curveto
767.06 447.95 717.94 404.3 720.38 294 curveto
720.56 286 720.89 283.98 720.38 276 curveto
720.2 273.15 719.96 270.21 719.68 267.26 curveto
stroke
0 0 0 edgecolor
newpath 723.15 266.84 moveto
718.58 257.28 lineto
716.19 267.6 lineto
closepath fill
1 setlinewidth
solid
0 0 0 edgecolor
newpath 723.15 266.84 moveto
718.58 257.28 lineto
716.19 267.6 lineto
closepath stroke
0 0 0 edgecolor
14 /Times-Roman set_font
732.38 393.4 moveto 34 ([1,0]) alignedtext
grestore
% 36->41
gsave
1 setlinewidth
0 0 0 edgecolor
newpath 779.94 492.42 moveto
783.59 447.29 786.57 349.13 753.38 276 curveto
750.31 269.23 745.99 262.64 741.35 256.64 curveto
stroke
0 0 0 edgecolor
newpath 743.97 254.33 moveto
734.89 248.87 lineto
738.59 258.8 lineto
closepath fill
1 setlinewidth
solid
0 0 0 edgecolor
newpath 743.97 254.33 moveto
734.89 248.87 lineto
738.59 258.8 lineto
closepath stroke
0 0 0 edgecolor
14 /Times-Roman set_font
780.38 393.4 moveto 34 ([0,1]) alignedtext
grestore
% 37->4
gsave
1 setlinewidth
0 0 0 edgecolor
newpath 581.15 316.84 moveto
590.57 277.32 609.28 198.89 619.78 154.87 curveto
stroke
0 0 0 edgecolor
newpath 623.22 155.52 moveto
622.14 144.98 lineto
616.41 153.9 lineto
closepath fill
1 setlinewidth
solid
0 0 0 edgecolor
newpath 623.22 155.52 moveto
622.14 144.98 lineto
616.41 153.9 lineto
closepath stroke
0 0 0 edgecolor
14 /Times-Roman set_font
607.38 225.4 moveto 34 ([1,0]) alignedtext
grestore
% 37->10
gsave
1 setlinewidth
0 0 0 edgecolor
newpath 551.27 339.17 moveto
515.84 335.49 448.77 324.73 401.38 294 curveto
387.49 284.99 375.47 271.15 366.42 258.56 curveto
stroke
0 0 0 edgecolor
newpath 369.17 256.38 moveto
360.63 250.11 lineto
363.4 260.34 lineto
closepath fill
1 setlinewidth
solid
0 0 0 edgecolor
newpath 369.17 256.38 moveto
360.63 250.11 lineto
363.4 260.34 lineto
closepath stroke
0 0 0 edgecolor
14 /Times-Roman set_font
401.38 281.4 moveto 71 ([0,0] [1,1]) alignedtext
grestore
% 38->38
gsave
1 setlinewidth
0 0 0 edgecolor
newpath 950.63 351 moveto
962.99 352.86 974.38 349.53 974.38 341 curveto
974.38 334.93 968.63 331.5 960.86 330.69 curveto
stroke
0 0 0 edgecolor
newpath 960.52 327.2 moveto
950.63 331 lineto
960.73 334.19 lineto
closepath fill
1 setlinewidth
solid
0 0 0 edgecolor
newpath 960.52 327.2 moveto
950.63 331 lineto
960.73 334.19 lineto
closepath stroke
0 0 0 edgecolor
14 /Times-Roman set_font
974.38 337.4 moveto 71 ([0,0] [1,1]) alignedtext
grestore
% 38->39
gsave
1 setlinewidth
0 0 0 edgecolor
newpath 920.63 317.52 moveto
915.7 302.61 909.22 283 903.62 266.03 curveto
stroke
0 0 0 edgecolor
newpath 906.89 264.79 moveto
900.43 256.39 lineto
900.25 266.99 lineto
closepath fill
1 setlinewidth
solid
0 0 0 edgecolor
newpath 906.89 264.79 moveto
900.43 256.39 lineto
900.25 266.99 lineto
closepath stroke
0 0 0 edgecolor
14 /Times-Roman set_font
911.38 281.4 moveto 34 ([1,0]) alignedtext
grestore
% 39->39
gsave
1 setlinewidth
0 0 0 edgecolor
newpath 917.62 239.24 moveto
930.24 240.51 941.38 237.09 941.38 229 curveto
941.38 223.18 935.63 219.78 927.7 218.8 curveto
stroke
0 0 0 edgecolor
newpath 927.64 215.3 moveto
917.62 218.76 lineto
927.61 222.3 lineto
closepath fill
1 setlinewidth
solid
0 0 0 edgecolor
newpath 927.64 215.3 moveto
917.62 218.76 lineto
927.61 222.3 lineto
closepath stroke
0 0 0 edgecolor
14 /Times-Roman set_font
941.38 225.4 moveto 34 ([0,1]) alignedtext
grestore
% 40->35
gsave
1 setlinewidth
0 0 0 edgecolor
newpath 652.35 461.31 moveto
641.85 468.73 630.17 479.22 624.38 492 curveto
615.91 510.7 618.02 533.64 622.31 552.06 curveto
stroke
0 0 0 edgecolor
newpath 618.94 552.99 moveto
624.87 561.77 lineto
625.71 551.21 lineto
closepath fill
1 setlinewidth
solid
0 0 0 edgecolor
newpath 618.94 552.99 moveto
624.87 561.77 lineto
625.71 551.21 lineto
closepath stroke
0 0 0 edgecolor
14 /Times-Roman set_font
624.38 513.4 moveto 34 ([0,0]) alignedtext
grestore
% 40->37
gsave
1 setlinewidth
0 0 0 edgecolor
newpath 656.76 430.68 moveto
640.75 413.04 616.41 386.21 598.51 366.49 curveto
stroke
0 0 0 edgecolor
newpath 601.07 364.1 moveto
591.76 359.05 lineto
595.89 368.81 lineto
closepath fill
1 setlinewidth
solid
0 0 0 edgecolor
newpath 601.07 364.1 moveto
591.76 359.05 lineto
595.89 368.81 lineto
closepath stroke
0 0 0 edgecolor
14 /Times-Roman set_font
632.38 393.4 moveto 34 ([1,1]) alignedtext
grestore
% 42
gsave
0.023529 0.72157 1 nodecolor
674.38 341 24.31 24.75 ellipse_path fill
1 setlinewidth
filled
0.023529 0.72157 1 nodecolor
674.38 341 24.31 24.75 ellipse_path stroke
1 setlinewidth
filled
0.023529 0.72157 1 nodecolor
674.38 341 28.24 28.75 ellipse_path stroke
0 0 0 nodecolor
14 /Times-Roman set_font
664.88 337.4 moveto 19 (42) alignedtext
grestore
% 40->42
gsave
1 setlinewidth
0 0 0 edgecolor
newpath 673.61 424.49 moveto
673.73 411.24 673.89 394.58 674.02 379.63 curveto
stroke
0 0 0 edgecolor
newpath 677.52 379.65 moveto
674.12 369.62 lineto
670.53 379.58 lineto
closepath fill
1 setlinewidth
solid
0 0 0 edgecolor
newpath 677.52 379.65 moveto
674.12 369.62 lineto
670.53 379.58 lineto
closepath stroke
0 0 0 edgecolor
14 /Times-Roman set_font
673.38 393.4 moveto 34 ([1,0]) alignedtext
grestore
% 41->4
gsave
1 setlinewidth
0 0 0 edgecolor
newpath 696.36 207.04 moveto
682.29 189.89 662.73 166.06 648.03 148.15 curveto
stroke
0 0 0 edgecolor
newpath 650.7 145.9 moveto
641.65 140.39 lineto
645.29 150.34 lineto
closepath fill
1 setlinewidth
solid
0 0 0 edgecolor
newpath 650.7 145.9 moveto
641.65 140.39 lineto
645.29 150.34 lineto
closepath stroke
0 0 0 edgecolor
14 /Times-Roman set_font
673.38 169.4 moveto 34 ([0,1]) alignedtext
grestore
% 42->41
gsave
1 setlinewidth
0 0 0 edgecolor
newpath 676.79 312.54 moveto
678.39 300.94 681.03 287.57 685.38 276 curveto
687.33 270.84 689.86 265.63 692.62 260.65 curveto
stroke
0 0 0 edgecolor
newpath 695.66 262.38 moveto
697.75 251.99 lineto
689.64 258.8 lineto
closepath fill
1 setlinewidth
solid
0 0 0 edgecolor
newpath 695.66 262.38 moveto
697.75 251.99 lineto
689.64 258.8 lineto
closepath stroke
0 0 0 edgecolor
14 /Times-Roman set_font
685.38 281.4 moveto 34 ([0,1]) alignedtext
grestore
endpage
showpage
grestore
%%PageTrailer
%%EndPage: 1
%%Trailer
end
restore
%%EOF
