%!PS-Adobe-3.0 EPSF-3.0
%%Creator: graphviz version 2.26.3 (20100126.1600)
%%Title: FSA Utilities
%%Pages: 1
%%BoundingBox: 36 36 673 1068
%%EndComments
save
%%BeginProlog
/DotDict 200 dict def
DotDict begin

/setupLatin1 {
mark
/EncodingVector 256 array def
 EncodingVector 0

ISOLatin1Encoding 0 255 getinterval putinterval
EncodingVector 45 /hyphen put

% Set up ISO Latin 1 character encoding
/starnetISO {
        dup dup findfont dup length dict begin
        { 1 index /FID ne { def }{ pop pop } ifelse
        } forall
        /Encoding EncodingVector def
        currentdict end definefont
} def
/Times-Roman starnetISO def
/Times-Italic starnetISO def
/Times-Bold starnetISO def
/Times-BoldItalic starnetISO def
/Helvetica starnetISO def
/Helvetica-Oblique starnetISO def
/Helvetica-Bold starnetISO def
/Helvetica-BoldOblique starnetISO def
/Courier starnetISO def
/Courier-Oblique starnetISO def
/Courier-Bold starnetISO def
/Courier-BoldOblique starnetISO def
cleartomark
} bind def

%%BeginResource: procset graphviz 0 0
/coord-font-family /Times-Roman def
/default-font-family /Times-Roman def
/coordfont coord-font-family findfont 8 scalefont def

/InvScaleFactor 1.0 def
/set_scale {
       dup 1 exch div /InvScaleFactor exch def
       scale
} bind def

% styles
/solid { [] 0 setdash } bind def
/dashed { [9 InvScaleFactor mul dup ] 0 setdash } bind def
/dotted { [1 InvScaleFactor mul 6 InvScaleFactor mul] 0 setdash } bind def
/invis {/fill {newpath} def /stroke {newpath} def /show {pop newpath} def} bind def
/bold { 2 setlinewidth } bind def
/filled { } bind def
/unfilled { } bind def
/rounded { } bind def
/diagonals { } bind def

% hooks for setting color 
/nodecolor { sethsbcolor } bind def
/edgecolor { sethsbcolor } bind def
/graphcolor { sethsbcolor } bind def
/nopcolor {pop pop pop} bind def

/beginpage {	% i j npages
	/npages exch def
	/j exch def
	/i exch def
	/str 10 string def
	npages 1 gt {
		gsave
			coordfont setfont
			0 0 moveto
			(\() show i str cvs show (,) show j str cvs show (\)) show
		grestore
	} if
} bind def

/set_font {
	findfont exch
	scalefont setfont
} def

% draw text fitted to its expected width
/alignedtext {			% width text
	/text exch def
	/width exch def
	gsave
		width 0 gt {
			[] 0 setdash
			text stringwidth pop width exch sub text length div 0 text ashow
		} if
	grestore
} def

/boxprim {				% xcorner ycorner xsize ysize
		4 2 roll
		moveto
		2 copy
		exch 0 rlineto
		0 exch rlineto
		pop neg 0 rlineto
		closepath
} bind def

/ellipse_path {
	/ry exch def
	/rx exch def
	/y exch def
	/x exch def
	matrix currentmatrix
	newpath
	x y translate
	rx ry scale
	0 0 1 0 360 arc
	setmatrix
} bind def

/endpage { showpage } bind def
/showpage { } def

/layercolorseq
	[	% layer color sequence - darkest to lightest
		[0 0 0]
		[.2 .8 .8]
		[.4 .8 .8]
		[.6 .8 .8]
		[.8 .8 .8]
	]
def

/layerlen layercolorseq length def

/setlayer {/maxlayer exch def /curlayer exch def
	layercolorseq curlayer 1 sub layerlen mod get
	aload pop sethsbcolor
	/nodecolor {nopcolor} def
	/edgecolor {nopcolor} def
	/graphcolor {nopcolor} def
} bind def

/onlayer { curlayer ne {invis} if } def

/onlayers {
	/myupper exch def
	/mylower exch def
	curlayer mylower lt
	curlayer myupper gt
	or
	{invis} if
} def

/curlayer 0 def

%%EndResource
%%EndProlog
%%BeginSetup
14 default-font-family set_font
1 setmiterlimit
% /arrowlength 10 def
% /arrowwidth 5 def

% make sure pdfmark is harmless for PS-interpreters other than Distiller
/pdfmark where {pop} {userdict /pdfmark /cleartomark load put} ifelse
% make '<<' and '>>' safe on PS Level 1 devices
/languagelevel where {pop languagelevel}{1} ifelse
2 lt {
    userdict (<<) cvn ([) cvn load put
    userdict (>>) cvn ([) cvn load put
} if

%%EndSetup
setupLatin1
%%Page: 1 1
%%PageBoundingBox: 36 36 673 1068
%%PageOrientation: Portrait
0 0 1 beginpage
gsave
36 36 637 1032 boxprim clip newpath
1 1 set_scale 0 rotate 40 41 translate
% start0
gsave
grestore
% 0
gsave
0.83922 0.48235 0.8549 nodecolor
454 927 17.98 18.38 ellipse_path fill
1 setlinewidth
filled
0.83922 0.48235 0.8549 nodecolor
454 927 17.98 18.38 ellipse_path stroke
1 setlinewidth
filled
0.83922 0.48235 0.8549 nodecolor
454 927 21.89 22.38 ellipse_path stroke
0 0 0 nodecolor
14 /Times-Roman set_font
449 923.4 moveto 10 (0) alignedtext
grestore
% start0->0
gsave
1 setlinewidth
0 0 0 edgecolor
newpath 454 987.68 moveto
454 979.38 454 969.3 454 959.77 curveto
stroke
0 0 0 edgecolor
newpath 457.5 959.74 moveto
454 949.74 lineto
450.5 959.74 lineto
closepath fill
1 setlinewidth
solid
0 0 0 edgecolor
newpath 457.5 959.74 moveto
454 949.74 lineto
450.5 959.74 lineto
closepath stroke
grestore
% 0->0
gsave
1 setlinewidth
0 0 0 edgecolor
newpath 474.82 934.44 moveto
486.83 935.96 498 933.48 498 927 curveto
498 922.44 492.48 919.86 485.02 919.26 curveto
stroke
0 0 0 edgecolor
newpath 484.72 915.77 moveto
474.82 919.56 lineto
484.92 922.77 lineto
closepath fill
1 setlinewidth
solid
0 0 0 edgecolor
newpath 484.72 915.77 moveto
474.82 919.56 lineto
484.92 922.77 lineto
closepath stroke
0 0 0 edgecolor
14 /Times-Roman set_font
498 923.4 moveto 34 ([0,0]) alignedtext
grestore
% 1
gsave
0.54118 0.25098 1 nodecolor
454 831 17.89 18.38 ellipse_path fill
1 setlinewidth
filled
0.54118 0.25098 1 nodecolor
454 831 17.89 18.38 ellipse_path stroke
0 0 0 nodecolor
14 /Times-Roman set_font
449 827.4 moveto 10 (1) alignedtext
grestore
% 0->1
gsave
1 setlinewidth
0 0 0 edgecolor
newpath 454 904.25 moveto
454 890.99 454 874.15 454 859.95 curveto
stroke
0 0 0 edgecolor
newpath 457.5 859.72 moveto
454 849.72 lineto
450.5 859.72 lineto
closepath fill
1 setlinewidth
solid
0 0 0 edgecolor
newpath 457.5 859.72 moveto
454 849.72 lineto
450.5 859.72 lineto
closepath stroke
0 0 0 edgecolor
14 /Times-Roman set_font
454 873.4 moveto 34 ([0,1]) alignedtext
grestore
% 2
gsave
0.54118 0.25098 1 nodecolor
346 739 17.89 18.38 ellipse_path fill
1 setlinewidth
filled
0.54118 0.25098 1 nodecolor
346 739 17.89 18.38 ellipse_path stroke
0 0 0 nodecolor
14 /Times-Roman set_font
341 735.4 moveto 10 (2) alignedtext
grestore
% 1->2
gsave
1 setlinewidth
0 0 0 edgecolor
newpath 436 828.38 moveto
415.5 824.45 382.37 815.12 363 794 curveto
356.3 786.7 352.24 776.8 349.78 767.42 curveto
stroke
0 0 0 edgecolor
newpath 353.19 766.64 moveto
347.69 757.58 lineto
346.35 768.09 lineto
closepath fill
1 setlinewidth
solid
0 0 0 edgecolor
newpath 353.19 766.64 moveto
347.69 757.58 lineto
346.35 768.09 lineto
closepath stroke
0 0 0 edgecolor
14 /Times-Roman set_font
363 781.4 moveto 34 ([0,0]) alignedtext
grestore
% 3
gsave
0.54118 0.25098 1 nodecolor
485 739 17.89 18.38 ellipse_path fill
1 setlinewidth
filled
0.54118 0.25098 1 nodecolor
485 739 17.89 18.38 ellipse_path stroke
0 0 0 nodecolor
14 /Times-Roman set_font
480 735.4 moveto 10 (3) alignedtext
grestore
% 1->3
gsave
1 setlinewidth
0 0 0 edgecolor
newpath 459.98 813.26 moveto
464.44 800.02 470.61 781.69 475.72 766.55 curveto
stroke
0 0 0 edgecolor
newpath 479.16 767.28 moveto
479.04 756.68 lineto
472.53 765.04 lineto
closepath fill
1 setlinewidth
solid
0 0 0 edgecolor
newpath 479.16 767.28 moveto
479.04 756.68 lineto
472.53 765.04 lineto
closepath stroke
0 0 0 edgecolor
14 /Times-Roman set_font
472 781.4 moveto 34 ([0,1]) alignedtext
grestore
% 4
gsave
0.023529 0.72157 1 nodecolor
424 679 17.98 18.38 ellipse_path fill
1 setlinewidth
filled
0.023529 0.72157 1 nodecolor
424 679 17.98 18.38 ellipse_path stroke
1 setlinewidth
filled
0.023529 0.72157 1 nodecolor
424 679 21.89 22.38 ellipse_path stroke
0 0 0 nodecolor
14 /Times-Roman set_font
419 675.4 moveto 10 (4) alignedtext
grestore
% 1->4
gsave
1 setlinewidth
0 0 0 edgecolor
newpath 441.28 817.74 moveto
435.8 811.15 429.97 802.73 427 794 curveto
417.9 767.28 417.93 735 419.79 711.46 curveto
stroke
0 0 0 edgecolor
newpath 423.29 711.59 moveto
420.74 701.3 lineto
416.32 710.93 lineto
closepath fill
1 setlinewidth
solid
0 0 0 edgecolor
newpath 423.29 711.59 moveto
420.74 701.3 lineto
416.32 710.93 lineto
closepath stroke
0 0 0 edgecolor
14 /Times-Roman set_font
427 781.4 moveto 34 ([1,0]) alignedtext
grestore
% 5
gsave
0.54118 0.25098 1 nodecolor
594 679 17.89 18.38 ellipse_path fill
1 setlinewidth
filled
0.54118 0.25098 1 nodecolor
594 679 17.89 18.38 ellipse_path stroke
0 0 0 nodecolor
14 /Times-Roman set_font
589 675.4 moveto 10 (5) alignedtext
grestore
% 1->5
gsave
1 setlinewidth
0 0 0 edgecolor
newpath 470.12 822.68 moveto
482.2 815.96 498.69 805.71 511 794 curveto
539.47 766.91 564.7 728.89 579.67 704.11 curveto
stroke
0 0 0 edgecolor
newpath 582.8 705.7 moveto
584.89 695.31 lineto
576.78 702.13 lineto
closepath fill
1 setlinewidth
solid
0 0 0 edgecolor
newpath 582.8 705.7 moveto
584.89 695.31 lineto
576.78 702.13 lineto
closepath stroke
0 0 0 edgecolor
14 /Times-Roman set_font
528 781.4 moveto 34 ([1,1]) alignedtext
grestore
% 6
gsave
0.54118 0.25098 1 nodecolor
144 619 17.89 18.38 ellipse_path fill
1 setlinewidth
filled
0.54118 0.25098 1 nodecolor
144 619 17.89 18.38 ellipse_path stroke
0 0 0 nodecolor
14 /Times-Roman set_font
139 615.4 moveto 10 (6) alignedtext
grestore
% 2->6
gsave
1 setlinewidth
0 0 0 edgecolor
newpath 330.15 729.58 moveto
295.04 708.73 210.53 658.52 168.54 633.58 curveto
stroke
0 0 0 edgecolor
newpath 170.16 630.47 moveto
159.78 628.37 lineto
166.59 636.49 lineto
closepath fill
1 setlinewidth
solid
0 0 0 edgecolor
newpath 170.16 630.47 moveto
159.78 628.37 lineto
166.59 636.49 lineto
closepath stroke
0 0 0 edgecolor
14 /Times-Roman set_font
280 675.4 moveto 34 ([0,0]) alignedtext
grestore
% 7
gsave
0.54118 0.25098 1 nodecolor
346 557 17.89 18.38 ellipse_path fill
1 setlinewidth
filled
0.54118 0.25098 1 nodecolor
346 557 17.89 18.38 ellipse_path stroke
0 0 0 nodecolor
14 /Times-Roman set_font
341 553.4 moveto 10 (7) alignedtext
grestore
% 2->7
gsave
1 setlinewidth
0 0 0 edgecolor
newpath 346 720.21 moveto
346 688.38 346 623.67 346 586 curveto
stroke
0 0 0 edgecolor
newpath 349.5 585.69 moveto
346 575.69 lineto
342.5 585.69 lineto
closepath fill
1 setlinewidth
solid
0 0 0 edgecolor
newpath 349.5 585.69 moveto
346 575.69 lineto
342.5 585.69 lineto
closepath stroke
0 0 0 edgecolor
14 /Times-Roman set_font
346 675.4 moveto 34 ([1,0]) alignedtext
grestore
% 8
gsave
0.54118 0.25098 1 nodecolor
498 489 17.89 18.38 ellipse_path fill
1 setlinewidth
filled
0.54118 0.25098 1 nodecolor
498 489 17.89 18.38 ellipse_path stroke
0 0 0 nodecolor
14 /Times-Roman set_font
493 485.4 moveto 10 (8) alignedtext
grestore
% 3->8
gsave
1 setlinewidth
0 0 0 edgecolor
newpath 500.1 728.15 moveto
507.92 721.57 516.71 712.44 521 702 curveto
549.73 632.12 541.02 605.12 522 532 curveto
520.3 525.48 517.38 518.91 514.15 512.93 curveto
stroke
0 0 0 edgecolor
newpath 517.04 510.94 moveto
508.94 504.11 lineto
511.01 514.5 lineto
closepath fill
1 setlinewidth
solid
0 0 0 edgecolor
newpath 517.04 510.94 moveto
508.94 504.11 lineto
511.01 514.5 lineto
closepath stroke
0 0 0 edgecolor
14 /Times-Roman set_font
539 615.4 moveto 34 ([1,0]) alignedtext
grestore
% 9
gsave
0.54118 0.25098 1 nodecolor
476 619 17.89 18.38 ellipse_path fill
1 setlinewidth
filled
0.54118 0.25098 1 nodecolor
476 619 17.89 18.38 ellipse_path stroke
0 0 0 nodecolor
14 /Times-Roman set_font
471 615.4 moveto 10 (9) alignedtext
grestore
% 3->9
gsave
1 setlinewidth
0 0 0 edgecolor
newpath 483.61 720.51 moveto
482.16 701.1 479.85 670.32 478.16 647.74 curveto
stroke
0 0 0 edgecolor
newpath 481.64 647.42 moveto
477.4 637.71 lineto
474.66 647.94 lineto
closepath fill
1 setlinewidth
solid
0 0 0 edgecolor
newpath 481.64 647.42 moveto
477.4 637.71 lineto
474.66 647.94 lineto
closepath stroke
0 0 0 edgecolor
14 /Times-Roman set_font
482 675.4 moveto 34 ([1,1]) alignedtext
grestore
% 10
gsave
0.023529 0.72157 1 nodecolor
454 245 24.31 24.75 ellipse_path fill
1 setlinewidth
filled
0.023529 0.72157 1 nodecolor
454 245 24.31 24.75 ellipse_path stroke
1 setlinewidth
filled
0.023529 0.72157 1 nodecolor
454 245 28.24 28.75 ellipse_path stroke
0 0 0 nodecolor
14 /Times-Roman set_font
444.5 241.4 moveto 19 (10) alignedtext
grestore
% 4->10
gsave
1 setlinewidth
0 0 0 edgecolor
newpath 424 656.06 moveto
424 631.54 424 591.52 424 557 curveto
424 557 424 557 424 353 curveto
424 328.14 431.47 301.19 438.96 280.43 curveto
stroke
0 0 0 edgecolor
newpath 442.24 281.66 moveto
442.49 271.07 lineto
435.69 279.19 lineto
closepath fill
1 setlinewidth
solid
0 0 0 edgecolor
newpath 442.24 281.66 moveto
442.49 271.07 lineto
435.69 279.19 lineto
closepath stroke
0 0 0 edgecolor
14 /Times-Roman set_font
424 485.4 moveto 34 ([0,1]) alignedtext
grestore
% 11
gsave
0.54118 0.25098 1 nodecolor
597 557 24.24 24.75 ellipse_path fill
1 setlinewidth
filled
0.54118 0.25098 1 nodecolor
597 557 24.24 24.75 ellipse_path stroke
0 0 0 nodecolor
14 /Times-Roman set_font
587.5 553.4 moveto 19 (11) alignedtext
grestore
% 5->11
gsave
1 setlinewidth
0 0 0 edgecolor
newpath 594.46 660.47 moveto
594.9 642.29 595.6 614.11 596.15 591.74 curveto
stroke
0 0 0 edgecolor
newpath 599.65 591.7 moveto
596.39 581.62 lineto
592.65 591.53 lineto
closepath fill
1 setlinewidth
solid
0 0 0 edgecolor
newpath 599.65 591.7 moveto
596.39 581.62 lineto
592.65 591.53 lineto
closepath stroke
0 0 0 edgecolor
14 /Times-Roman set_font
595 615.4 moveto 34 ([0,1]) alignedtext
grestore
% 12
gsave
0.54118 0.25098 1 nodecolor
144 489 24.24 24.75 ellipse_path fill
1 setlinewidth
filled
0.54118 0.25098 1 nodecolor
144 489 24.24 24.75 ellipse_path stroke
0 0 0 nodecolor
14 /Times-Roman set_font
134.5 485.4 moveto 19 (12) alignedtext
grestore
% 6->12
gsave
1 setlinewidth
0 0 0 edgecolor
newpath 144 600.37 moveto
144 580.47 144 548.46 144 523.86 curveto
stroke
0 0 0 edgecolor
newpath 147.5 523.82 moveto
144 513.82 lineto
140.5 523.82 lineto
closepath fill
1 setlinewidth
solid
0 0 0 edgecolor
newpath 147.5 523.82 moveto
144 513.82 lineto
140.5 523.82 lineto
closepath stroke
0 0 0 edgecolor
14 /Times-Roman set_font
144 553.4 moveto 34 ([1,0]) alignedtext
grestore
% 13
gsave
0.54118 0.25098 1 nodecolor
24 245 24.24 24.75 ellipse_path fill
1 setlinewidth
filled
0.54118 0.25098 1 nodecolor
24 245 24.24 24.75 ellipse_path stroke
0 0 0 nodecolor
14 /Times-Roman set_font
14.5 241.4 moveto 19 (13) alignedtext
grestore
% 6->13
gsave
1 setlinewidth
0 0 0 edgecolor
newpath 132.83 604.24 moveto
111.77 575.53 66.46 509.4 46 446 curveto
27.89 389.88 24.07 320.86 23.59 280.04 curveto
stroke
0 0 0 edgecolor
newpath 27.09 279.78 moveto
23.53 269.8 lineto
20.09 279.82 lineto
closepath fill
1 setlinewidth
solid
0 0 0 edgecolor
newpath 27.09 279.78 moveto
23.53 269.8 lineto
20.09 279.82 lineto
closepath stroke
0 0 0 edgecolor
14 /Times-Roman set_font
46 417.4 moveto 34 ([1,1]) alignedtext
grestore
% 14
gsave
0.54118 0.25098 1 nodecolor
351 421 24.24 24.75 ellipse_path fill
1 setlinewidth
filled
0.54118 0.25098 1 nodecolor
351 421 24.24 24.75 ellipse_path stroke
0 0 0 nodecolor
14 /Times-Roman set_font
341.5 417.4 moveto 19 (14) alignedtext
grestore
% 7->14
gsave
1 setlinewidth
0 0 0 edgecolor
newpath 346.68 538.37 moveto
347.46 517.28 348.74 482.41 349.71 456.16 curveto
stroke
0 0 0 edgecolor
newpath 353.22 455.97 moveto
350.09 445.85 lineto
346.22 455.71 lineto
closepath fill
1 setlinewidth
solid
0 0 0 edgecolor
newpath 353.22 455.97 moveto
350.09 445.85 lineto
346.22 455.71 lineto
closepath stroke
0 0 0 edgecolor
14 /Times-Roman set_font
349 485.4 moveto 34 ([0,1]) alignedtext
grestore
% 8->10
gsave
1 setlinewidth
0 0 0 edgecolor
newpath 494.69 470.66 moveto
487.54 430.97 470.48 336.4 460.88 283.14 curveto
stroke
0 0 0 edgecolor
newpath 464.28 282.29 moveto
459.06 273.07 lineto
457.39 283.53 lineto
closepath fill
1 setlinewidth
solid
0 0 0 edgecolor
newpath 464.28 282.29 moveto
459.06 273.07 lineto
457.39 283.53 lineto
closepath stroke
0 0 0 edgecolor
14 /Times-Roman set_font
477 349.4 moveto 34 ([1,1]) alignedtext
grestore
% 9->8
gsave
1 setlinewidth
0 0 0 edgecolor
newpath 477.66 600.56 moveto
479.41 582.88 482.53 555.48 487 532 curveto
487.94 527.06 489.12 521.84 490.35 516.8 curveto
stroke
0 0 0 edgecolor
newpath 493.8 517.44 moveto
492.89 506.88 lineto
487.02 515.7 lineto
closepath fill
1 setlinewidth
solid
0 0 0 edgecolor
newpath 493.8 517.44 moveto
492.89 506.88 lineto
487.02 515.7 lineto
closepath stroke
0 0 0 edgecolor
14 /Times-Roman set_font
487 553.4 moveto 34 ([0,0]) alignedtext
grestore
% 11->10
gsave
1 setlinewidth
0 0 0 edgecolor
newpath 591.07 532.94 moveto
579.95 490.1 553.66 398.48 516 328 curveto
505.84 308.99 491.61 289.6 479.35 274.34 curveto
stroke
0 0 0 edgecolor
newpath 481.82 271.83 moveto
472.77 266.32 lineto
476.4 276.27 lineto
closepath fill
1 setlinewidth
solid
0 0 0 edgecolor
newpath 481.82 271.83 moveto
472.77 266.32 lineto
476.4 276.27 lineto
closepath stroke
0 0 0 edgecolor
14 /Times-Roman set_font
564 417.4 moveto 34 ([0,1]) alignedtext
grestore
% 12->13
gsave
1 setlinewidth
0 0 0 edgecolor
newpath 129.81 468.81 moveto
114.93 447.07 91.46 411.12 75 378 curveto
58.63 345.06 44.07 305.5 34.74 278.13 curveto
stroke
0 0 0 edgecolor
newpath 38.05 277 moveto
31.54 268.64 lineto
31.41 279.23 lineto
closepath fill
1 setlinewidth
solid
0 0 0 edgecolor
newpath 38.05 277 moveto
31.54 268.64 lineto
31.41 279.23 lineto
closepath stroke
0 0 0 edgecolor
14 /Times-Roman set_font
75 349.4 moveto 34 ([0,1]) alignedtext
grestore
% 15
gsave
0.54118 0.25098 1 nodecolor
144 353 24.24 24.75 ellipse_path fill
1 setlinewidth
filled
0.54118 0.25098 1 nodecolor
144 353 24.24 24.75 ellipse_path stroke
0 0 0 nodecolor
14 /Times-Roman set_font
134.5 349.4 moveto 19 (15) alignedtext
grestore
% 12->15
gsave
1 setlinewidth
0 0 0 edgecolor
newpath 144 464.37 moveto
144 443.03 144 411.92 144 388 curveto
stroke
0 0 0 edgecolor
newpath 147.5 387.9 moveto
144 377.9 lineto
140.5 387.9 lineto
closepath fill
1 setlinewidth
solid
0 0 0 edgecolor
newpath 147.5 387.9 moveto
144 377.9 lineto
140.5 387.9 lineto
closepath stroke
0 0 0 edgecolor
14 /Times-Roman set_font
144 417.4 moveto 34 ([0,0]) alignedtext
grestore
% 16
gsave
0.54118 0.25098 1 nodecolor
244 353 24.24 24.75 ellipse_path fill
1 setlinewidth
filled
0.54118 0.25098 1 nodecolor
244 353 24.24 24.75 ellipse_path stroke
0 0 0 nodecolor
14 /Times-Roman set_font
234.5 349.4 moveto 19 (16) alignedtext
grestore
% 12->16
gsave
1 setlinewidth
0 0 0 edgecolor
newpath 160.97 471.55 moveto
168.06 463.94 176.22 454.77 183 446 curveto
198.74 425.66 214.62 401.31 226.22 382.63 curveto
stroke
0 0 0 edgecolor
newpath 229.3 384.3 moveto
231.56 373.95 lineto
223.34 380.64 lineto
closepath fill
1 setlinewidth
solid
0 0 0 edgecolor
newpath 229.3 384.3 moveto
231.56 373.95 lineto
223.34 380.64 lineto
closepath stroke
0 0 0 edgecolor
14 /Times-Roman set_font
217 417.4 moveto 34 ([1,1]) alignedtext
grestore
% 13->13
gsave
1 setlinewidth
0 0 0 edgecolor
newpath 46.25 255 moveto
58.61 256.86 70 253.53 70 245 curveto
70 238.93 64.24 235.5 56.47 234.69 curveto
stroke
0 0 0 edgecolor
newpath 56.13 231.2 moveto
46.25 235 lineto
56.35 238.19 lineto
closepath fill
1 setlinewidth
solid
0 0 0 edgecolor
newpath 56.13 231.2 moveto
46.25 235 lineto
56.35 238.19 lineto
closepath stroke
0 0 0 edgecolor
14 /Times-Roman set_font
70 241.4 moveto 34 ([1,1]) alignedtext
grestore
% 17
gsave
0.54118 0.25098 1 nodecolor
97 137 24.24 24.75 ellipse_path fill
1 setlinewidth
filled
0.54118 0.25098 1 nodecolor
97 137 24.24 24.75 ellipse_path stroke
0 0 0 nodecolor
14 /Times-Roman set_font
87.5 133.4 moveto 19 (17) alignedtext
grestore
% 13->17
gsave
1 setlinewidth
0 0 0 edgecolor
newpath 41.01 227.5 moveto
48.82 218.99 57.91 208.37 65 198 curveto
71.3 188.8 77.25 178.21 82.28 168.47 curveto
stroke
0 0 0 edgecolor
newpath 85.44 169.97 moveto
86.79 159.46 lineto
79.18 166.83 lineto
closepath fill
1 setlinewidth
solid
0 0 0 edgecolor
newpath 85.44 169.97 moveto
86.79 159.46 lineto
79.18 166.83 lineto
closepath stroke
0 0 0 edgecolor
14 /Times-Roman set_font
75 185.4 moveto 34 ([1,0]) alignedtext
grestore
% 18
gsave
0.54118 0.25098 1 nodecolor
234 245 24.24 24.75 ellipse_path fill
1 setlinewidth
filled
0.54118 0.25098 1 nodecolor
234 245 24.24 24.75 ellipse_path stroke
0 0 0 nodecolor
14 /Times-Roman set_font
224.5 241.4 moveto 19 (18) alignedtext
grestore
% 14->18
gsave
1 setlinewidth
0 0 0 edgecolor
newpath 355.76 396.65 moveto
359.81 368.7 361.92 322.75 340 292 curveto
323.23 268.48 291.96 256.56 267.71 250.62 curveto
stroke
0 0 0 edgecolor
newpath 268.33 247.18 moveto
257.81 248.43 lineto
266.81 254.01 lineto
closepath fill
1 setlinewidth
solid
0 0 0 edgecolor
newpath 268.33 247.18 moveto
257.81 248.43 lineto
266.81 254.01 lineto
closepath stroke
0 0 0 edgecolor
14 /Times-Roman set_font
358 349.4 moveto 34 ([0,1]) alignedtext
grestore
% 15->13
gsave
1 setlinewidth
0 0 0 edgecolor
newpath 124.9 337.32 moveto
115.23 329.27 103.37 319.25 93 310 curveto
78.11 296.73 61.85 281.45 48.86 269.04 curveto
stroke
0 0 0 edgecolor
newpath 51.26 266.5 moveto
41.62 262.11 lineto
46.42 271.55 lineto
closepath fill
1 setlinewidth
solid
0 0 0 edgecolor
newpath 51.26 266.5 moveto
41.62 262.11 lineto
46.42 271.55 lineto
closepath stroke
0 0 0 edgecolor
14 /Times-Roman set_font
93 297.4 moveto 34 ([0,1]) alignedtext
grestore
% 15->17
gsave
1 setlinewidth
0 0 0 edgecolor
newpath 141.36 328.58 moveto
137.35 294.76 128.6 231.94 114 180 curveto
112.98 176.39 111.77 172.66 110.47 168.98 curveto
stroke
0 0 0 edgecolor
newpath 113.69 167.59 moveto
106.88 159.46 lineto
107.14 170.06 lineto
closepath fill
1 setlinewidth
solid
0 0 0 edgecolor
newpath 113.69 167.59 moveto
106.88 159.46 lineto
107.14 170.06 lineto
closepath stroke
0 0 0 edgecolor
14 /Times-Roman set_font
133 241.4 moveto 34 ([0,0]) alignedtext
grestore
% 15->18
gsave
1 setlinewidth
0 0 0 edgecolor
newpath 159.68 334.19 moveto
174.04 316.95 195.47 291.24 211.63 271.84 curveto
stroke
0 0 0 edgecolor
newpath 214.49 273.88 moveto
218.2 263.96 lineto
209.11 269.4 lineto
closepath fill
1 setlinewidth
solid
0 0 0 edgecolor
newpath 214.49 273.88 moveto
218.2 263.96 lineto
209.11 269.4 lineto
closepath stroke
0 0 0 edgecolor
14 /Times-Roman set_font
194 297.4 moveto 34 ([1,1]) alignedtext
grestore
% 16->10
gsave
1 setlinewidth
0 0 0 edgecolor
newpath 265.68 341.85 moveto
302.2 323.07 376.23 285 419.8 262.59 curveto
stroke
0 0 0 edgecolor
newpath 421.58 265.61 moveto
428.87 257.92 lineto
418.38 259.38 lineto
closepath fill
1 setlinewidth
solid
0 0 0 edgecolor
newpath 421.58 265.61 moveto
428.87 257.92 lineto
418.38 259.38 lineto
closepath stroke
0 0 0 edgecolor
14 /Times-Roman set_font
361 297.4 moveto 34 ([0,0]) alignedtext
grestore
% 16->18
gsave
1 setlinewidth
0 0 0 edgecolor
newpath 241.73 328.49 moveto
240.39 313.99 238.67 295.4 237.19 279.45 curveto
stroke
0 0 0 edgecolor
newpath 240.67 279.04 moveto
236.26 269.41 lineto
233.7 279.69 lineto
closepath fill
1 setlinewidth
solid
0 0 0 edgecolor
newpath 240.67 279.04 moveto
236.26 269.41 lineto
233.7 279.69 lineto
closepath stroke
0 0 0 edgecolor
14 /Times-Roman set_font
239 297.4 moveto 34 ([0,1]) alignedtext
grestore
% 17->13
gsave
1 setlinewidth
0 0 0 edgecolor
newpath 74.39 145.3 moveto
59.15 152.15 40.05 163.46 30 180 curveto
24.53 189.01 22.24 200.05 21.54 210.46 curveto
stroke
0 0 0 edgecolor
newpath 18.04 210.48 moveto
21.32 220.56 lineto
25.04 210.63 lineto
closepath fill
1 setlinewidth
solid
0 0 0 edgecolor
newpath 18.04 210.48 moveto
21.32 220.56 lineto
25.04 210.63 lineto
closepath stroke
0 0 0 edgecolor
14 /Times-Roman set_font
30 185.4 moveto 34 ([0,1]) alignedtext
grestore
% 17->17
gsave
1 setlinewidth
0 0 0 edgecolor
newpath 119.25 146.28 moveto
131.61 148.02 143 144.92 143 137 curveto
143 131.37 137.24 128.18 129.47 127.42 curveto
stroke
0 0 0 edgecolor
newpath 129.14 123.93 moveto
119.25 127.72 lineto
129.34 130.93 lineto
closepath fill
1 setlinewidth
solid
0 0 0 edgecolor
newpath 129.14 123.93 moveto
119.25 127.72 lineto
129.34 130.93 lineto
closepath stroke
0 0 0 edgecolor
14 /Times-Roman set_font
143 133.4 moveto 34 ([0,0]) alignedtext
grestore
% 19
gsave
0.023529 0.72157 1 nodecolor
182 29 24.31 24.75 ellipse_path fill
1 setlinewidth
filled
0.023529 0.72157 1 nodecolor
182 29 24.31 24.75 ellipse_path stroke
1 setlinewidth
filled
0.023529 0.72157 1 nodecolor
182 29 28.24 28.75 ellipse_path stroke
0 0 0 nodecolor
14 /Times-Roman set_font
172.5 25.4 moveto 19 (19) alignedtext
grestore
% 17->19
gsave
1 setlinewidth
0 0 0 edgecolor
newpath 112.2 117.69 moveto
124.92 101.52 143.32 78.15 158.03 59.45 curveto
stroke
0 0 0 edgecolor
newpath 160.86 61.53 moveto
164.29 51.5 lineto
155.35 57.2 lineto
closepath fill
1 setlinewidth
solid
0 0 0 edgecolor
newpath 160.86 61.53 moveto
164.29 51.5 lineto
155.35 57.2 lineto
closepath stroke
0 0 0 edgecolor
14 /Times-Roman set_font
144 81.4 moveto 34 ([1,1]) alignedtext
grestore
% 18->19
gsave
1 setlinewidth
0 0 0 edgecolor
newpath 228.24 221.06 moveto
219.23 183.66 201.76 111.07 191.06 66.63 curveto
stroke
0 0 0 edgecolor
newpath 194.43 65.69 moveto
188.69 56.79 lineto
187.63 67.33 lineto
closepath fill
1 setlinewidth
solid
0 0 0 edgecolor
newpath 194.43 65.69 moveto
188.69 56.79 lineto
187.63 67.33 lineto
closepath stroke
0 0 0 edgecolor
14 /Times-Roman set_font
214 133.4 moveto 34 ([0,1]) alignedtext
grestore
% 19->19
gsave
1 setlinewidth
0 0 0 edgecolor
newpath 208.24 39.24 moveto
220.86 40.51 232 37.09 232 29 curveto
232 23.18 226.24 19.78 218.32 18.8 curveto
stroke
0 0 0 edgecolor
newpath 218.25 15.3 moveto
208.24 18.76 lineto
218.22 22.3 lineto
closepath fill
1 setlinewidth
solid
0 0 0 edgecolor
newpath 218.25 15.3 moveto
208.24 18.76 lineto
218.22 22.3 lineto
closepath stroke
0 0 0 edgecolor
14 /Times-Roman set_font
232 25.4 moveto 34 ([0,1]) alignedtext
grestore
endpage
showpage
grestore
%%PageTrailer
%%EndPage: 1
%%Trailer
end
restore
%%EOF
