%!PS-Adobe-3.0 EPSF-3.0
%%Creator: graphviz version 2.26.3 (20100126.1600)
%%Title: FSA Utilities
%%Pages: 1
%%BoundingBox: 193 84 420 708
%%EndComments
save
%%BeginProlog
/DotDict 200 dict def
DotDict begin

/setupLatin1 {
mark
/EncodingVector 256 array def
 EncodingVector 0

ISOLatin1Encoding 0 255 getinterval putinterval
EncodingVector 45 /hyphen put

% Set up ISO Latin 1 character encoding
/starnetISO {
        dup dup findfont dup length dict begin
        { 1 index /FID ne { def }{ pop pop } ifelse
        } forall
        /Encoding EncodingVector def
        currentdict end definefont
} def
/Times-Roman starnetISO def
/Times-Italic starnetISO def
/Times-Bold starnetISO def
/Times-BoldItalic starnetISO def
/Helvetica starnetISO def
/Helvetica-Oblique starnetISO def
/Helvetica-Bold starnetISO def
/Helvetica-BoldOblique starnetISO def
/Courier starnetISO def
/Courier-Oblique starnetISO def
/Courier-Bold starnetISO def
/Courier-BoldOblique starnetISO def
cleartomark
} bind def

%%BeginResource: procset graphviz 0 0
/coord-font-family /Times-Roman def
/default-font-family /Times-Roman def
/coordfont coord-font-family findfont 8 scalefont def

/InvScaleFactor 1.0 def
/set_scale {
       dup 1 exch div /InvScaleFactor exch def
       scale
} bind def

% styles
/solid { [] 0 setdash } bind def
/dashed { [9 InvScaleFactor mul dup ] 0 setdash } bind def
/dotted { [1 InvScaleFactor mul 6 InvScaleFactor mul] 0 setdash } bind def
/invis {/fill {newpath} def /stroke {newpath} def /show {pop newpath} def} bind def
/bold { 2 setlinewidth } bind def
/filled { } bind def
/unfilled { } bind def
/rounded { } bind def
/diagonals { } bind def

% hooks for setting color 
/nodecolor { sethsbcolor } bind def
/edgecolor { sethsbcolor } bind def
/graphcolor { sethsbcolor } bind def
/nopcolor {pop pop pop} bind def

/beginpage {	% i j npages
	/npages exch def
	/j exch def
	/i exch def
	/str 10 string def
	npages 1 gt {
		gsave
			coordfont setfont
			0 0 moveto
			(\() show i str cvs show (,) show j str cvs show (\)) show
		grestore
	} if
} bind def

/set_font {
	findfont exch
	scalefont setfont
} def

% draw text fitted to its expected width
/alignedtext {			% width text
	/text exch def
	/width exch def
	gsave
		width 0 gt {
			[] 0 setdash
			text stringwidth pop width exch sub text length div 0 text ashow
		} if
	grestore
} def

/boxprim {				% xcorner ycorner xsize ysize
		4 2 roll
		moveto
		2 copy
		exch 0 rlineto
		0 exch rlineto
		pop neg 0 rlineto
		closepath
} bind def

/ellipse_path {
	/ry exch def
	/rx exch def
	/y exch def
	/x exch def
	matrix currentmatrix
	newpath
	x y translate
	rx ry scale
	0 0 1 0 360 arc
	setmatrix
} bind def

/endpage { showpage } bind def
/showpage { } def

/layercolorseq
	[	% layer color sequence - darkest to lightest
		[0 0 0]
		[.2 .8 .8]
		[.4 .8 .8]
		[.6 .8 .8]
		[.8 .8 .8]
	]
def

/layerlen layercolorseq length def

/setlayer {/maxlayer exch def /curlayer exch def
	layercolorseq curlayer 1 sub layerlen mod get
	aload pop sethsbcolor
	/nodecolor {nopcolor} def
	/edgecolor {nopcolor} def
	/graphcolor {nopcolor} def
} bind def

/onlayer { curlayer ne {invis} if } def

/onlayers {
	/myupper exch def
	/mylower exch def
	curlayer mylower lt
	curlayer myupper gt
	or
	{invis} if
} def

/curlayer 0 def

%%EndResource
%%EndProlog
%%BeginSetup
14 default-font-family set_font
1 setmiterlimit
% /arrowlength 10 def
% /arrowwidth 5 def

% make sure pdfmark is harmless for PS-interpreters other than Distiller
/pdfmark where {pop} {userdict /pdfmark /cleartomark load put} ifelse
% make '<<' and '>>' safe on PS Level 1 devices
/languagelevel where {pop languagelevel}{1} ifelse
2 lt {
    userdict (<<) cvn ([) cvn load put
    userdict (>>) cvn ([) cvn load put
} if

%%EndSetup
setupLatin1
%%Page: 1 1
%%PageBoundingBox: 193 84 420 708
%%PageOrientation: Portrait
0 0 1 beginpage
gsave
193 84 227 624 boxprim clip newpath
1 1 set_scale 0 rotate 196.5 89 translate
% start0
gsave
grestore
% 0
gsave
0.83922 0.48235 0.8549 nodecolor
122 519 17.98 18.38 ellipse_path fill
1 setlinewidth
filled
0.83922 0.48235 0.8549 nodecolor
122 519 17.98 18.38 ellipse_path stroke
1 setlinewidth
filled
0.83922 0.48235 0.8549 nodecolor
122 519 21.89 22.38 ellipse_path stroke
0 0 0 nodecolor
14 /Times-Roman set_font
117 515.4 moveto 10 (0) alignedtext
grestore
% start0->0
gsave
1 setlinewidth
0 0 0 edgecolor
newpath 122 579.68 moveto
122 571.38 122 561.3 122 551.77 curveto
stroke
0 0 0 edgecolor
newpath 125.5 551.74 moveto
122 541.74 lineto
118.5 551.74 lineto
closepath fill
1 setlinewidth
solid
0 0 0 edgecolor
newpath 125.5 551.74 moveto
122 541.74 lineto
118.5 551.74 lineto
closepath stroke
grestore
% 0->0
gsave
1 setlinewidth
0 0 0 edgecolor
newpath 142.82 526.44 moveto
154.83 527.96 166 525.48 166 519 curveto
166 514.44 160.48 511.86 153.02 511.26 curveto
stroke
0 0 0 edgecolor
newpath 152.72 507.77 moveto
142.82 511.56 lineto
152.92 514.77 lineto
closepath fill
1 setlinewidth
solid
0 0 0 edgecolor
newpath 152.72 507.77 moveto
142.82 511.56 lineto
152.92 514.77 lineto
closepath stroke
0 0 0 edgecolor
14 /Times-Roman set_font
166 515.4 moveto 34 ([0,0]) alignedtext
grestore
% 1
gsave
0.54118 0.25098 1 nodecolor
122 423 17.89 18.38 ellipse_path fill
1 setlinewidth
filled
0.54118 0.25098 1 nodecolor
122 423 17.89 18.38 ellipse_path stroke
0 0 0 nodecolor
14 /Times-Roman set_font
117 419.4 moveto 10 (1) alignedtext
grestore
% 0->1
gsave
1 setlinewidth
0 0 0 edgecolor
newpath 122 496.25 moveto
122 482.99 122 466.15 122 451.95 curveto
stroke
0 0 0 edgecolor
newpath 125.5 451.72 moveto
122 441.72 lineto
118.5 451.72 lineto
closepath fill
1 setlinewidth
solid
0 0 0 edgecolor
newpath 125.5 451.72 moveto
122 441.72 lineto
118.5 451.72 lineto
closepath stroke
0 0 0 edgecolor
14 /Times-Roman set_font
122 465.4 moveto 34 ([0,1]) alignedtext
grestore
% 2
gsave
0.54118 0.25098 1 nodecolor
55 331 17.89 18.38 ellipse_path fill
1 setlinewidth
filled
0.54118 0.25098 1 nodecolor
55 331 17.89 18.38 ellipse_path stroke
0 0 0 nodecolor
14 /Times-Roman set_font
50 327.4 moveto 10 (2) alignedtext
grestore
% 1->2
gsave
1 setlinewidth
0 0 0 edgecolor
newpath 105.5 414.81 moveto
94.24 408.42 79.81 398.52 71 386 curveto
65.47 378.14 61.84 368.38 59.45 359.27 curveto
stroke
0 0 0 edgecolor
newpath 62.85 358.4 moveto
57.26 349.4 lineto
56.01 359.92 lineto
closepath fill
1 setlinewidth
solid
0 0 0 edgecolor
newpath 62.85 358.4 moveto
57.26 349.4 lineto
56.01 359.92 lineto
closepath stroke
0 0 0 edgecolor
14 /Times-Roman set_font
71 373.4 moveto 34 ([0,0]) alignedtext
grestore
% 3
gsave
0.023529 0.72157 1 nodecolor
183 271 17.98 18.38 ellipse_path fill
1 setlinewidth
filled
0.023529 0.72157 1 nodecolor
183 271 17.98 18.38 ellipse_path stroke
1 setlinewidth
filled
0.023529 0.72157 1 nodecolor
183 271 21.89 22.38 ellipse_path stroke
0 0 0 nodecolor
14 /Times-Roman set_font
178 267.4 moveto 10 (3) alignedtext
grestore
% 1->3
gsave
1 setlinewidth
0 0 0 edgecolor
newpath 130.02 406.16 moveto
132.94 399.87 136.2 392.65 139 386 curveto
150.84 357.85 163.17 325.3 171.75 302.04 curveto
stroke
0 0 0 edgecolor
newpath 175.14 302.95 moveto
175.3 292.36 lineto
168.57 300.54 lineto
closepath fill
1 setlinewidth
solid
0 0 0 edgecolor
newpath 175.14 302.95 moveto
175.3 292.36 lineto
168.57 300.54 lineto
closepath stroke
0 0 0 edgecolor
14 /Times-Roman set_font
146 373.4 moveto 34 ([1,0]) alignedtext
grestore
% 4
gsave
0.54118 0.25098 1 nodecolor
73 119 17.89 18.38 ellipse_path fill
1 setlinewidth
filled
0.54118 0.25098 1 nodecolor
73 119 17.89 18.38 ellipse_path stroke
0 0 0 nodecolor
14 /Times-Roman set_font
68 115.4 moveto 10 (4) alignedtext
grestore
% 1->4
gsave
1 setlinewidth
0 0 0 edgecolor
newpath 120.4 404.41 moveto
116.95 365.13 108.4 270.84 99 192 curveto
97.09 175.96 99.19 171.3 94 156 curveto
92.52 151.63 90.51 147.19 88.32 142.98 curveto
stroke
0 0 0 edgecolor
newpath 91.34 141.21 moveto
83.37 134.23 lineto
85.25 144.65 lineto
closepath fill
1 setlinewidth
solid
0 0 0 edgecolor
newpath 91.34 141.21 moveto
83.37 134.23 lineto
85.25 144.65 lineto
closepath stroke
0 0 0 edgecolor
14 /Times-Roman set_font
109 267.4 moveto 34 ([1,1]) alignedtext
grestore
% 5
gsave
0.54118 0.25098 1 nodecolor
18 211 17.89 18.38 ellipse_path fill
1 setlinewidth
filled
0.54118 0.25098 1 nodecolor
18 211 17.89 18.38 ellipse_path stroke
0 0 0 nodecolor
14 /Times-Roman set_font
13 207.4 moveto 10 (5) alignedtext
grestore
% 2->5
gsave
1 setlinewidth
0 0 0 edgecolor
newpath 49.54 313.29 moveto
43.47 293.62 33.6 261.6 26.52 238.62 curveto
stroke
0 0 0 edgecolor
newpath 29.77 237.3 moveto
23.48 228.78 lineto
23.08 239.37 lineto
closepath fill
1 setlinewidth
solid
0 0 0 edgecolor
newpath 29.77 237.3 moveto
23.48 228.78 lineto
23.08 239.37 lineto
closepath stroke
0 0 0 edgecolor
14 /Times-Roman set_font
43 267.4 moveto 34 ([1,0]) alignedtext
grestore
% 6
gsave
0.023529 0.72157 1 nodecolor
141 23 17.98 18.38 ellipse_path fill
1 setlinewidth
filled
0.023529 0.72157 1 nodecolor
141 23 17.98 18.38 ellipse_path stroke
1 setlinewidth
filled
0.023529 0.72157 1 nodecolor
141 23 21.89 22.38 ellipse_path stroke
0 0 0 nodecolor
14 /Times-Roman set_font
136 19.4 moveto 10 (6) alignedtext
grestore
% 3->6
gsave
1 setlinewidth
0 0 0 edgecolor
newpath 179.86 248.57 moveto
174.43 210.5 162.66 130.86 150 64 curveto
149.45 61.11 148.86 58.12 148.24 55.12 curveto
stroke
0 0 0 edgecolor
newpath 151.6 54.13 moveto
146.09 45.08 lineto
144.76 55.59 lineto
closepath fill
1 setlinewidth
solid
0 0 0 edgecolor
newpath 151.6 54.13 moveto
146.09 45.08 lineto
144.76 55.59 lineto
closepath stroke
0 0 0 edgecolor
14 /Times-Roman set_font
168 161.4 moveto 34 ([0,0]) alignedtext
grestore
% 4->4
gsave
1 setlinewidth
0 0 0 edgecolor
newpath 89.44 126.7 moveto
101.24 129.2 113 126.64 113 119 curveto
113 113.63 107.19 110.77 99.63 110.41 curveto
stroke
0 0 0 edgecolor
newpath 99.09 106.95 moveto
89.44 111.3 lineto
99.7 113.92 lineto
closepath fill
1 setlinewidth
solid
0 0 0 edgecolor
newpath 99.09 106.95 moveto
89.44 111.3 lineto
99.7 113.92 lineto
closepath stroke
0 0 0 edgecolor
14 /Times-Roman set_font
113 115.4 moveto 34 ([0,0]) alignedtext
grestore
% 4->5
gsave
1 setlinewidth
0 0 0 edgecolor
newpath 55.45 123.26 moveto
39.4 128.19 16.6 138.03 6 156 curveto
.71 164.96 1.9 175.99 5.09 185.81 curveto
stroke
0 0 0 edgecolor
newpath 1.84 187.1 moveto
8.78 195.1 lineto
8.34 184.52 lineto
closepath fill
1 setlinewidth
solid
0 0 0 edgecolor
newpath 1.84 187.1 moveto
8.78 195.1 lineto
8.34 184.52 lineto
closepath stroke
0 0 0 edgecolor
14 /Times-Roman set_font
6 161.4 moveto 34 ([0,1]) alignedtext
grestore
% 4->6
gsave
1 setlinewidth
0 0 0 edgecolor
newpath 83.63 104 moveto
93.9 89.5 109.69 67.21 122.1 49.68 curveto
stroke
0 0 0 edgecolor
newpath 124.96 51.69 moveto
127.89 41.51 lineto
119.25 47.65 lineto
closepath fill
1 setlinewidth
solid
0 0 0 edgecolor
newpath 124.96 51.69 moveto
127.89 41.51 lineto
119.25 47.65 lineto
closepath stroke
0 0 0 edgecolor
14 /Times-Roman set_font
111 69.4 moveto 34 ([1,1]) alignedtext
grestore
% 5->4
gsave
1 setlinewidth
0 0 0 edgecolor
newpath 29.33 196.61 moveto
34.38 189.91 40.26 181.73 45 174 curveto
50.58 164.92 56.05 154.59 60.65 145.36 curveto
stroke
0 0 0 edgecolor
newpath 63.86 146.75 moveto
65.1 136.23 lineto
57.57 143.68 lineto
closepath fill
1 setlinewidth
solid
0 0 0 edgecolor
newpath 63.86 146.75 moveto
65.1 136.23 lineto
57.57 143.68 lineto
closepath stroke
0 0 0 edgecolor
14 /Times-Roman set_font
55 161.4 moveto 34 ([1,0]) alignedtext
grestore
% 5->5
gsave
1 setlinewidth
0 0 0 edgecolor
newpath 34.44 218.7 moveto
46.24 221.2 58 218.64 58 211 curveto
58 205.63 52.19 202.77 44.63 202.41 curveto
stroke
0 0 0 edgecolor
newpath 44.09 198.95 moveto
34.44 203.3 lineto
44.7 205.92 lineto
closepath fill
1 setlinewidth
solid
0 0 0 edgecolor
newpath 44.09 198.95 moveto
34.44 203.3 lineto
44.7 205.92 lineto
closepath stroke
0 0 0 edgecolor
14 /Times-Roman set_font
58 207.4 moveto 34 ([1,1]) alignedtext
grestore
% 6->6
gsave
1 setlinewidth
0 0 0 edgecolor
newpath 161.37 31.79 moveto
173.54 33.74 185 30.81 185 23 curveto
185 17.45 179.21 14.36 171.49 13.74 curveto
stroke
0 0 0 edgecolor
newpath 171.19 10.25 moveto
161.37 14.21 lineto
171.52 17.24 lineto
closepath fill
1 setlinewidth
solid
0 0 0 edgecolor
newpath 171.19 10.25 moveto
161.37 14.21 lineto
171.52 17.24 lineto
closepath stroke
0 0 0 edgecolor
14 /Times-Roman set_font
185 19.4 moveto 34 ([0,1]) alignedtext
grestore
endpage
showpage
grestore
%%PageTrailer
%%EndPage: 1
%%Trailer
end
restore
%%EOF
