%!PS-Adobe-3.0 EPSF-3.0
%%Creator: graphviz version 2.26.3 (20100126.1600)
%%Title: FSA Utilities
%%Pages: 1
%%BoundingBox: 113 36 499 908
%%EndComments
save
%%BeginProlog
/DotDict 200 dict def
DotDict begin

/setupLatin1 {
mark
/EncodingVector 256 array def
 EncodingVector 0

ISOLatin1Encoding 0 255 getinterval putinterval
EncodingVector 45 /hyphen put

% Set up ISO Latin 1 character encoding
/starnetISO {
        dup dup findfont dup length dict begin
        { 1 index /FID ne { def }{ pop pop } ifelse
        } forall
        /Encoding EncodingVector def
        currentdict end definefont
} def
/Times-Roman starnetISO def
/Times-Italic starnetISO def
/Times-Bold starnetISO def
/Times-BoldItalic starnetISO def
/Helvetica starnetISO def
/Helvetica-Oblique starnetISO def
/Helvetica-Bold starnetISO def
/Helvetica-BoldOblique starnetISO def
/Courier starnetISO def
/Courier-Oblique starnetISO def
/Courier-Bold starnetISO def
/Courier-BoldOblique starnetISO def
cleartomark
} bind def

%%BeginResource: procset graphviz 0 0
/coord-font-family /Times-Roman def
/default-font-family /Times-Roman def
/coordfont coord-font-family findfont 8 scalefont def

/InvScaleFactor 1.0 def
/set_scale {
       dup 1 exch div /InvScaleFactor exch def
       scale
} bind def

% styles
/solid { [] 0 setdash } bind def
/dashed { [9 InvScaleFactor mul dup ] 0 setdash } bind def
/dotted { [1 InvScaleFactor mul 6 InvScaleFactor mul] 0 setdash } bind def
/invis {/fill {newpath} def /stroke {newpath} def /show {pop newpath} def} bind def
/bold { 2 setlinewidth } bind def
/filled { } bind def
/unfilled { } bind def
/rounded { } bind def
/diagonals { } bind def

% hooks for setting color 
/nodecolor { sethsbcolor } bind def
/edgecolor { sethsbcolor } bind def
/graphcolor { sethsbcolor } bind def
/nopcolor {pop pop pop} bind def

/beginpage {	% i j npages
	/npages exch def
	/j exch def
	/i exch def
	/str 10 string def
	npages 1 gt {
		gsave
			coordfont setfont
			0 0 moveto
			(\() show i str cvs show (,) show j str cvs show (\)) show
		grestore
	} if
} bind def

/set_font {
	findfont exch
	scalefont setfont
} def

% draw text fitted to its expected width
/alignedtext {			% width text
	/text exch def
	/width exch def
	gsave
		width 0 gt {
			[] 0 setdash
			text stringwidth pop width exch sub text length div 0 text ashow
		} if
	grestore
} def

/boxprim {				% xcorner ycorner xsize ysize
		4 2 roll
		moveto
		2 copy
		exch 0 rlineto
		0 exch rlineto
		pop neg 0 rlineto
		closepath
} bind def

/ellipse_path {
	/ry exch def
	/rx exch def
	/y exch def
	/x exch def
	matrix currentmatrix
	newpath
	x y translate
	rx ry scale
	0 0 1 0 360 arc
	setmatrix
} bind def

/endpage { showpage } bind def
/showpage { } def

/layercolorseq
	[	% layer color sequence - darkest to lightest
		[0 0 0]
		[.2 .8 .8]
		[.4 .8 .8]
		[.6 .8 .8]
		[.8 .8 .8]
	]
def

/layerlen layercolorseq length def

/setlayer {/maxlayer exch def /curlayer exch def
	layercolorseq curlayer 1 sub layerlen mod get
	aload pop sethsbcolor
	/nodecolor {nopcolor} def
	/edgecolor {nopcolor} def
	/graphcolor {nopcolor} def
} bind def

/onlayer { curlayer ne {invis} if } def

/onlayers {
	/myupper exch def
	/mylower exch def
	curlayer mylower lt
	curlayer myupper gt
	or
	{invis} if
} def

/curlayer 0 def

%%EndResource
%%EndProlog
%%BeginSetup
14 default-font-family set_font
1 setmiterlimit
% /arrowlength 10 def
% /arrowwidth 5 def

% make sure pdfmark is harmless for PS-interpreters other than Distiller
/pdfmark where {pop} {userdict /pdfmark /cleartomark load put} ifelse
% make '<<' and '>>' safe on PS Level 1 devices
/languagelevel where {pop languagelevel}{1} ifelse
2 lt {
    userdict (<<) cvn ([) cvn load put
    userdict (>>) cvn ([) cvn load put
} if

%%EndSetup
setupLatin1
%%Page: 1 1
%%PageBoundingBox: 113 36 499 908
%%PageOrientation: Portrait
0 0 1 beginpage
gsave
113 36 386 872 boxprim clip newpath
1 1 set_scale 0 rotate 117 41 translate
% start0
gsave
grestore
% 0
gsave
0.83922 0.48235 0.8549 nodecolor
129 767 17.98 18.38 ellipse_path fill
1 setlinewidth
filled
0.83922 0.48235 0.8549 nodecolor
129 767 17.98 18.38 ellipse_path stroke
1 setlinewidth
filled
0.83922 0.48235 0.8549 nodecolor
129 767 21.89 22.38 ellipse_path stroke
0 0 0 nodecolor
14 /Times-Roman set_font
124 763.4 moveto 10 (0) alignedtext
grestore
% start0->0
gsave
1 setlinewidth
0 0 0 edgecolor
newpath 129 827.68 moveto
129 819.38 129 809.3 129 799.77 curveto
stroke
0 0 0 edgecolor
newpath 132.5 799.74 moveto
129 789.74 lineto
125.5 799.74 lineto
closepath fill
1 setlinewidth
solid
0 0 0 edgecolor
newpath 132.5 799.74 moveto
129 789.74 lineto
125.5 799.74 lineto
closepath stroke
grestore
% 0->0
gsave
1 setlinewidth
0 0 0 edgecolor
newpath 149.82 774.44 moveto
161.83 775.96 173 773.48 173 767 curveto
173 762.44 167.48 759.86 160.02 759.26 curveto
stroke
0 0 0 edgecolor
newpath 159.72 755.77 moveto
149.82 759.56 lineto
159.92 762.77 lineto
closepath fill
1 setlinewidth
solid
0 0 0 edgecolor
newpath 159.72 755.77 moveto
149.82 759.56 lineto
159.92 762.77 lineto
closepath stroke
0 0 0 edgecolor
14 /Times-Roman set_font
173 763.4 moveto 34 ([0,0]) alignedtext
grestore
% 1
gsave
0.54118 0.25098 1 nodecolor
129 671 17.89 18.38 ellipse_path fill
1 setlinewidth
filled
0.54118 0.25098 1 nodecolor
129 671 17.89 18.38 ellipse_path stroke
0 0 0 nodecolor
14 /Times-Roman set_font
124 667.4 moveto 10 (1) alignedtext
grestore
% 0->1
gsave
1 setlinewidth
0 0 0 edgecolor
newpath 129 744.25 moveto
129 730.99 129 714.15 129 699.95 curveto
stroke
0 0 0 edgecolor
newpath 132.5 699.72 moveto
129 689.72 lineto
125.5 699.72 lineto
closepath fill
1 setlinewidth
solid
0 0 0 edgecolor
newpath 132.5 699.72 moveto
129 689.72 lineto
125.5 699.72 lineto
closepath stroke
0 0 0 edgecolor
14 /Times-Roman set_font
129 713.4 moveto 34 ([0,1]) alignedtext
grestore
% 2
gsave
0.54118 0.25098 1 nodecolor
99 579 17.89 18.38 ellipse_path fill
1 setlinewidth
filled
0.54118 0.25098 1 nodecolor
99 579 17.89 18.38 ellipse_path stroke
0 0 0 nodecolor
14 /Times-Roman set_font
94 575.4 moveto 10 (2) alignedtext
grestore
% 1->2
gsave
1 setlinewidth
0 0 0 edgecolor
newpath 116.94 656.81 moveto
112.07 650.28 106.92 642.18 104 634 curveto
101.05 625.72 99.57 616.31 98.89 607.65 curveto
stroke
0 0 0 edgecolor
newpath 102.38 607.4 moveto
98.4 597.58 lineto
95.39 607.73 lineto
closepath fill
1 setlinewidth
solid
0 0 0 edgecolor
newpath 102.38 607.4 moveto
98.4 597.58 lineto
95.39 607.73 lineto
closepath stroke
0 0 0 edgecolor
14 /Times-Roman set_font
104 621.4 moveto 34 ([0,0]) alignedtext
grestore
% 3
gsave
0.54118 0.25098 1 nodecolor
219 579 17.89 18.38 ellipse_path fill
1 setlinewidth
filled
0.54118 0.25098 1 nodecolor
219 579 17.89 18.38 ellipse_path stroke
0 0 0 nodecolor
14 /Times-Roman set_font
214 575.4 moveto 10 (3) alignedtext
grestore
% 1->3
gsave
1 setlinewidth
0 0 0 edgecolor
newpath 143.43 659.52 moveto
152.01 652.47 162.96 643.07 172 634 curveto
182.21 623.75 192.75 611.59 201.26 601.31 curveto
stroke
0 0 0 edgecolor
newpath 203.98 603.5 moveto
207.59 593.54 lineto
198.56 599.08 lineto
closepath fill
1 setlinewidth
solid
0 0 0 edgecolor
newpath 203.98 603.5 moveto
207.59 593.54 lineto
198.56 599.08 lineto
closepath stroke
0 0 0 edgecolor
14 /Times-Roman set_font
188 621.4 moveto 34 ([0,1]) alignedtext
grestore
% 4
gsave
0.023529 0.72157 1 nodecolor
22 519 17.98 18.38 ellipse_path fill
1 setlinewidth
filled
0.023529 0.72157 1 nodecolor
22 519 17.98 18.38 ellipse_path stroke
1 setlinewidth
filled
0.023529 0.72157 1 nodecolor
22 519 21.89 22.38 ellipse_path stroke
0 0 0 nodecolor
14 /Times-Roman set_font
17 515.4 moveto 10 (4) alignedtext
grestore
% 1->4
gsave
1 setlinewidth
0 0 0 edgecolor
newpath 111.58 665.8 moveto
95.99 660.29 73.55 650.13 60 634 curveto
40.35 610.62 30.77 576.75 26.15 551.82 curveto
stroke
0 0 0 edgecolor
newpath 29.57 551.02 moveto
24.46 541.74 lineto
22.66 552.18 lineto
closepath fill
1 setlinewidth
solid
0 0 0 edgecolor
newpath 29.57 551.02 moveto
24.46 541.74 lineto
22.66 552.18 lineto
closepath stroke
0 0 0 edgecolor
14 /Times-Roman set_font
60 621.4 moveto 34 ([1,0]) alignedtext
grestore
% 5
gsave
0.54118 0.25098 1 nodecolor
153 291 17.89 18.38 ellipse_path fill
1 setlinewidth
filled
0.54118 0.25098 1 nodecolor
153 291 17.89 18.38 ellipse_path stroke
0 0 0 nodecolor
14 /Times-Roman set_font
148 287.4 moveto 10 (5) alignedtext
grestore
% 1->5
gsave
1 setlinewidth
0 0 0 edgecolor
newpath 136.8 654.11 moveto
144.46 635.95 155 606.05 155 579 curveto
155 579 155 579 155 403 curveto
155 374.76 154.36 342.51 153.8 319.9 curveto
stroke
0 0 0 edgecolor
newpath 157.29 319.53 moveto
153.54 309.63 lineto
150.29 319.71 lineto
closepath fill
1 setlinewidth
solid
0 0 0 edgecolor
newpath 157.29 319.53 moveto
153.54 309.63 lineto
150.29 319.71 lineto
closepath stroke
0 0 0 edgecolor
14 /Times-Roman set_font
155 515.4 moveto 34 ([1,1]) alignedtext
grestore
% 6
gsave
0.54118 0.25098 1 nodecolor
68 403 17.89 18.38 ellipse_path fill
1 setlinewidth
filled
0.54118 0.25098 1 nodecolor
68 403 17.89 18.38 ellipse_path stroke
0 0 0 nodecolor
14 /Times-Roman set_font
63 399.4 moveto 10 (6) alignedtext
grestore
% 2->6
gsave
1 setlinewidth
0 0 0 edgecolor
newpath 95.74 560.5 moveto
90.31 529.65 79.37 467.53 72.97 431.2 curveto
stroke
0 0 0 edgecolor
newpath 76.4 430.5 moveto
71.22 421.25 lineto
69.5 431.71 lineto
closepath fill
1 setlinewidth
solid
0 0 0 edgecolor
newpath 76.4 430.5 moveto
71.22 421.25 lineto
69.5 431.71 lineto
closepath stroke
0 0 0 edgecolor
14 /Times-Roman set_font
92 515.4 moveto 34 ([1,0]) alignedtext
grestore
% 7
gsave
0.54118 0.25098 1 nodecolor
219 459 17.89 18.38 ellipse_path fill
1 setlinewidth
filled
0.54118 0.25098 1 nodecolor
219 459 17.89 18.38 ellipse_path stroke
0 0 0 nodecolor
14 /Times-Roman set_font
214 455.4 moveto 10 (7) alignedtext
grestore
% 3->7
gsave
1 setlinewidth
0 0 0 edgecolor
newpath 219 560.25 moveto
219 540.88 219 510.38 219 487.92 curveto
stroke
0 0 0 edgecolor
newpath 222.5 487.62 moveto
219 477.62 lineto
215.5 487.62 lineto
closepath fill
1 setlinewidth
solid
0 0 0 edgecolor
newpath 222.5 487.62 moveto
219 477.62 lineto
215.5 487.62 lineto
closepath stroke
0 0 0 edgecolor
14 /Times-Roman set_font
219 515.4 moveto 34 ([1,0]) alignedtext
grestore
% 8
gsave
0.54118 0.25098 1 nodecolor
288 347 17.89 18.38 ellipse_path fill
1 setlinewidth
filled
0.54118 0.25098 1 nodecolor
288 347 17.89 18.38 ellipse_path stroke
0 0 0 nodecolor
14 /Times-Roman set_font
283 343.4 moveto 10 (8) alignedtext
grestore
% 3->8
gsave
1 setlinewidth
0 0 0 edgecolor
newpath 233.26 567.49 moveto
253.06 550.44 287.79 516.34 300 478 curveto
312.68 438.18 309.52 425.11 302 384 curveto
301.36 380.52 300.41 376.94 299.31 373.44 curveto
stroke
0 0 0 edgecolor
newpath 302.57 372.17 moveto
295.88 363.95 lineto
295.98 374.54 lineto
closepath fill
1 setlinewidth
solid
0 0 0 edgecolor
newpath 302.57 372.17 moveto
295.88 363.95 lineto
295.98 374.54 lineto
closepath stroke
0 0 0 edgecolor
14 /Times-Roman set_font
308 455.4 moveto 34 ([1,1]) alignedtext
grestore
% 9
gsave
0.023529 0.72157 1 nodecolor
108 23 17.98 18.38 ellipse_path fill
1 setlinewidth
filled
0.023529 0.72157 1 nodecolor
108 23 17.98 18.38 ellipse_path stroke
1 setlinewidth
filled
0.023529 0.72157 1 nodecolor
108 23 21.89 22.38 ellipse_path stroke
0 0 0 nodecolor
14 /Times-Roman set_font
103 19.4 moveto 10 (9) alignedtext
grestore
% 4->9
gsave
1 setlinewidth
0 0 0 edgecolor
newpath 20.76 496.34 moveto
19.58 472.96 18 435.44 18 403 curveto
18 403 18 403 18 125 curveto
18 87.02 53.52 56.51 79.93 39.06 curveto
stroke
0 0 0 edgecolor
newpath 81.89 41.96 moveto
88.47 33.66 lineto
78.15 36.05 lineto
closepath fill
1 setlinewidth
solid
0 0 0 edgecolor
newpath 81.89 41.96 moveto
88.47 33.66 lineto
78.15 36.05 lineto
closepath stroke
0 0 0 edgecolor
14 /Times-Roman set_font
18 287.4 moveto 34 ([0,1]) alignedtext
grestore
% 10
gsave
0.54118 0.25098 1 nodecolor
171 125 24.24 24.75 ellipse_path fill
1 setlinewidth
filled
0.54118 0.25098 1 nodecolor
171 125 24.24 24.75 ellipse_path stroke
0 0 0 nodecolor
14 /Times-Roman set_font
161.5 121.4 moveto 19 (10) alignedtext
grestore
% 5->10
gsave
1 setlinewidth
0 0 0 edgecolor
newpath 155 272.6 moveto
157.95 245.37 163.53 193.85 167.26 159.46 curveto
stroke
0 0 0 edgecolor
newpath 170.76 159.71 moveto
168.36 149.39 lineto
163.8 158.95 lineto
closepath fill
1 setlinewidth
solid
0 0 0 edgecolor
newpath 170.76 159.71 moveto
168.36 149.39 lineto
163.8 158.95 lineto
closepath stroke
0 0 0 edgecolor
14 /Times-Roman set_font
162 225.4 moveto 34 ([0,1]) alignedtext
grestore
% 6->6
gsave
1 setlinewidth
0 0 0 edgecolor
newpath 84.02 412.26 moveto
95.96 415.49 108 412.41 108 403 curveto
108 396.31 101.92 392.82 94.11 392.52 curveto
stroke
0 0 0 edgecolor
newpath 93.53 389.07 moveto
84.02 393.74 lineto
94.37 396.01 lineto
closepath fill
1 setlinewidth
solid
0 0 0 edgecolor
newpath 93.53 389.07 moveto
84.02 393.74 lineto
94.37 396.01 lineto
closepath stroke
0 0 0 edgecolor
14 /Times-Roman set_font
108 399.4 moveto 34 ([0,0]) alignedtext
grestore
% 6->9
gsave
1 setlinewidth
0 0 0 edgecolor
newpath 69.61 384.39 moveto
71.39 362.18 74 323.91 74 291 curveto
74 291 74 291 74 125 curveto
74 99.33 83.81 71.81 92.89 51.83 curveto
stroke
0 0 0 edgecolor
newpath 96.11 53.21 moveto
97.24 42.67 lineto
89.79 50.2 lineto
closepath fill
1 setlinewidth
solid
0 0 0 edgecolor
newpath 96.11 53.21 moveto
97.24 42.67 lineto
89.79 50.2 lineto
closepath stroke
0 0 0 edgecolor
14 /Times-Roman set_font
74 225.4 moveto 34 ([1,0]) alignedtext
grestore
% 7->7
gsave
1 setlinewidth
0 0 0 edgecolor
newpath 235.02 468.26 moveto
246.96 471.49 259 468.41 259 459 curveto
259 452.31 252.92 448.82 245.11 448.52 curveto
stroke
0 0 0 edgecolor
newpath 244.53 445.07 moveto
235.02 449.74 lineto
245.37 452.01 lineto
closepath fill
1 setlinewidth
solid
0 0 0 edgecolor
newpath 244.53 445.07 moveto
235.02 449.74 lineto
245.37 452.01 lineto
closepath stroke
0 0 0 edgecolor
14 /Times-Roman set_font
259 455.4 moveto 34 ([0,0]) alignedtext
grestore
% 7->8
gsave
1 setlinewidth
0 0 0 edgecolor
newpath 228.89 442.95 moveto
240.43 424.22 259.64 393.03 273.02 371.32 curveto
stroke
0 0 0 edgecolor
newpath 276.09 373.01 moveto
278.35 362.66 lineto
270.13 369.33 lineto
closepath fill
1 setlinewidth
solid
0 0 0 edgecolor
newpath 276.09 373.01 moveto
278.35 362.66 lineto
270.13 369.33 lineto
closepath stroke
0 0 0 edgecolor
14 /Times-Roman set_font
263 399.4 moveto 34 ([0,1]) alignedtext
grestore
% 7->10
gsave
1 setlinewidth
0 0 0 edgecolor
newpath 219.53 440.49 moveto
220.34 398.1 220.13 290.9 201 204 curveto
197.46 187.93 191.27 170.79 185.42 156.59 curveto
stroke
0 0 0 edgecolor
newpath 188.6 155.11 moveto
181.47 147.28 lineto
182.16 157.85 lineto
closepath fill
1 setlinewidth
solid
0 0 0 edgecolor
newpath 188.6 155.11 moveto
181.47 147.28 lineto
182.16 157.85 lineto
closepath stroke
0 0 0 edgecolor
14 /Times-Roman set_font
215 287.4 moveto 34 ([1,1]) alignedtext
grestore
% 8->8
gsave
1 setlinewidth
0 0 0 edgecolor
newpath 304.02 356.26 moveto
315.96 359.49 328 356.41 328 347 curveto
328 340.31 321.92 336.82 314.11 336.52 curveto
stroke
0 0 0 edgecolor
newpath 313.53 333.07 moveto
304.02 337.74 lineto
314.37 340.01 lineto
closepath fill
1 setlinewidth
solid
0 0 0 edgecolor
newpath 313.53 333.07 moveto
304.02 337.74 lineto
314.37 340.01 lineto
closepath stroke
0 0 0 edgecolor
14 /Times-Roman set_font
328 343.4 moveto 34 ([1,1]) alignedtext
grestore
% 11
gsave
0.54118 0.25098 1 nodecolor
298 229 24.24 24.75 ellipse_path fill
1 setlinewidth
filled
0.54118 0.25098 1 nodecolor
298 229 24.24 24.75 ellipse_path stroke
0 0 0 nodecolor
14 /Times-Roman set_font
288.5 225.4 moveto 19 (11) alignedtext
grestore
% 8->11
gsave
1 setlinewidth
0 0 0 edgecolor
newpath 283.51 328.98 moveto
280.36 313.71 277.33 291.27 281 272 curveto
281.7 268.31 282.72 264.54 283.9 260.83 curveto
stroke
0 0 0 edgecolor
newpath 287.24 261.88 moveto
287.35 251.28 lineto
280.66 259.5 lineto
closepath fill
1 setlinewidth
solid
0 0 0 edgecolor
newpath 287.24 261.88 moveto
287.35 251.28 lineto
280.66 259.5 lineto
closepath stroke
0 0 0 edgecolor
14 /Times-Roman set_font
281 287.4 moveto 34 ([1,0]) alignedtext
grestore
% 10->9
gsave
1 setlinewidth
0 0 0 edgecolor
newpath 157.95 103.87 moveto
148.46 88.5 135.52 67.56 125.19 50.84 curveto
stroke
0 0 0 edgecolor
newpath 127.99 48.71 moveto
119.76 42.04 lineto
122.04 52.39 lineto
closepath fill
1 setlinewidth
solid
0 0 0 edgecolor
newpath 127.99 48.71 moveto
119.76 42.04 lineto
122.04 52.39 lineto
closepath stroke
0 0 0 edgecolor
14 /Times-Roman set_font
143 69.4 moveto 34 ([0,0]) alignedtext
grestore
% 10->10
gsave
1 setlinewidth
0 0 0 edgecolor
newpath 193.25 134.28 moveto
205.61 136.02 217 132.92 217 125 curveto
217 119.37 211.24 116.18 203.47 115.42 curveto
stroke
0 0 0 edgecolor
newpath 203.14 111.93 moveto
193.25 115.72 lineto
203.34 118.93 lineto
closepath fill
1 setlinewidth
solid
0 0 0 edgecolor
newpath 203.14 111.93 moveto
193.25 115.72 lineto
203.34 118.93 lineto
closepath stroke
0 0 0 edgecolor
14 /Times-Roman set_font
217 121.4 moveto 34 ([0,1]) alignedtext
grestore
% 11->8
gsave
1 setlinewidth
0 0 0 edgecolor
newpath 311.06 249.66 moveto
314.7 256.5 318.15 264.34 320 272 curveto
323.96 288.42 325.89 294.17 320 310 curveto
317.63 316.37 313.61 322.38 309.21 327.62 curveto
stroke
0 0 0 edgecolor
newpath 306.42 325.48 moveto
302.15 335.18 lineto
311.53 330.26 lineto
closepath fill
1 setlinewidth
solid
0 0 0 edgecolor
newpath 306.42 325.48 moveto
302.15 335.18 lineto
311.53 330.26 lineto
closepath stroke
0 0 0 edgecolor
14 /Times-Roman set_font
323 287.4 moveto 34 ([0,1]) alignedtext
grestore
% 11->9
gsave
1 setlinewidth
0 0 0 edgecolor
newpath 297.61 204.27 moveto
296.92 193.03 295.36 179.66 292 168 curveto
282.63 135.53 281.77 124.02 258 100 curveto
224.13 65.77 171.86 43.74 138.82 32.36 curveto
stroke
0 0 0 edgecolor
newpath 139.82 29.01 moveto
129.22 29.17 lineto
137.61 35.65 lineto
closepath fill
1 setlinewidth
solid
0 0 0 edgecolor
newpath 139.82 29.01 moveto
129.22 29.17 lineto
137.61 35.65 lineto
closepath stroke
0 0 0 edgecolor
14 /Times-Roman set_font
286 121.4 moveto 34 ([1,0]) alignedtext
grestore
% 11->10
gsave
1 setlinewidth
0 0 0 edgecolor
newpath 280.98 211.7 moveto
268.22 199.08 250.09 181.82 233 168 curveto
222.58 159.57 210.58 151.01 199.93 143.77 curveto
stroke
0 0 0 edgecolor
newpath 201.62 140.69 moveto
191.37 138.03 lineto
197.72 146.5 lineto
closepath fill
1 setlinewidth
solid
0 0 0 edgecolor
newpath 201.62 140.69 moveto
191.37 138.03 lineto
197.72 146.5 lineto
closepath stroke
0 0 0 edgecolor
14 /Times-Roman set_font
253 173.4 moveto 34 ([1,1]) alignedtext
grestore
% 11->11
gsave
1 setlinewidth
0 0 0 edgecolor
newpath 320.25 238.28 moveto
332.61 240.02 344 236.92 344 229 curveto
344 223.37 338.24 220.18 330.47 219.42 curveto
stroke
0 0 0 edgecolor
newpath 330.14 215.93 moveto
320.25 219.72 lineto
330.34 222.93 lineto
closepath fill
1 setlinewidth
solid
0 0 0 edgecolor
newpath 330.14 215.93 moveto
320.25 219.72 lineto
330.34 222.93 lineto
closepath stroke
0 0 0 edgecolor
14 /Times-Roman set_font
344 225.4 moveto 34 ([0,0]) alignedtext
grestore
endpage
showpage
grestore
%%PageTrailer
%%EndPage: 1
%%Trailer
end
restore
%%EOF
