%!PS-Adobe-3.0 EPSF-3.0
%%Creator: graphviz version 2.36.0 (20140111.2315)
%%Title: FSA Utilities
%%Pages: 1
%%BoundingBox: 148 153 464 639
%%EndComments
save
%%BeginProlog
/DotDict 200 dict def
DotDict begin

/setupLatin1 {
mark
/EncodingVector 256 array def
 EncodingVector 0

ISOLatin1Encoding 0 255 getinterval putinterval
EncodingVector 45 /hyphen put

% Set up ISO Latin 1 character encoding
/starnetISO {
        dup dup findfont dup length dict begin
        { 1 index /FID ne { def }{ pop pop } ifelse
        } forall
        /Encoding EncodingVector def
        currentdict end definefont
} def
/Times-Roman starnetISO def
/Times-Italic starnetISO def
/Times-Bold starnetISO def
/Times-BoldItalic starnetISO def
/Helvetica starnetISO def
/Helvetica-Oblique starnetISO def
/Helvetica-Bold starnetISO def
/Helvetica-BoldOblique starnetISO def
/Courier starnetISO def
/Courier-Oblique starnetISO def
/Courier-Bold starnetISO def
/Courier-BoldOblique starnetISO def
cleartomark
} bind def

%%BeginResource: procset graphviz 0 0
/coord-font-family /Times-Roman def
/default-font-family /Times-Roman def
/coordfont coord-font-family findfont 8 scalefont def

/InvScaleFactor 1.0 def
/set_scale {
       dup 1 exch div /InvScaleFactor exch def
       scale
} bind def

% styles
/solid { [] 0 setdash } bind def
/dashed { [9 InvScaleFactor mul dup ] 0 setdash } bind def
/dotted { [1 InvScaleFactor mul 6 InvScaleFactor mul] 0 setdash } bind def
/invis {/fill {newpath} def /stroke {newpath} def /show {pop newpath} def} bind def
/bold { 2 setlinewidth } bind def
/filled { } bind def
/unfilled { } bind def
/rounded { } bind def
/diagonals { } bind def
/tapered { } bind def

% hooks for setting color 
/nodecolor { sethsbcolor } bind def
/edgecolor { sethsbcolor } bind def
/graphcolor { sethsbcolor } bind def
/nopcolor {pop pop pop} bind def

/beginpage {	% i j npages
	/npages exch def
	/j exch def
	/i exch def
	/str 10 string def
	npages 1 gt {
		gsave
			coordfont setfont
			0 0 moveto
			(\() show i str cvs show (,) show j str cvs show (\)) show
		grestore
	} if
} bind def

/set_font {
	findfont exch
	scalefont setfont
} def

% draw text fitted to its expected width
/alignedtext {			% width text
	/text exch def
	/width exch def
	gsave
		width 0 gt {
			[] 0 setdash
			text stringwidth pop width exch sub text length div 0 text ashow
		} if
	grestore
} def

/boxprim {				% xcorner ycorner xsize ysize
		4 2 roll
		moveto
		2 copy
		exch 0 rlineto
		0 exch rlineto
		pop neg 0 rlineto
		closepath
} bind def

/ellipse_path {
	/ry exch def
	/rx exch def
	/y exch def
	/x exch def
	matrix currentmatrix
	newpath
	x y translate
	rx ry scale
	0 0 1 0 360 arc
	setmatrix
} bind def

/endpage { showpage } bind def
/showpage { } def

/layercolorseq
	[	% layer color sequence - darkest to lightest
		[0 0 0]
		[.2 .8 .8]
		[.4 .8 .8]
		[.6 .8 .8]
		[.8 .8 .8]
	]
def

/layerlen layercolorseq length def

/setlayer {/maxlayer exch def /curlayer exch def
	layercolorseq curlayer 1 sub layerlen mod get
	aload pop sethsbcolor
	/nodecolor {nopcolor} def
	/edgecolor {nopcolor} def
	/graphcolor {nopcolor} def
} bind def

/onlayer { curlayer ne {invis} if } def

/onlayers {
	/myupper exch def
	/mylower exch def
	curlayer mylower lt
	curlayer myupper gt
	or
	{invis} if
} def

/curlayer 0 def

%%EndResource
%%EndProlog
%%BeginSetup
14 default-font-family set_font
1 setmiterlimit
% /arrowlength 10 def
% /arrowwidth 5 def

% make sure pdfmark is harmless for PS-interpreters other than Distiller
/pdfmark where {pop} {userdict /pdfmark /cleartomark load put} ifelse
% make '<<' and '>>' safe on PS Level 1 devices
/languagelevel where {pop languagelevel}{1} ifelse
2 lt {
    userdict (<<) cvn ([) cvn load put
    userdict (>>) cvn ([) cvn load put
} if

%%EndSetup
setupLatin1
%%Page: 1 1
%%PageBoundingBox: 148 153 464 639
%%PageOrientation: Portrait
0 0 1 beginpage
gsave
148 153 316 486 boxprim clip newpath
1 1 set_scale 0 rotate 152 157 translate
% start0
gsave
grestore
% 0
gsave
0.83922 0.48235 0.8549 nodecolor
88 382 17.59 18 ellipse_path fill
1 setlinewidth
filled
0.83922 0.48235 0.8549 nodecolor
88 382 17.59 18 ellipse_path stroke
1 setlinewidth
filled
0.83922 0.48235 0.8549 nodecolor
88 382 21.5 22 ellipse_path stroke
0 0 0 nodecolor
14 /Times-Roman set_font
84.5 378.3 moveto 7 (0) alignedtext
grestore
% start0->0
gsave
1 setlinewidth
0 0 0 edgecolor
newpath 88 441.75 moveto
88 433.67 88 423.78 88 414.44 curveto
stroke
0 0 0 edgecolor
newpath 91.5 414.25 moveto
88 404.25 lineto
84.5 414.25 lineto
closepath fill
1 setlinewidth
solid
0 0 0 edgecolor
newpath 91.5 414.25 moveto
88 404.25 lineto
84.5 414.25 lineto
closepath stroke
grestore
% 0->0
gsave
1 setlinewidth
0 0 0 edgecolor
newpath 108.8 389.14 moveto
120.35 390.47 131 388.09 131 382 curveto
131 377.81 125.97 375.38 119.07 374.7 curveto
stroke
0 0 0 edgecolor
newpath 118.74 371.2 moveto
108.8 374.86 lineto
118.85 378.2 lineto
closepath fill
1 setlinewidth
solid
0 0 0 edgecolor
newpath 118.74 371.2 moveto
108.8 374.86 lineto
118.85 378.2 lineto
closepath stroke
0 0 0 edgecolor
14 /Times-Roman set_font
131 378.3 moveto 27 ([0,0]) alignedtext
grestore
% 1
gsave
0.54118 0.25098 1 nodecolor
243 290 18 18 ellipse_path fill
1 setlinewidth
filled
0.54118 0.25098 1 nodecolor
243 290 18 18 ellipse_path stroke
0 0 0 nodecolor
14 /Times-Roman set_font
239.5 286.3 moveto 7 (1) alignedtext
grestore
% 0->1
gsave
1 setlinewidth
0 0 0 edgecolor
newpath 106.39 370.32 moveto
134.44 354.03 187.93 322.98 219 304.93 curveto
stroke
0 0 0 edgecolor
newpath 220.99 307.83 moveto
227.88 299.78 lineto
217.47 301.78 lineto
closepath fill
1 setlinewidth
solid
0 0 0 edgecolor
newpath 220.99 307.83 moveto
227.88 299.78 lineto
217.47 301.78 lineto
closepath stroke
0 0 0 edgecolor
14 /Times-Roman set_font
179 330.3 moveto 27 ([0,1]) alignedtext
grestore
% 2
gsave
0.54118 0.25098 1 nodecolor
88 290 18 18 ellipse_path fill
1 setlinewidth
filled
0.54118 0.25098 1 nodecolor
88 290 18 18 ellipse_path stroke
0 0 0 nodecolor
14 /Times-Roman set_font
84.5 286.3 moveto 7 (2) alignedtext
grestore
% 0->2
gsave
1 setlinewidth
0 0 0 edgecolor
newpath 88 359.67 moveto
88 347.28 88 331.55 88 318.27 curveto
stroke
0 0 0 edgecolor
newpath 91.5 318.26 moveto
88 308.26 lineto
84.5 318.26 lineto
closepath fill
1 setlinewidth
solid
0 0 0 edgecolor
newpath 91.5 318.26 moveto
88 308.26 lineto
84.5 318.26 lineto
closepath stroke
0 0 0 edgecolor
14 /Times-Roman set_font
88 330.3 moveto 27 ([0,2]) alignedtext
grestore
% 3
gsave
0.023529 0.72157 1 nodecolor
126 22 17.59 18 ellipse_path fill
1 setlinewidth
filled
0.023529 0.72157 1 nodecolor
126 22 17.59 18 ellipse_path stroke
1 setlinewidth
filled
0.023529 0.72157 1 nodecolor
126 22 21.5 22 ellipse_path stroke
0 0 0 nodecolor
14 /Times-Roman set_font
122.5 18.3 moveto 7 (3) alignedtext
grestore
% 0->3
gsave
1 setlinewidth
0 0 0 edgecolor
newpath 68.47 371.86 moveto
42.54 358.21 0 329.9 0 291 curveto
0 291 0 291 0 113 curveto
0 66.31 57.99 41.55 95.29 30.45 curveto
stroke
0 0 0 edgecolor
newpath 96.51 33.74 moveto
105.19 27.68 lineto
94.62 27 lineto
closepath fill
1 setlinewidth
solid
0 0 0 edgecolor
newpath 96.51 33.74 moveto
105.19 27.68 lineto
94.62 27 lineto
closepath stroke
0 0 0 edgecolor
14 /Times-Roman set_font
0 198.3 moveto 27 ([1,2]) alignedtext
grestore
% 1->3
gsave
1 setlinewidth
0 0 0 edgecolor
newpath 253.99 275.51 moveto
263.89 262.3 277.54 241.14 282 220 curveto
288.97 186.95 271.51 96.72 271 96 curveto
243.98 57.7 190.88 38.36 156.98 29.5 curveto
stroke
0 0 0 edgecolor
newpath 157.67 26.07 moveto
147.13 27.08 lineto
156 32.87 lineto
closepath fill
1 setlinewidth
solid
0 0 0 edgecolor
newpath 157.67 26.07 moveto
147.13 27.08 lineto
156 32.87 lineto
closepath stroke
0 0 0 edgecolor
14 /Times-Roman set_font
281 154.3 moveto 27 ([2,2]) alignedtext
grestore
% 4
gsave
0.54118 0.25098 1 nodecolor
138 202 18 18 ellipse_path fill
1 setlinewidth
filled
0.54118 0.25098 1 nodecolor
138 202 18 18 ellipse_path stroke
0 0 0 nodecolor
14 /Times-Roman set_font
134.5 198.3 moveto 7 (4) alignedtext
grestore
% 1->4
gsave
1 setlinewidth
0 0 0 edgecolor
newpath 229.27 277.76 moveto
211.59 263.27 180.64 237.92 159.74 220.8 curveto
stroke
0 0 0 edgecolor
newpath 161.68 217.87 moveto
151.73 214.25 lineto
157.25 223.29 lineto
closepath fill
1 setlinewidth
solid
0 0 0 edgecolor
newpath 161.68 217.87 moveto
151.73 214.25 lineto
157.25 223.29 lineto
closepath stroke
0 0 0 edgecolor
14 /Times-Roman set_font
199 242.3 moveto 27 ([1,1]) alignedtext
grestore
% 5
gsave
0.54118 0.25098 1 nodecolor
167 114 18 18 ellipse_path fill
1 setlinewidth
filled
0.54118 0.25098 1 nodecolor
167 114 18 18 ellipse_path stroke
0 0 0 nodecolor
14 /Times-Roman set_font
163.5 110.3 moveto 7 (5) alignedtext
grestore
% 1->5
gsave
1 setlinewidth
0 0 0 edgecolor
newpath 246.79 272.13 moveto
250.76 250.64 254.81 212.82 242 184 curveto
231.53 160.46 208.71 141.37 190.97 129.29 curveto
stroke
0 0 0 edgecolor
newpath 192.54 126.14 moveto
182.25 123.63 lineto
188.73 132.01 lineto
closepath fill
1 setlinewidth
solid
0 0 0 edgecolor
newpath 192.54 126.14 moveto
182.25 123.63 lineto
188.73 132.01 lineto
closepath stroke
0 0 0 edgecolor
14 /Times-Roman set_font
250 198.3 moveto 27 ([1,2]) alignedtext
grestore
% 2->4
gsave
1 setlinewidth
0 0 0 edgecolor
newpath 96.71 274.02 moveto
104.31 260.95 115.47 241.76 124.27 226.62 curveto
stroke
0 0 0 edgecolor
newpath 127.39 228.21 moveto
129.39 217.81 lineto
121.34 224.69 lineto
closepath fill
1 setlinewidth
solid
0 0 0 edgecolor
newpath 127.39 228.21 moveto
129.39 217.81 lineto
121.34 224.69 lineto
closepath stroke
0 0 0 edgecolor
14 /Times-Roman set_font
117 242.3 moveto 27 ([2,1]) alignedtext
grestore
% 2->5
gsave
1 setlinewidth
0 0 0 edgecolor
newpath 82.45 272.78 moveto
76.11 251.32 68.26 212.85 82 184 curveto
85.4 176.85 120.35 149.8 144.36 131.77 curveto
stroke
0 0 0 edgecolor
newpath 146.72 134.38 moveto
152.64 125.59 lineto
142.53 128.77 lineto
closepath fill
1 setlinewidth
solid
0 0 0 edgecolor
newpath 146.72 134.38 moveto
152.64 125.59 lineto
142.53 128.77 lineto
closepath stroke
0 0 0 edgecolor
14 /Times-Roman set_font
82 198.3 moveto 27 ([2,2]) alignedtext
grestore
% 3->3
gsave
1 setlinewidth
0 0 0 edgecolor
newpath 145.9 30.44 moveto
157.8 32.31 169 29.5 169 22 curveto
169 16.73 163.46 13.77 156.04 13.13 curveto
stroke
0 0 0 edgecolor
newpath 155.75 9.64 moveto
145.9 13.56 lineto
156.04 16.63 lineto
closepath fill
1 setlinewidth
solid
0 0 0 edgecolor
newpath 155.75 9.64 moveto
145.9 13.56 lineto
156.04 16.63 lineto
closepath stroke
0 0 0 edgecolor
14 /Times-Roman set_font
169 18.3 moveto 27 ([0,2]) alignedtext
grestore
% 4->3
gsave
1 setlinewidth
0 0 0 edgecolor
newpath 130.05 185.6 moveto
123.46 171.94 114.63 151.21 111 132 curveto
105.99 105.42 111.11 74.91 116.68 52.93 curveto
stroke
0 0 0 edgecolor
newpath 120.09 53.75 moveto
119.33 43.19 lineto
113.33 51.92 lineto
closepath fill
1 setlinewidth
solid
0 0 0 edgecolor
newpath 120.09 53.75 moveto
119.33 43.19 lineto
113.33 51.92 lineto
closepath stroke
0 0 0 edgecolor
14 /Times-Roman set_font
111 110.3 moveto 27 ([1,1]) alignedtext
grestore
% 4->4
gsave
1 setlinewidth
0 0 0 edgecolor
newpath 154.44 209.36 moveto
166.24 211.76 178 209.3 178 202 curveto
178 196.86 172.19 194.13 164.63 193.79 curveto
stroke
0 0 0 edgecolor
newpath 164.11 190.32 moveto
154.44 194.64 lineto
164.69 197.29 lineto
closepath fill
1 setlinewidth
solid
0 0 0 edgecolor
newpath 164.11 190.32 moveto
154.44 194.64 lineto
164.69 197.29 lineto
closepath stroke
0 0 0 edgecolor
14 /Times-Roman set_font
178 198.3 moveto 57 ([0,0] [1,2]) alignedtext
grestore
% 4->5
gsave
1 setlinewidth
0 0 0 edgecolor
newpath 133.59 184.38 moveto
131.69 174.13 130.76 160.91 135 150 curveto
137.42 143.75 141.54 137.94 146.03 132.92 curveto
stroke
0 0 0 edgecolor
newpath 148.62 135.28 moveto
153.2 125.73 lineto
143.66 130.34 lineto
closepath fill
1 setlinewidth
solid
0 0 0 edgecolor
newpath 148.62 135.28 moveto
153.2 125.73 lineto
143.66 130.34 lineto
closepath stroke
0 0 0 edgecolor
14 /Times-Roman set_font
135 154.3 moveto 27 ([0,1]) alignedtext
grestore
% 5->3
gsave
1 setlinewidth
0 0 0 edgecolor
newpath 159.86 97.32 moveto
154.14 84.76 145.96 66.81 139.07 51.69 curveto
stroke
0 0 0 edgecolor
newpath 142.1 49.9 moveto
134.77 42.25 lineto
135.73 52.8 lineto
closepath fill
1 setlinewidth
solid
0 0 0 edgecolor
newpath 142.1 49.9 moveto
134.77 42.25 lineto
135.73 52.8 lineto
closepath stroke
0 0 0 edgecolor
14 /Times-Roman set_font
150 66.3 moveto 27 ([2,0]) alignedtext
grestore
% 5->4
gsave
1 setlinewidth
0 0 0 edgecolor
newpath 169.84 132.03 moveto
170.84 142.19 170.9 155.17 167 166 curveto
164.99 171.57 161.67 176.88 157.98 181.6 curveto
stroke
0 0 0 edgecolor
newpath 155.1 179.58 moveto
151.14 189.4 lineto
160.36 184.19 lineto
closepath fill
1 setlinewidth
solid
0 0 0 edgecolor
newpath 155.1 179.58 moveto
151.14 189.4 lineto
160.36 184.19 lineto
closepath stroke
0 0 0 edgecolor
14 /Times-Roman set_font
170 154.3 moveto 27 ([2,1]) alignedtext
grestore
% 5->5
gsave
1 setlinewidth
0 0 0 edgecolor
newpath 183.44 121.36 moveto
195.24 123.76 207 121.3 207 114 curveto
207 108.86 201.19 106.13 193.63 105.79 curveto
stroke
0 0 0 edgecolor
newpath 193.11 102.32 moveto
183.44 106.64 lineto
193.69 109.29 lineto
closepath fill
1 setlinewidth
solid
0 0 0 edgecolor
newpath 193.11 102.32 moveto
183.44 106.64 lineto
193.69 109.29 lineto
closepath stroke
0 0 0 edgecolor
14 /Times-Roman set_font
207 110.3 moveto 57 ([1,0] [2,2]) alignedtext
grestore
endpage
showpage
grestore
%%PageTrailer
%%EndPage: 1
%%Trailer
end
restore
%%EOF
