%!PS-Adobe-3.0 EPSF-3.0
%%Creator: graphviz version 2.26.3 (20100126.1600)
%%Title: FSA Utilities
%%Pages: 1
%%BoundingBox: 262 286 351 506
%%EndComments
save
%%BeginProlog
/DotDict 200 dict def
DotDict begin

/setupLatin1 {
mark
/EncodingVector 256 array def
 EncodingVector 0

ISOLatin1Encoding 0 255 getinterval putinterval
EncodingVector 45 /hyphen put

% Set up ISO Latin 1 character encoding
/starnetISO {
        dup dup findfont dup length dict begin
        { 1 index /FID ne { def }{ pop pop } ifelse
        } forall
        /Encoding EncodingVector def
        currentdict end definefont
} def
/Times-Roman starnetISO def
/Times-Italic starnetISO def
/Times-Bold starnetISO def
/Times-BoldItalic starnetISO def
/Helvetica starnetISO def
/Helvetica-Oblique starnetISO def
/Helvetica-Bold starnetISO def
/Helvetica-BoldOblique starnetISO def
/Courier starnetISO def
/Courier-Oblique starnetISO def
/Courier-Bold starnetISO def
/Courier-BoldOblique starnetISO def
cleartomark
} bind def

%%BeginResource: procset graphviz 0 0
/coord-font-family /Times-Roman def
/default-font-family /Times-Roman def
/coordfont coord-font-family findfont 8 scalefont def

/InvScaleFactor 1.0 def
/set_scale {
       dup 1 exch div /InvScaleFactor exch def
       scale
} bind def

% styles
/solid { [] 0 setdash } bind def
/dashed { [9 InvScaleFactor mul dup ] 0 setdash } bind def
/dotted { [1 InvScaleFactor mul 6 InvScaleFactor mul] 0 setdash } bind def
/invis {/fill {newpath} def /stroke {newpath} def /show {pop newpath} def} bind def
/bold { 2 setlinewidth } bind def
/filled { } bind def
/unfilled { } bind def
/rounded { } bind def
/diagonals { } bind def

% hooks for setting color 
/nodecolor { sethsbcolor } bind def
/edgecolor { sethsbcolor } bind def
/graphcolor { sethsbcolor } bind def
/nopcolor {pop pop pop} bind def

/beginpage {	% i j npages
	/npages exch def
	/j exch def
	/i exch def
	/str 10 string def
	npages 1 gt {
		gsave
			coordfont setfont
			0 0 moveto
			(\() show i str cvs show (,) show j str cvs show (\)) show
		grestore
	} if
} bind def

/set_font {
	findfont exch
	scalefont setfont
} def

% draw text fitted to its expected width
/alignedtext {			% width text
	/text exch def
	/width exch def
	gsave
		width 0 gt {
			[] 0 setdash
			text stringwidth pop width exch sub text length div 0 text ashow
		} if
	grestore
} def

/boxprim {				% xcorner ycorner xsize ysize
		4 2 roll
		moveto
		2 copy
		exch 0 rlineto
		0 exch rlineto
		pop neg 0 rlineto
		closepath
} bind def

/ellipse_path {
	/ry exch def
	/rx exch def
	/y exch def
	/x exch def
	matrix currentmatrix
	newpath
	x y translate
	rx ry scale
	0 0 1 0 360 arc
	setmatrix
} bind def

/endpage { showpage } bind def
/showpage { } def

/layercolorseq
	[	% layer color sequence - darkest to lightest
		[0 0 0]
		[.2 .8 .8]
		[.4 .8 .8]
		[.6 .8 .8]
		[.8 .8 .8]
	]
def

/layerlen layercolorseq length def

/setlayer {/maxlayer exch def /curlayer exch def
	layercolorseq curlayer 1 sub layerlen mod get
	aload pop sethsbcolor
	/nodecolor {nopcolor} def
	/edgecolor {nopcolor} def
	/graphcolor {nopcolor} def
} bind def

/onlayer { curlayer ne {invis} if } def

/onlayers {
	/myupper exch def
	/mylower exch def
	curlayer mylower lt
	curlayer myupper gt
	or
	{invis} if
} def

/curlayer 0 def

%%EndResource
%%EndProlog
%%BeginSetup
14 default-font-family set_font
1 setmiterlimit
% /arrowlength 10 def
% /arrowwidth 5 def

% make sure pdfmark is harmless for PS-interpreters other than Distiller
/pdfmark where {pop} {userdict /pdfmark /cleartomark load put} ifelse
% make '<<' and '>>' safe on PS Level 1 devices
/languagelevel where {pop languagelevel}{1} ifelse
2 lt {
    userdict (<<) cvn ([) cvn load put
    userdict (>>) cvn ([) cvn load put
} if

%%EndSetup
setupLatin1
%%Page: 1 1
%%PageBoundingBox: 262 286 351 506
%%PageOrientation: Portrait
0 0 1 beginpage
gsave
262 286 89 220 boxprim clip newpath
1 1 set_scale 0 rotate 265.5 291 translate
% start0
gsave
grestore
% 0
gsave
0.83922 0.48235 0.8549 nodecolor
27 115 17.98 18.38 ellipse_path fill
1 setlinewidth
filled
0.83922 0.48235 0.8549 nodecolor
27 115 17.98 18.38 ellipse_path stroke
1 setlinewidth
filled
0.83922 0.48235 0.8549 nodecolor
27 115 21.89 22.38 ellipse_path stroke
0 0 0 nodecolor
14 /Times-Roman set_font
22 111.4 moveto 10 (0) alignedtext
grestore
% start0->0
gsave
1 setlinewidth
0 0 0 edgecolor
newpath 27 175.68 moveto
27 167.38 27 157.3 27 147.77 curveto
stroke
0 0 0 edgecolor
newpath 30.5 147.74 moveto
27 137.74 lineto
23.5 147.74 lineto
closepath fill
1 setlinewidth
solid
0 0 0 edgecolor
newpath 30.5 147.74 moveto
27 137.74 lineto
23.5 147.74 lineto
closepath stroke
grestore
% 0->0
gsave
1 setlinewidth
0 0 0 edgecolor
newpath 47.82 122.44 moveto
59.83 123.96 71 121.48 71 115 curveto
71 110.44 65.48 107.86 58.02 107.26 curveto
stroke
0 0 0 edgecolor
newpath 57.72 103.77 moveto
47.82 107.56 lineto
57.92 110.77 lineto
closepath fill
1 setlinewidth
solid
0 0 0 edgecolor
newpath 57.72 103.77 moveto
47.82 107.56 lineto
57.92 110.77 lineto
closepath stroke
0 0 0 edgecolor
14 /Times-Roman set_font
71 111.4 moveto 10 (0) alignedtext
grestore
% 1
gsave
0.54118 0.25098 1 nodecolor
27 19 17.89 18.38 ellipse_path fill
1 setlinewidth
filled
0.54118 0.25098 1 nodecolor
27 19 17.89 18.38 ellipse_path stroke
0 0 0 nodecolor
14 /Times-Roman set_font
22 15.4 moveto 10 (1) alignedtext
grestore
% 0->1
gsave
1 setlinewidth
0 0 0 edgecolor
newpath 17.25 94.65 moveto
12.99 83.34 9.47 68.97 12 56 curveto
12.72 52.31 13.81 48.53 15.07 44.86 curveto
stroke
0 0 0 edgecolor
newpath 18.34 46.11 moveto
18.72 35.53 lineto
11.82 43.57 lineto
closepath fill
1 setlinewidth
solid
0 0 0 edgecolor
newpath 18.34 46.11 moveto
18.72 35.53 lineto
11.82 43.57 lineto
closepath stroke
0 0 0 edgecolor
14 /Times-Roman set_font
12 61.4 moveto 10 (1) alignedtext
grestore
% 1->0
gsave
1 setlinewidth
0 0 0 edgecolor
newpath 27 37.72 moveto
27 50.28 27 67.16 27 81.95 curveto
stroke
0 0 0 edgecolor
newpath 23.5 82.25 moveto
27 92.25 lineto
30.5 82.25 lineto
closepath fill
1 setlinewidth
solid
0 0 0 edgecolor
newpath 23.5 82.25 moveto
27 92.25 lineto
30.5 82.25 lineto
closepath stroke
0 0 0 edgecolor
14 /Times-Roman set_font
27 61.4 moveto 10 (0) alignedtext
grestore
% 1->1
gsave
1 setlinewidth
0 0 0 edgecolor
newpath 43.44 26.7 moveto
55.24 29.2 67 26.64 67 19 curveto
67 13.63 61.19 10.77 53.63 10.41 curveto
stroke
0 0 0 edgecolor
newpath 53.09 6.95 moveto
43.44 11.3 lineto
53.7 13.92 lineto
closepath fill
1 setlinewidth
solid
0 0 0 edgecolor
newpath 53.09 6.95 moveto
43.44 11.3 lineto
53.7 13.92 lineto
closepath stroke
0 0 0 edgecolor
14 /Times-Roman set_font
67 15.4 moveto 10 (1) alignedtext
grestore
endpage
showpage
grestore
%%PageTrailer
%%EndPage: 1
%%Trailer
end
restore
%%EOF
