%!PS-Adobe-3.0 EPSF-3.0
%%Creator: graphviz version 2.26.3 (20100126.1600)
%%Title: FSA Utilities
%%Pages: 1
%%BoundingBox: 36 36 1307 1684
%%EndComments
save
%%BeginProlog
/DotDict 200 dict def
DotDict begin

/setupLatin1 {
mark
/EncodingVector 256 array def
 EncodingVector 0

ISOLatin1Encoding 0 255 getinterval putinterval
EncodingVector 45 /hyphen put

% Set up ISO Latin 1 character encoding
/starnetISO {
        dup dup findfont dup length dict begin
        { 1 index /FID ne { def }{ pop pop } ifelse
        } forall
        /Encoding EncodingVector def
        currentdict end definefont
} def
/Times-Roman starnetISO def
/Times-Italic starnetISO def
/Times-Bold starnetISO def
/Times-BoldItalic starnetISO def
/Helvetica starnetISO def
/Helvetica-Oblique starnetISO def
/Helvetica-Bold starnetISO def
/Helvetica-BoldOblique starnetISO def
/Courier starnetISO def
/Courier-Oblique starnetISO def
/Courier-Bold starnetISO def
/Courier-BoldOblique starnetISO def
cleartomark
} bind def

%%BeginResource: procset graphviz 0 0
/coord-font-family /Times-Roman def
/default-font-family /Times-Roman def
/coordfont coord-font-family findfont 8 scalefont def

/InvScaleFactor 1.0 def
/set_scale {
       dup 1 exch div /InvScaleFactor exch def
       scale
} bind def

% styles
/solid { [] 0 setdash } bind def
/dashed { [9 InvScaleFactor mul dup ] 0 setdash } bind def
/dotted { [1 InvScaleFactor mul 6 InvScaleFactor mul] 0 setdash } bind def
/invis {/fill {newpath} def /stroke {newpath} def /show {pop newpath} def} bind def
/bold { 2 setlinewidth } bind def
/filled { } bind def
/unfilled { } bind def
/rounded { } bind def
/diagonals { } bind def

% hooks for setting color 
/nodecolor { sethsbcolor } bind def
/edgecolor { sethsbcolor } bind def
/graphcolor { sethsbcolor } bind def
/nopcolor {pop pop pop} bind def

/beginpage {	% i j npages
	/npages exch def
	/j exch def
	/i exch def
	/str 10 string def
	npages 1 gt {
		gsave
			coordfont setfont
			0 0 moveto
			(\() show i str cvs show (,) show j str cvs show (\)) show
		grestore
	} if
} bind def

/set_font {
	findfont exch
	scalefont setfont
} def

% draw text fitted to its expected width
/alignedtext {			% width text
	/text exch def
	/width exch def
	gsave
		width 0 gt {
			[] 0 setdash
			text stringwidth pop width exch sub text length div 0 text ashow
		} if
	grestore
} def

/boxprim {				% xcorner ycorner xsize ysize
		4 2 roll
		moveto
		2 copy
		exch 0 rlineto
		0 exch rlineto
		pop neg 0 rlineto
		closepath
} bind def

/ellipse_path {
	/ry exch def
	/rx exch def
	/y exch def
	/x exch def
	matrix currentmatrix
	newpath
	x y translate
	rx ry scale
	0 0 1 0 360 arc
	setmatrix
} bind def

/endpage { showpage } bind def
/showpage { } def

/layercolorseq
	[	% layer color sequence - darkest to lightest
		[0 0 0]
		[.2 .8 .8]
		[.4 .8 .8]
		[.6 .8 .8]
		[.8 .8 .8]
	]
def

/layerlen layercolorseq length def

/setlayer {/maxlayer exch def /curlayer exch def
	layercolorseq curlayer 1 sub layerlen mod get
	aload pop sethsbcolor
	/nodecolor {nopcolor} def
	/edgecolor {nopcolor} def
	/graphcolor {nopcolor} def
} bind def

/onlayer { curlayer ne {invis} if } def

/onlayers {
	/myupper exch def
	/mylower exch def
	curlayer mylower lt
	curlayer myupper gt
	or
	{invis} if
} def

/curlayer 0 def

%%EndResource
%%EndProlog
%%BeginSetup
14 default-font-family set_font
1 setmiterlimit
% /arrowlength 10 def
% /arrowwidth 5 def

% make sure pdfmark is harmless for PS-interpreters other than Distiller
/pdfmark where {pop} {userdict /pdfmark /cleartomark load put} ifelse
% make '<<' and '>>' safe on PS Level 1 devices
/languagelevel where {pop languagelevel}{1} ifelse
2 lt {
    userdict (<<) cvn ([) cvn load put
    userdict (>>) cvn ([) cvn load put
} if

%%EndSetup
setupLatin1
%%Page: 1 1
%%PageBoundingBox: 36 36 1307 1684
%%PageOrientation: Portrait
0 0 1 beginpage
gsave
36 36 1271 1648 boxprim clip newpath
1 1 set_scale 0 rotate 40 41 translate
% start0
gsave
grestore
% 0
gsave
0.21961 0.75686 1 nodecolor
1057 1547 17.89 18.38 ellipse_path fill
1 setlinewidth
filled
0.21961 0.75686 1 nodecolor
1057 1547 17.89 18.38 ellipse_path stroke
0 0 0 nodecolor
14 /Times-Roman set_font
1052 1543.4 moveto 10 (0) alignedtext
grestore
% start0->0
gsave
1 setlinewidth
0 0 0 edgecolor
newpath 1057 1603.84 moveto
1057 1595.4 1057 1585.16 1057 1575.71 curveto
stroke
0 0 0 edgecolor
newpath 1060.5 1575.51 moveto
1057 1565.51 lineto
1053.5 1575.51 lineto
closepath fill
1 setlinewidth
solid
0 0 0 edgecolor
newpath 1060.5 1575.51 moveto
1057 1565.51 lineto
1053.5 1575.51 lineto
closepath stroke
grestore
% 0->0
gsave
1 setlinewidth
0 0 0 edgecolor
newpath 1074.27 1553.5 moveto
1085.79 1555.33 1097 1553.16 1097 1547 curveto
1097 1542.76 1091.7 1540.42 1084.64 1539.96 curveto
stroke
0 0 0 edgecolor
newpath 1084.07 1536.48 moveto
1074.27 1540.5 lineto
1084.44 1543.47 lineto
closepath fill
1 setlinewidth
solid
0 0 0 edgecolor
newpath 1084.07 1536.48 moveto
1074.27 1540.5 lineto
1084.44 1543.47 lineto
closepath stroke
0 0 0 edgecolor
14 /Times-Roman set_font
1097 1543.4 moveto 34 ([0,0]) alignedtext
grestore
% 1
gsave
0.023529 0.72157 1 nodecolor
1057 1451 17.98 18.38 ellipse_path fill
1 setlinewidth
filled
0.023529 0.72157 1 nodecolor
1057 1451 17.98 18.38 ellipse_path stroke
1 setlinewidth
filled
0.023529 0.72157 1 nodecolor
1057 1451 21.89 22.38 ellipse_path stroke
0 0 0 nodecolor
14 /Times-Roman set_font
1052 1447.4 moveto 10 (1) alignedtext
grestore
% 0->1
gsave
1 setlinewidth
0 0 0 edgecolor
newpath 1057 1528.49 moveto
1057 1515.86 1057 1498.79 1057 1483.88 curveto
stroke
0 0 0 edgecolor
newpath 1060.5 1483.51 moveto
1057 1473.51 lineto
1053.5 1483.51 lineto
closepath fill
1 setlinewidth
solid
0 0 0 edgecolor
newpath 1060.5 1483.51 moveto
1057 1473.51 lineto
1053.5 1483.51 lineto
closepath stroke
0 0 0 edgecolor
14 /Times-Roman set_font
1057 1497.4 moveto 34 ([0,1]) alignedtext
grestore
% 2
gsave
0.54118 0.25098 1 nodecolor
492 1355 17.89 18.38 ellipse_path fill
1 setlinewidth
filled
0.54118 0.25098 1 nodecolor
492 1355 17.89 18.38 ellipse_path stroke
0 0 0 nodecolor
14 /Times-Roman set_font
487 1351.4 moveto 10 (2) alignedtext
grestore
% 1->2
gsave
1 setlinewidth
0 0 0 edgecolor
newpath 1035.2 1447.3 moveto
947.23 1432.35 618.48 1376.49 520.03 1359.76 curveto
stroke
0 0 0 edgecolor
newpath 520.4 1356.27 moveto
509.95 1358.05 lineto
519.22 1363.18 lineto
closepath fill
1 setlinewidth
solid
0 0 0 edgecolor
newpath 520.4 1356.27 moveto
509.95 1358.05 lineto
519.22 1363.18 lineto
closepath stroke
0 0 0 edgecolor
14 /Times-Roman set_font
808 1397.4 moveto 34 ([0,0]) alignedtext
grestore
% 3
gsave
0.54118 0.25098 1 nodecolor
1057 1355 17.89 18.38 ellipse_path fill
1 setlinewidth
filled
0.54118 0.25098 1 nodecolor
1057 1355 17.89 18.38 ellipse_path stroke
0 0 0 nodecolor
14 /Times-Roman set_font
1052 1351.4 moveto 10 (3) alignedtext
grestore
% 1->3
gsave
1 setlinewidth
0 0 0 edgecolor
newpath 1057 1428.25 moveto
1057 1414.99 1057 1398.15 1057 1383.95 curveto
stroke
0 0 0 edgecolor
newpath 1060.5 1383.72 moveto
1057 1373.72 lineto
1053.5 1383.72 lineto
closepath fill
1 setlinewidth
solid
0 0 0 edgecolor
newpath 1060.5 1383.72 moveto
1057 1373.72 lineto
1053.5 1383.72 lineto
closepath stroke
0 0 0 edgecolor
14 /Times-Roman set_font
1057 1397.4 moveto 34 ([0,1]) alignedtext
grestore
% 4
gsave
0.023529 0.72157 1 nodecolor
1217 1295 17.98 18.38 ellipse_path fill
1 setlinewidth
filled
0.023529 0.72157 1 nodecolor
1217 1295 17.98 18.38 ellipse_path stroke
1 setlinewidth
filled
0.023529 0.72157 1 nodecolor
1217 1295 21.89 22.38 ellipse_path stroke
0 0 0 nodecolor
14 /Times-Roman set_font
1212 1291.4 moveto 10 (4) alignedtext
grestore
% 1->4
gsave
1 setlinewidth
0 0 0 edgecolor
newpath 1072.93 1435.47 moveto
1101.17 1407.93 1160.17 1350.41 1193.24 1318.17 curveto
stroke
0 0 0 edgecolor
newpath 1195.95 1320.42 moveto
1200.66 1310.93 lineto
1191.06 1315.4 lineto
closepath fill
1 setlinewidth
solid
0 0 0 edgecolor
newpath 1195.95 1320.42 moveto
1200.66 1310.93 lineto
1191.06 1315.4 lineto
closepath stroke
0 0 0 edgecolor
14 /Times-Roman set_font
1116 1397.4 moveto 34 ([1,0]) alignedtext
grestore
% 5
gsave
0.54118 0.25098 1 nodecolor
533 1235 17.89 18.38 ellipse_path fill
1 setlinewidth
filled
0.54118 0.25098 1 nodecolor
533 1235 17.89 18.38 ellipse_path stroke
0 0 0 nodecolor
14 /Times-Roman set_font
528 1231.4 moveto 10 (5) alignedtext
grestore
% 2->5
gsave
1 setlinewidth
0 0 0 edgecolor
newpath 498.05 1337.29 moveto
504.8 1317.53 515.81 1285.31 523.67 1262.31 curveto
stroke
0 0 0 edgecolor
newpath 527 1263.37 moveto
526.93 1252.78 lineto
520.38 1261.11 lineto
closepath fill
1 setlinewidth
solid
0 0 0 edgecolor
newpath 527 1263.37 moveto
526.93 1252.78 lineto
520.38 1261.11 lineto
closepath stroke
0 0 0 edgecolor
14 /Times-Roman set_font
520 1291.4 moveto 34 ([0,0]) alignedtext
grestore
% 6
gsave
0.54118 0.25098 1 nodecolor
465 865 17.89 18.38 ellipse_path fill
1 setlinewidth
filled
0.54118 0.25098 1 nodecolor
465 865 17.89 18.38 ellipse_path stroke
0 0 0 nodecolor
14 /Times-Roman set_font
460 861.4 moveto 10 (6) alignedtext
grestore
% 2->6
gsave
1 setlinewidth
0 0 0 edgecolor
newpath 485.46 1337.39 moveto
477.47 1314.24 465 1272.16 465 1235 curveto
465 1235 465 1235 465 969 curveto
465 943.63 465 914.78 465 893.91 curveto
stroke
0 0 0 edgecolor
newpath 468.5 893.79 moveto
465 883.79 lineto
461.5 893.79 lineto
closepath fill
1 setlinewidth
solid
0 0 0 edgecolor
newpath 468.5 893.79 moveto
465 883.79 lineto
461.5 893.79 lineto
closepath stroke
0 0 0 edgecolor
14 /Times-Roman set_font
465 1101.4 moveto 34 ([0,1]) alignedtext
grestore
% 7
gsave
0.54118 0.25098 1 nodecolor
18 345 17.89 18.38 ellipse_path fill
1 setlinewidth
filled
0.54118 0.25098 1 nodecolor
18 345 17.89 18.38 ellipse_path stroke
0 0 0 nodecolor
14 /Times-Roman set_font
13 341.4 moveto 10 (7) alignedtext
grestore
% 2->7
gsave
1 setlinewidth
0 0 0 edgecolor
newpath 474 1354.39 moveto
387.42 1351 18 1330.92 18 1235 curveto
18 1235 18 1235 18 449 curveto
18 423.63 18 394.78 18 373.91 curveto
stroke
0 0 0 edgecolor
newpath 21.5 373.79 moveto
18 363.79 lineto
14.5 373.79 lineto
closepath fill
1 setlinewidth
solid
0 0 0 edgecolor
newpath 21.5 373.79 moveto
18 363.79 lineto
14.5 373.79 lineto
closepath stroke
0 0 0 edgecolor
14 /Times-Roman set_font
18 809.4 moveto 34 ([1,0]) alignedtext
grestore
% 8
gsave
0.54118 0.25098 1 nodecolor
1000 1235 17.89 18.38 ellipse_path fill
1 setlinewidth
filled
0.54118 0.25098 1 nodecolor
1000 1235 17.89 18.38 ellipse_path stroke
0 0 0 nodecolor
14 /Times-Roman set_font
995 1231.4 moveto 10 (8) alignedtext
grestore
% 3->8
gsave
1 setlinewidth
0 0 0 edgecolor
newpath 1049.07 1338.31 moveto
1039.56 1318.28 1023.48 1284.44 1012.34 1260.98 curveto
stroke
0 0 0 edgecolor
newpath 1015.49 1259.46 moveto
1008.04 1251.93 lineto
1009.17 1262.47 lineto
closepath fill
1 setlinewidth
solid
0 0 0 edgecolor
newpath 1015.49 1259.46 moveto
1008.04 1251.93 lineto
1009.17 1262.47 lineto
closepath stroke
0 0 0 edgecolor
14 /Times-Roman set_font
1038 1291.4 moveto 34 ([0,0]) alignedtext
grestore
% 9
gsave
0.54118 0.25098 1 nodecolor
666 449 17.89 18.38 ellipse_path fill
1 setlinewidth
filled
0.54118 0.25098 1 nodecolor
666 449 17.89 18.38 ellipse_path stroke
0 0 0 nodecolor
14 /Times-Roman set_font
661 445.4 moveto 10 (9) alignedtext
grestore
% 3->9
gsave
1 setlinewidth
0 0 0 edgecolor
newpath 1066.87 1339.29 moveto
1070.52 1332.89 1074.4 1325.29 1077 1318 curveto
1089.63 1282.62 1093 1272.57 1093 1235 curveto
1093 1235 1093 1235 1093 917 curveto
1093 733.1 1083.18 656.87 952 528 curveto
931.16 507.53 924.11 502.89 897 492 curveto
827.41 464.06 738.64 454.07 694.12 450.66 curveto
stroke
0 0 0 edgecolor
newpath 694.28 447.16 moveto
684.05 449.95 lineto
693.78 454.15 lineto
closepath fill
1 setlinewidth
solid
0 0 0 edgecolor
newpath 694.28 447.16 moveto
684.05 449.95 lineto
693.78 454.15 lineto
closepath stroke
0 0 0 edgecolor
14 /Times-Roman set_font
1092 861.4 moveto 34 ([0,1]) alignedtext
grestore
% 10
gsave
0.54118 0.25098 1 nodecolor
1147 1173 24.24 24.75 ellipse_path fill
1 setlinewidth
filled
0.54118 0.25098 1 nodecolor
1147 1173 24.24 24.75 ellipse_path stroke
0 0 0 nodecolor
14 /Times-Roman set_font
1137.5 1169.4 moveto 19 (10) alignedtext
grestore
% 3->10
gsave
1 setlinewidth
0 0 0 edgecolor
newpath 1073.52 1347.45 moveto
1085.4 1341.19 1100.87 1331.19 1110 1318 curveto
1132.85 1284.99 1141.6 1239 1144.94 1207.72 curveto
stroke
0 0 0 edgecolor
newpath 1148.43 1208.01 moveto
1145.88 1197.72 lineto
1141.46 1207.35 lineto
closepath fill
1 setlinewidth
solid
0 0 0 edgecolor
newpath 1148.43 1208.01 moveto
1145.88 1197.72 lineto
1141.46 1207.35 lineto
closepath stroke
0 0 0 edgecolor
14 /Times-Roman set_font
1131 1291.4 moveto 34 ([1,0]) alignedtext
grestore
% 11
gsave
0.54118 0.25098 1 nodecolor
256 449 24.24 24.75 ellipse_path fill
1 setlinewidth
filled
0.54118 0.25098 1 nodecolor
256 449 24.24 24.75 ellipse_path stroke
0 0 0 nodecolor
14 /Times-Roman set_font
246.5 445.4 moveto 19 (11) alignedtext
grestore
% 3->11
gsave
1 setlinewidth
0 0 0 edgecolor
newpath 1038.85 1354.47 moveto
914.06 1350.57 188 1324.1 188 1235 curveto
188 1235 188 1235 188 553 curveto
188 521.01 210.82 491.18 230.03 471.74 curveto
stroke
0 0 0 edgecolor
newpath 232.68 474.05 moveto
237.42 464.57 lineto
227.8 469.02 lineto
closepath fill
1 setlinewidth
solid
0 0 0 edgecolor
newpath 232.68 474.05 moveto
237.42 464.57 lineto
227.8 469.02 lineto
closepath stroke
0 0 0 edgecolor
14 /Times-Roman set_font
188 861.4 moveto 34 ([1,1]) alignedtext
grestore
% 12
gsave
0.023529 0.72157 1 nodecolor
514 29 24.31 24.75 ellipse_path fill
1 setlinewidth
filled
0.023529 0.72157 1 nodecolor
514 29 24.31 24.75 ellipse_path stroke
1 setlinewidth
filled
0.023529 0.72157 1 nodecolor
514 29 28.24 28.75 ellipse_path stroke
0 0 0 nodecolor
14 /Times-Roman set_font
504.5 25.4 moveto 19 (12) alignedtext
grestore
% 4->12
gsave
1 setlinewidth
0 0 0 edgecolor
newpath 1220.54 1272.58 moveto
1224.08 1248.16 1229 1207.9 1229 1173 curveto
1229 1173 1229 1173 1229 137 curveto
1229 67.95 700.98 37.82 552.45 30.71 curveto
stroke
0 0 0 edgecolor
newpath 552.18 27.19 moveto
542.03 30.22 lineto
551.85 34.19 lineto
closepath fill
1 setlinewidth
solid
0 0 0 edgecolor
newpath 552.18 27.19 moveto
542.03 30.22 lineto
551.85 34.19 lineto
closepath stroke
0 0 0 edgecolor
14 /Times-Roman set_font
1229 653.4 moveto 34 ([0,0]) alignedtext
grestore
% 13
gsave
0.54118 0.25098 1 nodecolor
879 1105 24.24 24.75 ellipse_path fill
1 setlinewidth
filled
0.54118 0.25098 1 nodecolor
879 1105 24.24 24.75 ellipse_path stroke
0 0 0 nodecolor
14 /Times-Roman set_font
869.5 1101.4 moveto 19 (13) alignedtext
grestore
% 5->13
gsave
1 setlinewidth
0 0 0 edgecolor
newpath 550.16 1228.55 moveto
604.73 1208.05 774.88 1144.12 846.6 1117.17 curveto
stroke
0 0 0 edgecolor
newpath 847.92 1120.42 moveto
856.05 1113.62 lineto
845.46 1113.86 lineto
closepath fill
1 setlinewidth
solid
0 0 0 edgecolor
newpath 847.92 1120.42 moveto
856.05 1113.62 lineto
845.46 1113.86 lineto
closepath stroke
0 0 0 edgecolor
14 /Times-Roman set_font
757 1169.4 moveto 34 ([1,0]) alignedtext
grestore
% 14
gsave
0.54118 0.25098 1 nodecolor
318 865 24.24 24.75 ellipse_path fill
1 setlinewidth
filled
0.54118 0.25098 1 nodecolor
318 865 24.24 24.75 ellipse_path stroke
0 0 0 nodecolor
14 /Times-Roman set_font
308.5 861.4 moveto 19 (14) alignedtext
grestore
% 5->14
gsave
1 setlinewidth
0 0 0 edgecolor
newpath 532.62 1216.37 moveto
531.34 1186.25 525.99 1125.62 504 1080 curveto
464.63 998.3 385.95 923.12 344.67 887.19 curveto
stroke
0 0 0 edgecolor
newpath 346.8 884.4 moveto
336.94 880.53 lineto
342.24 889.71 lineto
closepath fill
1 setlinewidth
solid
0 0 0 edgecolor
newpath 346.8 884.4 moveto
336.94 880.53 lineto
342.24 889.71 lineto
closepath stroke
0 0 0 edgecolor
14 /Times-Roman set_font
495 1033.4 moveto 34 ([1,1]) alignedtext
grestore
% 15
gsave
0.54118 0.25098 1 nodecolor
616 761 24.24 24.75 ellipse_path fill
1 setlinewidth
filled
0.54118 0.25098 1 nodecolor
616 761 24.24 24.75 ellipse_path stroke
0 0 0 nodecolor
14 /Times-Roman set_font
606.5 757.4 moveto 19 (15) alignedtext
grestore
% 6->15
gsave
1 setlinewidth
0 0 0 edgecolor
newpath 480.03 854.65 moveto
505.05 837.41 555.66 802.56 587.58 780.58 curveto
stroke
0 0 0 edgecolor
newpath 589.8 783.3 moveto
596.05 774.74 lineto
585.83 777.53 lineto
closepath fill
1 setlinewidth
solid
0 0 0 edgecolor
newpath 589.8 783.3 moveto
596.05 774.74 lineto
585.83 777.53 lineto
closepath stroke
0 0 0 edgecolor
14 /Times-Roman set_font
550 809.4 moveto 34 ([1,0]) alignedtext
grestore
% 16
gsave
0.54118 0.25098 1 nodecolor
446 657 24.24 24.75 ellipse_path fill
1 setlinewidth
filled
0.54118 0.25098 1 nodecolor
446 657 24.24 24.75 ellipse_path stroke
0 0 0 nodecolor
14 /Times-Roman set_font
436.5 653.4 moveto 19 (16) alignedtext
grestore
% 6->16
gsave
1 setlinewidth
0 0 0 edgecolor
newpath 463.31 846.54 moveto
460.14 811.75 453.21 735.97 449.15 691.49 curveto
stroke
0 0 0 edgecolor
newpath 452.63 691.07 moveto
448.23 681.43 lineto
445.66 691.71 lineto
closepath fill
1 setlinewidth
solid
0 0 0 edgecolor
newpath 452.63 691.07 moveto
448.23 681.43 lineto
445.66 691.71 lineto
closepath stroke
0 0 0 edgecolor
14 /Times-Roman set_font
458 757.4 moveto 34 ([1,1]) alignedtext
grestore
% 7->12
gsave
1 setlinewidth
0 0 0 edgecolor
newpath 10.69 328.03 moveto
6.35 315.25 2.93 297.66 10 284 curveto
86.07 136.96 164.53 135.55 319 76 curveto
371.79 55.65 436.12 42.2 476.08 35.09 curveto
stroke
0 0 0 edgecolor
newpath 476.93 38.49 moveto
486.18 33.33 lineto
475.73 31.59 lineto
closepath fill
1 setlinewidth
solid
0 0 0 edgecolor
newpath 476.93 38.49 moveto
486.18 33.33 lineto
475.73 31.59 lineto
closepath stroke
0 0 0 edgecolor
14 /Times-Roman set_font
87 185.4 moveto 34 ([1,0]) alignedtext
grestore
% 17
gsave
0.54118 0.25098 1 nodecolor
205 241 24.24 24.75 ellipse_path fill
1 setlinewidth
filled
0.54118 0.25098 1 nodecolor
205 241 24.24 24.75 ellipse_path stroke
0 0 0 nodecolor
14 /Times-Roman set_font
195.5 237.4 moveto 19 (17) alignedtext
grestore
% 7->17
gsave
1 setlinewidth
0 0 0 edgecolor
newpath 14.3 326.85 moveto
12.69 313.45 13.02 295.6 23 284 curveto
41.99 261.92 123.77 249.67 170.99 244.31 curveto
stroke
0 0 0 edgecolor
newpath 171.51 247.78 moveto
181.07 243.21 lineto
170.75 240.82 lineto
closepath fill
1 setlinewidth
solid
0 0 0 edgecolor
newpath 171.51 247.78 moveto
181.07 243.21 lineto
170.75 240.82 lineto
closepath stroke
0 0 0 edgecolor
14 /Times-Roman set_font
23 289.4 moveto 34 ([0,0]) alignedtext
grestore
% 18
gsave
0.54118 0.25098 1 nodecolor
1000 1105 24.24 24.75 ellipse_path fill
1 setlinewidth
filled
0.54118 0.25098 1 nodecolor
1000 1105 24.24 24.75 ellipse_path stroke
0 0 0 nodecolor
14 /Times-Roman set_font
990.5 1101.4 moveto 19 (18) alignedtext
grestore
% 8->18
gsave
1 setlinewidth
0 0 0 edgecolor
newpath 1000 1216.37 moveto
1000 1196.47 1000 1164.46 1000 1139.86 curveto
stroke
0 0 0 edgecolor
newpath 1003.5 1139.82 moveto
1000 1129.82 lineto
996.5 1139.82 lineto
closepath fill
1 setlinewidth
solid
0 0 0 edgecolor
newpath 1003.5 1139.82 moveto
1000 1129.82 lineto
996.5 1139.82 lineto
closepath stroke
0 0 0 edgecolor
14 /Times-Roman set_font
1000 1169.4 moveto 34 ([1,0]) alignedtext
grestore
% 19
gsave
0.54118 0.25098 1 nodecolor
761 657 24.24 24.75 ellipse_path fill
1 setlinewidth
filled
0.54118 0.25098 1 nodecolor
761 657 24.24 24.75 ellipse_path stroke
0 0 0 nodecolor
14 /Times-Roman set_font
751.5 653.4 moveto 19 (19) alignedtext
grestore
% 8->19
gsave
1 setlinewidth
0 0 0 edgecolor
newpath 982.8 1229.01 moveto
949.61 1216.46 877.07 1184.02 844 1130 curveto
743.49 965.82 862.06 879.3 792 700 curveto
789.81 694.4 786.72 688.86 783.33 683.71 curveto
stroke
0 0 0 edgecolor
newpath 786.11 681.57 moveto
777.45 675.47 lineto
780.41 685.64 lineto
closepath fill
1 setlinewidth
solid
0 0 0 edgecolor
newpath 786.11 681.57 moveto
777.45 675.47 lineto
780.41 685.64 lineto
closepath stroke
0 0 0 edgecolor
14 /Times-Roman set_font
808 913.4 moveto 34 ([1,1]) alignedtext
grestore
% 9->9
gsave
1 setlinewidth
0 0 0 edgecolor
newpath 682.02 457.6 moveto
693.96 460.6 706 457.73 706 449 curveto
706 442.79 699.92 439.55 692.11 439.27 curveto
stroke
0 0 0 edgecolor
newpath 691.57 435.81 moveto
682.02 440.4 lineto
692.35 442.76 lineto
closepath fill
1 setlinewidth
solid
0 0 0 edgecolor
newpath 691.57 435.81 moveto
682.02 440.4 lineto
692.35 442.76 lineto
closepath stroke
0 0 0 edgecolor
14 /Times-Roman set_font
706 445.4 moveto 34 ([1,1]) alignedtext
grestore
% 20
gsave
0.54118 0.25098 1 nodecolor
666 345 24.24 24.75 ellipse_path fill
1 setlinewidth
filled
0.54118 0.25098 1 nodecolor
666 345 24.24 24.75 ellipse_path stroke
0 0 0 nodecolor
14 /Times-Roman set_font
656.5 341.4 moveto 19 (20) alignedtext
grestore
% 9->20
gsave
1 setlinewidth
0 0 0 edgecolor
newpath 666 430.41 moveto
666 416.38 666 396.72 666 379.8 curveto
stroke
0 0 0 edgecolor
newpath 669.5 379.69 moveto
666 369.69 lineto
662.5 379.69 lineto
closepath fill
1 setlinewidth
solid
0 0 0 edgecolor
newpath 669.5 379.69 moveto
666 369.69 lineto
662.5 379.69 lineto
closepath stroke
0 0 0 edgecolor
14 /Times-Roman set_font
666 393.4 moveto 34 ([1,0]) alignedtext
grestore
% 21
gsave
0.54118 0.25098 1 nodecolor
1155 1037 24.24 24.75 ellipse_path fill
1 setlinewidth
filled
0.54118 0.25098 1 nodecolor
1155 1037 24.24 24.75 ellipse_path stroke
0 0 0 nodecolor
14 /Times-Roman set_font
1145.5 1033.4 moveto 19 (21) alignedtext
grestore
% 10->21
gsave
1 setlinewidth
0 0 0 edgecolor
newpath 1148.45 1148.37 moveto
1149.7 1127.03 1151.53 1095.92 1152.94 1072 curveto
stroke
0 0 0 edgecolor
newpath 1156.44 1072.09 moveto
1153.54 1061.9 lineto
1149.45 1071.68 lineto
closepath fill
1 setlinewidth
solid
0 0 0 edgecolor
newpath 1156.44 1072.09 moveto
1153.54 1061.9 lineto
1149.45 1071.68 lineto
closepath stroke
0 0 0 edgecolor
14 /Times-Roman set_font
1152 1101.4 moveto 34 ([0,0]) alignedtext
grestore
% 11->11
gsave
1 setlinewidth
0 0 0 edgecolor
newpath 278.25 458.28 moveto
290.61 460.02 302 456.92 302 449 curveto
302 443.37 296.24 440.18 288.47 439.42 curveto
stroke
0 0 0 edgecolor
newpath 288.14 435.93 moveto
278.25 439.72 lineto
288.34 442.93 lineto
closepath fill
1 setlinewidth
solid
0 0 0 edgecolor
newpath 288.14 435.93 moveto
278.25 439.72 lineto
288.34 442.93 lineto
closepath stroke
0 0 0 edgecolor
14 /Times-Roman set_font
302 445.4 moveto 34 ([0,1]) alignedtext
grestore
% 22
gsave
0.54118 0.25098 1 nodecolor
205 345 24.24 24.75 ellipse_path fill
1 setlinewidth
filled
0.54118 0.25098 1 nodecolor
205 345 24.24 24.75 ellipse_path stroke
0 0 0 nodecolor
14 /Times-Roman set_font
195.5 341.4 moveto 19 (22) alignedtext
grestore
% 11->22
gsave
1 setlinewidth
0 0 0 edgecolor
newpath 245.18 426.94 moveto
237.95 412.19 228.32 392.56 220.3 376.21 curveto
stroke
0 0 0 edgecolor
newpath 223.35 374.46 moveto
215.8 367.02 lineto
217.06 377.54 lineto
closepath fill
1 setlinewidth
solid
0 0 0 edgecolor
newpath 223.35 374.46 moveto
215.8 367.02 lineto
217.06 377.54 lineto
closepath stroke
0 0 0 edgecolor
14 /Times-Roman set_font
234 393.4 moveto 34 ([0,0]) alignedtext
grestore
% 23
gsave
0.54118 0.25098 1 nodecolor
957 969 24.24 24.75 ellipse_path fill
1 setlinewidth
filled
0.54118 0.25098 1 nodecolor
957 969 24.24 24.75 ellipse_path stroke
0 0 0 nodecolor
14 /Times-Roman set_font
947.5 965.4 moveto 19 (23) alignedtext
grestore
% 13->23
gsave
1 setlinewidth
0 0 0 edgecolor
newpath 888.12 1082.08 moveto
896.19 1062.78 908.87 1034.76 923 1012 curveto
926.43 1006.48 930.44 1000.85 934.49 995.56 curveto
stroke
0 0 0 edgecolor
newpath 937.34 997.6 moveto
940.8 987.58 lineto
931.85 993.25 lineto
closepath fill
1 setlinewidth
solid
0 0 0 edgecolor
newpath 937.34 997.6 moveto
940.8 987.58 lineto
931.85 993.25 lineto
closepath stroke
0 0 0 edgecolor
14 /Times-Roman set_font
923 1033.4 moveto 34 ([0,0]) alignedtext
grestore
% 24
gsave
0.54118 0.25098 1 nodecolor
913 865 24.24 24.75 ellipse_path fill
1 setlinewidth
filled
0.54118 0.25098 1 nodecolor
913 865 24.24 24.75 ellipse_path stroke
0 0 0 nodecolor
14 /Times-Roman set_font
903.5 861.4 moveto 19 (24) alignedtext
grestore
% 13->24
gsave
1 setlinewidth
0 0 0 edgecolor
newpath 878.48 1080.5 moveto
878.23 1048.74 879.25 991.78 888 944 curveto
890.86 928.4 895.89 911.59 900.69 897.5 curveto
stroke
0 0 0 edgecolor
newpath 904.1 898.37 moveto
904.12 887.77 lineto
897.5 896.04 lineto
closepath fill
1 setlinewidth
solid
0 0 0 edgecolor
newpath 904.1 898.37 moveto
904.12 887.77 lineto
897.5 896.04 lineto
closepath stroke
0 0 0 edgecolor
14 /Times-Roman set_font
888 965.4 moveto 34 ([0,1]) alignedtext
grestore
% 14->17
gsave
1 setlinewidth
0 0 0 edgecolor
newpath 298.44 850.41 moveto
240.54 805.39 74 661.91 74 501 curveto
74 501 74 501 74 345 curveto
74 295.02 133.22 265.23 172.02 251.08 curveto
stroke
0 0 0 edgecolor
newpath 173.58 254.25 moveto
181.88 247.66 lineto
171.29 247.63 lineto
closepath fill
1 setlinewidth
solid
0 0 0 edgecolor
newpath 173.58 254.25 moveto
181.88 247.66 lineto
171.29 247.63 lineto
closepath stroke
0 0 0 edgecolor
14 /Times-Roman set_font
86 549.4 moveto 34 ([1,0]) alignedtext
grestore
% 25
gsave
0.54118 0.25098 1 nodecolor
743 761 24.24 24.75 ellipse_path fill
1 setlinewidth
filled
0.54118 0.25098 1 nodecolor
743 761 24.24 24.75 ellipse_path stroke
0 0 0 nodecolor
14 /Times-Roman set_font
733.5 757.4 moveto 19 (25) alignedtext
grestore
% 14->25
gsave
1 setlinewidth
0 0 0 edgecolor
newpath 340.18 855.47 moveto
372.96 841.81 436.54 816.89 493 804 curveto
561.9 788.27 581.59 799.31 651 786 curveto
670.84 782.2 692.67 776.34 710.09 771.25 curveto
stroke
0 0 0 edgecolor
newpath 711.2 774.57 moveto
719.78 768.36 lineto
709.2 767.86 lineto
closepath fill
1 setlinewidth
solid
0 0 0 edgecolor
newpath 711.2 774.57 moveto
719.78 768.36 lineto
709.2 767.86 lineto
closepath stroke
0 0 0 edgecolor
14 /Times-Roman set_font
493 809.4 moveto 34 ([0,0]) alignedtext
grestore
% 26
gsave
0.54118 0.25098 1 nodecolor
514 553 24.24 24.75 ellipse_path fill
1 setlinewidth
filled
0.54118 0.25098 1 nodecolor
514 553 24.24 24.75 ellipse_path stroke
0 0 0 nodecolor
14 /Times-Roman set_font
504.5 549.4 moveto 19 (26) alignedtext
grestore
% 14->26
gsave
1 setlinewidth
0 0 0 edgecolor
newpath 313.57 840.61 moveto
305.63 788.64 295.13 666.02 357 596 curveto
373.14 577.74 438.8 564.56 479.93 557.91 curveto
stroke
0 0 0 edgecolor
newpath 480.72 561.33 moveto
490.06 556.32 lineto
479.64 554.41 lineto
closepath fill
1 setlinewidth
solid
0 0 0 edgecolor
newpath 480.72 561.33 moveto
490.06 556.32 lineto
479.64 554.41 lineto
closepath stroke
0 0 0 edgecolor
14 /Times-Roman set_font
312 705.4 moveto 34 ([0,1]) alignedtext
grestore
% 15->19
gsave
1 setlinewidth
0 0 0 edgecolor
newpath 630.3 740.92 moveto
640.29 727.98 654.56 711.48 670 700 curveto
685.32 688.61 691.73 690.14 709 682 curveto
715.85 678.77 723.19 675.27 730.14 671.94 curveto
stroke
0 0 0 edgecolor
newpath 731.79 675.03 moveto
739.28 667.54 lineto
728.75 668.72 lineto
closepath fill
1 setlinewidth
solid
0 0 0 edgecolor
newpath 731.79 675.03 moveto
739.28 667.54 lineto
728.75 668.72 lineto
closepath stroke
0 0 0 edgecolor
14 /Times-Roman set_font
670 705.4 moveto 34 ([0,1]) alignedtext
grestore
% 27
gsave
0.54118 0.25098 1 nodecolor
862 241 24.24 24.75 ellipse_path fill
1 setlinewidth
filled
0.54118 0.25098 1 nodecolor
862 241 24.24 24.75 ellipse_path stroke
0 0 0 nodecolor
14 /Times-Roman set_font
852.5 237.4 moveto 19 (27) alignedtext
grestore
% 15->27
gsave
1 setlinewidth
0 0 0 edgecolor
newpath 626.69 738.9 moveto
643.15 704.66 675.48 636.62 701 578 curveto
717.47 540.16 717.4 528.84 736 492 curveto
740.23 483.63 742.48 482.21 747 474 curveto
785.83 403.51 826.39 318.1 847.41 272.81 curveto
stroke
0 0 0 edgecolor
newpath 850.69 274.06 moveto
851.72 263.51 lineto
844.34 271.12 lineto
closepath fill
1 setlinewidth
solid
0 0 0 edgecolor
newpath 850.69 274.06 moveto
851.72 263.51 lineto
844.34 271.12 lineto
closepath stroke
0 0 0 edgecolor
14 /Times-Roman set_font
736 497.4 moveto 34 ([0,0]) alignedtext
grestore
% 16->9
gsave
1 setlinewidth
0 0 0 edgecolor
newpath 470.13 654.16 moveto
513.13 648.61 600.54 635.02 622 614 curveto
658.92 577.85 665.96 514.44 666.7 477.65 curveto
stroke
0 0 0 edgecolor
newpath 670.2 477.6 moveto
666.75 467.58 lineto
663.2 477.56 lineto
closepath fill
1 setlinewidth
solid
0 0 0 edgecolor
newpath 670.2 477.6 moveto
666.75 467.58 lineto
663.2 477.56 lineto
closepath stroke
0 0 0 edgecolor
14 /Times-Roman set_font
662 549.4 moveto 34 ([0,1]) alignedtext
grestore
% 16->20
gsave
1 setlinewidth
0 0 0 edgecolor
newpath 466.92 644.5 moveto
489.24 630.42 524.67 605.82 549 578 curveto
577.32 545.62 628.09 432.86 652.36 376.94 curveto
stroke
0 0 0 edgecolor
newpath 655.68 378.08 moveto
656.43 367.52 lineto
649.25 375.31 lineto
closepath fill
1 setlinewidth
solid
0 0 0 edgecolor
newpath 655.68 378.08 moveto
656.43 367.52 lineto
649.25 375.31 lineto
closepath stroke
0 0 0 edgecolor
14 /Times-Roman set_font
599 497.4 moveto 34 ([0,0]) alignedtext
grestore
% 16->22
gsave
1 setlinewidth
0 0 0 edgecolor
newpath 422.05 653.71 moveto
363.47 644.18 213.9 610.5 161 510 curveto
137.55 465.45 164.58 407.39 185.43 373.36 curveto
stroke
0 0 0 edgecolor
newpath 188.43 375.16 moveto
190.83 364.84 lineto
182.52 371.41 lineto
closepath fill
1 setlinewidth
solid
0 0 0 edgecolor
newpath 188.43 375.16 moveto
190.83 364.84 lineto
182.52 371.41 lineto
closepath stroke
0 0 0 edgecolor
14 /Times-Roman set_font
161 497.4 moveto 34 ([1,0]) alignedtext
grestore
% 28
gsave
0.54118 0.25098 1 nodecolor
295 553 24.24 24.75 ellipse_path fill
1 setlinewidth
filled
0.54118 0.25098 1 nodecolor
295 553 24.24 24.75 ellipse_path stroke
0 0 0 nodecolor
14 /Times-Roman set_font
285.5 549.4 moveto 19 (28) alignedtext
grestore
% 16->28
gsave
1 setlinewidth
0 0 0 edgecolor
newpath 425.95 643.19 moveto
399.66 625.09 353.39 593.22 323.48 572.61 curveto
stroke
0 0 0 edgecolor
newpath 325.36 569.66 moveto
315.13 566.87 lineto
321.38 575.42 lineto
closepath fill
1 setlinewidth
solid
0 0 0 edgecolor
newpath 325.36 569.66 moveto
315.13 566.87 lineto
321.38 575.42 lineto
closepath stroke
0 0 0 edgecolor
14 /Times-Roman set_font
380 601.4 moveto 34 ([1,1]) alignedtext
grestore
% 17->12
gsave
1 setlinewidth
0 0 0 edgecolor
newpath 217.18 219.79 moveto
238.76 184.23 287.22 112.84 348 76 curveto
387.98 51.76 440.92 39.61 476.15 33.81 curveto
stroke
0 0 0 edgecolor
newpath 476.7 37.27 moveto
486.04 32.28 lineto
475.62 30.36 lineto
closepath fill
1 setlinewidth
solid
0 0 0 edgecolor
newpath 476.7 37.27 moveto
486.04 32.28 lineto
475.62 30.36 lineto
closepath stroke
0 0 0 edgecolor
14 /Times-Roman set_font
302 133.4 moveto 34 ([0,0]) alignedtext
grestore
% 18->23
gsave
1 setlinewidth
0 0 0 edgecolor
newpath 986.32 1084.7 moveto
982.16 1077.75 977.91 1069.76 975 1062 curveto
968 1043.34 963.59 1021.5 960.89 1003.67 curveto
stroke
0 0 0 edgecolor
newpath 964.35 1003.12 moveto
959.49 993.7 lineto
957.42 1004.09 lineto
closepath fill
1 setlinewidth
solid
0 0 0 edgecolor
newpath 964.35 1003.12 moveto
959.49 993.7 lineto
957.42 1004.09 lineto
closepath stroke
0 0 0 edgecolor
14 /Times-Roman set_font
975 1033.4 moveto 34 ([1,0]) alignedtext
grestore
% 18->24
gsave
1 setlinewidth
0 0 0 edgecolor
newpath 1006.59 1081.06 moveto
1008 1074.9 1009.28 1068.24 1010 1062 curveto
1016.05 1009.29 1009.62 994.04 992 944 curveto
986.19 927.48 987.21 921.45 976 908 curveto
967.1 897.33 954.91 888.18 943.62 881.1 curveto
stroke
0 0 0 edgecolor
newpath 945.23 877.98 moveto
934.84 875.87 lineto
941.65 884 lineto
closepath fill
1 setlinewidth
solid
0 0 0 edgecolor
newpath 945.23 877.98 moveto
934.84 875.87 lineto
941.65 884 lineto
closepath stroke
0 0 0 edgecolor
14 /Times-Roman set_font
1007 965.4 moveto 34 ([1,1]) alignedtext
grestore
% 19->25
gsave
1 setlinewidth
0 0 0 edgecolor
newpath 739.97 669.31 moveto
729.47 676.73 717.79 687.22 712 700 curveto
706.53 712.07 711.72 725.21 719.31 736.19 curveto
stroke
0 0 0 edgecolor
newpath 716.56 738.35 moveto
725.45 744.11 lineto
722.09 734.06 lineto
closepath fill
1 setlinewidth
solid
0 0 0 edgecolor
newpath 716.56 738.35 moveto
725.45 744.11 lineto
722.09 734.06 lineto
closepath stroke
0 0 0 edgecolor
14 /Times-Roman set_font
712 705.4 moveto 34 ([1,0]) alignedtext
grestore
% 19->26
gsave
1 setlinewidth
0 0 0 edgecolor
newpath 743.83 639.84 moveto
729.13 626.07 706.78 607.26 684 596 curveto
660.23 584.26 590.14 568.59 547.74 559.78 curveto
stroke
0 0 0 edgecolor
newpath 548.36 556.33 moveto
537.86 557.74 lineto
546.95 563.19 lineto
closepath fill
1 setlinewidth
solid
0 0 0 edgecolor
newpath 548.36 556.33 moveto
537.86 557.74 lineto
546.95 563.19 lineto
closepath stroke
0 0 0 edgecolor
14 /Times-Roman set_font
711 601.4 moveto 34 ([1,1]) alignedtext
grestore
% 20->19
gsave
1 setlinewidth
0 0 0 edgecolor
newpath 685.22 359.84 moveto
703.18 374.52 729.73 398.45 747 424 curveto
765.3 451.08 768.66 459.94 775 492 curveto
783.86 536.79 776.34 589.51 769.35 623.08 curveto
stroke
0 0 0 edgecolor
newpath 765.84 622.76 moveto
767.12 633.27 lineto
772.68 624.25 lineto
closepath fill
1 setlinewidth
solid
0 0 0 edgecolor
newpath 765.84 622.76 moveto
767.12 633.27 lineto
772.68 624.25 lineto
closepath stroke
0 0 0 edgecolor
14 /Times-Roman set_font
777 497.4 moveto 34 ([1,1]) alignedtext
grestore
% 20->27
gsave
1 setlinewidth
0 0 0 edgecolor
newpath 683.5 328.12 moveto
698.16 314.71 720.15 296.23 742 284 curveto
769.67 268.52 803.95 256.9 828.78 249.66 curveto
stroke
0 0 0 edgecolor
newpath 829.79 253.02 moveto
838.46 246.93 lineto
827.88 246.28 lineto
closepath fill
1 setlinewidth
solid
0 0 0 edgecolor
newpath 829.79 253.02 moveto
838.46 246.93 lineto
827.88 246.28 lineto
closepath stroke
0 0 0 edgecolor
14 /Times-Roman set_font
742 289.4 moveto 34 ([1,0]) alignedtext
grestore
% 21->12
gsave
1 setlinewidth
0 0 0 edgecolor
newpath 1156.96 1012.2 moveto
1158.71 987.94 1161 949.96 1161 917 curveto
1161 917 1161 917 1161 137 curveto
1161 74.92 691.53 40.24 552.4 31.32 curveto
stroke
0 0 0 edgecolor
newpath 552.42 27.82 moveto
542.22 30.68 lineto
551.98 34.8 lineto
closepath fill
1 setlinewidth
solid
0 0 0 edgecolor
newpath 552.42 27.82 moveto
542.22 30.68 lineto
551.98 34.8 lineto
closepath stroke
0 0 0 edgecolor
14 /Times-Roman set_font
1161 549.4 moveto 34 ([1,0]) alignedtext
grestore
% 22->17
gsave
1 setlinewidth
0 0 0 edgecolor
newpath 205 320.35 moveto
205 307.11 205 290.56 205 276 curveto
stroke
0 0 0 edgecolor
newpath 208.5 275.83 moveto
205 265.83 lineto
201.5 275.83 lineto
closepath fill
1 setlinewidth
solid
0 0 0 edgecolor
newpath 208.5 275.83 moveto
205 265.83 lineto
201.5 275.83 lineto
closepath stroke
0 0 0 edgecolor
14 /Times-Roman set_font
205 289.4 moveto 34 ([0,0]) alignedtext
grestore
% 23->24
gsave
1 setlinewidth
0 0 0 edgecolor
newpath 947.45 946.43 moveto
941.34 931.99 933.32 913.02 926.55 897.03 curveto
stroke
0 0 0 edgecolor
newpath 929.65 895.37 moveto
922.53 887.52 lineto
923.2 898.1 lineto
closepath fill
1 setlinewidth
solid
0 0 0 edgecolor
newpath 929.65 895.37 moveto
922.53 887.52 lineto
923.2 898.1 lineto
closepath stroke
0 0 0 edgecolor
14 /Times-Roman set_font
937 913.4 moveto 34 ([0,1]) alignedtext
grestore
% 29
gsave
0.54118 0.25098 1 nodecolor
922 137 24.24 24.75 ellipse_path fill
1 setlinewidth
filled
0.54118 0.25098 1 nodecolor
922 137 24.24 24.75 ellipse_path stroke
0 0 0 nodecolor
14 /Times-Roman set_font
912.5 133.4 moveto 19 (29) alignedtext
grestore
% 23->29
gsave
1 setlinewidth
0 0 0 edgecolor
newpath 967.53 946.69 moveto
997.81 880.39 1083 678.12 1083 501 curveto
1083 501 1083 501 1083 241 curveto
1083 180.86 1002.75 153.8 955.56 143.09 curveto
stroke
0 0 0 edgecolor
newpath 956.27 139.66 moveto
945.76 140.99 lineto
954.8 146.5 lineto
closepath fill
1 setlinewidth
solid
0 0 0 edgecolor
newpath 956.27 139.66 moveto
945.76 140.99 lineto
954.8 146.5 lineto
closepath stroke
0 0 0 edgecolor
14 /Times-Roman set_font
1082 549.4 moveto 34 ([0,0]) alignedtext
grestore
% 24->25
gsave
1 setlinewidth
0 0 0 edgecolor
newpath 892.15 852.25 moveto
862.12 833.87 806.54 799.87 772.37 778.97 curveto
stroke
0 0 0 edgecolor
newpath 774.11 775.93 moveto
763.75 773.69 lineto
770.45 781.9 lineto
closepath fill
1 setlinewidth
solid
0 0 0 edgecolor
newpath 774.11 775.93 moveto
763.75 773.69 lineto
770.45 781.9 lineto
closepath stroke
0 0 0 edgecolor
14 /Times-Roman set_font
838 809.4 moveto 34 ([0,0]) alignedtext
grestore
% 24->26
gsave
1 setlinewidth
0 0 0 edgecolor
newpath 889.05 862.43 moveto
820.58 854.6 626 828.96 581 786 curveto
526 733.5 515.26 639.07 513.7 588.03 curveto
stroke
0 0 0 edgecolor
newpath 517.2 587.75 moveto
513.5 577.83 lineto
510.2 587.89 lineto
closepath fill
1 setlinewidth
solid
0 0 0 edgecolor
newpath 517.2 587.75 moveto
513.5 577.83 lineto
510.2 587.89 lineto
closepath stroke
0 0 0 edgecolor
14 /Times-Roman set_font
538 705.4 moveto 34 ([0,1]) alignedtext
grestore
% 25->17
gsave
1 setlinewidth
0 0 0 edgecolor
newpath 720.14 752.96 moveto
699.89 745.36 669.92 732.91 646 718 curveto
563.81 666.76 538.73 654.24 479 578 curveto
447.25 537.47 443.27 523.16 428 474 curveto
402.68 392.48 458.18 346.45 400 284 curveto
378.49 260.91 288.96 248.92 239.03 243.91 curveto
stroke
0 0 0 edgecolor
newpath 239.3 240.42 moveto
229.01 242.95 lineto
238.63 247.39 lineto
closepath fill
1 setlinewidth
solid
0 0 0 edgecolor
newpath 239.3 240.42 moveto
229.01 242.95 lineto
238.63 247.39 lineto
closepath stroke
0 0 0 edgecolor
14 /Times-Roman set_font
440 497.4 moveto 34 ([1,0]) alignedtext
grestore
% 25->19
gsave
1 setlinewidth
0 0 0 edgecolor
newpath 747.58 736.91 moveto
748.72 730.75 749.93 724.13 751 718 curveto
752.52 709.34 754.09 699.97 755.52 691.24 curveto
stroke
0 0 0 edgecolor
newpath 758.98 691.79 moveto
757.13 681.36 lineto
752.07 690.67 lineto
closepath fill
1 setlinewidth
solid
0 0 0 edgecolor
newpath 758.98 691.79 moveto
757.13 681.36 lineto
752.07 690.67 lineto
closepath stroke
0 0 0 edgecolor
14 /Times-Roman set_font
753 705.4 moveto 34 ([0,1]) alignedtext
grestore
% 25->27
gsave
1 setlinewidth
0 0 0 edgecolor
newpath 763.8 747.96 moveto
773.97 740.46 785.4 730.13 792 718 curveto
872.83 569.37 869.66 358.06 864.74 275.72 curveto
stroke
0 0 0 edgecolor
newpath 868.23 275.41 moveto
864.09 265.65 lineto
861.24 275.86 lineto
closepath fill
1 setlinewidth
solid
0 0 0 edgecolor
newpath 868.23 275.41 moveto
864.09 265.65 lineto
861.24 275.86 lineto
closepath stroke
0 0 0 edgecolor
14 /Times-Roman set_font
858 497.4 moveto 34 ([0,0]) alignedtext
grestore
% 26->9
gsave
1 setlinewidth
0 0 0 edgecolor
newpath 523.98 530.41 moveto
530.62 517.64 540.42 502.23 553 492 curveto
566.49 481.03 609.84 466.25 638.75 457.19 curveto
stroke
0 0 0 edgecolor
newpath 640.15 460.42 moveto
648.67 454.12 lineto
638.08 453.73 lineto
closepath fill
1 setlinewidth
solid
0 0 0 edgecolor
newpath 640.15 460.42 moveto
648.67 454.12 lineto
638.08 453.73 lineto
closepath stroke
0 0 0 edgecolor
14 /Times-Roman set_font
553 497.4 moveto 34 ([0,1]) alignedtext
grestore
% 26->11
gsave
1 setlinewidth
0 0 0 edgecolor
newpath 490.29 548.02 moveto
460.22 541.3 407.1 528.05 364 510 curveto
336.02 498.28 306.13 480.99 284.9 467.8 curveto
stroke
0 0 0 edgecolor
newpath 286.7 464.8 moveto
276.37 462.43 lineto
282.97 470.72 lineto
closepath fill
1 setlinewidth
solid
0 0 0 edgecolor
newpath 286.7 464.8 moveto
276.37 462.43 lineto
282.97 470.72 lineto
closepath stroke
0 0 0 edgecolor
14 /Times-Roman set_font
364 497.4 moveto 34 ([1,1]) alignedtext
grestore
% 26->20
gsave
1 setlinewidth
0 0 0 edgecolor
newpath 519.55 529.1 moveto
526.62 501.98 540.67 457.19 563 424 curveto
581.44 396.6 612.52 374.68 635.73 360.95 curveto
stroke
0 0 0 edgecolor
newpath 637.57 363.93 moveto
644.5 355.92 lineto
634.09 357.85 lineto
closepath fill
1 setlinewidth
solid
0 0 0 edgecolor
newpath 637.57 363.93 moveto
644.5 355.92 lineto
634.09 357.85 lineto
closepath stroke
0 0 0 edgecolor
14 /Times-Roman set_font
563 445.4 moveto 34 ([0,0]) alignedtext
grestore
% 26->22
gsave
1 setlinewidth
0 0 0 edgecolor
newpath 499.34 533.39 moveto
489.19 520.64 474.88 504.19 460 492 curveto
387.18 432.35 287.12 382.43 236.73 359.12 curveto
stroke
0 0 0 edgecolor
newpath 237.88 355.8 moveto
227.33 354.82 lineto
234.97 362.17 lineto
closepath fill
1 setlinewidth
solid
0 0 0 edgecolor
newpath 237.88 355.8 moveto
227.33 354.82 lineto
234.97 362.17 lineto
closepath stroke
0 0 0 edgecolor
14 /Times-Roman set_font
436 445.4 moveto 34 ([1,0]) alignedtext
grestore
% 27->24
gsave
1 setlinewidth
0 0 0 edgecolor
newpath 877.86 259.96 moveto
892.83 279.84 913 312.62 913 345 curveto
913 761 913 761 913 761 curveto
913 783.96 913 809.77 913 829.93 curveto
stroke
0 0 0 edgecolor
newpath 909.5 830.2 moveto
913 840.2 lineto
916.5 830.2 lineto
closepath fill
1 setlinewidth
solid
0 0 0 edgecolor
newpath 909.5 830.2 moveto
913 840.2 lineto
916.5 830.2 lineto
closepath stroke
0 0 0 edgecolor
14 /Times-Roman set_font
913 549.4 moveto 34 ([1,1]) alignedtext
grestore
% 27->29
gsave
1 setlinewidth
0 0 0 edgecolor
newpath 874.29 219.7 moveto
883.02 204.56 894.88 184.01 904.59 167.18 curveto
stroke
0 0 0 edgecolor
newpath 907.76 168.68 moveto
909.73 158.27 lineto
901.7 165.18 lineto
closepath fill
1 setlinewidth
solid
0 0 0 edgecolor
newpath 907.76 168.68 moveto
909.73 158.27 lineto
901.7 165.18 lineto
closepath stroke
0 0 0 edgecolor
14 /Times-Roman set_font
895 185.4 moveto 34 ([1,0]) alignedtext
grestore
% 28->11
gsave
1 setlinewidth
0 0 0 edgecolor
newpath 283.6 531.44 moveto
280.26 524.68 276.77 517.12 274 510 curveto
270.6 501.25 267.47 491.59 264.81 482.58 curveto
stroke
0 0 0 edgecolor
newpath 268.13 481.43 moveto
262.02 472.77 lineto
261.39 483.35 lineto
closepath fill
1 setlinewidth
solid
0 0 0 edgecolor
newpath 268.13 481.43 moveto
262.02 472.77 lineto
261.39 483.35 lineto
closepath stroke
0 0 0 edgecolor
14 /Times-Roman set_font
274 497.4 moveto 34 ([0,1]) alignedtext
grestore
% 28->12
gsave
1 setlinewidth
0 0 0 edgecolor
newpath 309.95 533.72 moveto
321 518.41 335.38 495.99 343 474 curveto
369.53 397.43 365 374.04 365 293 curveto
365 293 365 293 365 137 curveto
365 81.87 432.7 51.99 476.83 38.37 curveto
stroke
0 0 0 edgecolor
newpath 478.06 41.66 moveto
486.67 35.48 lineto
476.09 34.94 lineto
closepath fill
1 setlinewidth
solid
0 0 0 edgecolor
newpath 478.06 41.66 moveto
486.67 35.48 lineto
476.09 34.94 lineto
closepath stroke
0 0 0 edgecolor
14 /Times-Roman set_font
366 289.4 moveto 34 ([1,0]) alignedtext
grestore
% 28->22
gsave
1 setlinewidth
0 0 0 edgecolor
newpath 272.21 543.96 moveto
246.14 532.22 204.77 509.01 187 474 curveto
171.51 443.47 180.64 403.93 190.68 376.72 curveto
stroke
0 0 0 edgecolor
newpath 193.99 377.87 moveto
194.38 367.29 lineto
187.47 375.32 lineto
closepath fill
1 setlinewidth
solid
0 0 0 edgecolor
newpath 193.99 377.87 moveto
194.38 367.29 lineto
187.47 375.32 lineto
closepath stroke
0 0 0 edgecolor
14 /Times-Roman set_font
187 445.4 moveto 34 ([0,0]) alignedtext
grestore
% 29->12
gsave
1 setlinewidth
0 0 0 edgecolor
newpath 898.6 130.81 moveto
830.74 112.84 633.46 60.62 550.95 38.78 curveto
stroke
0 0 0 edgecolor
newpath 551.81 35.39 moveto
541.24 36.21 lineto
550.02 42.15 lineto
closepath fill
1 setlinewidth
solid
0 0 0 edgecolor
newpath 551.81 35.39 moveto
541.24 36.21 lineto
550.02 42.15 lineto
closepath stroke
0 0 0 edgecolor
14 /Times-Roman set_font
754 81.4 moveto 34 ([1,0]) alignedtext
grestore
% 29->24
gsave
1 setlinewidth
0 0 0 edgecolor
newpath 939.38 154.45 moveto
956.79 173.85 981 206.96 981 241 curveto
981 761 981 761 981 761 curveto
981 792.99 958.18 822.82 938.97 842.26 curveto
stroke
0 0 0 edgecolor
newpath 936.32 839.95 moveto
931.58 849.43 lineto
941.2 844.98 lineto
closepath fill
1 setlinewidth
solid
0 0 0 edgecolor
newpath 936.32 839.95 moveto
931.58 849.43 lineto
941.2 844.98 lineto
closepath stroke
0 0 0 edgecolor
14 /Times-Roman set_font
981 497.4 moveto 34 ([0,1]) alignedtext
grestore
% 29->29
gsave
1 setlinewidth
0 0 0 edgecolor
newpath 944.25 146.28 moveto
956.61 148.02 968 144.92 968 137 curveto
968 131.37 962.24 128.18 954.47 127.42 curveto
stroke
0 0 0 edgecolor
newpath 954.14 123.93 moveto
944.25 127.72 lineto
954.34 130.93 lineto
closepath fill
1 setlinewidth
solid
0 0 0 edgecolor
newpath 954.14 123.93 moveto
944.25 127.72 lineto
954.34 130.93 lineto
closepath stroke
0 0 0 edgecolor
14 /Times-Roman set_font
968 133.4 moveto 34 ([0,0]) alignedtext
grestore
endpage
showpage
grestore
%%PageTrailer
%%EndPage: 1
%%Trailer
end
restore
%%EOF
