%!PS-Adobe-3.0 EPSF-3.0
%%Creator: graphviz version 2.26.3 (20100126.1600)
%%Title: FSA Utilities
%%Pages: 1
%%BoundingBox: 36 36 1081 976
%%EndComments
save
%%BeginProlog
/DotDict 200 dict def
DotDict begin

/setupLatin1 {
mark
/EncodingVector 256 array def
 EncodingVector 0

ISOLatin1Encoding 0 255 getinterval putinterval
EncodingVector 45 /hyphen put

% Set up ISO Latin 1 character encoding
/starnetISO {
        dup dup findfont dup length dict begin
        { 1 index /FID ne { def }{ pop pop } ifelse
        } forall
        /Encoding EncodingVector def
        currentdict end definefont
} def
/Times-Roman starnetISO def
/Times-Italic starnetISO def
/Times-Bold starnetISO def
/Times-BoldItalic starnetISO def
/Helvetica starnetISO def
/Helvetica-Oblique starnetISO def
/Helvetica-Bold starnetISO def
/Helvetica-BoldOblique starnetISO def
/Courier starnetISO def
/Courier-Oblique starnetISO def
/Courier-Bold starnetISO def
/Courier-BoldOblique starnetISO def
cleartomark
} bind def

%%BeginResource: procset graphviz 0 0
/coord-font-family /Times-Roman def
/default-font-family /Times-Roman def
/coordfont coord-font-family findfont 8 scalefont def

/InvScaleFactor 1.0 def
/set_scale {
       dup 1 exch div /InvScaleFactor exch def
       scale
} bind def

% styles
/solid { [] 0 setdash } bind def
/dashed { [9 InvScaleFactor mul dup ] 0 setdash } bind def
/dotted { [1 InvScaleFactor mul 6 InvScaleFactor mul] 0 setdash } bind def
/invis {/fill {newpath} def /stroke {newpath} def /show {pop newpath} def} bind def
/bold { 2 setlinewidth } bind def
/filled { } bind def
/unfilled { } bind def
/rounded { } bind def
/diagonals { } bind def

% hooks for setting color 
/nodecolor { sethsbcolor } bind def
/edgecolor { sethsbcolor } bind def
/graphcolor { sethsbcolor } bind def
/nopcolor {pop pop pop} bind def

/beginpage {	% i j npages
	/npages exch def
	/j exch def
	/i exch def
	/str 10 string def
	npages 1 gt {
		gsave
			coordfont setfont
			0 0 moveto
			(\() show i str cvs show (,) show j str cvs show (\)) show
		grestore
	} if
} bind def

/set_font {
	findfont exch
	scalefont setfont
} def

% draw text fitted to its expected width
/alignedtext {			% width text
	/text exch def
	/width exch def
	gsave
		width 0 gt {
			[] 0 setdash
			text stringwidth pop width exch sub text length div 0 text ashow
		} if
	grestore
} def

/boxprim {				% xcorner ycorner xsize ysize
		4 2 roll
		moveto
		2 copy
		exch 0 rlineto
		0 exch rlineto
		pop neg 0 rlineto
		closepath
} bind def

/ellipse_path {
	/ry exch def
	/rx exch def
	/y exch def
	/x exch def
	matrix currentmatrix
	newpath
	x y translate
	rx ry scale
	0 0 1 0 360 arc
	setmatrix
} bind def

/endpage { showpage } bind def
/showpage { } def

/layercolorseq
	[	% layer color sequence - darkest to lightest
		[0 0 0]
		[.2 .8 .8]
		[.4 .8 .8]
		[.6 .8 .8]
		[.8 .8 .8]
	]
def

/layerlen layercolorseq length def

/setlayer {/maxlayer exch def /curlayer exch def
	layercolorseq curlayer 1 sub layerlen mod get
	aload pop sethsbcolor
	/nodecolor {nopcolor} def
	/edgecolor {nopcolor} def
	/graphcolor {nopcolor} def
} bind def

/onlayer { curlayer ne {invis} if } def

/onlayers {
	/myupper exch def
	/mylower exch def
	curlayer mylower lt
	curlayer myupper gt
	or
	{invis} if
} def

/curlayer 0 def

%%EndResource
%%EndProlog
%%BeginSetup
14 default-font-family set_font
1 setmiterlimit
% /arrowlength 10 def
% /arrowwidth 5 def

% make sure pdfmark is harmless for PS-interpreters other than Distiller
/pdfmark where {pop} {userdict /pdfmark /cleartomark load put} ifelse
% make '<<' and '>>' safe on PS Level 1 devices
/languagelevel where {pop languagelevel}{1} ifelse
2 lt {
    userdict (<<) cvn ([) cvn load put
    userdict (>>) cvn ([) cvn load put
} if

%%EndSetup
setupLatin1
%%Page: 1 1
%%PageBoundingBox: 36 36 1081 976
%%PageOrientation: Portrait
0 0 1 beginpage
gsave
36 36 1045 940 boxprim clip newpath
1 1 set_scale 0 rotate 40 41 translate
% start0
gsave
grestore
% 0
gsave
0.21961 0.75686 1 nodecolor
658 839 17.89 18.38 ellipse_path fill
1 setlinewidth
filled
0.21961 0.75686 1 nodecolor
658 839 17.89 18.38 ellipse_path stroke
0 0 0 nodecolor
14 /Times-Roman set_font
653 835.4 moveto 10 (0) alignedtext
grestore
% start0->0
gsave
1 setlinewidth
0 0 0 edgecolor
newpath 658 895.84 moveto
658 887.4 658 877.16 658 867.71 curveto
stroke
0 0 0 edgecolor
newpath 661.5 867.51 moveto
658 857.51 lineto
654.5 867.51 lineto
closepath fill
1 setlinewidth
solid
0 0 0 edgecolor
newpath 661.5 867.51 moveto
658 857.51 lineto
654.5 867.51 lineto
closepath stroke
grestore
% 0->0
gsave
1 setlinewidth
0 0 0 edgecolor
newpath 675.27 845.5 moveto
686.79 847.33 698 845.16 698 839 curveto
698 834.76 692.7 832.42 685.64 831.96 curveto
stroke
0 0 0 edgecolor
newpath 685.07 828.48 moveto
675.27 832.5 lineto
685.44 835.47 lineto
closepath fill
1 setlinewidth
solid
0 0 0 edgecolor
newpath 685.07 828.48 moveto
675.27 832.5 lineto
685.44 835.47 lineto
closepath stroke
0 0 0 edgecolor
14 /Times-Roman set_font
698 835.4 moveto 47 ([0,0,0]) alignedtext
grestore
% 1
gsave
0.54118 0.25098 1 nodecolor
736 747 17.89 18.38 ellipse_path fill
1 setlinewidth
filled
0.54118 0.25098 1 nodecolor
736 747 17.89 18.38 ellipse_path stroke
0 0 0 nodecolor
14 /Times-Roman set_font
731 743.4 moveto 10 (1) alignedtext
grestore
% 0->1
gsave
1 setlinewidth
0 0 0 edgecolor
newpath 669.85 825.03 moveto
682.45 810.17 702.55 786.45 717.29 769.07 curveto
stroke
0 0 0 edgecolor
newpath 720.24 771 moveto
724.04 761.1 lineto
714.91 766.47 lineto
closepath fill
1 setlinewidth
solid
0 0 0 edgecolor
newpath 720.24 771 moveto
724.04 761.1 lineto
714.91 766.47 lineto
closepath stroke
0 0 0 edgecolor
14 /Times-Roman set_font
703 789.4 moveto 47 ([0,0,1]) alignedtext
grestore
% 2
gsave
0.023529 0.72157 1 nodecolor
385 651 17.98 18.38 ellipse_path fill
1 setlinewidth
filled
0.023529 0.72157 1 nodecolor
385 651 17.98 18.38 ellipse_path stroke
1 setlinewidth
filled
0.023529 0.72157 1 nodecolor
385 651 21.89 22.38 ellipse_path stroke
0 0 0 nodecolor
14 /Times-Roman set_font
380 647.4 moveto 10 (2) alignedtext
grestore
% 0->2
gsave
1 setlinewidth
0 0 0 edgecolor
newpath 642.93 828.62 moveto
598.69 798.16 468.69 708.64 411.98 669.58 curveto
stroke
0 0 0 edgecolor
newpath 413.75 666.55 moveto
403.53 663.76 lineto
409.78 672.32 lineto
closepath fill
1 setlinewidth
solid
0 0 0 edgecolor
newpath 413.75 666.55 moveto
403.53 663.76 lineto
409.78 672.32 lineto
closepath stroke
0 0 0 edgecolor
14 /Times-Roman set_font
548 743.4 moveto 47 ([0,1,1]) alignedtext
grestore
% 3
gsave
0.54118 0.25098 1 nodecolor
913 651 17.89 18.38 ellipse_path fill
1 setlinewidth
filled
0.54118 0.25098 1 nodecolor
913 651 17.89 18.38 ellipse_path stroke
0 0 0 nodecolor
14 /Times-Roman set_font
908 647.4 moveto 10 (3) alignedtext
grestore
% 1->3
gsave
1 setlinewidth
0 0 0 edgecolor
newpath 752.02 738.31 moveto
782.88 721.58 850.77 684.75 887.76 664.69 curveto
stroke
0 0 0 edgecolor
newpath 889.77 667.58 moveto
896.89 659.74 lineto
886.43 661.43 lineto
closepath fill
1 setlinewidth
solid
0 0 0 edgecolor
newpath 889.77 667.58 moveto
896.89 659.74 lineto
886.43 661.43 lineto
closepath stroke
0 0 0 edgecolor
14 /Times-Roman set_font
835 697.4 moveto 47 ([0,1,1]) alignedtext
grestore
% 4
gsave
0.54118 0.25098 1 nodecolor
385 555 17.89 18.38 ellipse_path fill
1 setlinewidth
filled
0.54118 0.25098 1 nodecolor
385 555 17.89 18.38 ellipse_path stroke
0 0 0 nodecolor
14 /Times-Roman set_font
380 551.4 moveto 10 (4) alignedtext
grestore
% 2->4
gsave
1 setlinewidth
0 0 0 edgecolor
newpath 385 628.25 moveto
385 614.99 385 598.15 385 583.95 curveto
stroke
0 0 0 edgecolor
newpath 388.5 583.72 moveto
385 573.72 lineto
381.5 583.72 lineto
closepath fill
1 setlinewidth
solid
0 0 0 edgecolor
newpath 388.5 583.72 moveto
385 573.72 lineto
381.5 583.72 lineto
closepath stroke
0 0 0 edgecolor
14 /Times-Roman set_font
385 597.4 moveto 47 ([0,0,1]) alignedtext
grestore
% 5
gsave
0.023529 0.72157 1 nodecolor
288 23 17.98 18.38 ellipse_path fill
1 setlinewidth
filled
0.023529 0.72157 1 nodecolor
288 23 17.98 18.38 ellipse_path stroke
1 setlinewidth
filled
0.023529 0.72157 1 nodecolor
288 23 21.89 22.38 ellipse_path stroke
0 0 0 nodecolor
14 /Times-Roman set_font
283 19.4 moveto 10 (5) alignedtext
grestore
% 2->5
gsave
1 setlinewidth
0 0 0 edgecolor
newpath 407.04 649.25 moveto
505.23 641.19 898 605.74 898 555 curveto
898 555 898 555 898 125 curveto
898 65.86 446.15 32.96 320.23 24.94 curveto
stroke
0 0 0 edgecolor
newpath 320.27 21.44 moveto
310.07 24.31 lineto
319.83 28.43 lineto
closepath fill
1 setlinewidth
solid
0 0 0 edgecolor
newpath 320.27 21.44 moveto
310.07 24.31 lineto
319.83 28.43 lineto
closepath stroke
0 0 0 edgecolor
14 /Times-Roman set_font
898 329.4 moveto 47 ([1,0,0]) alignedtext
grestore
% 6
gsave
0.54118 0.25098 1 nodecolor
214 229 17.89 18.38 ellipse_path fill
1 setlinewidth
filled
0.54118 0.25098 1 nodecolor
214 229 17.89 18.38 ellipse_path stroke
0 0 0 nodecolor
14 /Times-Roman set_font
209 225.4 moveto 10 (6) alignedtext
grestore
% 2->6
gsave
1 setlinewidth
0 0 0 edgecolor
newpath 363.15 647.96 moveto
299.38 638.49 118 606.97 118 555 curveto
118 555 118 555 118 333 curveto
118 291.28 160.24 259.15 188.68 242.24 curveto
stroke
0 0 0 edgecolor
newpath 190.75 245.09 moveto
197.71 237.1 lineto
187.29 239 lineto
closepath fill
1 setlinewidth
solid
0 0 0 edgecolor
newpath 190.75 245.09 moveto
197.71 237.1 lineto
187.29 239 lineto
closepath stroke
0 0 0 edgecolor
14 /Times-Roman set_font
118 433.4 moveto 47 ([1,0,1]) alignedtext
grestore
% 7
gsave
0.54118 0.25098 1 nodecolor
18 499 17.89 18.38 ellipse_path fill
1 setlinewidth
filled
0.54118 0.25098 1 nodecolor
18 499 17.89 18.38 ellipse_path stroke
0 0 0 nodecolor
14 /Times-Roman set_font
13 495.4 moveto 10 (7) alignedtext
grestore
% 2->7
gsave
1 setlinewidth
0 0 0 edgecolor
newpath 362.63 649.61 moveto
292.13 645.05 77.83 629.68 54 610 curveto
29.81 590.02 21.71 553.59 19.09 527.93 curveto
stroke
0 0 0 edgecolor
newpath 22.55 527.35 moveto
18.27 517.67 lineto
15.58 527.91 lineto
closepath fill
1 setlinewidth
solid
0 0 0 edgecolor
newpath 22.55 527.35 moveto
18.27 517.67 lineto
15.58 527.91 lineto
closepath stroke
0 0 0 edgecolor
14 /Times-Roman set_font
54 597.4 moveto 47 ([1,1,1]) alignedtext
grestore
% 8
gsave
0.54118 0.25098 1 nodecolor
950 555 17.89 18.38 ellipse_path fill
1 setlinewidth
filled
0.54118 0.25098 1 nodecolor
950 555 17.89 18.38 ellipse_path stroke
0 0 0 nodecolor
14 /Times-Roman set_font
945 551.4 moveto 10 (8) alignedtext
grestore
% 3->8
gsave
1 setlinewidth
0 0 0 edgecolor
newpath 919.79 633.39 moveto
925.31 619.05 933.21 598.55 939.55 582.11 curveto
stroke
0 0 0 edgecolor
newpath 942.93 583.09 moveto
943.26 572.5 lineto
936.39 580.57 lineto
closepath fill
1 setlinewidth
solid
0 0 0 edgecolor
newpath 942.93 583.09 moveto
943.26 572.5 lineto
936.39 580.57 lineto
closepath stroke
0 0 0 edgecolor
14 /Times-Roman set_font
934 597.4 moveto 47 ([1,1,0]) alignedtext
grestore
% 9
gsave
0.54118 0.25098 1 nodecolor
581 437 17.89 18.38 ellipse_path fill
1 setlinewidth
filled
0.54118 0.25098 1 nodecolor
581 437 17.89 18.38 ellipse_path stroke
0 0 0 nodecolor
14 /Times-Roman set_font
576 433.4 moveto 10 (9) alignedtext
grestore
% 4->9
gsave
1 setlinewidth
0 0 0 edgecolor
newpath 400.71 545.54 moveto
434.76 525.05 515.57 476.39 556.44 451.79 curveto
stroke
0 0 0 edgecolor
newpath 558.46 454.66 moveto
565.22 446.5 lineto
554.84 448.66 lineto
closepath fill
1 setlinewidth
solid
0 0 0 edgecolor
newpath 558.46 454.66 moveto
565.22 446.5 lineto
554.84 448.66 lineto
closepath stroke
0 0 0 edgecolor
14 /Times-Roman set_font
506 495.4 moveto 47 ([1,0,0]) alignedtext
grestore
% 10
gsave
0.54118 0.25098 1 nodecolor
250 437 24.24 24.75 ellipse_path fill
1 setlinewidth
filled
0.54118 0.25098 1 nodecolor
250 437 24.24 24.75 ellipse_path stroke
0 0 0 nodecolor
14 /Times-Roman set_font
240.5 433.4 moveto 19 (10) alignedtext
grestore
% 4->10
gsave
1 setlinewidth
0 0 0 edgecolor
newpath 371.06 542.82 moveto
348.65 523.22 304.24 484.41 275.89 459.63 curveto
stroke
0 0 0 edgecolor
newpath 278.18 456.99 moveto
268.35 453.04 lineto
273.58 462.26 lineto
closepath fill
1 setlinewidth
solid
0 0 0 edgecolor
newpath 278.18 456.99 moveto
268.35 453.04 lineto
273.58 462.26 lineto
closepath stroke
0 0 0 edgecolor
14 /Times-Roman set_font
341 495.4 moveto 47 ([1,1,0]) alignedtext
grestore
% 6->5
gsave
1 setlinewidth
0 0 0 edgecolor
newpath 219.74 211.39 moveto
227.92 186.48 243.55 139.56 258 100 curveto
263.62 84.6 270.2 67.61 275.77 53.51 curveto
stroke
0 0 0 edgecolor
newpath 279.17 54.41 moveto
279.61 43.82 lineto
272.67 51.83 lineto
closepath fill
1 setlinewidth
solid
0 0 0 edgecolor
newpath 279.17 54.41 moveto
279.61 43.82 lineto
272.67 51.83 lineto
closepath stroke
0 0 0 edgecolor
14 /Times-Roman set_font
258 121.4 moveto 47 ([0,0,0]) alignedtext
grestore
% 6->6
gsave
1 setlinewidth
0 0 0 edgecolor
newpath 230.02 237.6 moveto
241.96 240.6 254 237.73 254 229 curveto
254 222.79 247.92 219.55 240.11 219.27 curveto
stroke
0 0 0 edgecolor
newpath 239.57 215.81 moveto
230.02 220.4 lineto
240.35 222.76 lineto
closepath fill
1 setlinewidth
solid
0 0 0 edgecolor
newpath 239.57 215.81 moveto
230.02 220.4 lineto
240.35 222.76 lineto
closepath stroke
0 0 0 edgecolor
14 /Times-Roman set_font
254 225.4 moveto 47 ([0,1,0]) alignedtext
grestore
% 7->5
gsave
1 setlinewidth
0 0 0 edgecolor
newpath 22.64 480.97 moveto
27.97 458.62 36 419.26 36 385 curveto
36 385 36 385 36 125 curveto
36 78.07 188.06 42.5 255.94 28.96 curveto
stroke
0 0 0 edgecolor
newpath 256.94 32.33 moveto
266.08 26.98 lineto
255.59 25.46 lineto
closepath fill
1 setlinewidth
solid
0 0 0 edgecolor
newpath 256.94 32.33 moveto
266.08 26.98 lineto
255.59 25.46 lineto
closepath stroke
0 0 0 edgecolor
14 /Times-Roman set_font
36 277.4 moveto 47 ([1,0,0]) alignedtext
grestore
% 7->7
gsave
1 setlinewidth
0 0 0 edgecolor
newpath 34.02 508.26 moveto
45.96 511.49 58 508.41 58 499 curveto
58 492.31 51.92 488.82 44.11 488.52 curveto
stroke
0 0 0 edgecolor
newpath 43.53 485.07 moveto
34.02 489.74 lineto
44.37 492.01 lineto
closepath fill
1 setlinewidth
solid
0 0 0 edgecolor
newpath 43.53 485.07 moveto
34.02 489.74 lineto
44.37 492.01 lineto
closepath stroke
0 0 0 edgecolor
14 /Times-Roman set_font
58 495.4 moveto 47 ([0,0,0]) alignedtext
grestore
% 8->8
gsave
1 setlinewidth
0 0 0 edgecolor
newpath 966.44 562.7 moveto
978.24 565.2 990 562.64 990 555 curveto
990 549.63 984.19 546.77 976.63 546.41 curveto
stroke
0 0 0 edgecolor
newpath 976.09 542.95 moveto
966.44 547.3 lineto
976.7 549.92 lineto
closepath fill
1 setlinewidth
solid
0 0 0 edgecolor
newpath 976.09 542.95 moveto
966.44 547.3 lineto
976.7 549.92 lineto
closepath stroke
0 0 0 edgecolor
14 /Times-Roman set_font
990 551.4 moveto 47 ([0,0,0]) alignedtext
grestore
% 8->9
gsave
1 setlinewidth
0 0 0 edgecolor
newpath 932.7 549.47 moveto
873.62 530.58 679.6 468.53 607.92 445.61 curveto
stroke
0 0 0 edgecolor
newpath 608.86 442.23 moveto
598.27 442.52 lineto
606.72 448.9 lineto
closepath fill
1 setlinewidth
solid
0 0 0 edgecolor
newpath 608.86 442.23 moveto
598.27 442.52 lineto
606.72 448.9 lineto
closepath stroke
0 0 0 edgecolor
14 /Times-Roman set_font
830 495.4 moveto 47 ([0,1,0]) alignedtext
grestore
% 11
gsave
0.54118 0.25098 1 nodecolor
626 229 24.24 24.75 ellipse_path fill
1 setlinewidth
filled
0.54118 0.25098 1 nodecolor
626 229 24.24 24.75 ellipse_path stroke
0 0 0 nodecolor
14 /Times-Roman set_font
616.5 225.4 moveto 19 (11) alignedtext
grestore
% 9->11
gsave
1 setlinewidth
0 0 0 edgecolor
newpath 570.6 421.88 moveto
555.1 397.34 529.45 347.61 546 308 curveto
556.38 283.17 578.78 262.17 597.25 248.07 curveto
stroke
0 0 0 edgecolor
newpath 599.41 250.83 moveto
605.4 242.1 lineto
595.27 245.19 lineto
closepath fill
1 setlinewidth
solid
0 0 0 edgecolor
newpath 599.41 250.83 moveto
605.4 242.1 lineto
595.27 245.19 lineto
closepath stroke
0 0 0 edgecolor
14 /Times-Roman set_font
546 329.4 moveto 47 ([0,0,0]) alignedtext
grestore
% 12
gsave
0.54118 0.25098 1 nodecolor
719 333 24.24 24.75 ellipse_path fill
1 setlinewidth
filled
0.54118 0.25098 1 nodecolor
719 333 24.24 24.75 ellipse_path stroke
0 0 0 nodecolor
14 /Times-Roman set_font
709.5 329.4 moveto 19 (12) alignedtext
grestore
% 9->12
gsave
1 setlinewidth
0 0 0 edgecolor
newpath 596.24 426.86 moveto
608.92 418.33 627.36 405.68 643 394 curveto
659.66 381.56 677.84 367.01 692.24 355.24 curveto
stroke
0 0 0 edgecolor
newpath 694.73 357.72 moveto
700.24 348.67 lineto
690.29 352.31 lineto
closepath fill
1 setlinewidth
solid
0 0 0 edgecolor
newpath 694.73 357.72 moveto
700.24 348.67 lineto
690.29 352.31 lineto
closepath stroke
0 0 0 edgecolor
14 /Times-Roman set_font
666 381.4 moveto 47 ([0,1,0]) alignedtext
grestore
% 13
gsave
0.54118 0.25098 1 nodecolor
343 229 24.24 24.75 ellipse_path fill
1 setlinewidth
filled
0.54118 0.25098 1 nodecolor
343 229 24.24 24.75 ellipse_path stroke
0 0 0 nodecolor
14 /Times-Roman set_font
333.5 225.4 moveto 19 (13) alignedtext
grestore
% 9->13
gsave
1 setlinewidth
0 0 0 edgecolor
newpath 566.73 425.05 moveto
548.41 409.67 515.66 382.05 488 358 curveto
445.93 321.43 397.68 278.25 368.8 252.28 curveto
stroke
0 0 0 edgecolor
newpath 370.97 249.52 moveto
361.19 245.43 lineto
366.28 254.72 lineto
closepath fill
1 setlinewidth
solid
0 0 0 edgecolor
newpath 370.97 249.52 moveto
361.19 245.43 lineto
366.28 254.72 lineto
closepath stroke
0 0 0 edgecolor
14 /Times-Roman set_font
488 329.4 moveto 47 ([1,0,0]) alignedtext
grestore
% 14
gsave
0.54118 0.25098 1 nodecolor
311 333 24.24 24.75 ellipse_path fill
1 setlinewidth
filled
0.54118 0.25098 1 nodecolor
311 333 24.24 24.75 ellipse_path stroke
0 0 0 nodecolor
14 /Times-Roman set_font
301.5 329.4 moveto 19 (14) alignedtext
grestore
% 9->14
gsave
1 setlinewidth
0 0 0 edgecolor
newpath 562.78 436.18 moveto
526.23 433.89 442.12 425.35 380 394 curveto
362.86 385.35 346.62 371.39 334.2 359.01 curveto
stroke
0 0 0 edgecolor
newpath 336.46 356.32 moveto
326.99 351.57 lineto
331.44 361.19 lineto
closepath fill
1 setlinewidth
solid
0 0 0 edgecolor
newpath 336.46 356.32 moveto
326.99 351.57 lineto
331.44 361.19 lineto
closepath stroke
0 0 0 edgecolor
14 /Times-Roman set_font
380 381.4 moveto 47 ([1,1,0]) alignedtext
grestore
% 10->10
gsave
1 setlinewidth
0 0 0 edgecolor
newpath 272.25 446.28 moveto
284.61 448.02 296 444.92 296 437 curveto
296 431.37 290.24 428.18 282.47 427.42 curveto
stroke
0 0 0 edgecolor
newpath 282.14 423.93 moveto
272.25 427.72 lineto
282.34 430.93 lineto
closepath fill
1 setlinewidth
solid
0 0 0 edgecolor
newpath 282.14 423.93 moveto
272.25 427.72 lineto
282.34 430.93 lineto
closepath stroke
0 0 0 edgecolor
14 /Times-Roman set_font
296 433.4 moveto 47 ([1,1,0]) alignedtext
grestore
% 15
gsave
0.54118 0.25098 1 nodecolor
176 333 24.24 24.75 ellipse_path fill
1 setlinewidth
filled
0.54118 0.25098 1 nodecolor
176 333 24.24 24.75 ellipse_path stroke
0 0 0 nodecolor
14 /Times-Roman set_font
166.5 329.4 moveto 19 (15) alignedtext
grestore
% 10->15
gsave
1 setlinewidth
0 0 0 edgecolor
newpath 226.65 431.14 moveto
208.22 425.15 183.72 413.84 172 394 curveto
167.16 385.81 166.2 375.88 167 366.44 curveto
stroke
0 0 0 edgecolor
newpath 170.47 366.88 moveto
168.45 356.48 lineto
163.54 365.87 lineto
closepath fill
1 setlinewidth
solid
0 0 0 edgecolor
newpath 170.47 366.88 moveto
168.45 356.48 lineto
163.54 365.87 lineto
closepath stroke
0 0 0 edgecolor
14 /Times-Roman set_font
172 381.4 moveto 47 ([1,0,0]) alignedtext
grestore
% 11->9
gsave
1 setlinewidth
0 0 0 edgecolor
newpath 620.76 253.2 moveto
612.37 292.01 595.94 367.94 587.05 409.02 curveto
stroke
0 0 0 edgecolor
newpath 583.61 408.39 moveto
584.91 418.91 lineto
590.45 409.87 lineto
closepath fill
1 setlinewidth
solid
0 0 0 edgecolor
newpath 583.61 408.39 moveto
584.91 418.91 lineto
590.45 409.87 lineto
closepath stroke
0 0 0 edgecolor
14 /Times-Roman set_font
608 329.4 moveto 47 ([1,1,0]) alignedtext
grestore
% 16
gsave
0.54118 0.25098 1 nodecolor
626 125 24.24 24.75 ellipse_path fill
1 setlinewidth
filled
0.54118 0.25098 1 nodecolor
626 125 24.24 24.75 ellipse_path stroke
0 0 0 nodecolor
14 /Times-Roman set_font
616.5 121.4 moveto 19 (16) alignedtext
grestore
% 11->16
gsave
1 setlinewidth
0 0 0 edgecolor
newpath 626 204.35 moveto
626 191.11 626 174.56 626 160 curveto
stroke
0 0 0 edgecolor
newpath 629.5 159.83 moveto
626 149.83 lineto
622.5 159.83 lineto
closepath fill
1 setlinewidth
solid
0 0 0 edgecolor
newpath 629.5 159.83 moveto
626 149.83 lineto
622.5 159.83 lineto
closepath stroke
0 0 0 edgecolor
14 /Times-Roman set_font
626 173.4 moveto 47 ([1,0,0]) alignedtext
grestore
% 12->11
gsave
1 setlinewidth
0 0 0 edgecolor
newpath 702.8 314.88 moveto
687.96 298.28 665.81 273.52 649.11 254.85 curveto
stroke
0 0 0 edgecolor
newpath 651.6 252.38 moveto
642.33 247.26 lineto
646.38 257.04 lineto
closepath fill
1 setlinewidth
solid
0 0 0 edgecolor
newpath 651.6 252.38 moveto
642.33 247.26 lineto
646.38 257.04 lineto
closepath stroke
0 0 0 edgecolor
14 /Times-Roman set_font
678 277.4 moveto 47 ([1,0,0]) alignedtext
grestore
% 12->12
gsave
1 setlinewidth
0 0 0 edgecolor
newpath 741.25 342.28 moveto
753.61 344.02 765 340.92 765 333 curveto
765 327.37 759.24 324.18 751.47 323.42 curveto
stroke
0 0 0 edgecolor
newpath 751.14 319.93 moveto
741.25 323.72 lineto
751.34 326.93 lineto
closepath fill
1 setlinewidth
solid
0 0 0 edgecolor
newpath 751.14 319.93 moveto
741.25 323.72 lineto
751.34 326.93 lineto
closepath stroke
0 0 0 edgecolor
14 /Times-Roman set_font
765 329.4 moveto 47 ([1,1,0]) alignedtext
grestore
% 13->5
gsave
1 setlinewidth
0 0 0 edgecolor
newpath 336.58 204.97 moveto
326.66 167.79 307.57 96.3 296.51 54.86 curveto
stroke
0 0 0 edgecolor
newpath 299.84 53.76 moveto
293.88 45.01 lineto
293.07 55.57 lineto
closepath fill
1 setlinewidth
solid
0 0 0 edgecolor
newpath 299.84 53.76 moveto
293.88 45.01 lineto
293.07 55.57 lineto
closepath stroke
0 0 0 edgecolor
14 /Times-Roman set_font
321 121.4 moveto 47 ([0,0,0]) alignedtext
grestore
% 14->13
gsave
1 setlinewidth
0 0 0 edgecolor
newpath 318.26 309.4 moveto
322.56 295.44 328.07 277.54 332.79 262.17 curveto
stroke
0 0 0 edgecolor
newpath 336.17 263.09 moveto
335.77 252.51 lineto
329.48 261.03 lineto
closepath fill
1 setlinewidth
solid
0 0 0 edgecolor
newpath 336.17 263.09 moveto
335.77 252.51 lineto
329.48 261.03 lineto
closepath stroke
0 0 0 edgecolor
14 /Times-Roman set_font
328 277.4 moveto 47 ([0,0,0]) alignedtext
grestore
% 14->14
gsave
1 setlinewidth
0 0 0 edgecolor
newpath 333.25 342.28 moveto
345.61 344.02 357 340.92 357 333 curveto
357 327.37 351.24 324.18 343.47 323.42 curveto
stroke
0 0 0 edgecolor
newpath 343.14 319.93 moveto
333.25 323.72 lineto
343.34 326.93 lineto
closepath fill
1 setlinewidth
solid
0 0 0 edgecolor
newpath 343.14 319.93 moveto
333.25 323.72 lineto
343.34 326.93 lineto
closepath stroke
0 0 0 edgecolor
14 /Times-Roman set_font
357 329.4 moveto 47 ([0,1,0]) alignedtext
grestore
% 15->5
gsave
1 setlinewidth
0 0 0 edgecolor
newpath 171.45 308.71 moveto
166.33 275.8 160.68 215.7 177 168 curveto
194.19 117.77 236.39 71.2 263.52 45.01 curveto
stroke
0 0 0 edgecolor
newpath 266.22 47.27 moveto
271.08 37.86 lineto
261.41 42.19 lineto
closepath fill
1 setlinewidth
solid
0 0 0 edgecolor
newpath 266.22 47.27 moveto
271.08 37.86 lineto
261.41 42.19 lineto
closepath stroke
0 0 0 edgecolor
14 /Times-Roman set_font
177 173.4 moveto 47 ([1,0,0]) alignedtext
grestore
% 15->6
gsave
1 setlinewidth
0 0 0 edgecolor
newpath 184.43 309.92 moveto
190.23 294.06 197.94 272.94 204.04 256.25 curveto
stroke
0 0 0 edgecolor
newpath 207.45 257.12 moveto
207.6 246.52 lineto
200.88 254.72 lineto
closepath fill
1 setlinewidth
solid
0 0 0 edgecolor
newpath 207.45 257.12 moveto
207.6 246.52 lineto
200.88 254.72 lineto
closepath stroke
0 0 0 edgecolor
14 /Times-Roman set_font
198 277.4 moveto 47 ([1,1,0]) alignedtext
grestore
% 15->10
gsave
1 setlinewidth
0 0 0 edgecolor
newpath 195.63 347.27 moveto
205.15 354.96 216.18 365.09 224 376 curveto
230.02 384.4 235.02 394.42 238.97 403.88 curveto
stroke
0 0 0 edgecolor
newpath 235.8 405.41 moveto
242.7 413.45 lineto
242.33 402.86 lineto
closepath fill
1 setlinewidth
solid
0 0 0 edgecolor
newpath 235.8 405.41 moveto
242.7 413.45 lineto
242.33 402.86 lineto
closepath stroke
0 0 0 edgecolor
14 /Times-Roman set_font
235 381.4 moveto 47 ([0,1,0]) alignedtext
grestore
% 15->15
gsave
1 setlinewidth
0 0 0 edgecolor
newpath 198.25 342.28 moveto
210.61 344.02 222 340.92 222 333 curveto
222 327.37 216.24 324.18 208.47 323.42 curveto
stroke
0 0 0 edgecolor
newpath 208.14 319.93 moveto
198.25 323.72 lineto
208.34 326.93 lineto
closepath fill
1 setlinewidth
solid
0 0 0 edgecolor
newpath 208.14 319.93 moveto
198.25 323.72 lineto
208.34 326.93 lineto
closepath stroke
0 0 0 edgecolor
14 /Times-Roman set_font
222 329.4 moveto 47 ([0,0,0]) alignedtext
grestore
% 16->5
gsave
1 setlinewidth
0 0 0 edgecolor
newpath 602.77 117.99 moveto
543.45 100.09 386.35 52.68 319.18 32.41 curveto
stroke
0 0 0 edgecolor
newpath 319.78 28.94 moveto
309.2 29.4 lineto
317.76 35.64 lineto
closepath fill
1 setlinewidth
solid
0 0 0 edgecolor
newpath 319.78 28.94 moveto
309.2 29.4 lineto
317.76 35.64 lineto
closepath stroke
0 0 0 edgecolor
14 /Times-Roman set_font
477 69.4 moveto 47 ([1,0,0]) alignedtext
grestore
% 16->9
gsave
1 setlinewidth
0 0 0 edgecolor
newpath 647.71 135.67 moveto
710.34 167.87 882.87 267.43 819 358 curveto
794.26 393.09 666.38 421 608.96 431.97 curveto
stroke
0 0 0 edgecolor
newpath 608.29 428.53 moveto
599.1 433.82 lineto
609.58 435.41 lineto
closepath fill
1 setlinewidth
solid
0 0 0 edgecolor
newpath 608.29 428.53 moveto
599.1 433.82 lineto
609.58 435.41 lineto
closepath stroke
0 0 0 edgecolor
14 /Times-Roman set_font
827 277.4 moveto 47 ([0,1,0]) alignedtext
grestore
% 16->16
gsave
1 setlinewidth
0 0 0 edgecolor
newpath 648.25 134.28 moveto
660.61 136.02 672 132.92 672 125 curveto
672 119.37 666.24 116.18 658.47 115.42 curveto
stroke
0 0 0 edgecolor
newpath 658.14 111.93 moveto
648.25 115.72 lineto
658.34 118.93 lineto
closepath fill
1 setlinewidth
solid
0 0 0 edgecolor
newpath 658.14 111.93 moveto
648.25 115.72 lineto
658.34 118.93 lineto
closepath stroke
0 0 0 edgecolor
14 /Times-Roman set_font
672 121.4 moveto 47 ([0,0,0]) alignedtext
grestore
endpage
showpage
grestore
%%PageTrailer
%%EndPage: 1
%%Trailer
end
restore
%%EOF
