%!PS-Adobe-3.0 EPSF-3.0
%%Creator: graphviz version 2.26.3 (20100126.1600)
%%Title: FSA Utilities
%%Pages: 1
%%BoundingBox: 36 36 1054 976
%%EndComments
save
%%BeginProlog
/DotDict 200 dict def
DotDict begin

/setupLatin1 {
mark
/EncodingVector 256 array def
 EncodingVector 0

ISOLatin1Encoding 0 255 getinterval putinterval
EncodingVector 45 /hyphen put

% Set up ISO Latin 1 character encoding
/starnetISO {
        dup dup findfont dup length dict begin
        { 1 index /FID ne { def }{ pop pop } ifelse
        } forall
        /Encoding EncodingVector def
        currentdict end definefont
} def
/Times-Roman starnetISO def
/Times-Italic starnetISO def
/Times-Bold starnetISO def
/Times-BoldItalic starnetISO def
/Helvetica starnetISO def
/Helvetica-Oblique starnetISO def
/Helvetica-Bold starnetISO def
/Helvetica-BoldOblique starnetISO def
/Courier starnetISO def
/Courier-Oblique starnetISO def
/Courier-Bold starnetISO def
/Courier-BoldOblique starnetISO def
cleartomark
} bind def

%%BeginResource: procset graphviz 0 0
/coord-font-family /Times-Roman def
/default-font-family /Times-Roman def
/coordfont coord-font-family findfont 8 scalefont def

/InvScaleFactor 1.0 def
/set_scale {
       dup 1 exch div /InvScaleFactor exch def
       scale
} bind def

% styles
/solid { [] 0 setdash } bind def
/dashed { [9 InvScaleFactor mul dup ] 0 setdash } bind def
/dotted { [1 InvScaleFactor mul 6 InvScaleFactor mul] 0 setdash } bind def
/invis {/fill {newpath} def /stroke {newpath} def /show {pop newpath} def} bind def
/bold { 2 setlinewidth } bind def
/filled { } bind def
/unfilled { } bind def
/rounded { } bind def
/diagonals { } bind def

% hooks for setting color 
/nodecolor { sethsbcolor } bind def
/edgecolor { sethsbcolor } bind def
/graphcolor { sethsbcolor } bind def
/nopcolor {pop pop pop} bind def

/beginpage {	% i j npages
	/npages exch def
	/j exch def
	/i exch def
	/str 10 string def
	npages 1 gt {
		gsave
			coordfont setfont
			0 0 moveto
			(\() show i str cvs show (,) show j str cvs show (\)) show
		grestore
	} if
} bind def

/set_font {
	findfont exch
	scalefont setfont
} def

% draw text fitted to its expected width
/alignedtext {			% width text
	/text exch def
	/width exch def
	gsave
		width 0 gt {
			[] 0 setdash
			text stringwidth pop width exch sub text length div 0 text ashow
		} if
	grestore
} def

/boxprim {				% xcorner ycorner xsize ysize
		4 2 roll
		moveto
		2 copy
		exch 0 rlineto
		0 exch rlineto
		pop neg 0 rlineto
		closepath
} bind def

/ellipse_path {
	/ry exch def
	/rx exch def
	/y exch def
	/x exch def
	matrix currentmatrix
	newpath
	x y translate
	rx ry scale
	0 0 1 0 360 arc
	setmatrix
} bind def

/endpage { showpage } bind def
/showpage { } def

/layercolorseq
	[	% layer color sequence - darkest to lightest
		[0 0 0]
		[.2 .8 .8]
		[.4 .8 .8]
		[.6 .8 .8]
		[.8 .8 .8]
	]
def

/layerlen layercolorseq length def

/setlayer {/maxlayer exch def /curlayer exch def
	layercolorseq curlayer 1 sub layerlen mod get
	aload pop sethsbcolor
	/nodecolor {nopcolor} def
	/edgecolor {nopcolor} def
	/graphcolor {nopcolor} def
} bind def

/onlayer { curlayer ne {invis} if } def

/onlayers {
	/myupper exch def
	/mylower exch def
	curlayer mylower lt
	curlayer myupper gt
	or
	{invis} if
} def

/curlayer 0 def

%%EndResource
%%EndProlog
%%BeginSetup
14 default-font-family set_font
1 setmiterlimit
% /arrowlength 10 def
% /arrowwidth 5 def

% make sure pdfmark is harmless for PS-interpreters other than Distiller
/pdfmark where {pop} {userdict /pdfmark /cleartomark load put} ifelse
% make '<<' and '>>' safe on PS Level 1 devices
/languagelevel where {pop languagelevel}{1} ifelse
2 lt {
    userdict (<<) cvn ([) cvn load put
    userdict (>>) cvn ([) cvn load put
} if

%%EndSetup
setupLatin1
%%Page: 1 1
%%PageBoundingBox: 36 36 1054 976
%%PageOrientation: Portrait
0 0 1 beginpage
gsave
36 36 1018 940 boxprim clip newpath
1 1 set_scale 0 rotate 40 41 translate
% start0
gsave
grestore
% 0
gsave
0.21961 0.75686 1 nodecolor
494 839 17.89 18.38 ellipse_path fill
1 setlinewidth
filled
0.21961 0.75686 1 nodecolor
494 839 17.89 18.38 ellipse_path stroke
0 0 0 nodecolor
14 /Times-Roman set_font
489 835.4 moveto 10 (0) alignedtext
grestore
% start0->0
gsave
1 setlinewidth
0 0 0 edgecolor
newpath 494 895.84 moveto
494 887.4 494 877.16 494 867.71 curveto
stroke
0 0 0 edgecolor
newpath 497.5 867.51 moveto
494 857.51 lineto
490.5 867.51 lineto
closepath fill
1 setlinewidth
solid
0 0 0 edgecolor
newpath 497.5 867.51 moveto
494 857.51 lineto
490.5 867.51 lineto
closepath stroke
grestore
% 0->0
gsave
1 setlinewidth
0 0 0 edgecolor
newpath 511.27 845.5 moveto
522.79 847.33 534 845.16 534 839 curveto
534 834.76 528.7 832.42 521.64 831.96 curveto
stroke
0 0 0 edgecolor
newpath 521.07 828.48 moveto
511.27 832.5 lineto
521.44 835.47 lineto
closepath fill
1 setlinewidth
solid
0 0 0 edgecolor
newpath 521.07 828.48 moveto
511.27 832.5 lineto
521.44 835.47 lineto
closepath stroke
0 0 0 edgecolor
14 /Times-Roman set_font
534 835.4 moveto 47 ([0,0,0]) alignedtext
grestore
% 1
gsave
0.54118 0.25098 1 nodecolor
543 747 17.89 18.38 ellipse_path fill
1 setlinewidth
filled
0.54118 0.25098 1 nodecolor
543 747 17.89 18.38 ellipse_path stroke
0 0 0 nodecolor
14 /Times-Roman set_font
538 743.4 moveto 10 (1) alignedtext
grestore
% 0->1
gsave
1 setlinewidth
0 0 0 edgecolor
newpath 502.76 822.55 moveto
510.22 808.55 521.04 788.22 529.59 772.18 curveto
stroke
0 0 0 edgecolor
newpath 532.7 773.78 moveto
534.32 763.31 lineto
526.53 770.49 lineto
closepath fill
1 setlinewidth
solid
0 0 0 edgecolor
newpath 532.7 773.78 moveto
534.32 763.31 lineto
526.53 770.49 lineto
closepath stroke
0 0 0 edgecolor
14 /Times-Roman set_font
522 789.4 moveto 47 ([0,0,1]) alignedtext
grestore
% 2
gsave
0.023529 0.72157 1 nodecolor
215 559 17.98 18.38 ellipse_path fill
1 setlinewidth
filled
0.023529 0.72157 1 nodecolor
215 559 17.98 18.38 ellipse_path stroke
1 setlinewidth
filled
0.023529 0.72157 1 nodecolor
215 559 21.89 22.38 ellipse_path stroke
0 0 0 nodecolor
14 /Times-Roman set_font
210 555.4 moveto 10 (2) alignedtext
grestore
% 0->2
gsave
1 setlinewidth
0 0 0 edgecolor
newpath 480.92 825.87 moveto
436.98 781.78 294.33 638.61 238.09 582.17 curveto
stroke
0 0 0 edgecolor
newpath 240.29 579.42 moveto
230.75 574.81 lineto
235.33 584.36 lineto
closepath fill
1 setlinewidth
solid
0 0 0 edgecolor
newpath 240.29 579.42 moveto
230.75 574.81 lineto
235.33 584.36 lineto
closepath stroke
0 0 0 edgecolor
14 /Times-Roman set_font
365 697.4 moveto 47 ([0,1,1]) alignedtext
grestore
% 3
gsave
0.54118 0.25098 1 nodecolor
633 655 17.89 18.38 ellipse_path fill
1 setlinewidth
filled
0.54118 0.25098 1 nodecolor
633 655 17.89 18.38 ellipse_path stroke
0 0 0 nodecolor
14 /Times-Roman set_font
628 651.4 moveto 10 (3) alignedtext
grestore
% 1->3
gsave
1 setlinewidth
0 0 0 edgecolor
newpath 555.89 733.82 moveto
570.73 718.65 595.28 693.55 612.69 675.76 curveto
stroke
0 0 0 edgecolor
newpath 615.64 677.75 moveto
620.13 668.16 lineto
610.63 672.86 lineto
closepath fill
1 setlinewidth
solid
0 0 0 edgecolor
newpath 615.64 677.75 moveto
620.13 668.16 lineto
610.63 672.86 lineto
closepath stroke
0 0 0 edgecolor
14 /Times-Roman set_font
596 697.4 moveto 47 ([0,1,0]) alignedtext
grestore
% 4
gsave
0.54118 0.25098 1 nodecolor
346 457 17.89 18.38 ellipse_path fill
1 setlinewidth
filled
0.54118 0.25098 1 nodecolor
346 457 17.89 18.38 ellipse_path stroke
0 0 0 nodecolor
14 /Times-Roman set_font
341 453.4 moveto 10 (4) alignedtext
grestore
% 2->4
gsave
1 setlinewidth
0 0 0 edgecolor
newpath 235.52 550.04 moveto
251.25 542.66 273.06 531.26 290 518 curveto
304.16 506.91 317.86 492.09 328.16 479.83 curveto
stroke
0 0 0 edgecolor
newpath 331.09 481.79 moveto
334.72 471.84 lineto
325.67 477.35 lineto
closepath fill
1 setlinewidth
solid
0 0 0 edgecolor
newpath 331.09 481.79 moveto
334.72 471.84 lineto
325.67 477.35 lineto
closepath stroke
0 0 0 edgecolor
14 /Times-Roman set_font
309 505.4 moveto 47 ([0,0,0]) alignedtext
grestore
% 5
gsave
0.54118 0.25098 1 nodecolor
255 457 17.89 18.38 ellipse_path fill
1 setlinewidth
filled
0.54118 0.25098 1 nodecolor
255 457 17.89 18.38 ellipse_path stroke
0 0 0 nodecolor
14 /Times-Roman set_font
250 453.4 moveto 10 (5) alignedtext
grestore
% 2->5
gsave
1 setlinewidth
0 0 0 edgecolor
newpath 223.29 537.87 moveto
229.45 522.16 237.9 500.62 244.52 483.72 curveto
stroke
0 0 0 edgecolor
newpath 247.79 484.97 moveto
248.18 474.38 lineto
241.27 482.41 lineto
closepath fill
1 setlinewidth
solid
0 0 0 edgecolor
newpath 247.79 484.97 moveto
248.18 474.38 lineto
241.27 482.41 lineto
closepath stroke
0 0 0 edgecolor
14 /Times-Roman set_font
238 505.4 moveto 47 ([0,0,1]) alignedtext
grestore
% 6
gsave
0.023529 0.72157 1 nodecolor
261 23 17.98 18.38 ellipse_path fill
1 setlinewidth
filled
0.023529 0.72157 1 nodecolor
261 23 17.98 18.38 ellipse_path stroke
1 setlinewidth
filled
0.023529 0.72157 1 nodecolor
261 23 21.89 22.38 ellipse_path stroke
0 0 0 nodecolor
14 /Times-Roman set_font
256 19.4 moveto 10 (6) alignedtext
grestore
% 2->6
gsave
1 setlinewidth
0 0 0 edgecolor
newpath 194.9 549.25 moveto
166.49 533.91 118 501.23 118 457 curveto
118 457 118 457 118 125 curveto
118 70.63 187.37 42.52 229.48 30.46 curveto
stroke
0 0 0 edgecolor
newpath 230.55 33.79 moveto
239.28 27.8 lineto
228.71 27.04 lineto
closepath fill
1 setlinewidth
solid
0 0 0 edgecolor
newpath 230.55 33.79 moveto
239.28 27.8 lineto
228.71 27.04 lineto
closepath stroke
0 0 0 edgecolor
14 /Times-Roman set_font
118 277.4 moveto 47 ([1,0,0]) alignedtext
grestore
% 7
gsave
0.54118 0.25098 1 nodecolor
182 125 17.89 18.38 ellipse_path fill
1 setlinewidth
filled
0.54118 0.25098 1 nodecolor
182 125 17.89 18.38 ellipse_path stroke
0 0 0 nodecolor
14 /Times-Roman set_font
177 121.4 moveto 10 (7) alignedtext
grestore
% 2->7
gsave
1 setlinewidth
0 0 0 edgecolor
newpath 204.38 538.91 moveto
194.73 518.77 182 486.59 182 457 curveto
182 457 182 457 182 229 curveto
182 203.63 182 174.78 182 153.91 curveto
stroke
0 0 0 edgecolor
newpath 185.5 153.79 moveto
182 143.79 lineto
178.5 153.79 lineto
closepath fill
1 setlinewidth
solid
0 0 0 edgecolor
newpath 185.5 153.79 moveto
182 143.79 lineto
178.5 153.79 lineto
closepath stroke
0 0 0 edgecolor
14 /Times-Roman set_font
182 329.4 moveto 47 ([1,0,1]) alignedtext
grestore
% 8
gsave
0.54118 0.25098 1 nodecolor
18 395 17.89 18.38 ellipse_path fill
1 setlinewidth
filled
0.54118 0.25098 1 nodecolor
18 395 17.89 18.38 ellipse_path stroke
0 0 0 nodecolor
14 /Times-Roman set_font
13 391.4 moveto 10 (8) alignedtext
grestore
% 2->8
gsave
1 setlinewidth
0 0 0 edgecolor
newpath 192.97 556.11 moveto
153.69 550.54 73.82 537.13 54 518 curveto
28.56 493.45 20.83 451.98 18.63 424.06 curveto
stroke
0 0 0 edgecolor
newpath 22.1 423.51 moveto
18.02 413.73 lineto
15.11 423.92 lineto
closepath fill
1 setlinewidth
solid
0 0 0 edgecolor
newpath 22.1 423.51 moveto
18.02 413.73 lineto
15.11 423.92 lineto
closepath stroke
0 0 0 edgecolor
14 /Times-Roman set_font
54 505.4 moveto 47 ([1,1,1]) alignedtext
grestore
% 9
gsave
0.54118 0.25098 1 nodecolor
807 559 17.89 18.38 ellipse_path fill
1 setlinewidth
filled
0.54118 0.25098 1 nodecolor
807 559 17.89 18.38 ellipse_path stroke
0 0 0 nodecolor
14 /Times-Roman set_font
802 555.4 moveto 10 (9) alignedtext
grestore
% 3->9
gsave
1 setlinewidth
0 0 0 edgecolor
newpath 649.06 646.14 moveto
679.49 629.35 745.74 592.8 782.02 572.78 curveto
stroke
0 0 0 edgecolor
newpath 783.92 575.73 moveto
790.98 567.84 lineto
780.53 569.6 lineto
closepath fill
1 setlinewidth
solid
0 0 0 edgecolor
newpath 783.92 575.73 moveto
790.98 567.84 lineto
780.53 569.6 lineto
closepath stroke
0 0 0 edgecolor
14 /Times-Roman set_font
730 605.4 moveto 47 ([1,1,1]) alignedtext
grestore
% 10
gsave
0.54118 0.25098 1 nodecolor
410 333 24.24 24.75 ellipse_path fill
1 setlinewidth
filled
0.54118 0.25098 1 nodecolor
410 333 24.24 24.75 ellipse_path stroke
0 0 0 nodecolor
14 /Times-Roman set_font
400.5 329.4 moveto 19 (10) alignedtext
grestore
% 4->10
gsave
1 setlinewidth
0 0 0 edgecolor
newpath 354.5 440.53 moveto
364.52 421.11 381.41 388.39 393.93 364.14 curveto
stroke
0 0 0 edgecolor
newpath 397.18 365.47 moveto
398.66 354.98 lineto
390.96 362.26 lineto
closepath fill
1 setlinewidth
solid
0 0 0 edgecolor
newpath 397.18 365.47 moveto
398.66 354.98 lineto
390.96 362.26 lineto
closepath stroke
0 0 0 edgecolor
14 /Times-Roman set_font
388 391.4 moveto 47 ([1,0,1]) alignedtext
grestore
% 11
gsave
0.54118 0.25098 1 nodecolor
275 333 24.24 24.75 ellipse_path fill
1 setlinewidth
filled
0.54118 0.25098 1 nodecolor
275 333 24.24 24.75 ellipse_path stroke
0 0 0 nodecolor
14 /Times-Roman set_font
265.5 329.4 moveto 19 (11) alignedtext
grestore
% 5->11
gsave
1 setlinewidth
0 0 0 edgecolor
newpath 257.95 438.7 moveto
260.97 420.01 265.72 390.53 269.44 367.44 curveto
stroke
0 0 0 edgecolor
newpath 272.94 367.78 moveto
271.07 357.35 lineto
266.02 366.67 lineto
closepath fill
1 setlinewidth
solid
0 0 0 edgecolor
newpath 272.94 367.78 moveto
271.07 357.35 lineto
266.02 366.67 lineto
closepath stroke
0 0 0 edgecolor
14 /Times-Roman set_font
268 391.4 moveto 47 ([1,1,0]) alignedtext
grestore
% 7->6
gsave
1 setlinewidth
0 0 0 edgecolor
newpath 193.32 110.39 moveto
205.79 94.29 226.07 68.1 241.19 48.58 curveto
stroke
0 0 0 edgecolor
newpath 243.96 50.72 moveto
247.31 40.67 lineto
238.42 46.43 lineto
closepath fill
1 setlinewidth
solid
0 0 0 edgecolor
newpath 243.96 50.72 moveto
247.31 40.67 lineto
238.42 46.43 lineto
closepath stroke
0 0 0 edgecolor
14 /Times-Roman set_font
229 69.4 moveto 47 ([0,0,0]) alignedtext
grestore
% 7->7
gsave
1 setlinewidth
0 0 0 edgecolor
newpath 198.02 133.6 moveto
209.96 136.6 222 133.73 222 125 curveto
222 118.79 215.92 115.55 208.11 115.27 curveto
stroke
0 0 0 edgecolor
newpath 207.57 111.81 moveto
198.02 116.4 lineto
208.35 118.76 lineto
closepath fill
1 setlinewidth
solid
0 0 0 edgecolor
newpath 207.57 111.81 moveto
198.02 116.4 lineto
208.35 118.76 lineto
closepath stroke
0 0 0 edgecolor
14 /Times-Roman set_font
222 121.4 moveto 47 ([0,1,0]) alignedtext
grestore
% 8->6
gsave
1 setlinewidth
0 0 0 edgecolor
newpath 20.63 376.48 moveto
23.59 353.96 28 314.78 28 281 curveto
28 281 28 281 28 125 curveto
28 82.72 63.37 83.28 101 64 curveto
142.34 42.82 195.41 32.03 228.83 26.96 curveto
stroke
0 0 0 edgecolor
newpath 229.55 30.39 moveto
238.95 25.51 lineto
228.55 23.46 lineto
closepath fill
1 setlinewidth
solid
0 0 0 edgecolor
newpath 229.55 30.39 moveto
238.95 25.51 lineto
228.55 23.46 lineto
closepath stroke
0 0 0 edgecolor
14 /Times-Roman set_font
28 225.4 moveto 47 ([1,0,0]) alignedtext
grestore
% 8->8
gsave
1 setlinewidth
0 0 0 edgecolor
newpath 33.19 404.99 moveto
45.4 408.99 58 405.66 58 395 curveto
58 387.34 51.49 383.47 43.29 383.38 curveto
stroke
0 0 0 edgecolor
newpath 42.5 379.96 moveto
33.19 385.01 lineto
43.62 386.87 lineto
closepath fill
1 setlinewidth
solid
0 0 0 edgecolor
newpath 42.5 379.96 moveto
33.19 385.01 lineto
43.62 386.87 lineto
closepath stroke
0 0 0 edgecolor
14 /Times-Roman set_font
58 391.4 moveto 47 ([0,0,0]) alignedtext
grestore
% 12
gsave
0.54118 0.25098 1 nodecolor
917 457 24.24 24.75 ellipse_path fill
1 setlinewidth
filled
0.54118 0.25098 1 nodecolor
917 457 24.24 24.75 ellipse_path stroke
0 0 0 nodecolor
14 /Times-Roman set_font
907.5 453.4 moveto 19 (12) alignedtext
grestore
% 9->12
gsave
1 setlinewidth
0 0 0 edgecolor
newpath 823.71 551.68 moveto
838.61 544.59 860.41 532.75 876 518 curveto
885.34 509.16 893.68 497.83 900.36 487.34 curveto
stroke
0 0 0 edgecolor
newpath 903.36 489.15 moveto
905.57 478.79 lineto
897.38 485.51 lineto
closepath fill
1 setlinewidth
solid
0 0 0 edgecolor
newpath 903.36 489.15 moveto
905.57 478.79 lineto
897.38 485.51 lineto
closepath stroke
0 0 0 edgecolor
14 /Times-Roman set_font
890 505.4 moveto 47 ([0,0,1]) alignedtext
grestore
% 13
gsave
0.54118 0.25098 1 nodecolor
739 333 24.24 24.75 ellipse_path fill
1 setlinewidth
filled
0.54118 0.25098 1 nodecolor
739 333 24.24 24.75 ellipse_path stroke
0 0 0 nodecolor
14 /Times-Roman set_font
729.5 329.4 moveto 19 (13) alignedtext
grestore
% 9->13
gsave
1 setlinewidth
0 0 0 edgecolor
newpath 801.66 541.27 moveto
790.32 503.57 763.66 414.97 749.04 366.36 curveto
stroke
0 0 0 edgecolor
newpath 752.34 365.19 moveto
746.11 356.63 lineto
745.64 367.21 lineto
closepath fill
1 setlinewidth
solid
0 0 0 edgecolor
newpath 752.34 365.19 moveto
746.11 356.63 lineto
745.64 367.21 lineto
closepath stroke
0 0 0 edgecolor
14 /Times-Roman set_font
783 453.4 moveto 47 ([0,1,1]) alignedtext
grestore
% 14
gsave
0.54118 0.25098 1 nodecolor
671 125 24.24 24.75 ellipse_path fill
1 setlinewidth
filled
0.54118 0.25098 1 nodecolor
671 125 24.24 24.75 ellipse_path stroke
0 0 0 nodecolor
14 /Times-Roman set_font
661.5 121.4 moveto 19 (14) alignedtext
grestore
% 9->14
gsave
1 setlinewidth
0 0 0 edgecolor
newpath 815.46 542.21 moveto
841.66 487.6 915.25 312.27 839 204 curveto
801.08 150.15 757.7 183.51 701 150 curveto
699.72 149.25 698.45 148.44 697.18 147.59 curveto
stroke
0 0 0 edgecolor
newpath 699.16 144.7 moveto
689.03 141.59 lineto
695.01 150.34 lineto
closepath fill
1 setlinewidth
solid
0 0 0 edgecolor
newpath 699.16 144.7 moveto
689.03 141.59 lineto
695.01 150.34 lineto
closepath stroke
0 0 0 edgecolor
14 /Times-Roman set_font
872 329.4 moveto 47 ([1,1,1]) alignedtext
grestore
% 15
gsave
0.54118 0.25098 1 nodecolor
591 229 24.24 24.75 ellipse_path fill
1 setlinewidth
filled
0.54118 0.25098 1 nodecolor
591 229 24.24 24.75 ellipse_path stroke
0 0 0 nodecolor
14 /Times-Roman set_font
581.5 225.4 moveto 19 (15) alignedtext
grestore
% 10->15
gsave
1 setlinewidth
0 0 0 edgecolor
newpath 431.51 322.03 moveto
447.94 313.54 471.08 301.35 491 290 curveto
515.21 276.21 542.15 259.7 561.96 247.34 curveto
stroke
0 0 0 edgecolor
newpath 563.91 250.25 moveto
570.53 241.98 lineto
560.2 244.32 lineto
closepath fill
1 setlinewidth
solid
0 0 0 edgecolor
newpath 563.91 250.25 moveto
570.53 241.98 lineto
560.2 244.32 lineto
closepath stroke
0 0 0 edgecolor
14 /Times-Roman set_font
521 277.4 moveto 47 ([0,0,1]) alignedtext
grestore
% 16
gsave
0.54118 0.25098 1 nodecolor
443 229 24.24 24.75 ellipse_path fill
1 setlinewidth
filled
0.54118 0.25098 1 nodecolor
443 229 24.24 24.75 ellipse_path stroke
0 0 0 nodecolor
14 /Times-Roman set_font
433.5 225.4 moveto 19 (16) alignedtext
grestore
% 10->16
gsave
1 setlinewidth
0 0 0 edgecolor
newpath 390.12 319.06 moveto
375.38 306.92 359.39 288.7 369 272 curveto
377.96 256.43 394.96 245.97 410.41 239.28 curveto
stroke
0 0 0 edgecolor
newpath 411.74 242.52 moveto
419.75 235.58 lineto
409.16 236.01 lineto
closepath fill
1 setlinewidth
solid
0 0 0 edgecolor
newpath 411.74 242.52 moveto
419.75 235.58 lineto
409.16 236.01 lineto
closepath stroke
0 0 0 edgecolor
14 /Times-Roman set_font
369 277.4 moveto 47 ([1,0,1]) alignedtext
grestore
% 11->11
gsave
1 setlinewidth
0 0 0 edgecolor
newpath 297.25 342.28 moveto
309.61 344.02 321 340.92 321 333 curveto
321 327.37 315.24 324.18 307.47 323.42 curveto
stroke
0 0 0 edgecolor
newpath 307.14 319.93 moveto
297.25 323.72 lineto
307.34 326.93 lineto
closepath fill
1 setlinewidth
solid
0 0 0 edgecolor
newpath 307.14 319.93 moveto
297.25 323.72 lineto
307.34 326.93 lineto
closepath stroke
0 0 0 edgecolor
14 /Times-Roman set_font
321 329.4 moveto 47 ([1,1,0]) alignedtext
grestore
% 17
gsave
0.54118 0.25098 1 nodecolor
269 229 24.24 24.75 ellipse_path fill
1 setlinewidth
filled
0.54118 0.25098 1 nodecolor
269 229 24.24 24.75 ellipse_path stroke
0 0 0 nodecolor
14 /Times-Roman set_font
259.5 225.4 moveto 19 (17) alignedtext
grestore
% 11->17
gsave
1 setlinewidth
0 0 0 edgecolor
newpath 273.58 308.35 moveto
272.81 295.01 271.85 278.31 271 263.68 curveto
stroke
0 0 0 edgecolor
newpath 274.48 263.25 moveto
270.41 253.47 lineto
267.49 263.65 lineto
closepath fill
1 setlinewidth
solid
0 0 0 edgecolor
newpath 274.48 263.25 moveto
270.41 253.47 lineto
267.49 263.65 lineto
closepath stroke
0 0 0 edgecolor
14 /Times-Roman set_font
273 277.4 moveto 47 ([1,0,0]) alignedtext
grestore
% 12->12
gsave
1 setlinewidth
0 0 0 edgecolor
newpath 939.25 466.28 moveto
951.61 468.02 963 464.92 963 457 curveto
963 451.37 957.24 448.18 949.47 447.42 curveto
stroke
0 0 0 edgecolor
newpath 949.14 443.93 moveto
939.25 447.72 lineto
949.34 450.93 lineto
closepath fill
1 setlinewidth
solid
0 0 0 edgecolor
newpath 949.14 443.93 moveto
939.25 447.72 lineto
949.34 450.93 lineto
closepath stroke
0 0 0 edgecolor
14 /Times-Roman set_font
963 453.4 moveto 47 ([0,0,0]) alignedtext
grestore
% 12->13
gsave
1 setlinewidth
0 0 0 edgecolor
newpath 896.93 443.02 moveto
865.33 421 803.86 378.18 767.63 352.95 curveto
stroke
0 0 0 edgecolor
newpath 769.21 349.78 moveto
759 346.93 lineto
765.2 355.52 lineto
closepath fill
1 setlinewidth
solid
0 0 0 edgecolor
newpath 769.21 349.78 moveto
759 346.93 lineto
765.2 355.52 lineto
closepath stroke
0 0 0 edgecolor
14 /Times-Roman set_font
854 391.4 moveto 47 ([0,1,0]) alignedtext
grestore
% 12->14
gsave
1 setlinewidth
0 0 0 edgecolor
newpath 924.09 433.31 moveto
939.07 377.84 966.89 238.88 894 168 curveto
863.12 137.97 740.78 166.53 701 150 curveto
699.59 149.41 698.2 148.74 696.83 147.99 curveto
stroke
0 0 0 edgecolor
newpath 698.5 144.9 moveto
688.23 142.28 lineto
694.62 150.73 lineto
closepath fill
1 setlinewidth
solid
0 0 0 edgecolor
newpath 698.5 144.9 moveto
688.23 142.28 lineto
694.62 150.73 lineto
closepath stroke
0 0 0 edgecolor
14 /Times-Roman set_font
941 277.4 moveto 47 ([1,1,0]) alignedtext
grestore
% 13->15
gsave
1 setlinewidth
0 0 0 edgecolor
newpath 719.04 318.97 moveto
693.44 300.99 648.87 269.67 619.65 249.13 curveto
stroke
0 0 0 edgecolor
newpath 621.31 246.02 moveto
611.12 243.14 lineto
617.29 251.75 lineto
closepath fill
1 setlinewidth
solid
0 0 0 edgecolor
newpath 621.31 246.02 moveto
611.12 243.14 lineto
617.29 251.75 lineto
closepath stroke
0 0 0 edgecolor
14 /Times-Roman set_font
673 277.4 moveto 47 ([0,0,0]) alignedtext
grestore
% 13->16
gsave
1 setlinewidth
0 0 0 edgecolor
newpath 714.69 331.32 moveto
646.47 326.36 457.05 310.82 439 290 curveto
432.45 282.44 431.26 272.18 432.38 262.23 curveto
stroke
0 0 0 edgecolor
newpath 435.88 262.57 moveto
434.25 252.1 lineto
428.99 261.3 lineto
closepath fill
1 setlinewidth
solid
0 0 0 edgecolor
newpath 435.88 262.57 moveto
434.25 252.1 lineto
428.99 261.3 lineto
closepath stroke
0 0 0 edgecolor
14 /Times-Roman set_font
439 277.4 moveto 47 ([1,0,0]) alignedtext
grestore
% 18
gsave
0.54118 0.25098 1 nodecolor
739 229 24.24 24.75 ellipse_path fill
1 setlinewidth
filled
0.54118 0.25098 1 nodecolor
739 229 24.24 24.75 ellipse_path stroke
0 0 0 nodecolor
14 /Times-Roman set_font
729.5 225.4 moveto 19 (18) alignedtext
grestore
% 13->18
gsave
1 setlinewidth
0 0 0 edgecolor
newpath 736.32 308.47 moveto
735.77 302.44 735.28 295.99 735 290 curveto
734.6 281.41 734.86 272.14 735.39 263.49 curveto
stroke
0 0 0 edgecolor
newpath 738.89 263.56 moveto
736.16 253.33 lineto
731.91 263.04 lineto
closepath fill
1 setlinewidth
solid
0 0 0 edgecolor
newpath 738.89 263.56 moveto
736.16 253.33 lineto
731.91 263.04 lineto
closepath stroke
0 0 0 edgecolor
14 /Times-Roman set_font
735 277.4 moveto 47 ([1,1,0]) alignedtext
grestore
% 14->6
gsave
1 setlinewidth
0 0 0 edgecolor
newpath 647.48 119.15 moveto
577.62 101.77 371.29 50.44 292.27 30.78 curveto
stroke
0 0 0 edgecolor
newpath 292.97 27.35 moveto
282.42 28.33 lineto
291.28 34.14 lineto
closepath fill
1 setlinewidth
solid
0 0 0 edgecolor
newpath 292.97 27.35 moveto
282.42 28.33 lineto
291.28 34.14 lineto
closepath stroke
0 0 0 edgecolor
14 /Times-Roman set_font
491 69.4 moveto 47 ([0,1,0]) alignedtext
grestore
% 15->13
gsave
1 setlinewidth
0 0 0 edgecolor
newpath 584.67 252.85 moveto
582.87 265.09 583.18 279.58 591 290 curveto
604.72 308.27 665.97 321.3 705.25 327.95 curveto
stroke
0 0 0 edgecolor
newpath 704.77 331.41 moveto
715.21 329.58 lineto
705.9 324.51 lineto
closepath fill
1 setlinewidth
solid
0 0 0 edgecolor
newpath 704.77 331.41 moveto
715.21 329.58 lineto
705.9 324.51 lineto
closepath stroke
0 0 0 edgecolor
14 /Times-Roman set_font
591 277.4 moveto 47 ([1,0,0]) alignedtext
grestore
% 15->15
gsave
1 setlinewidth
0 0 0 edgecolor
newpath 613.25 238.28 moveto
625.61 240.02 637 236.92 637 229 curveto
637 223.37 631.24 220.18 623.47 219.42 curveto
stroke
0 0 0 edgecolor
newpath 623.14 215.93 moveto
613.25 219.72 lineto
623.34 222.93 lineto
closepath fill
1 setlinewidth
solid
0 0 0 edgecolor
newpath 623.14 215.93 moveto
613.25 219.72 lineto
623.34 222.93 lineto
closepath stroke
0 0 0 edgecolor
14 /Times-Roman set_font
637 225.4 moveto 47 ([1,1,0]) alignedtext
grestore
% 16->14
gsave
1 setlinewidth
0 0 0 edgecolor
newpath 465.28 218.84 moveto
506.08 200.23 592.88 160.63 639.63 139.31 curveto
stroke
0 0 0 edgecolor
newpath 641.32 142.38 moveto
648.97 135.05 lineto
638.42 136.02 lineto
closepath fill
1 setlinewidth
solid
0 0 0 edgecolor
newpath 641.32 142.38 moveto
648.97 135.05 lineto
638.42 136.02 lineto
closepath stroke
0 0 0 edgecolor
14 /Times-Roman set_font
570 173.4 moveto 47 ([0,0,0]) alignedtext
grestore
% 16->16
gsave
1 setlinewidth
0 0 0 edgecolor
newpath 465.25 238.28 moveto
477.61 240.02 489 236.92 489 229 curveto
489 223.37 483.24 220.18 475.47 219.42 curveto
stroke
0 0 0 edgecolor
newpath 475.14 215.93 moveto
465.25 219.72 lineto
475.34 222.93 lineto
closepath fill
1 setlinewidth
solid
0 0 0 edgecolor
newpath 475.14 215.93 moveto
465.25 219.72 lineto
475.34 222.93 lineto
closepath stroke
0 0 0 edgecolor
14 /Times-Roman set_font
489 225.4 moveto 47 ([0,1,0]) alignedtext
grestore
% 17->6
gsave
1 setlinewidth
0 0 0 edgecolor
newpath 277.92 206.12 moveto
280.01 199.71 281.94 192.67 283 186 curveto
287.49 157.73 304.1 159.84 281 64 curveto
280 59.84 278.53 55.61 276.83 51.53 curveto
stroke
0 0 0 edgecolor
newpath 279.97 49.97 moveto
272.58 42.37 lineto
273.62 52.91 lineto
closepath fill
1 setlinewidth
solid
0 0 0 edgecolor
newpath 279.97 49.97 moveto
272.58 42.37 lineto
273.62 52.91 lineto
closepath stroke
0 0 0 edgecolor
14 /Times-Roman set_font
293 121.4 moveto 47 ([1,0,0]) alignedtext
grestore
% 17->7
gsave
1 setlinewidth
0 0 0 edgecolor
newpath 253.04 209.92 moveto
238.17 192.15 216.01 165.65 200.4 146.99 curveto
stroke
0 0 0 edgecolor
newpath 203.04 144.7 moveto
193.94 139.28 lineto
197.67 149.19 lineto
closepath fill
1 setlinewidth
solid
0 0 0 edgecolor
newpath 203.04 144.7 moveto
193.94 139.28 lineto
197.67 149.19 lineto
closepath stroke
0 0 0 edgecolor
14 /Times-Roman set_font
231 173.4 moveto 47 ([1,1,0]) alignedtext
grestore
% 17->11
gsave
1 setlinewidth
0 0 0 edgecolor
newpath 247.92 241.43 moveto
231.19 253.03 211.99 271.31 221 290 curveto
226.14 300.66 235.35 309.5 244.73 316.33 curveto
stroke
0 0 0 edgecolor
newpath 243.01 319.39 moveto
253.27 322.03 lineto
246.9 313.57 lineto
closepath fill
1 setlinewidth
solid
0 0 0 edgecolor
newpath 243.01 319.39 moveto
253.27 322.03 lineto
246.9 313.57 lineto
closepath stroke
0 0 0 edgecolor
14 /Times-Roman set_font
221 277.4 moveto 47 ([0,1,0]) alignedtext
grestore
% 17->17
gsave
1 setlinewidth
0 0 0 edgecolor
newpath 291.25 238.28 moveto
303.61 240.02 315 236.92 315 229 curveto
315 223.37 309.24 220.18 301.47 219.42 curveto
stroke
0 0 0 edgecolor
newpath 301.14 215.93 moveto
291.25 219.72 lineto
301.34 222.93 lineto
closepath fill
1 setlinewidth
solid
0 0 0 edgecolor
newpath 301.14 215.93 moveto
291.25 219.72 lineto
301.34 222.93 lineto
closepath stroke
0 0 0 edgecolor
14 /Times-Roman set_font
315 225.4 moveto 47 ([0,0,0]) alignedtext
grestore
% 18->6
gsave
1 setlinewidth
0 0 0 edgecolor
newpath 739.89 204.36 moveto
739.53 175.25 734.24 127.33 706 100 curveto
646.85 42.77 385.45 27.62 293.29 24.02 curveto
stroke
0 0 0 edgecolor
newpath 293.29 20.52 moveto
283.16 23.65 lineto
293.03 27.52 lineto
closepath fill
1 setlinewidth
solid
0 0 0 edgecolor
newpath 293.29 20.52 moveto
283.16 23.65 lineto
293.03 27.52 lineto
closepath stroke
0 0 0 edgecolor
14 /Times-Roman set_font
732 121.4 moveto 47 ([1,0,0]) alignedtext
grestore
% 18->13
gsave
1 setlinewidth
0 0 0 edgecolor
newpath 760.11 241.77 moveto
770.27 249.19 781.43 259.54 787 272 curveto
794.08 287.84 781.9 303.17 768.04 314.51 curveto
stroke
0 0 0 edgecolor
newpath 765.71 311.88 moveto
759.82 320.69 lineto
769.92 317.48 lineto
closepath fill
1 setlinewidth
solid
0 0 0 edgecolor
newpath 765.71 311.88 moveto
759.82 320.69 lineto
769.92 317.48 lineto
closepath stroke
0 0 0 edgecolor
14 /Times-Roman set_font
789 277.4 moveto 47 ([0,1,0]) alignedtext
grestore
% 18->14
gsave
1 setlinewidth
0 0 0 edgecolor
newpath 717.75 217.46 moveto
701.12 207.97 680.01 194.7 675 186 curveto
670.42 178.05 668.48 168.51 667.92 159.36 curveto
stroke
0 0 0 edgecolor
newpath 671.41 159.27 moveto
667.8 149.31 lineto
664.42 159.35 lineto
closepath fill
1 setlinewidth
solid
0 0 0 edgecolor
newpath 671.41 159.27 moveto
667.8 149.31 lineto
664.42 159.35 lineto
closepath stroke
0 0 0 edgecolor
14 /Times-Roman set_font
675 173.4 moveto 47 ([1,1,0]) alignedtext
grestore
% 18->18
gsave
1 setlinewidth
0 0 0 edgecolor
newpath 761.25 238.28 moveto
773.61 240.02 785 236.92 785 229 curveto
785 223.37 779.24 220.18 771.47 219.42 curveto
stroke
0 0 0 edgecolor
newpath 771.14 215.93 moveto
761.25 219.72 lineto
771.34 222.93 lineto
closepath fill
1 setlinewidth
solid
0 0 0 edgecolor
newpath 771.14 215.93 moveto
761.25 219.72 lineto
771.34 222.93 lineto
closepath stroke
0 0 0 edgecolor
14 /Times-Roman set_font
785 225.4 moveto 47 ([0,0,0]) alignedtext
grestore
endpage
showpage
grestore
%%PageTrailer
%%EndPage: 1
%%Trailer
end
restore
%%EOF
