%!PS-Adobe-3.0 EPSF-3.0
%%Creator: graphviz version 2.26.3 (20100126.1600)
%%Title: FSA Utilities
%%Pages: 1
%%BoundingBox: 108 72 505 720
%%EndComments
save
%%BeginProlog
/DotDict 200 dict def
DotDict begin

/setupLatin1 {
mark
/EncodingVector 256 array def
 EncodingVector 0

ISOLatin1Encoding 0 255 getinterval putinterval
EncodingVector 45 /hyphen put

% Set up ISO Latin 1 character encoding
/starnetISO {
        dup dup findfont dup length dict begin
        { 1 index /FID ne { def }{ pop pop } ifelse
        } forall
        /Encoding EncodingVector def
        currentdict end definefont
} def
/Times-Roman starnetISO def
/Times-Italic starnetISO def
/Times-Bold starnetISO def
/Times-BoldItalic starnetISO def
/Helvetica starnetISO def
/Helvetica-Oblique starnetISO def
/Helvetica-Bold starnetISO def
/Helvetica-BoldOblique starnetISO def
/Courier starnetISO def
/Courier-Oblique starnetISO def
/Courier-Bold starnetISO def
/Courier-BoldOblique starnetISO def
cleartomark
} bind def

%%BeginResource: procset graphviz 0 0
/coord-font-family /Times-Roman def
/default-font-family /Times-Roman def
/coordfont coord-font-family findfont 8 scalefont def

/InvScaleFactor 1.0 def
/set_scale {
       dup 1 exch div /InvScaleFactor exch def
       scale
} bind def

% styles
/solid { [] 0 setdash } bind def
/dashed { [9 InvScaleFactor mul dup ] 0 setdash } bind def
/dotted { [1 InvScaleFactor mul 6 InvScaleFactor mul] 0 setdash } bind def
/invis {/fill {newpath} def /stroke {newpath} def /show {pop newpath} def} bind def
/bold { 2 setlinewidth } bind def
/filled { } bind def
/unfilled { } bind def
/rounded { } bind def
/diagonals { } bind def

% hooks for setting color 
/nodecolor { sethsbcolor } bind def
/edgecolor { sethsbcolor } bind def
/graphcolor { sethsbcolor } bind def
/nopcolor {pop pop pop} bind def

/beginpage {	% i j npages
	/npages exch def
	/j exch def
	/i exch def
	/str 10 string def
	npages 1 gt {
		gsave
			coordfont setfont
			0 0 moveto
			(\() show i str cvs show (,) show j str cvs show (\)) show
		grestore
	} if
} bind def

/set_font {
	findfont exch
	scalefont setfont
} def

% draw text fitted to its expected width
/alignedtext {			% width text
	/text exch def
	/width exch def
	gsave
		width 0 gt {
			[] 0 setdash
			text stringwidth pop width exch sub text length div 0 text ashow
		} if
	grestore
} def

/boxprim {				% xcorner ycorner xsize ysize
		4 2 roll
		moveto
		2 copy
		exch 0 rlineto
		0 exch rlineto
		pop neg 0 rlineto
		closepath
} bind def

/ellipse_path {
	/ry exch def
	/rx exch def
	/y exch def
	/x exch def
	matrix currentmatrix
	newpath
	x y translate
	rx ry scale
	0 0 1 0 360 arc
	setmatrix
} bind def

/endpage { showpage } bind def
/showpage { } def

/layercolorseq
	[	% layer color sequence - darkest to lightest
		[0 0 0]
		[.2 .8 .8]
		[.4 .8 .8]
		[.6 .8 .8]
		[.8 .8 .8]
	]
def

/layerlen layercolorseq length def

/setlayer {/maxlayer exch def /curlayer exch def
	layercolorseq curlayer 1 sub layerlen mod get
	aload pop sethsbcolor
	/nodecolor {nopcolor} def
	/edgecolor {nopcolor} def
	/graphcolor {nopcolor} def
} bind def

/onlayer { curlayer ne {invis} if } def

/onlayers {
	/myupper exch def
	/mylower exch def
	curlayer mylower lt
	curlayer myupper gt
	or
	{invis} if
} def

/curlayer 0 def

%%EndResource
%%EndProlog
%%BeginSetup
14 default-font-family set_font
1 setmiterlimit
% /arrowlength 10 def
% /arrowwidth 5 def

% make sure pdfmark is harmless for PS-interpreters other than Distiller
/pdfmark where {pop} {userdict /pdfmark /cleartomark load put} ifelse
% make '<<' and '>>' safe on PS Level 1 devices
/languagelevel where {pop languagelevel}{1} ifelse
2 lt {
    userdict (<<) cvn ([) cvn load put
    userdict (>>) cvn ([) cvn load put
} if

%%EndSetup
setupLatin1
%%Page: 1 1
%%PageBoundingBox: 108 72 505 720
%%PageOrientation: Portrait
0 0 1 beginpage
gsave
108 72 397 648 boxprim clip newpath
1 1 set_scale 0 rotate 111.5 77 translate
% start0
gsave
grestore
% 0
gsave
0.21961 0.75686 1 nodecolor
157 547 17.89 18.38 ellipse_path fill
1 setlinewidth
filled
0.21961 0.75686 1 nodecolor
157 547 17.89 18.38 ellipse_path stroke
0 0 0 nodecolor
14 /Times-Roman set_font
152 543.4 moveto 10 (0) alignedtext
grestore
% start0->0
gsave
1 setlinewidth
0 0 0 edgecolor
newpath 157 603.84 moveto
157 595.4 157 585.16 157 575.71 curveto
stroke
0 0 0 edgecolor
newpath 160.5 575.51 moveto
157 565.51 lineto
153.5 575.51 lineto
closepath fill
1 setlinewidth
solid
0 0 0 edgecolor
newpath 160.5 575.51 moveto
157 565.51 lineto
153.5 575.51 lineto
closepath stroke
grestore
% 0->0
gsave
1 setlinewidth
0 0 0 edgecolor
newpath 174.27 553.5 moveto
185.79 555.33 197 553.16 197 547 curveto
197 542.76 191.7 540.42 184.64 539.96 curveto
stroke
0 0 0 edgecolor
newpath 184.07 536.48 moveto
174.27 540.5 lineto
184.44 543.47 lineto
closepath fill
1 setlinewidth
solid
0 0 0 edgecolor
newpath 184.07 536.48 moveto
174.27 540.5 lineto
184.44 543.47 lineto
closepath stroke
0 0 0 edgecolor
14 /Times-Roman set_font
197 543.4 moveto 47 ([0,0,0]) alignedtext
grestore
% 1
gsave
0.54118 0.25098 1 nodecolor
99 451 17.89 18.38 ellipse_path fill
1 setlinewidth
filled
0.54118 0.25098 1 nodecolor
99 451 17.89 18.38 ellipse_path stroke
0 0 0 nodecolor
14 /Times-Roman set_font
94 447.4 moveto 10 (1) alignedtext
grestore
% 0->1
gsave
1 setlinewidth
0 0 0 edgecolor
newpath 144.12 534.06 moveto
137.82 527.28 130.45 518.61 125 510 curveto
118.7 500.04 113.18 488.28 108.87 477.9 curveto
stroke
0 0 0 edgecolor
newpath 112.06 476.47 moveto
105.12 468.47 lineto
105.56 479.05 lineto
closepath fill
1 setlinewidth
solid
0 0 0 edgecolor
newpath 112.06 476.47 moveto
105.12 468.47 lineto
105.56 479.05 lineto
closepath stroke
0 0 0 edgecolor
14 /Times-Roman set_font
125 497.4 moveto 47 ([0,0,1]) alignedtext
grestore
% 2
gsave
0.023529 0.72157 1 nodecolor
222 451 17.98 18.38 ellipse_path fill
1 setlinewidth
filled
0.023529 0.72157 1 nodecolor
222 451 17.98 18.38 ellipse_path stroke
1 setlinewidth
filled
0.023529 0.72157 1 nodecolor
222 451 21.89 22.38 ellipse_path stroke
0 0 0 nodecolor
14 /Times-Roman set_font
217 447.4 moveto 10 (2) alignedtext
grestore
% 0->2
gsave
1 setlinewidth
0 0 0 edgecolor
newpath 167.44 531.58 moveto
177.16 517.22 191.86 495.51 203.55 478.24 curveto
stroke
0 0 0 edgecolor
newpath 206.64 479.92 moveto
209.35 469.68 lineto
200.85 476 lineto
closepath fill
1 setlinewidth
solid
0 0 0 edgecolor
newpath 206.64 479.92 moveto
209.35 469.68 lineto
200.85 476 lineto
closepath stroke
0 0 0 edgecolor
14 /Times-Roman set_font
193 497.4 moveto 47 ([0,1,1]) alignedtext
grestore
% 3
gsave
0.54118 0.25098 1 nodecolor
99 355 17.89 18.38 ellipse_path fill
1 setlinewidth
filled
0.54118 0.25098 1 nodecolor
99 355 17.89 18.38 ellipse_path stroke
0 0 0 nodecolor
14 /Times-Roman set_font
94 351.4 moveto 10 (3) alignedtext
grestore
% 1->3
gsave
1 setlinewidth
0 0 0 edgecolor
newpath 99 432.49 moveto
99 418.77 99 399.79 99 384.05 curveto
stroke
0 0 0 edgecolor
newpath 102.5 383.78 moveto
99 373.78 lineto
95.5 383.78 lineto
closepath fill
1 setlinewidth
solid
0 0 0 edgecolor
newpath 102.5 383.78 moveto
99 373.78 lineto
95.5 383.78 lineto
closepath stroke
0 0 0 edgecolor
14 /Times-Roman set_font
99 397.4 moveto 47 ([0,1,0]) alignedtext
grestore
% 4
gsave
0.54118 0.25098 1 nodecolor
18 299 17.89 18.38 ellipse_path fill
1 setlinewidth
filled
0.54118 0.25098 1 nodecolor
18 299 17.89 18.38 ellipse_path stroke
0 0 0 nodecolor
14 /Times-Roman set_font
13 295.4 moveto 10 (4) alignedtext
grestore
% 1->4
gsave
1 setlinewidth
0 0 0 edgecolor
newpath 83.05 442.28 moveto
71.38 435.09 56.06 423.85 47 410 curveto
30.74 385.14 23.58 351.57 20.44 327.87 curveto
stroke
0 0 0 edgecolor
newpath 23.89 327.28 moveto
19.26 317.75 lineto
16.94 328.09 lineto
closepath fill
1 setlinewidth
solid
0 0 0 edgecolor
newpath 23.89 327.28 moveto
19.26 317.75 lineto
16.94 328.09 lineto
closepath stroke
0 0 0 edgecolor
14 /Times-Roman set_font
47 397.4 moveto 47 ([1,1,0]) alignedtext
grestore
% 5
gsave
0.023529 0.72157 1 nodecolor
284 239 17.98 18.38 ellipse_path fill
1 setlinewidth
filled
0.023529 0.72157 1 nodecolor
284 239 17.98 18.38 ellipse_path stroke
1 setlinewidth
filled
0.023529 0.72157 1 nodecolor
284 239 21.89 22.38 ellipse_path stroke
0 0 0 nodecolor
14 /Times-Roman set_font
279 235.4 moveto 10 (5) alignedtext
grestore
% 2->5
gsave
1 setlinewidth
0 0 0 edgecolor
newpath 234.09 431.92 moveto
237.98 425.18 242.05 417.43 245 410 curveto
263.39 363.71 274.2 306.76 279.61 271.67 curveto
stroke
0 0 0 edgecolor
newpath 283.11 271.92 moveto
281.12 261.52 lineto
276.19 270.9 lineto
closepath fill
1 setlinewidth
solid
0 0 0 edgecolor
newpath 283.11 271.92 moveto
281.12 261.52 lineto
276.19 270.9 lineto
closepath stroke
0 0 0 edgecolor
14 /Times-Roman set_font
267 351.4 moveto 47 ([1,0,0]) alignedtext
grestore
% 6
gsave
0.54118 0.25098 1 nodecolor
371 355 17.89 18.38 ellipse_path fill
1 setlinewidth
filled
0.54118 0.25098 1 nodecolor
371 355 17.89 18.38 ellipse_path stroke
0 0 0 nodecolor
14 /Times-Roman set_font
366 351.4 moveto 10 (6) alignedtext
grestore
% 2->6
gsave
1 setlinewidth
0 0 0 edgecolor
newpath 242.38 441.72 moveto
258.69 434 281.91 422.3 301 410 curveto
318 399.05 335.91 384.92 349.36 373.73 curveto
stroke
0 0 0 edgecolor
newpath 351.72 376.32 moveto
357.1 367.19 lineto
347.2 370.97 lineto
closepath fill
1 setlinewidth
solid
0 0 0 edgecolor
newpath 351.72 376.32 moveto
357.1 367.19 lineto
347.2 370.97 lineto
closepath stroke
0 0 0 edgecolor
14 /Times-Roman set_font
324 397.4 moveto 47 ([1,0,1]) alignedtext
grestore
% 7
gsave
0.54118 0.25098 1 nodecolor
157 355 17.89 18.38 ellipse_path fill
1 setlinewidth
filled
0.54118 0.25098 1 nodecolor
157 355 17.89 18.38 ellipse_path stroke
0 0 0 nodecolor
14 /Times-Roman set_font
152 351.4 moveto 10 (7) alignedtext
grestore
% 2->7
gsave
1 setlinewidth
0 0 0 edgecolor
newpath 209.47 432.49 moveto
199.13 417.23 184.4 395.47 173.18 378.89 curveto
stroke
0 0 0 edgecolor
newpath 175.86 376.61 moveto
167.35 370.29 lineto
170.06 380.53 lineto
closepath fill
1 setlinewidth
solid
0 0 0 edgecolor
newpath 175.86 376.61 moveto
167.35 370.29 lineto
170.06 380.53 lineto
closepath stroke
0 0 0 edgecolor
14 /Times-Roman set_font
193 397.4 moveto 47 ([1,1,1]) alignedtext
grestore
% 8
gsave
0.54118 0.25098 1 nodecolor
103 239 17.89 18.38 ellipse_path fill
1 setlinewidth
filled
0.54118 0.25098 1 nodecolor
103 239 17.89 18.38 ellipse_path stroke
0 0 0 nodecolor
14 /Times-Roman set_font
98 235.4 moveto 10 (8) alignedtext
grestore
% 3->8
gsave
1 setlinewidth
0 0 0 edgecolor
newpath 99.64 336.36 moveto
100.28 317.84 101.27 289.19 102.01 267.75 curveto
stroke
0 0 0 edgecolor
newpath 105.51 267.71 moveto
102.36 257.59 lineto
98.52 267.46 lineto
closepath fill
1 setlinewidth
solid
0 0 0 edgecolor
newpath 105.51 267.71 moveto
102.36 257.59 lineto
98.52 267.46 lineto
closepath stroke
0 0 0 edgecolor
14 /Times-Roman set_font
101 295.4 moveto 47 ([1,1,0]) alignedtext
grestore
% 9
gsave
0.54118 0.25098 1 nodecolor
55 137 17.89 18.38 ellipse_path fill
1 setlinewidth
filled
0.54118 0.25098 1 nodecolor
55 137 17.89 18.38 ellipse_path stroke
0 0 0 nodecolor
14 /Times-Roman set_font
50 133.4 moveto 10 (9) alignedtext
grestore
% 4->9
gsave
1 setlinewidth
0 0 0 edgecolor
newpath 18.78 280.33 moveto
19.79 263.38 22.03 237.76 27 216 curveto
31.08 198.13 37.92 178.73 43.82 163.62 curveto
stroke
0 0 0 edgecolor
newpath 47.23 164.5 moveto
47.71 153.92 lineto
40.74 161.9 lineto
closepath fill
1 setlinewidth
solid
0 0 0 edgecolor
newpath 47.23 164.5 moveto
47.71 153.92 lineto
40.74 161.9 lineto
closepath stroke
0 0 0 edgecolor
14 /Times-Roman set_font
27 235.4 moveto 47 ([0,1,0]) alignedtext
grestore
% 6->5
gsave
1 setlinewidth
0 0 0 edgecolor
newpath 359.98 340.31 moveto
345.81 321.41 320.95 288.27 303.54 265.05 curveto
stroke
0 0 0 edgecolor
newpath 306.3 262.89 moveto
297.5 256.99 lineto
300.7 267.09 lineto
closepath fill
1 setlinewidth
solid
0 0 0 edgecolor
newpath 306.3 262.89 moveto
297.5 256.99 lineto
300.7 267.09 lineto
closepath stroke
0 0 0 edgecolor
14 /Times-Roman set_font
342 295.4 moveto 47 ([0,0,0]) alignedtext
grestore
% 7->5
gsave
1 setlinewidth
0 0 0 edgecolor
newpath 167.66 339.74 moveto
179.33 323.7 199.18 298.3 220 280 curveto
230.79 270.52 243.98 261.68 255.58 254.66 curveto
stroke
0 0 0 edgecolor
newpath 257.61 257.53 moveto
264.46 249.44 lineto
254.07 251.49 lineto
closepath fill
1 setlinewidth
solid
0 0 0 edgecolor
newpath 257.61 257.53 moveto
264.46 249.44 lineto
254.07 251.49 lineto
closepath stroke
0 0 0 edgecolor
14 /Times-Roman set_font
220 295.4 moveto 47 ([1,0,0]) alignedtext
grestore
% 7->7
gsave
1 setlinewidth
0 0 0 edgecolor
newpath 173.44 362.7 moveto
185.24 365.2 197 362.64 197 355 curveto
197 349.63 191.19 346.77 183.63 346.41 curveto
stroke
0 0 0 edgecolor
newpath 183.09 342.95 moveto
173.44 347.3 lineto
183.7 349.92 lineto
closepath fill
1 setlinewidth
solid
0 0 0 edgecolor
newpath 183.09 342.95 moveto
173.44 347.3 lineto
183.7 349.92 lineto
closepath stroke
0 0 0 edgecolor
14 /Times-Roman set_font
197 351.4 moveto 47 ([0,0,0]) alignedtext
grestore
% 8->8
gsave
1 setlinewidth
0 0 0 edgecolor
newpath 119.44 247.37 moveto
131.24 250.09 143 247.3 143 239 curveto
143 233.16 137.19 230.05 129.63 229.67 curveto
stroke
0 0 0 edgecolor
newpath 129.06 226.2 moveto
119.44 230.63 lineto
129.72 233.17 lineto
closepath fill
1 setlinewidth
solid
0 0 0 edgecolor
newpath 129.06 226.2 moveto
119.44 230.63 lineto
129.72 233.17 lineto
closepath stroke
0 0 0 edgecolor
14 /Times-Roman set_font
143 235.4 moveto 47 ([0,0,0]) alignedtext
grestore
% 8->9
gsave
1 setlinewidth
0 0 0 edgecolor
newpath 87.92 228.65 moveto
78.48 221.28 67 210.49 61 198 curveto
56.23 188.07 54.34 176.2 53.77 165.58 curveto
stroke
0 0 0 edgecolor
newpath 57.27 165.43 moveto
53.6 155.5 lineto
50.27 165.56 lineto
closepath fill
1 setlinewidth
solid
0 0 0 edgecolor
newpath 57.27 165.43 moveto
53.6 155.5 lineto
50.27 165.56 lineto
closepath stroke
0 0 0 edgecolor
14 /Times-Roman set_font
61 185.4 moveto 47 ([1,0,0]) alignedtext
grestore
% 10
gsave
0.54118 0.25098 1 nodecolor
129 137 24.24 24.75 ellipse_path fill
1 setlinewidth
filled
0.54118 0.25098 1 nodecolor
129 137 24.24 24.75 ellipse_path stroke
0 0 0 nodecolor
14 /Times-Roman set_font
119.5 133.4 moveto 19 (10) alignedtext
grestore
% 8->10
gsave
1 setlinewidth
0 0 0 edgecolor
newpath 107.65 220.76 moveto
111.18 206.91 116.14 187.46 120.39 170.78 curveto
stroke
0 0 0 edgecolor
newpath 123.85 171.39 moveto
122.92 160.84 lineto
117.06 169.66 lineto
closepath fill
1 setlinewidth
solid
0 0 0 edgecolor
newpath 123.85 171.39 moveto
122.92 160.84 lineto
117.06 169.66 lineto
closepath stroke
0 0 0 edgecolor
14 /Times-Roman set_font
117 185.4 moveto 47 ([1,1,0]) alignedtext
grestore
% 11
gsave
0.023529 0.72157 1 nodecolor
92 29 24.31 24.75 ellipse_path fill
1 setlinewidth
filled
0.023529 0.72157 1 nodecolor
92 29 24.31 24.75 ellipse_path stroke
1 setlinewidth
filled
0.023529 0.72157 1 nodecolor
92 29 28.24 28.75 ellipse_path stroke
0 0 0 nodecolor
14 /Times-Roman set_font
82.5 25.4 moveto 19 (11) alignedtext
grestore
% 9->11
gsave
1 setlinewidth
0 0 0 edgecolor
newpath 51.92 118.6 moveto
50.59 106.22 50.25 89.71 55 76 curveto
57.33 69.28 61.06 62.78 65.28 56.88 curveto
stroke
0 0 0 edgecolor
newpath 68.28 58.72 moveto
71.7 48.7 lineto
62.78 54.4 lineto
closepath fill
1 setlinewidth
solid
0 0 0 edgecolor
newpath 68.28 58.72 moveto
71.7 48.7 lineto
62.78 54.4 lineto
closepath stroke
0 0 0 edgecolor
14 /Times-Roman set_font
55 81.4 moveto 47 ([0,1,0]) alignedtext
grestore
% 10->10
gsave
1 setlinewidth
0 0 0 edgecolor
newpath 151.25 146.28 moveto
163.61 148.02 175 144.92 175 137 curveto
175 131.37 169.24 128.18 161.47 127.42 curveto
stroke
0 0 0 edgecolor
newpath 161.14 123.93 moveto
151.25 127.72 lineto
161.34 130.93 lineto
closepath fill
1 setlinewidth
solid
0 0 0 edgecolor
newpath 161.14 123.93 moveto
151.25 127.72 lineto
161.34 130.93 lineto
closepath stroke
0 0 0 edgecolor
14 /Times-Roman set_font
175 133.4 moveto 98 ([0,0,0] [1,1,0]) alignedtext
grestore
% 10->11
gsave
1 setlinewidth
0 0 0 edgecolor
newpath 121.06 113.83 moveto
116.24 99.77 109.99 81.51 104.52 65.53 curveto
stroke
0 0 0 edgecolor
newpath 107.78 64.27 moveto
101.23 55.94 lineto
101.16 66.54 lineto
closepath fill
1 setlinewidth
solid
0 0 0 edgecolor
newpath 107.78 64.27 moveto
101.23 55.94 lineto
101.16 66.54 lineto
closepath stroke
0 0 0 edgecolor
14 /Times-Roman set_font
113 81.4 moveto 47 ([1,0,0]) alignedtext
grestore
% 11->11
gsave
1 setlinewidth
0 0 0 edgecolor
newpath 118.24 39.24 moveto
130.86 40.51 142 37.09 142 29 curveto
142 23.18 136.24 19.78 128.32 18.8 curveto
stroke
0 0 0 edgecolor
newpath 128.25 15.3 moveto
118.24 18.76 lineto
128.22 22.3 lineto
closepath fill
1 setlinewidth
solid
0 0 0 edgecolor
newpath 128.25 15.3 moveto
118.24 18.76 lineto
128.22 22.3 lineto
closepath stroke
0 0 0 edgecolor
14 /Times-Roman set_font
142 25.4 moveto 47 ([0,1,0]) alignedtext
grestore
endpage
showpage
grestore
%%PageTrailer
%%EndPage: 1
%%Trailer
end
restore
%%EOF
