%!PS-Adobe-3.0 EPSF-3.0
%%Creator: graphviz version 2.26.3 (20100126.1600)
%%Title: FSA Utilities
%%Pages: 1
%%BoundingBox: 36 36 763 840
%%EndComments
save
%%BeginProlog
/DotDict 200 dict def
DotDict begin

/setupLatin1 {
mark
/EncodingVector 256 array def
 EncodingVector 0

ISOLatin1Encoding 0 255 getinterval putinterval
EncodingVector 45 /hyphen put

% Set up ISO Latin 1 character encoding
/starnetISO {
        dup dup findfont dup length dict begin
        { 1 index /FID ne { def }{ pop pop } ifelse
        } forall
        /Encoding EncodingVector def
        currentdict end definefont
} def
/Times-Roman starnetISO def
/Times-Italic starnetISO def
/Times-Bold starnetISO def
/Times-BoldItalic starnetISO def
/Helvetica starnetISO def
/Helvetica-Oblique starnetISO def
/Helvetica-Bold starnetISO def
/Helvetica-BoldOblique starnetISO def
/Courier starnetISO def
/Courier-Oblique starnetISO def
/Courier-Bold starnetISO def
/Courier-BoldOblique starnetISO def
cleartomark
} bind def

%%BeginResource: procset graphviz 0 0
/coord-font-family /Times-Roman def
/default-font-family /Times-Roman def
/coordfont coord-font-family findfont 8 scalefont def

/InvScaleFactor 1.0 def
/set_scale {
       dup 1 exch div /InvScaleFactor exch def
       scale
} bind def

% styles
/solid { [] 0 setdash } bind def
/dashed { [9 InvScaleFactor mul dup ] 0 setdash } bind def
/dotted { [1 InvScaleFactor mul 6 InvScaleFactor mul] 0 setdash } bind def
/invis {/fill {newpath} def /stroke {newpath} def /show {pop newpath} def} bind def
/bold { 2 setlinewidth } bind def
/filled { } bind def
/unfilled { } bind def
/rounded { } bind def
/diagonals { } bind def

% hooks for setting color 
/nodecolor { sethsbcolor } bind def
/edgecolor { sethsbcolor } bind def
/graphcolor { sethsbcolor } bind def
/nopcolor {pop pop pop} bind def

/beginpage {	% i j npages
	/npages exch def
	/j exch def
	/i exch def
	/str 10 string def
	npages 1 gt {
		gsave
			coordfont setfont
			0 0 moveto
			(\() show i str cvs show (,) show j str cvs show (\)) show
		grestore
	} if
} bind def

/set_font {
	findfont exch
	scalefont setfont
} def

% draw text fitted to its expected width
/alignedtext {			% width text
	/text exch def
	/width exch def
	gsave
		width 0 gt {
			[] 0 setdash
			text stringwidth pop width exch sub text length div 0 text ashow
		} if
	grestore
} def

/boxprim {				% xcorner ycorner xsize ysize
		4 2 roll
		moveto
		2 copy
		exch 0 rlineto
		0 exch rlineto
		pop neg 0 rlineto
		closepath
} bind def

/ellipse_path {
	/ry exch def
	/rx exch def
	/y exch def
	/x exch def
	matrix currentmatrix
	newpath
	x y translate
	rx ry scale
	0 0 1 0 360 arc
	setmatrix
} bind def

/endpage { showpage } bind def
/showpage { } def

/layercolorseq
	[	% layer color sequence - darkest to lightest
		[0 0 0]
		[.2 .8 .8]
		[.4 .8 .8]
		[.6 .8 .8]
		[.8 .8 .8]
	]
def

/layerlen layercolorseq length def

/setlayer {/maxlayer exch def /curlayer exch def
	layercolorseq curlayer 1 sub layerlen mod get
	aload pop sethsbcolor
	/nodecolor {nopcolor} def
	/edgecolor {nopcolor} def
	/graphcolor {nopcolor} def
} bind def

/onlayer { curlayer ne {invis} if } def

/onlayers {
	/myupper exch def
	/mylower exch def
	curlayer mylower lt
	curlayer myupper gt
	or
	{invis} if
} def

/curlayer 0 def

%%EndResource
%%EndProlog
%%BeginSetup
14 default-font-family set_font
1 setmiterlimit
% /arrowlength 10 def
% /arrowwidth 5 def

% make sure pdfmark is harmless for PS-interpreters other than Distiller
/pdfmark where {pop} {userdict /pdfmark /cleartomark load put} ifelse
% make '<<' and '>>' safe on PS Level 1 devices
/languagelevel where {pop languagelevel}{1} ifelse
2 lt {
    userdict (<<) cvn ([) cvn load put
    userdict (>>) cvn ([) cvn load put
} if

%%EndSetup
setupLatin1
%%Page: 1 1
%%PageBoundingBox: 36 36 763 840
%%PageOrientation: Portrait
0 0 1 beginpage
gsave
36 36 727 804 boxprim clip newpath
1 1 set_scale 0 rotate 40 41 translate
% start0
gsave
grestore
% 0
gsave
0.21961 0.75686 1 nodecolor
470 703 17.89 18.38 ellipse_path fill
1 setlinewidth
filled
0.21961 0.75686 1 nodecolor
470 703 17.89 18.38 ellipse_path stroke
0 0 0 nodecolor
14 /Times-Roman set_font
465 699.4 moveto 10 (0) alignedtext
grestore
% start0->0
gsave
1 setlinewidth
0 0 0 edgecolor
newpath 470 759.84 moveto
470 751.4 470 741.16 470 731.71 curveto
stroke
0 0 0 edgecolor
newpath 473.5 731.51 moveto
470 721.51 lineto
466.5 731.51 lineto
closepath fill
1 setlinewidth
solid
0 0 0 edgecolor
newpath 473.5 731.51 moveto
470 721.51 lineto
466.5 731.51 lineto
closepath stroke
grestore
% 0->0
gsave
1 setlinewidth
0 0 0 edgecolor
newpath 487.27 709.5 moveto
498.79 711.33 510 709.16 510 703 curveto
510 698.76 504.7 696.42 497.64 695.96 curveto
stroke
0 0 0 edgecolor
newpath 497.07 692.48 moveto
487.27 696.5 lineto
497.44 699.47 lineto
closepath fill
1 setlinewidth
solid
0 0 0 edgecolor
newpath 497.07 692.48 moveto
487.27 696.5 lineto
497.44 699.47 lineto
closepath stroke
0 0 0 edgecolor
14 /Times-Roman set_font
510 699.4 moveto 34 ([0,0]) alignedtext
grestore
% 1
gsave
0.023529 0.72157 1 nodecolor
470 607 17.98 18.38 ellipse_path fill
1 setlinewidth
filled
0.023529 0.72157 1 nodecolor
470 607 17.98 18.38 ellipse_path stroke
1 setlinewidth
filled
0.023529 0.72157 1 nodecolor
470 607 21.89 22.38 ellipse_path stroke
0 0 0 nodecolor
14 /Times-Roman set_font
465 603.4 moveto 10 (1) alignedtext
grestore
% 0->1
gsave
1 setlinewidth
0 0 0 edgecolor
newpath 470 684.49 moveto
470 671.86 470 654.79 470 639.88 curveto
stroke
0 0 0 edgecolor
newpath 473.5 639.51 moveto
470 629.51 lineto
466.5 639.51 lineto
closepath fill
1 setlinewidth
solid
0 0 0 edgecolor
newpath 473.5 639.51 moveto
470 629.51 lineto
466.5 639.51 lineto
closepath stroke
0 0 0 edgecolor
14 /Times-Roman set_font
470 653.4 moveto 34 ([0,1]) alignedtext
grestore
% 2
gsave
0.54118 0.25098 1 nodecolor
470 511 17.89 18.38 ellipse_path fill
1 setlinewidth
filled
0.54118 0.25098 1 nodecolor
470 511 17.89 18.38 ellipse_path stroke
0 0 0 nodecolor
14 /Times-Roman set_font
465 507.4 moveto 10 (2) alignedtext
grestore
% 1->2
gsave
1 setlinewidth
0 0 0 edgecolor
newpath 470 584.25 moveto
470 570.99 470 554.15 470 539.95 curveto
stroke
0 0 0 edgecolor
newpath 473.5 539.72 moveto
470 529.72 lineto
466.5 539.72 lineto
closepath fill
1 setlinewidth
solid
0 0 0 edgecolor
newpath 473.5 539.72 moveto
470 529.72 lineto
466.5 539.72 lineto
closepath stroke
0 0 0 edgecolor
14 /Times-Roman set_font
470 553.4 moveto 34 ([0,0]) alignedtext
grestore
% 3
gsave
0.023529 0.72157 1 nodecolor
668 217 17.98 18.38 ellipse_path fill
1 setlinewidth
filled
0.023529 0.72157 1 nodecolor
668 217 17.98 18.38 ellipse_path stroke
1 setlinewidth
filled
0.023529 0.72157 1 nodecolor
668 217 21.89 22.38 ellipse_path stroke
0 0 0 nodecolor
14 /Times-Roman set_font
663 213.4 moveto 10 (3) alignedtext
grestore
% 1->3
gsave
1 setlinewidth
0 0 0 edgecolor
newpath 491.8 602.17 moveto
546.46 589.43 685 553 685 511 curveto
685 511 685 511 685 321 curveto
685 296.43 680.32 269.01 675.87 248.5 curveto
stroke
0 0 0 edgecolor
newpath 679.28 247.72 moveto
673.66 238.74 lineto
672.46 249.27 lineto
closepath fill
1 setlinewidth
solid
0 0 0 edgecolor
newpath 679.28 247.72 moveto
673.66 238.74 lineto
672.46 249.27 lineto
closepath stroke
0 0 0 edgecolor
14 /Times-Roman set_font
685 415.4 moveto 34 ([1,0]) alignedtext
grestore
% 4
gsave
0.54118 0.25098 1 nodecolor
82 119 17.89 18.38 ellipse_path fill
1 setlinewidth
filled
0.54118 0.25098 1 nodecolor
82 119 17.89 18.38 ellipse_path stroke
0 0 0 nodecolor
14 /Times-Roman set_font
77 115.4 moveto 10 (4) alignedtext
grestore
% 1->4
gsave
1 setlinewidth
0 0 0 edgecolor
newpath 447.96 604.88 moveto
355.04 595.64 0 557.33 0 511 curveto
0 511 0 511 0 217 curveto
0 180.65 33.6 150.68 57.79 133.82 curveto
stroke
0 0 0 edgecolor
newpath 59.81 136.67 moveto
66.19 128.21 lineto
55.93 130.85 lineto
closepath fill
1 setlinewidth
solid
0 0 0 edgecolor
newpath 59.81 136.67 moveto
66.19 128.21 lineto
55.93 130.85 lineto
closepath stroke
0 0 0 edgecolor
14 /Times-Roman set_font
0 369.4 moveto 34 ([1,1]) alignedtext
grestore
% 5
gsave
0.54118 0.25098 1 nodecolor
265 419 17.89 18.38 ellipse_path fill
1 setlinewidth
filled
0.54118 0.25098 1 nodecolor
265 419 17.89 18.38 ellipse_path stroke
0 0 0 nodecolor
14 /Times-Roman set_font
260 415.4 moveto 10 (5) alignedtext
grestore
% 2->5
gsave
1 setlinewidth
0 0 0 edgecolor
newpath 453.22 503.47 moveto
417.47 487.43 333.57 449.77 290.9 430.62 curveto
stroke
0 0 0 edgecolor
newpath 292.28 427.41 moveto
281.72 426.5 lineto
289.41 433.79 lineto
closepath fill
1 setlinewidth
solid
0 0 0 edgecolor
newpath 292.28 427.41 moveto
281.72 426.5 lineto
289.41 433.79 lineto
closepath stroke
0 0 0 edgecolor
14 /Times-Roman set_font
385 461.4 moveto 34 ([1,0]) alignedtext
grestore
% 6
gsave
0.54118 0.25098 1 nodecolor
581 321 17.89 18.38 ellipse_path fill
1 setlinewidth
filled
0.54118 0.25098 1 nodecolor
581 321 17.89 18.38 ellipse_path stroke
0 0 0 nodecolor
14 /Times-Roman set_font
576 317.4 moveto 10 (6) alignedtext
grestore
% 2->6
gsave
1 setlinewidth
0 0 0 edgecolor
newpath 479.27 495.13 moveto
498.62 462.02 543.39 385.38 566.55 345.74 curveto
stroke
0 0 0 edgecolor
newpath 569.65 347.36 moveto
571.68 336.96 lineto
563.61 343.83 lineto
closepath fill
1 setlinewidth
solid
0 0 0 edgecolor
newpath 569.65 347.36 moveto
571.68 336.96 lineto
563.61 343.83 lineto
closepath stroke
0 0 0 edgecolor
14 /Times-Roman set_font
534 415.4 moveto 34 ([1,1]) alignedtext
grestore
% 7
gsave
0.023529 0.72157 1 nodecolor
480 23 17.98 18.38 ellipse_path fill
1 setlinewidth
filled
0.023529 0.72157 1 nodecolor
480 23 17.98 18.38 ellipse_path stroke
1 setlinewidth
filled
0.023529 0.72157 1 nodecolor
480 23 21.89 22.38 ellipse_path stroke
0 0 0 nodecolor
14 /Times-Roman set_font
475 19.4 moveto 10 (7) alignedtext
grestore
% 3->7
gsave
1 setlinewidth
0 0 0 edgecolor
newpath 667.06 194.17 moveto
664.87 168.5 657.77 126.91 635 100 curveto
602.59 61.69 546.49 40.59 511.42 30.56 curveto
stroke
0 0 0 edgecolor
newpath 512.25 27.16 moveto
501.68 27.9 lineto
510.41 33.91 lineto
closepath fill
1 setlinewidth
solid
0 0 0 edgecolor
newpath 512.25 27.16 moveto
501.68 27.9 lineto
510.41 33.91 lineto
closepath stroke
0 0 0 edgecolor
14 /Times-Roman set_font
655 115.4 moveto 34 ([0,0]) alignedtext
grestore
% 8
gsave
0.54118 0.25098 1 nodecolor
554 119 17.89 18.38 ellipse_path fill
1 setlinewidth
filled
0.54118 0.25098 1 nodecolor
554 119 17.89 18.38 ellipse_path stroke
0 0 0 nodecolor
14 /Times-Roman set_font
549 115.4 moveto 10 (8) alignedtext
grestore
% 3->8
gsave
1 setlinewidth
0 0 0 edgecolor
newpath 650.94 202.74 moveto
641 194.4 628.25 183.65 617 174 curveto
603.21 162.17 587.85 148.77 575.75 138.15 curveto
stroke
0 0 0 edgecolor
newpath 577.78 135.27 moveto
567.95 131.3 lineto
573.16 140.53 lineto
closepath fill
1 setlinewidth
solid
0 0 0 edgecolor
newpath 577.78 135.27 moveto
567.95 131.3 lineto
573.16 140.53 lineto
closepath stroke
0 0 0 edgecolor
14 /Times-Roman set_font
617 161.4 moveto 34 ([0,1]) alignedtext
grestore
% 4->4
gsave
1 setlinewidth
0 0 0 edgecolor
newpath 98.44 126.7 moveto
110.24 129.2 122 126.64 122 119 curveto
122 113.63 116.19 110.77 108.63 110.41 curveto
stroke
0 0 0 edgecolor
newpath 108.09 106.95 moveto
98.44 111.3 lineto
108.7 113.92 lineto
closepath fill
1 setlinewidth
solid
0 0 0 edgecolor
newpath 108.09 106.95 moveto
98.44 111.3 lineto
108.7 113.92 lineto
closepath stroke
0 0 0 edgecolor
14 /Times-Roman set_font
122 115.4 moveto 34 ([0,0]) alignedtext
grestore
% 4->5
gsave
1 setlinewidth
0 0 0 edgecolor
newpath 78.52 137.24 moveto
70.35 186.33 55.9 321.6 131 382 curveto
147.32 395.12 203.1 407.46 237.33 414.04 curveto
stroke
0 0 0 edgecolor
newpath 236.72 417.49 moveto
247.2 415.9 lineto
238.01 410.61 lineto
closepath fill
1 setlinewidth
solid
0 0 0 edgecolor
newpath 236.72 417.49 moveto
247.2 415.9 lineto
238.01 410.61 lineto
closepath stroke
0 0 0 edgecolor
14 /Times-Roman set_font
77 265.4 moveto 34 ([0,1]) alignedtext
grestore
% 4->7
gsave
1 setlinewidth
0 0 0 edgecolor
newpath 99.62 114.75 moveto
161.38 99.85 368.68 49.85 448.4 30.62 curveto
stroke
0 0 0 edgecolor
newpath 449.44 33.97 moveto
458.34 28.22 lineto
447.8 27.17 lineto
closepath fill
1 setlinewidth
solid
0 0 0 edgecolor
newpath 449.44 33.97 moveto
458.34 28.22 lineto
447.8 27.17 lineto
closepath stroke
0 0 0 edgecolor
14 /Times-Roman set_font
304 69.4 moveto 34 ([1,0]) alignedtext
grestore
% 9
gsave
0.54118 0.25098 1 nodecolor
161 217 17.89 18.38 ellipse_path fill
1 setlinewidth
filled
0.54118 0.25098 1 nodecolor
161 217 17.89 18.38 ellipse_path stroke
0 0 0 nodecolor
14 /Times-Roman set_font
156 213.4 moveto 10 (9) alignedtext
grestore
% 5->9
gsave
1 setlinewidth
0 0 0 edgecolor
newpath 250.66 407.64 moveto
234.97 394.45 210.16 371.25 196 346 curveto
178.16 314.19 169.04 272.83 164.65 245.63 curveto
stroke
0 0 0 edgecolor
newpath 168.09 244.96 moveto
163.14 235.6 lineto
161.17 246 lineto
closepath fill
1 setlinewidth
solid
0 0 0 edgecolor
newpath 168.09 244.96 moveto
163.14 235.6 lineto
161.17 246 lineto
closepath stroke
0 0 0 edgecolor
14 /Times-Roman set_font
196 317.4 moveto 34 ([0,0]) alignedtext
grestore
% 10
gsave
0.54118 0.25098 1 nodecolor
265 321 24.24 24.75 ellipse_path fill
1 setlinewidth
filled
0.54118 0.25098 1 nodecolor
265 321 24.24 24.75 ellipse_path stroke
0 0 0 nodecolor
14 /Times-Roman set_font
255.5 317.4 moveto 19 (10) alignedtext
grestore
% 5->10
gsave
1 setlinewidth
0 0 0 edgecolor
newpath 265 400.1 moveto
265 387.66 265 370.99 265 356.16 curveto
stroke
0 0 0 edgecolor
newpath 268.5 355.78 moveto
265 345.78 lineto
261.5 355.78 lineto
closepath fill
1 setlinewidth
solid
0 0 0 edgecolor
newpath 268.5 355.78 moveto
265 345.78 lineto
261.5 355.78 lineto
closepath stroke
0 0 0 edgecolor
14 /Times-Roman set_font
265 369.4 moveto 34 ([0,1]) alignedtext
grestore
% 11
gsave
0.54118 0.25098 1 nodecolor
402 217 24.24 24.75 ellipse_path fill
1 setlinewidth
filled
0.54118 0.25098 1 nodecolor
402 217 24.24 24.75 ellipse_path stroke
0 0 0 nodecolor
14 /Times-Roman set_font
392.5 213.4 moveto 19 (11) alignedtext
grestore
% 5->11
gsave
1 setlinewidth
0 0 0 edgecolor
newpath 280.58 409.49 moveto
299.77 397.05 332.26 373.58 352 346 curveto
372.7 317.08 386.18 278.45 393.87 251.03 curveto
stroke
0 0 0 edgecolor
newpath 397.32 251.67 moveto
396.54 241.11 lineto
390.56 249.86 lineto
closepath fill
1 setlinewidth
solid
0 0 0 edgecolor
newpath 397.32 251.67 moveto
396.54 241.11 lineto
390.56 249.86 lineto
closepath stroke
0 0 0 edgecolor
14 /Times-Roman set_font
378 317.4 moveto 34 ([1,0]) alignedtext
grestore
% 12
gsave
0.54118 0.25098 1 nodecolor
465 321 24.24 24.75 ellipse_path fill
1 setlinewidth
filled
0.54118 0.25098 1 nodecolor
465 321 24.24 24.75 ellipse_path stroke
0 0 0 nodecolor
14 /Times-Roman set_font
455.5 317.4 moveto 19 (12) alignedtext
grestore
% 5->12
gsave
1 setlinewidth
0 0 0 edgecolor
newpath 282.95 417.06 moveto
310.22 413.5 363.01 404.14 402 382 curveto
417.42 373.24 431.85 359.82 443 347.8 curveto
stroke
0 0 0 edgecolor
newpath 445.77 349.95 moveto
449.83 340.16 lineto
440.56 345.28 lineto
closepath fill
1 setlinewidth
solid
0 0 0 edgecolor
newpath 445.77 349.95 moveto
449.83 340.16 lineto
440.56 345.28 lineto
closepath stroke
0 0 0 edgecolor
14 /Times-Roman set_font
425 369.4 moveto 34 ([1,1]) alignedtext
grestore
% 6->6
gsave
1 setlinewidth
0 0 0 edgecolor
newpath 597.02 329.6 moveto
608.96 332.6 621 329.73 621 321 curveto
621 314.79 614.92 311.55 607.11 311.27 curveto
stroke
0 0 0 edgecolor
newpath 606.57 307.81 moveto
597.02 312.4 lineto
607.35 314.76 lineto
closepath fill
1 setlinewidth
solid
0 0 0 edgecolor
newpath 606.57 307.81 moveto
597.02 312.4 lineto
607.35 314.76 lineto
closepath stroke
0 0 0 edgecolor
14 /Times-Roman set_font
621 317.4 moveto 34 ([1,1]) alignedtext
grestore
% 13
gsave
0.54118 0.25098 1 nodecolor
543 217 24.24 24.75 ellipse_path fill
1 setlinewidth
filled
0.54118 0.25098 1 nodecolor
543 217 24.24 24.75 ellipse_path stroke
0 0 0 nodecolor
14 /Times-Roman set_font
533.5 213.4 moveto 19 (13) alignedtext
grestore
% 6->13
gsave
1 setlinewidth
0 0 0 edgecolor
newpath 581.72 302.25 moveto
581.59 289.87 580.22 273.5 575 260 curveto
572.76 254.22 569.52 248.53 565.96 243.29 curveto
stroke
0 0 0 edgecolor
newpath 568.53 240.87 moveto
559.76 234.93 lineto
562.9 245.05 lineto
closepath fill
1 setlinewidth
solid
0 0 0 edgecolor
newpath 568.53 240.87 moveto
559.76 234.93 lineto
562.9 245.05 lineto
closepath stroke
0 0 0 edgecolor
14 /Times-Roman set_font
579 265.4 moveto 34 ([1,0]) alignedtext
grestore
% 8->7
gsave
1 setlinewidth
0 0 0 edgecolor
newpath 542.76 104.42 moveto
531.5 89.81 513.93 67.02 500.24 49.25 curveto
stroke
0 0 0 edgecolor
newpath 502.75 46.78 moveto
493.87 41 lineto
497.21 51.05 lineto
closepath fill
1 setlinewidth
solid
0 0 0 edgecolor
newpath 502.75 46.78 moveto
493.87 41 lineto
497.21 51.05 lineto
closepath stroke
0 0 0 edgecolor
14 /Times-Roman set_font
523 69.4 moveto 34 ([0,0]) alignedtext
grestore
% 8->8
gsave
1 setlinewidth
0 0 0 edgecolor
newpath 570.44 126.7 moveto
582.24 129.2 594 126.64 594 119 curveto
594 113.63 588.19 110.77 580.63 110.41 curveto
stroke
0 0 0 edgecolor
newpath 580.09 106.95 moveto
570.44 111.3 lineto
580.7 113.92 lineto
closepath fill
1 setlinewidth
solid
0 0 0 edgecolor
newpath 580.09 106.95 moveto
570.44 111.3 lineto
580.7 113.92 lineto
closepath stroke
0 0 0 edgecolor
14 /Times-Roman set_font
594 115.4 moveto 34 ([0,1]) alignedtext
grestore
% 9->4
gsave
1 setlinewidth
0 0 0 edgecolor
newpath 149.34 202.54 moveto
136.33 186.4 115.12 160.09 99.98 141.31 curveto
stroke
0 0 0 edgecolor
newpath 102.71 139.11 moveto
93.7 133.52 lineto
97.26 143.5 lineto
closepath fill
1 setlinewidth
solid
0 0 0 edgecolor
newpath 102.71 139.11 moveto
93.7 133.52 lineto
97.26 143.5 lineto
closepath stroke
0 0 0 edgecolor
14 /Times-Roman set_font
126 161.4 moveto 34 ([1,0]) alignedtext
grestore
% 9->5
gsave
1 setlinewidth
0 0 0 edgecolor
newpath 150.05 231.88 moveto
133.38 256.49 105.44 306.84 124 346 curveto
144.49 389.23 202 407.4 236.92 414.61 curveto
stroke
0 0 0 edgecolor
newpath 236.49 418.09 moveto
246.96 416.52 lineto
237.79 411.22 lineto
closepath fill
1 setlinewidth
solid
0 0 0 edgecolor
newpath 236.49 418.09 moveto
246.96 416.52 lineto
237.79 411.22 lineto
closepath stroke
0 0 0 edgecolor
14 /Times-Roman set_font
124 317.4 moveto 34 ([1,1]) alignedtext
grestore
% 10->9
gsave
1 setlinewidth
0 0 0 edgecolor
newpath 247.83 303.83 moveto
229.49 285.49 200.46 256.46 181.08 237.08 curveto
stroke
0 0 0 edgecolor
newpath 183.47 234.52 moveto
173.92 229.92 lineto
178.52 239.47 lineto
closepath fill
1 setlinewidth
solid
0 0 0 edgecolor
newpath 183.47 234.52 moveto
173.92 229.92 lineto
178.52 239.47 lineto
closepath stroke
0 0 0 edgecolor
14 /Times-Roman set_font
219 265.4 moveto 34 ([1,0]) alignedtext
grestore
% 10->10
gsave
1 setlinewidth
0 0 0 edgecolor
newpath 287.25 330.28 moveto
299.61 332.02 311 328.92 311 321 curveto
311 315.37 305.24 312.18 297.47 311.42 curveto
stroke
0 0 0 edgecolor
newpath 297.14 307.93 moveto
287.25 311.72 lineto
297.34 314.93 lineto
closepath fill
1 setlinewidth
solid
0 0 0 edgecolor
newpath 297.14 307.93 moveto
287.25 311.72 lineto
297.34 314.93 lineto
closepath stroke
0 0 0 edgecolor
14 /Times-Roman set_font
311 317.4 moveto 34 ([1,1]) alignedtext
grestore
% 11->7
gsave
1 setlinewidth
0 0 0 edgecolor
newpath 409.42 193.4 moveto
417.11 169.57 429.83 131.82 443 100 curveto
449.64 83.97 457.94 66.51 464.99 52.27 curveto
stroke
0 0 0 edgecolor
newpath 468.29 53.5 moveto
469.64 42.99 lineto
462.03 50.36 lineto
closepath fill
1 setlinewidth
solid
0 0 0 edgecolor
newpath 468.29 53.5 moveto
469.64 42.99 lineto
462.03 50.36 lineto
closepath stroke
0 0 0 edgecolor
14 /Times-Roman set_font
443 115.4 moveto 34 ([0,0]) alignedtext
grestore
% 12->11
gsave
1 setlinewidth
0 0 0 edgecolor
newpath 452.25 299.95 moveto
443.03 284.73 430.43 263.94 420.16 246.98 curveto
stroke
0 0 0 edgecolor
newpath 422.9 244.75 moveto
414.73 238.01 lineto
416.92 248.38 lineto
closepath fill
1 setlinewidth
solid
0 0 0 edgecolor
newpath 422.9 244.75 moveto
414.73 238.01 lineto
416.92 248.38 lineto
closepath stroke
0 0 0 edgecolor
14 /Times-Roman set_font
437 265.4 moveto 34 ([0,0]) alignedtext
grestore
% 12->12
gsave
1 setlinewidth
0 0 0 edgecolor
newpath 487.25 330.28 moveto
499.61 332.02 511 328.92 511 321 curveto
511 315.37 505.24 312.18 497.47 311.42 curveto
stroke
0 0 0 edgecolor
newpath 497.14 307.93 moveto
487.25 311.72 lineto
497.34 314.93 lineto
closepath fill
1 setlinewidth
solid
0 0 0 edgecolor
newpath 497.14 307.93 moveto
487.25 311.72 lineto
497.34 314.93 lineto
closepath stroke
0 0 0 edgecolor
14 /Times-Roman set_font
511 317.4 moveto 34 ([0,1]) alignedtext
grestore
% 13->6
gsave
1 setlinewidth
0 0 0 edgecolor
newpath 537.27 240.94 moveto
535.62 252.52 535.35 266.38 540 278 curveto
542.25 283.61 551.03 293.1 559.89 301.73 curveto
stroke
0 0 0 edgecolor
newpath 557.55 304.34 moveto
567.21 308.68 lineto
562.37 299.26 lineto
closepath fill
1 setlinewidth
solid
0 0 0 edgecolor
newpath 557.55 304.34 moveto
567.21 308.68 lineto
562.37 299.26 lineto
closepath stroke
0 0 0 edgecolor
14 /Times-Roman set_font
540 265.4 moveto 34 ([0,1]) alignedtext
grestore
% 13->7
gsave
1 setlinewidth
0 0 0 edgecolor
newpath 527.11 198.61 moveto
514.98 183.43 499.02 160.77 491 138 curveto
481.64 111.43 479.24 79.39 478.98 55.88 curveto
stroke
0 0 0 edgecolor
newpath 482.48 55.74 moveto
478.99 45.73 lineto
475.48 55.73 lineto
closepath fill
1 setlinewidth
solid
0 0 0 edgecolor
newpath 482.48 55.74 moveto
478.99 45.73 lineto
475.48 55.73 lineto
closepath stroke
0 0 0 edgecolor
14 /Times-Roman set_font
491 115.4 moveto 34 ([1,0]) alignedtext
grestore
% 13->8
gsave
1 setlinewidth
0 0 0 edgecolor
newpath 545.75 192.52 moveto
547.27 178.97 549.17 162.04 550.76 147.85 curveto
stroke
0 0 0 edgecolor
newpath 554.27 147.96 moveto
551.91 137.63 lineto
547.32 147.18 lineto
closepath fill
1 setlinewidth
solid
0 0 0 edgecolor
newpath 554.27 147.96 moveto
551.91 137.63 lineto
547.32 147.18 lineto
closepath stroke
0 0 0 edgecolor
14 /Times-Roman set_font
549 161.4 moveto 34 ([1,1]) alignedtext
grestore
% 13->13
gsave
1 setlinewidth
0 0 0 edgecolor
newpath 565.25 226.28 moveto
577.61 228.02 589 224.92 589 217 curveto
589 211.37 583.24 208.18 575.47 207.42 curveto
stroke
0 0 0 edgecolor
newpath 575.14 203.93 moveto
565.25 207.72 lineto
575.34 210.93 lineto
closepath fill
1 setlinewidth
solid
0 0 0 edgecolor
newpath 575.14 203.93 moveto
565.25 207.72 lineto
575.34 210.93 lineto
closepath stroke
0 0 0 edgecolor
14 /Times-Roman set_font
589 213.4 moveto 34 ([0,0]) alignedtext
grestore
endpage
showpage
grestore
%%PageTrailer
%%EndPage: 1
%%Trailer
end
restore
%%EOF
