%!PS-Adobe-3.0 EPSF-3.0
%%Creator: graphviz version 2.26.3 (20100126.1600)
%%Title: FSA Utilities
%%Pages: 1
%%BoundingBox: 69 36 543 848
%%EndComments
save
%%BeginProlog
/DotDict 200 dict def
DotDict begin

/setupLatin1 {
mark
/EncodingVector 256 array def
 EncodingVector 0

ISOLatin1Encoding 0 255 getinterval putinterval
EncodingVector 45 /hyphen put

% Set up ISO Latin 1 character encoding
/starnetISO {
        dup dup findfont dup length dict begin
        { 1 index /FID ne { def }{ pop pop } ifelse
        } forall
        /Encoding EncodingVector def
        currentdict end definefont
} def
/Times-Roman starnetISO def
/Times-Italic starnetISO def
/Times-Bold starnetISO def
/Times-BoldItalic starnetISO def
/Helvetica starnetISO def
/Helvetica-Oblique starnetISO def
/Helvetica-Bold starnetISO def
/Helvetica-BoldOblique starnetISO def
/Courier starnetISO def
/Courier-Oblique starnetISO def
/Courier-Bold starnetISO def
/Courier-BoldOblique starnetISO def
cleartomark
} bind def

%%BeginResource: procset graphviz 0 0
/coord-font-family /Times-Roman def
/default-font-family /Times-Roman def
/coordfont coord-font-family findfont 8 scalefont def

/InvScaleFactor 1.0 def
/set_scale {
       dup 1 exch div /InvScaleFactor exch def
       scale
} bind def

% styles
/solid { [] 0 setdash } bind def
/dashed { [9 InvScaleFactor mul dup ] 0 setdash } bind def
/dotted { [1 InvScaleFactor mul 6 InvScaleFactor mul] 0 setdash } bind def
/invis {/fill {newpath} def /stroke {newpath} def /show {pop newpath} def} bind def
/bold { 2 setlinewidth } bind def
/filled { } bind def
/unfilled { } bind def
/rounded { } bind def
/diagonals { } bind def

% hooks for setting color 
/nodecolor { sethsbcolor } bind def
/edgecolor { sethsbcolor } bind def
/graphcolor { sethsbcolor } bind def
/nopcolor {pop pop pop} bind def

/beginpage {	% i j npages
	/npages exch def
	/j exch def
	/i exch def
	/str 10 string def
	npages 1 gt {
		gsave
			coordfont setfont
			0 0 moveto
			(\() show i str cvs show (,) show j str cvs show (\)) show
		grestore
	} if
} bind def

/set_font {
	findfont exch
	scalefont setfont
} def

% draw text fitted to its expected width
/alignedtext {			% width text
	/text exch def
	/width exch def
	gsave
		width 0 gt {
			[] 0 setdash
			text stringwidth pop width exch sub text length div 0 text ashow
		} if
	grestore
} def

/boxprim {				% xcorner ycorner xsize ysize
		4 2 roll
		moveto
		2 copy
		exch 0 rlineto
		0 exch rlineto
		pop neg 0 rlineto
		closepath
} bind def

/ellipse_path {
	/ry exch def
	/rx exch def
	/y exch def
	/x exch def
	matrix currentmatrix
	newpath
	x y translate
	rx ry scale
	0 0 1 0 360 arc
	setmatrix
} bind def

/endpage { showpage } bind def
/showpage { } def

/layercolorseq
	[	% layer color sequence - darkest to lightest
		[0 0 0]
		[.2 .8 .8]
		[.4 .8 .8]
		[.6 .8 .8]
		[.8 .8 .8]
	]
def

/layerlen layercolorseq length def

/setlayer {/maxlayer exch def /curlayer exch def
	layercolorseq curlayer 1 sub layerlen mod get
	aload pop sethsbcolor
	/nodecolor {nopcolor} def
	/edgecolor {nopcolor} def
	/graphcolor {nopcolor} def
} bind def

/onlayer { curlayer ne {invis} if } def

/onlayers {
	/myupper exch def
	/mylower exch def
	curlayer mylower lt
	curlayer myupper gt
	or
	{invis} if
} def

/curlayer 0 def

%%EndResource
%%EndProlog
%%BeginSetup
14 default-font-family set_font
1 setmiterlimit
% /arrowlength 10 def
% /arrowwidth 5 def

% make sure pdfmark is harmless for PS-interpreters other than Distiller
/pdfmark where {pop} {userdict /pdfmark /cleartomark load put} ifelse
% make '<<' and '>>' safe on PS Level 1 devices
/languagelevel where {pop languagelevel}{1} ifelse
2 lt {
    userdict (<<) cvn ([) cvn load put
    userdict (>>) cvn ([) cvn load put
} if

%%EndSetup
setupLatin1
%%Page: 1 1
%%PageBoundingBox: 69 36 543 848
%%PageOrientation: Portrait
0 0 1 beginpage
gsave
69 36 474 812 boxprim clip newpath
1 1 set_scale 0 rotate 73.0739 41 translate
% start0
gsave
grestore
% 0
gsave
0.21961 0.75686 1 nodecolor
209.85 711 17.89 18.38 ellipse_path fill
1 setlinewidth
filled
0.21961 0.75686 1 nodecolor
209.85 711 17.89 18.38 ellipse_path stroke
0 0 0 nodecolor
14 /Times-Roman set_font
204.85 707.4 moveto 10 (0) alignedtext
grestore
% start0->0
gsave
1 setlinewidth
0 0 0 edgecolor
newpath 209.85 767.84 moveto
209.85 759.4 209.85 749.16 209.85 739.71 curveto
stroke
0 0 0 edgecolor
newpath 213.35 739.51 moveto
209.85 729.51 lineto
206.35 739.51 lineto
closepath fill
1 setlinewidth
solid
0 0 0 edgecolor
newpath 213.35 739.51 moveto
209.85 729.51 lineto
206.35 739.51 lineto
closepath stroke
grestore
% 0->0
gsave
1 setlinewidth
0 0 0 edgecolor
newpath 227.12 717.5 moveto
238.64 719.33 249.85 717.16 249.85 711 curveto
249.85 706.76 244.55 704.42 237.5 703.96 curveto
stroke
0 0 0 edgecolor
newpath 236.92 700.48 moveto
227.12 704.5 lineto
237.29 707.47 lineto
closepath fill
1 setlinewidth
solid
0 0 0 edgecolor
newpath 236.92 700.48 moveto
227.12 704.5 lineto
237.29 707.47 lineto
closepath stroke
0 0 0 edgecolor
14 /Times-Roman set_font
249.85 707.4 moveto 47 ([0,0,0]) alignedtext
grestore
% 1
gsave
0.54118 0.25098 1 nodecolor
132.85 619 17.89 18.38 ellipse_path fill
1 setlinewidth
filled
0.54118 0.25098 1 nodecolor
132.85 619 17.89 18.38 ellipse_path stroke
0 0 0 nodecolor
14 /Times-Roman set_font
127.85 615.4 moveto 10 (1) alignedtext
grestore
% 0->1
gsave
1 setlinewidth
0 0 0 edgecolor
newpath 197.82 696.63 moveto
185.39 681.77 165.82 658.39 151.41 641.17 curveto
stroke
0 0 0 edgecolor
newpath 153.9 638.7 moveto
144.8 633.27 lineto
148.53 643.19 lineto
closepath fill
1 setlinewidth
solid
0 0 0 edgecolor
newpath 153.9 638.7 moveto
144.8 633.27 lineto
148.53 643.19 lineto
closepath stroke
0 0 0 edgecolor
14 /Times-Roman set_font
178.85 661.4 moveto 47 ([0,0,1]) alignedtext
grestore
% 2
gsave
0.023529 0.72157 1 nodecolor
265.85 523 17.98 18.38 ellipse_path fill
1 setlinewidth
filled
0.023529 0.72157 1 nodecolor
265.85 523 17.98 18.38 ellipse_path stroke
1 setlinewidth
filled
0.023529 0.72157 1 nodecolor
265.85 523 21.89 22.38 ellipse_path stroke
0 0 0 nodecolor
14 /Times-Roman set_font
260.85 519.4 moveto 10 (2) alignedtext
grestore
% 0->2
gsave
1 setlinewidth
0 0 0 edgecolor
newpath 220.1 695.29 moveto
223.92 688.89 228.01 681.29 230.85 674 curveto
246.21 634.64 255.89 586.77 261.09 555.63 curveto
stroke
0 0 0 edgecolor
newpath 264.61 555.78 moveto
262.74 545.35 lineto
257.7 554.67 lineto
closepath fill
1 setlinewidth
solid
0 0 0 edgecolor
newpath 264.61 555.78 moveto
262.74 545.35 lineto
257.7 554.67 lineto
closepath stroke
0 0 0 edgecolor
14 /Times-Roman set_font
251.85 615.4 moveto 47 ([0,1,1]) alignedtext
grestore
% 3
gsave
0.54118 0.25098 1 nodecolor
105.85 523 17.89 18.38 ellipse_path fill
1 setlinewidth
filled
0.54118 0.25098 1 nodecolor
105.85 523 17.89 18.38 ellipse_path stroke
0 0 0 nodecolor
14 /Times-Roman set_font
100.85 519.4 moveto 10 (3) alignedtext
grestore
% 1->3
gsave
1 setlinewidth
0 0 0 edgecolor
newpath 127.77 600.94 moveto
123.81 586.86 118.24 567.06 113.71 550.94 curveto
stroke
0 0 0 edgecolor
newpath 116.98 549.65 moveto
110.91 540.98 lineto
110.25 551.55 lineto
closepath fill
1 setlinewidth
solid
0 0 0 edgecolor
newpath 116.98 549.65 moveto
110.91 540.98 lineto
110.25 551.55 lineto
closepath stroke
0 0 0 edgecolor
14 /Times-Roman set_font
121.85 569.4 moveto 47 ([0,1,0]) alignedtext
grestore
% 4
gsave
0.54118 0.25098 1 nodecolor
201.85 427 17.89 18.38 ellipse_path fill
1 setlinewidth
filled
0.54118 0.25098 1 nodecolor
201.85 427 17.89 18.38 ellipse_path stroke
0 0 0 nodecolor
14 /Times-Roman set_font
196.85 423.4 moveto 10 (4) alignedtext
grestore
% 2->4
gsave
1 setlinewidth
0 0 0 edgecolor
newpath 244.74 515.76 moveto
229.82 509.41 210.91 498.56 201.85 482 curveto
197.47 473.99 196.36 464.3 196.69 455.29 curveto
stroke
0 0 0 edgecolor
newpath 200.19 455.45 moveto
197.63 445.17 lineto
193.22 454.81 lineto
closepath fill
1 setlinewidth
solid
0 0 0 edgecolor
newpath 200.19 455.45 moveto
197.63 445.17 lineto
193.22 454.81 lineto
closepath stroke
0 0 0 edgecolor
14 /Times-Roman set_font
201.85 469.4 moveto 47 ([0,0,1]) alignedtext
grestore
% 5
gsave
0.023529 0.72157 1 nodecolor
270.85 23 17.98 18.38 ellipse_path fill
1 setlinewidth
filled
0.023529 0.72157 1 nodecolor
270.85 23 17.98 18.38 ellipse_path stroke
1 setlinewidth
filled
0.023529 0.72157 1 nodecolor
270.85 23 21.89 22.38 ellipse_path stroke
0 0 0 nodecolor
14 /Times-Roman set_font
265.85 19.4 moveto 10 (5) alignedtext
grestore
% 2->5
gsave
1 setlinewidth
0 0 0 edgecolor
newpath 281.76 506.87 moveto
297.69 488.94 319.85 458.36 319.85 427 curveto
319.85 427 319.85 427 319.85 119 curveto
319.85 92.95 305.36 66.84 292.14 48.44 curveto
stroke
0 0 0 edgecolor
newpath 294.64 45.94 moveto
285.82 40.06 lineto
289.05 50.15 lineto
closepath fill
1 setlinewidth
solid
0 0 0 edgecolor
newpath 294.64 45.94 moveto
285.82 40.06 lineto
289.05 50.15 lineto
closepath stroke
0 0 0 edgecolor
14 /Times-Roman set_font
319.85 265.4 moveto 47 ([1,0,0]) alignedtext
grestore
% 6
gsave
0.54118 0.25098 1 nodecolor
188.85 119 17.89 18.38 ellipse_path fill
1 setlinewidth
filled
0.54118 0.25098 1 nodecolor
188.85 119 17.89 18.38 ellipse_path stroke
0 0 0 nodecolor
14 /Times-Roman set_font
183.85 115.4 moveto 10 (6) alignedtext
grestore
% 2->6
gsave
1 setlinewidth
0 0 0 edgecolor
newpath 263.43 500.33 moveto
256.91 442.27 237.03 283.83 201.85 156 curveto
200.97 152.78 199.94 149.44 198.87 146.14 curveto
stroke
0 0 0 edgecolor
newpath 202.13 144.86 moveto
195.57 136.53 lineto
195.51 147.13 lineto
closepath fill
1 setlinewidth
solid
0 0 0 edgecolor
newpath 202.13 144.86 moveto
195.57 136.53 lineto
195.51 147.13 lineto
closepath stroke
0 0 0 edgecolor
14 /Times-Roman set_font
238.85 311.4 moveto 47 ([1,0,1]) alignedtext
grestore
% 7
gsave
0.54118 0.25098 1 nodecolor
378.85 371 17.89 18.38 ellipse_path fill
1 setlinewidth
filled
0.54118 0.25098 1 nodecolor
378.85 371 17.89 18.38 ellipse_path stroke
0 0 0 nodecolor
14 /Times-Roman set_font
373.85 367.4 moveto 10 (7) alignedtext
grestore
% 2->7
gsave
1 setlinewidth
0 0 0 edgecolor
newpath 286.78 515.43 moveto
302.48 508.79 323.49 497.73 336.85 482 curveto
357.08 458.2 368.08 423.67 373.68 399.46 curveto
stroke
0 0 0 edgecolor
newpath 377.15 399.97 moveto
375.83 389.46 lineto
370.31 398.5 lineto
closepath fill
1 setlinewidth
solid
0 0 0 edgecolor
newpath 377.15 399.97 moveto
375.83 389.46 lineto
370.31 398.5 lineto
closepath stroke
0 0 0 edgecolor
14 /Times-Roman set_font
347.85 469.4 moveto 47 ([1,1,1]) alignedtext
grestore
% 8
gsave
0.54118 0.25098 1 nodecolor
78.85 427 17.89 18.38 ellipse_path fill
1 setlinewidth
filled
0.54118 0.25098 1 nodecolor
78.85 427 17.89 18.38 ellipse_path stroke
0 0 0 nodecolor
14 /Times-Roman set_font
73.85 423.4 moveto 10 (8) alignedtext
grestore
% 3->8
gsave
1 setlinewidth
0 0 0 edgecolor
newpath 100.77 504.94 moveto
96.81 490.86 91.24 471.06 86.71 454.94 curveto
stroke
0 0 0 edgecolor
newpath 89.98 453.65 moveto
83.91 444.98 lineto
83.25 455.55 lineto
closepath fill
1 setlinewidth
solid
0 0 0 edgecolor
newpath 89.98 453.65 moveto
83.91 444.98 lineto
83.25 455.55 lineto
closepath stroke
0 0 0 edgecolor
14 /Times-Roman set_font
94.85 469.4 moveto 47 ([1,1,1]) alignedtext
grestore
% 9
gsave
0.54118 0.25098 1 nodecolor
57.85 315 17.89 18.38 ellipse_path fill
1 setlinewidth
filled
0.54118 0.25098 1 nodecolor
57.85 315 17.89 18.38 ellipse_path stroke
0 0 0 nodecolor
14 /Times-Roman set_font
52.85 311.4 moveto 10 (9) alignedtext
grestore
% 4->9
gsave
1 setlinewidth
0 0 0 edgecolor
newpath 189.52 413.17 moveto
174.87 397.23 149.2 370.81 123.85 352 curveto
111.24 342.64 96.02 333.96 83.37 327.36 curveto
stroke
0 0 0 edgecolor
newpath 84.79 324.15 moveto
74.29 322.74 lineto
81.62 330.39 lineto
closepath fill
1 setlinewidth
solid
0 0 0 edgecolor
newpath 84.79 324.15 moveto
74.29 322.74 lineto
81.62 330.39 lineto
closepath stroke
0 0 0 edgecolor
14 /Times-Roman set_font
166.85 367.4 moveto 47 ([1,1,0]) alignedtext
grestore
% 6->5
gsave
1 setlinewidth
0 0 0 edgecolor
newpath 200.95 104.83 moveto
213.7 89.91 234.04 66.1 249.49 48.01 curveto
stroke
0 0 0 edgecolor
newpath 252.37 50.02 moveto
256.21 40.15 lineto
247.05 45.48 lineto
closepath fill
1 setlinewidth
solid
0 0 0 edgecolor
newpath 252.37 50.02 moveto
256.21 40.15 lineto
247.05 45.48 lineto
closepath stroke
0 0 0 edgecolor
14 /Times-Roman set_font
233.85 69.4 moveto 47 ([0,0,0]) alignedtext
grestore
% 6->6
gsave
1 setlinewidth
0 0 0 edgecolor
newpath 205.29 126.7 moveto
217.09 129.2 228.85 126.64 228.85 119 curveto
228.85 113.63 223.04 110.77 215.48 110.41 curveto
stroke
0 0 0 edgecolor
newpath 214.94 106.95 moveto
205.29 111.3 lineto
215.55 113.92 lineto
closepath fill
1 setlinewidth
solid
0 0 0 edgecolor
newpath 214.94 106.95 moveto
205.29 111.3 lineto
215.55 113.92 lineto
closepath stroke
0 0 0 edgecolor
14 /Times-Roman set_font
228.85 115.4 moveto 47 ([0,1,0]) alignedtext
grestore
% 7->5
gsave
1 setlinewidth
0 0 0 edgecolor
newpath 380.33 352.21 moveto
381.8 331.76 383.85 298.08 383.85 269 curveto
383.85 269 383.85 269 383.85 119 curveto
383.85 75.54 334.7 47.65 301.23 33.69 curveto
stroke
0 0 0 edgecolor
newpath 302.43 30.4 moveto
291.84 29.97 lineto
299.85 36.91 lineto
closepath fill
1 setlinewidth
solid
0 0 0 edgecolor
newpath 302.43 30.4 moveto
291.84 29.97 lineto
299.85 36.91 lineto
closepath stroke
0 0 0 edgecolor
14 /Times-Roman set_font
383.85 213.4 moveto 47 ([1,0,0]) alignedtext
grestore
% 7->7
gsave
1 setlinewidth
0 0 0 edgecolor
newpath 394.87 380.26 moveto
406.81 383.49 418.85 380.41 418.85 371 curveto
418.85 364.31 412.77 360.82 404.96 360.52 curveto
stroke
0 0 0 edgecolor
newpath 404.38 357.07 moveto
394.87 361.74 lineto
405.22 364.01 lineto
closepath fill
1 setlinewidth
solid
0 0 0 edgecolor
newpath 404.38 357.07 moveto
394.87 361.74 lineto
405.22 364.01 lineto
closepath stroke
0 0 0 edgecolor
14 /Times-Roman set_font
418.85 367.4 moveto 47 ([0,0,0]) alignedtext
grestore
% 8->6
gsave
1 setlinewidth
0 0 0 edgecolor
newpath 94.01 417.02 moveto
103.47 410.24 115.4 400.6 123.85 390 curveto
141.2 368.24 143.18 360.44 151.85 334 curveto
173.09 269.28 182.75 189.38 186.61 147.58 curveto
stroke
0 0 0 edgecolor
newpath 190.11 147.83 moveto
187.5 137.56 lineto
183.13 147.21 lineto
closepath fill
1 setlinewidth
solid
0 0 0 edgecolor
newpath 190.11 147.83 moveto
187.5 137.56 lineto
183.13 147.21 lineto
closepath stroke
0 0 0 edgecolor
14 /Times-Roman set_font
170.85 265.4 moveto 47 ([1,1,0]) alignedtext
grestore
% 8->8
gsave
1 setlinewidth
0 0 0 edgecolor
newpath 95.29 434.7 moveto
107.09 437.2 118.85 434.64 118.85 427 curveto
118.85 421.63 113.04 418.77 105.48 418.41 curveto
stroke
0 0 0 edgecolor
newpath 104.94 414.95 moveto
95.29 419.3 lineto
105.55 421.92 lineto
closepath fill
1 setlinewidth
solid
0 0 0 edgecolor
newpath 104.94 414.95 moveto
95.29 419.3 lineto
105.55 421.92 lineto
closepath stroke
0 0 0 edgecolor
14 /Times-Roman set_font
118.85 423.4 moveto 47 ([0,0,0]) alignedtext
grestore
% 8->9
gsave
1 setlinewidth
0 0 0 edgecolor
newpath 75.38 408.51 moveto
72.07 390.83 67.03 363.94 63.2 343.52 curveto
stroke
0 0 0 edgecolor
newpath 66.61 342.71 moveto
61.33 333.52 lineto
59.73 344 lineto
closepath fill
1 setlinewidth
solid
0 0 0 edgecolor
newpath 66.61 342.71 moveto
61.33 333.52 lineto
59.73 344 lineto
closepath stroke
0 0 0 edgecolor
14 /Times-Roman set_font
71.85 367.4 moveto 47 ([0,1,0]) alignedtext
grestore
% 9->9
gsave
1 setlinewidth
0 0 0 edgecolor
newpath 74.29 322.7 moveto
86.09 325.2 97.85 322.64 97.85 315 curveto
97.85 309.63 92.04 306.77 84.48 306.41 curveto
stroke
0 0 0 edgecolor
newpath 83.94 302.95 moveto
74.29 307.3 lineto
84.55 309.92 lineto
closepath fill
1 setlinewidth
solid
0 0 0 edgecolor
newpath 83.94 302.95 moveto
74.29 307.3 lineto
84.55 309.92 lineto
closepath stroke
0 0 0 edgecolor
14 /Times-Roman set_font
97.85 311.4 moveto 47 ([1,1,0]) alignedtext
grestore
% 10
gsave
0.54118 0.25098 1 nodecolor
51.85 217 24.24 24.75 ellipse_path fill
1 setlinewidth
filled
0.54118 0.25098 1 nodecolor
51.85 217 24.24 24.75 ellipse_path stroke
0 0 0 nodecolor
14 /Times-Roman set_font
42.35 213.4 moveto 19 (10) alignedtext
grestore
% 9->10
gsave
1 setlinewidth
0 0 0 edgecolor
newpath 40.75 308.71 moveto
27.76 302.92 10.8 292.93 2.85 278 curveto
-5.55 262.22 7.64 246.54 22.44 235.03 curveto
stroke
0 0 0 edgecolor
newpath 24.63 237.77 moveto
30.7 229.09 lineto
20.54 232.09 lineto
closepath fill
1 setlinewidth
solid
0 0 0 edgecolor
newpath 24.63 237.77 moveto
30.7 229.09 lineto
20.54 232.09 lineto
closepath stroke
0 0 0 edgecolor
14 /Times-Roman set_font
2.85 265.4 moveto 47 ([1,0,0]) alignedtext
grestore
% 10->5
gsave
1 setlinewidth
0 0 0 edgecolor
newpath 59.06 193.62 moveto
68.04 167.84 85.6 126.52 112.85 100 curveto
149.27 64.55 205.19 42.64 239.81 31.65 curveto
stroke
0 0 0 edgecolor
newpath 240.86 34.99 moveto
249.4 28.71 lineto
238.81 28.29 lineto
closepath fill
1 setlinewidth
solid
0 0 0 edgecolor
newpath 240.86 34.99 moveto
249.4 28.71 lineto
238.81 28.29 lineto
closepath stroke
0 0 0 edgecolor
14 /Times-Roman set_font
112.85 115.4 moveto 47 ([1,0,0]) alignedtext
grestore
% 10->6
gsave
1 setlinewidth
0 0 0 edgecolor
newpath 67.13 197.9 moveto
78.25 184.9 94.21 167.94 110.85 156 curveto
126.63 144.67 146.43 135.33 162.13 128.87 curveto
stroke
0 0 0 edgecolor
newpath 163.76 131.98 moveto
171.77 125.04 lineto
161.18 125.48 lineto
closepath fill
1 setlinewidth
solid
0 0 0 edgecolor
newpath 163.76 131.98 moveto
171.77 125.04 lineto
161.18 125.48 lineto
closepath stroke
0 0 0 edgecolor
14 /Times-Roman set_font
110.85 161.4 moveto 47 ([1,1,0]) alignedtext
grestore
% 10->9
gsave
1 setlinewidth
0 0 0 edgecolor
newpath 53.37 241.78 moveto
54.19 255.22 55.21 271.92 56.07 285.97 curveto
stroke
0 0 0 edgecolor
newpath 52.59 286.34 moveto
56.7 296.1 lineto
59.58 285.91 lineto
closepath fill
1 setlinewidth
solid
0 0 0 edgecolor
newpath 52.59 286.34 moveto
56.7 296.1 lineto
59.58 285.91 lineto
closepath stroke
0 0 0 edgecolor
14 /Times-Roman set_font
55.85 265.4 moveto 47 ([0,1,0]) alignedtext
grestore
% 10->10
gsave
1 setlinewidth
0 0 0 edgecolor
newpath 74.1 226.28 moveto
86.46 228.02 97.85 224.92 97.85 217 curveto
97.85 211.37 92.1 208.18 84.33 207.42 curveto
stroke
0 0 0 edgecolor
newpath 83.99 203.93 moveto
74.1 207.72 lineto
84.19 210.93 lineto
closepath fill
1 setlinewidth
solid
0 0 0 edgecolor
newpath 83.99 203.93 moveto
74.1 207.72 lineto
84.19 210.93 lineto
closepath stroke
0 0 0 edgecolor
14 /Times-Roman set_font
97.85 213.4 moveto 47 ([0,0,0]) alignedtext
grestore
endpage
showpage
grestore
%%PageTrailer
%%EndPage: 1
%%Trailer
end
restore
%%EOF
