%!PS-Adobe-3.0 EPSF-3.0
%%Creator: graphviz version 2.26.3 (20100126.1600)
%%Title: FSA Utilities
%%Pages: 1
%%BoundingBox: 145 126 468 666
%%EndComments
save
%%BeginProlog
/DotDict 200 dict def
DotDict begin

/setupLatin1 {
mark
/EncodingVector 256 array def
 EncodingVector 0

ISOLatin1Encoding 0 255 getinterval putinterval
EncodingVector 45 /hyphen put

% Set up ISO Latin 1 character encoding
/starnetISO {
        dup dup findfont dup length dict begin
        { 1 index /FID ne { def }{ pop pop } ifelse
        } forall
        /Encoding EncodingVector def
        currentdict end definefont
} def
/Times-Roman starnetISO def
/Times-Italic starnetISO def
/Times-Bold starnetISO def
/Times-BoldItalic starnetISO def
/Helvetica starnetISO def
/Helvetica-Oblique starnetISO def
/Helvetica-Bold starnetISO def
/Helvetica-BoldOblique starnetISO def
/Courier starnetISO def
/Courier-Oblique starnetISO def
/Courier-Bold starnetISO def
/Courier-BoldOblique starnetISO def
cleartomark
} bind def

%%BeginResource: procset graphviz 0 0
/coord-font-family /Times-Roman def
/default-font-family /Times-Roman def
/coordfont coord-font-family findfont 8 scalefont def

/InvScaleFactor 1.0 def
/set_scale {
       dup 1 exch div /InvScaleFactor exch def
       scale
} bind def

% styles
/solid { [] 0 setdash } bind def
/dashed { [9 InvScaleFactor mul dup ] 0 setdash } bind def
/dotted { [1 InvScaleFactor mul 6 InvScaleFactor mul] 0 setdash } bind def
/invis {/fill {newpath} def /stroke {newpath} def /show {pop newpath} def} bind def
/bold { 2 setlinewidth } bind def
/filled { } bind def
/unfilled { } bind def
/rounded { } bind def
/diagonals { } bind def

% hooks for setting color 
/nodecolor { sethsbcolor } bind def
/edgecolor { sethsbcolor } bind def
/graphcolor { sethsbcolor } bind def
/nopcolor {pop pop pop} bind def

/beginpage {	% i j npages
	/npages exch def
	/j exch def
	/i exch def
	/str 10 string def
	npages 1 gt {
		gsave
			coordfont setfont
			0 0 moveto
			(\() show i str cvs show (,) show j str cvs show (\)) show
		grestore
	} if
} bind def

/set_font {
	findfont exch
	scalefont setfont
} def

% draw text fitted to its expected width
/alignedtext {			% width text
	/text exch def
	/width exch def
	gsave
		width 0 gt {
			[] 0 setdash
			text stringwidth pop width exch sub text length div 0 text ashow
		} if
	grestore
} def

/boxprim {				% xcorner ycorner xsize ysize
		4 2 roll
		moveto
		2 copy
		exch 0 rlineto
		0 exch rlineto
		pop neg 0 rlineto
		closepath
} bind def

/ellipse_path {
	/ry exch def
	/rx exch def
	/y exch def
	/x exch def
	matrix currentmatrix
	newpath
	x y translate
	rx ry scale
	0 0 1 0 360 arc
	setmatrix
} bind def

/endpage { showpage } bind def
/showpage { } def

/layercolorseq
	[	% layer color sequence - darkest to lightest
		[0 0 0]
		[.2 .8 .8]
		[.4 .8 .8]
		[.6 .8 .8]
		[.8 .8 .8]
	]
def

/layerlen layercolorseq length def

/setlayer {/maxlayer exch def /curlayer exch def
	layercolorseq curlayer 1 sub layerlen mod get
	aload pop sethsbcolor
	/nodecolor {nopcolor} def
	/edgecolor {nopcolor} def
	/graphcolor {nopcolor} def
} bind def

/onlayer { curlayer ne {invis} if } def

/onlayers {
	/myupper exch def
	/mylower exch def
	curlayer mylower lt
	curlayer myupper gt
	or
	{invis} if
} def

/curlayer 0 def

%%EndResource
%%EndProlog
%%BeginSetup
14 default-font-family set_font
1 setmiterlimit
% /arrowlength 10 def
% /arrowwidth 5 def

% make sure pdfmark is harmless for PS-interpreters other than Distiller
/pdfmark where {pop} {userdict /pdfmark /cleartomark load put} ifelse
% make '<<' and '>>' safe on PS Level 1 devices
/languagelevel where {pop languagelevel}{1} ifelse
2 lt {
    userdict (<<) cvn ([) cvn load put
    userdict (>>) cvn ([) cvn load put
} if

%%EndSetup
setupLatin1
%%Page: 1 1
%%PageBoundingBox: 145 126 468 666
%%PageOrientation: Portrait
0 0 1 beginpage
gsave
145 126 323 540 boxprim clip newpath
1 1 set_scale 0 rotate 148.5 131 translate
% start0
gsave
grestore
% 0
gsave
0.21961 0.75686 1 nodecolor
232 439 17.89 18.38 ellipse_path fill
1 setlinewidth
filled
0.21961 0.75686 1 nodecolor
232 439 17.89 18.38 ellipse_path stroke
0 0 0 nodecolor
14 /Times-Roman set_font
227 435.4 moveto 10 (0) alignedtext
grestore
% start0->0
gsave
1 setlinewidth
0 0 0 edgecolor
newpath 232 495.84 moveto
232 487.4 232 477.16 232 467.71 curveto
stroke
0 0 0 edgecolor
newpath 235.5 467.51 moveto
232 457.51 lineto
228.5 467.51 lineto
closepath fill
1 setlinewidth
solid
0 0 0 edgecolor
newpath 235.5 467.51 moveto
232 457.51 lineto
228.5 467.51 lineto
closepath stroke
grestore
% 0->0
gsave
1 setlinewidth
0 0 0 edgecolor
newpath 249.27 445.5 moveto
260.79 447.33 272 445.16 272 439 curveto
272 434.76 266.7 432.42 259.64 431.96 curveto
stroke
0 0 0 edgecolor
newpath 259.07 428.48 moveto
249.27 432.5 lineto
259.44 435.47 lineto
closepath fill
1 setlinewidth
solid
0 0 0 edgecolor
newpath 259.07 428.48 moveto
249.27 432.5 lineto
259.44 435.47 lineto
closepath stroke
0 0 0 edgecolor
14 /Times-Roman set_font
272 435.4 moveto 34 ([0,0]) alignedtext
grestore
% 1
gsave
0.023529 0.72157 1 nodecolor
195 343 17.98 18.38 ellipse_path fill
1 setlinewidth
filled
0.023529 0.72157 1 nodecolor
195 343 17.98 18.38 ellipse_path stroke
1 setlinewidth
filled
0.023529 0.72157 1 nodecolor
195 343 21.89 22.38 ellipse_path stroke
0 0 0 nodecolor
14 /Times-Roman set_font
190 339.4 moveto 10 (1) alignedtext
grestore
% 0->1
gsave
1 setlinewidth
0 0 0 edgecolor
newpath 219.07 426.07 moveto
213.2 419.43 206.75 410.87 203 402 curveto
199.53 393.79 197.49 384.41 196.31 375.59 curveto
stroke
0 0 0 edgecolor
newpath 199.79 375.18 moveto
195.29 365.59 lineto
192.82 375.89 lineto
closepath fill
1 setlinewidth
solid
0 0 0 edgecolor
newpath 199.79 375.18 moveto
195.29 365.59 lineto
192.82 375.89 lineto
closepath stroke
0 0 0 edgecolor
14 /Times-Roman set_font
203 389.4 moveto 34 ([0,1]) alignedtext
grestore
% 2
gsave
0.54118 0.25098 1 nodecolor
274 283 17.89 18.38 ellipse_path fill
1 setlinewidth
filled
0.54118 0.25098 1 nodecolor
274 283 17.89 18.38 ellipse_path stroke
0 0 0 nodecolor
14 /Times-Roman set_font
269 279.4 moveto 10 (2) alignedtext
grestore
% 0->2
gsave
1 setlinewidth
0 0 0 edgecolor
newpath 236.82 421.1 moveto
244.06 394.21 257.81 343.14 266.41 311.2 curveto
stroke
0 0 0 edgecolor
newpath 269.89 311.73 moveto
269.11 301.17 lineto
263.13 309.91 lineto
closepath fill
1 setlinewidth
solid
0 0 0 edgecolor
newpath 269.89 311.73 moveto
269.11 301.17 lineto
263.13 309.91 lineto
closepath stroke
0 0 0 edgecolor
14 /Times-Roman set_font
246 389.4 moveto 34 ([1,1]) alignedtext
grestore
% 3
gsave
0.023529 0.72157 1 nodecolor
132 223 17.98 18.38 ellipse_path fill
1 setlinewidth
filled
0.023529 0.72157 1 nodecolor
132 223 17.98 18.38 ellipse_path stroke
1 setlinewidth
filled
0.023529 0.72157 1 nodecolor
132 223 21.89 22.38 ellipse_path stroke
0 0 0 nodecolor
14 /Times-Roman set_font
127 219.4 moveto 10 (3) alignedtext
grestore
% 1->3
gsave
1 setlinewidth
0 0 0 edgecolor
newpath 184.46 322.91 moveto
174.28 303.53 158.76 273.98 147.24 252.04 curveto
stroke
0 0 0 edgecolor
newpath 150.33 250.38 moveto
142.58 243.15 lineto
144.13 253.63 lineto
closepath fill
1 setlinewidth
solid
0 0 0 edgecolor
newpath 150.33 250.38 moveto
142.58 243.15 lineto
144.13 253.63 lineto
closepath stroke
0 0 0 edgecolor
14 /Times-Roman set_font
172 279.4 moveto 34 ([1,0]) alignedtext
grestore
% 4
gsave
0.023529 0.72157 1 nodecolor
79 23 17.98 18.38 ellipse_path fill
1 setlinewidth
filled
0.023529 0.72157 1 nodecolor
79 23 17.98 18.38 ellipse_path stroke
1 setlinewidth
filled
0.023529 0.72157 1 nodecolor
79 23 21.89 22.38 ellipse_path stroke
0 0 0 nodecolor
14 /Times-Roman set_font
74 19.4 moveto 10 (4) alignedtext
grestore
% 2->4
gsave
1 setlinewidth
0 0 0 edgecolor
newpath 277.5 264.8 moveto
283.24 229.31 290.66 150.01 254 100 curveto
219.88 53.46 151.39 34.62 110.95 27.32 curveto
stroke
0 0 0 edgecolor
newpath 111.51 23.86 moveto
101.06 25.67 lineto
110.35 30.77 lineto
closepath fill
1 setlinewidth
solid
0 0 0 edgecolor
newpath 111.51 23.86 moveto
101.06 25.67 lineto
110.35 30.77 lineto
closepath stroke
0 0 0 edgecolor
14 /Times-Roman set_font
281 169.4 moveto 34 ([0,1]) alignedtext
grestore
% 5
gsave
0.54118 0.25098 1 nodecolor
18 123 17.89 18.38 ellipse_path fill
1 setlinewidth
filled
0.54118 0.25098 1 nodecolor
18 123 17.89 18.38 ellipse_path stroke
0 0 0 nodecolor
14 /Times-Roman set_font
13 119.4 moveto 10 (5) alignedtext
grestore
% 3->5
gsave
1 setlinewidth
0 0 0 edgecolor
newpath 115.18 208.24 moveto
95.19 190.71 61.78 161.41 39.82 142.14 curveto
stroke
0 0 0 edgecolor
newpath 41.84 139.26 moveto
32.01 135.29 lineto
37.22 144.52 lineto
closepath fill
1 setlinewidth
solid
0 0 0 edgecolor
newpath 41.84 139.26 moveto
32.01 135.29 lineto
37.22 144.52 lineto
closepath stroke
0 0 0 edgecolor
14 /Times-Roman set_font
85 169.4 moveto 34 ([0,0]) alignedtext
grestore
% 6
gsave
0.023529 0.72157 1 nodecolor
132 123 17.98 18.38 ellipse_path fill
1 setlinewidth
filled
0.023529 0.72157 1 nodecolor
132 123 17.98 18.38 ellipse_path stroke
1 setlinewidth
filled
0.023529 0.72157 1 nodecolor
132 123 21.89 22.38 ellipse_path stroke
0 0 0 nodecolor
14 /Times-Roman set_font
127 119.4 moveto 10 (6) alignedtext
grestore
% 3->6
gsave
1 setlinewidth
0 0 0 edgecolor
newpath 132 200.31 moveto
132 187.14 132 170.32 132 155.74 curveto
stroke
0 0 0 edgecolor
newpath 135.5 155.6 moveto
132 145.6 lineto
128.5 155.6 lineto
closepath fill
1 setlinewidth
solid
0 0 0 edgecolor
newpath 135.5 155.6 moveto
132 145.6 lineto
128.5 155.6 lineto
closepath stroke
0 0 0 edgecolor
14 /Times-Roman set_font
132 169.4 moveto 34 ([1,1]) alignedtext
grestore
% 4->4
gsave
1 setlinewidth
0 0 0 edgecolor
newpath 99.37 31.79 moveto
111.54 33.74 123 30.81 123 23 curveto
123 17.45 117.21 14.36 109.49 13.74 curveto
stroke
0 0 0 edgecolor
newpath 109.19 10.25 moveto
99.37 14.21 lineto
109.52 17.24 lineto
closepath fill
1 setlinewidth
solid
0 0 0 edgecolor
newpath 109.19 10.25 moveto
99.37 14.21 lineto
109.52 17.24 lineto
closepath stroke
0 0 0 edgecolor
14 /Times-Roman set_font
123 19.4 moveto 34 ([0,0]) alignedtext
grestore
% 4->5
gsave
1 setlinewidth
0 0 0 edgecolor
newpath 71.39 44.23 moveto
66.82 55.81 60.44 70.15 53 82 curveto
48.69 88.87 43.29 95.78 38.03 101.92 curveto
stroke
0 0 0 edgecolor
newpath 35.1 99.95 moveto
31.06 109.74 lineto
40.32 104.61 lineto
closepath fill
1 setlinewidth
solid
0 0 0 edgecolor
newpath 35.1 99.95 moveto
31.06 109.74 lineto
40.32 104.61 lineto
closepath stroke
0 0 0 edgecolor
14 /Times-Roman set_font
63 69.4 moveto 34 ([0,1]) alignedtext
grestore
% 5->4
gsave
1 setlinewidth
0 0 0 edgecolor
newpath 13.76 104.9 moveto
11.87 92.65 11.35 76.48 18 64 curveto
24.74 51.35 37.32 41.9 49.3 35.29 curveto
stroke
0 0 0 edgecolor
newpath 50.9 38.4 moveto
58.25 30.77 lineto
47.75 32.15 lineto
closepath fill
1 setlinewidth
solid
0 0 0 edgecolor
newpath 50.9 38.4 moveto
58.25 30.77 lineto
47.75 32.15 lineto
closepath stroke
0 0 0 edgecolor
14 /Times-Roman set_font
18 69.4 moveto 34 ([1,0]) alignedtext
grestore
% 5->5
gsave
1 setlinewidth
0 0 0 edgecolor
newpath 34.44 131.37 moveto
46.24 134.09 58 131.3 58 123 curveto
58 117.16 52.19 114.05 44.63 113.67 curveto
stroke
0 0 0 edgecolor
newpath 44.06 110.2 moveto
34.44 114.63 lineto
44.72 117.17 lineto
closepath fill
1 setlinewidth
solid
0 0 0 edgecolor
newpath 44.06 110.2 moveto
34.44 114.63 lineto
44.72 117.17 lineto
closepath stroke
0 0 0 edgecolor
14 /Times-Roman set_font
58 119.4 moveto 34 ([1,1]) alignedtext
grestore
% 6->6
gsave
1 setlinewidth
0 0 0 edgecolor
newpath 152.37 131.79 moveto
164.54 133.74 176 130.81 176 123 curveto
176 117.45 170.21 114.36 162.49 113.74 curveto
stroke
0 0 0 edgecolor
newpath 162.19 110.25 moveto
152.37 114.21 lineto
162.52 117.24 lineto
closepath fill
1 setlinewidth
solid
0 0 0 edgecolor
newpath 162.19 110.25 moveto
152.37 114.21 lineto
162.52 117.24 lineto
closepath stroke
0 0 0 edgecolor
14 /Times-Roman set_font
176 119.4 moveto 71 ([0,0] [1,1]) alignedtext
grestore
endpage
showpage
grestore
%%PageTrailer
%%EndPage: 1
%%Trailer
end
restore
%%EOF
