%!PS-Adobe-3.0 EPSF-3.0
%%Creator: graphviz version 2.26.3 (20100126.1600)
%%Title: FSA Utilities
%%Pages: 1
%%BoundingBox: 148 186 464 606
%%EndComments
save
%%BeginProlog
/DotDict 200 dict def
DotDict begin

/setupLatin1 {
mark
/EncodingVector 256 array def
 EncodingVector 0

ISOLatin1Encoding 0 255 getinterval putinterval
EncodingVector 45 /hyphen put

% Set up ISO Latin 1 character encoding
/starnetISO {
        dup dup findfont dup length dict begin
        { 1 index /FID ne { def }{ pop pop } ifelse
        } forall
        /Encoding EncodingVector def
        currentdict end definefont
} def
/Times-Roman starnetISO def
/Times-Italic starnetISO def
/Times-Bold starnetISO def
/Times-BoldItalic starnetISO def
/Helvetica starnetISO def
/Helvetica-Oblique starnetISO def
/Helvetica-Bold starnetISO def
/Helvetica-BoldOblique starnetISO def
/Courier starnetISO def
/Courier-Oblique starnetISO def
/Courier-Bold starnetISO def
/Courier-BoldOblique starnetISO def
cleartomark
} bind def

%%BeginResource: procset graphviz 0 0
/coord-font-family /Times-Roman def
/default-font-family /Times-Roman def
/coordfont coord-font-family findfont 8 scalefont def

/InvScaleFactor 1.0 def
/set_scale {
       dup 1 exch div /InvScaleFactor exch def
       scale
} bind def

% styles
/solid { [] 0 setdash } bind def
/dashed { [9 InvScaleFactor mul dup ] 0 setdash } bind def
/dotted { [1 InvScaleFactor mul 6 InvScaleFactor mul] 0 setdash } bind def
/invis {/fill {newpath} def /stroke {newpath} def /show {pop newpath} def} bind def
/bold { 2 setlinewidth } bind def
/filled { } bind def
/unfilled { } bind def
/rounded { } bind def
/diagonals { } bind def

% hooks for setting color 
/nodecolor { sethsbcolor } bind def
/edgecolor { sethsbcolor } bind def
/graphcolor { sethsbcolor } bind def
/nopcolor {pop pop pop} bind def

/beginpage {	% i j npages
	/npages exch def
	/j exch def
	/i exch def
	/str 10 string def
	npages 1 gt {
		gsave
			coordfont setfont
			0 0 moveto
			(\() show i str cvs show (,) show j str cvs show (\)) show
		grestore
	} if
} bind def

/set_font {
	findfont exch
	scalefont setfont
} def

% draw text fitted to its expected width
/alignedtext {			% width text
	/text exch def
	/width exch def
	gsave
		width 0 gt {
			[] 0 setdash
			text stringwidth pop width exch sub text length div 0 text ashow
		} if
	grestore
} def

/boxprim {				% xcorner ycorner xsize ysize
		4 2 roll
		moveto
		2 copy
		exch 0 rlineto
		0 exch rlineto
		pop neg 0 rlineto
		closepath
} bind def

/ellipse_path {
	/ry exch def
	/rx exch def
	/y exch def
	/x exch def
	matrix currentmatrix
	newpath
	x y translate
	rx ry scale
	0 0 1 0 360 arc
	setmatrix
} bind def

/endpage { showpage } bind def
/showpage { } def

/layercolorseq
	[	% layer color sequence - darkest to lightest
		[0 0 0]
		[.2 .8 .8]
		[.4 .8 .8]
		[.6 .8 .8]
		[.8 .8 .8]
	]
def

/layerlen layercolorseq length def

/setlayer {/maxlayer exch def /curlayer exch def
	layercolorseq curlayer 1 sub layerlen mod get
	aload pop sethsbcolor
	/nodecolor {nopcolor} def
	/edgecolor {nopcolor} def
	/graphcolor {nopcolor} def
} bind def

/onlayer { curlayer ne {invis} if } def

/onlayers {
	/myupper exch def
	/mylower exch def
	curlayer mylower lt
	curlayer myupper gt
	or
	{invis} if
} def

/curlayer 0 def

%%EndResource
%%EndProlog
%%BeginSetup
14 default-font-family set_font
1 setmiterlimit
% /arrowlength 10 def
% /arrowwidth 5 def

% make sure pdfmark is harmless for PS-interpreters other than Distiller
/pdfmark where {pop} {userdict /pdfmark /cleartomark load put} ifelse
% make '<<' and '>>' safe on PS Level 1 devices
/languagelevel where {pop languagelevel}{1} ifelse
2 lt {
    userdict (<<) cvn ([) cvn load put
    userdict (>>) cvn ([) cvn load put
} if

%%EndSetup
setupLatin1
%%Page: 1 1
%%PageBoundingBox: 148 186 464 606
%%PageOrientation: Portrait
0 0 1 beginpage
gsave
148 186 316 420 boxprim clip newpath
1 1 set_scale 0 rotate 152 191 translate
% start0
gsave
grestore
% 0
gsave
0.21961 0.75686 1 nodecolor
139 319 17.89 18.38 ellipse_path fill
1 setlinewidth
filled
0.21961 0.75686 1 nodecolor
139 319 17.89 18.38 ellipse_path stroke
0 0 0 nodecolor
14 /Times-Roman set_font
134 315.4 moveto 10 (0) alignedtext
grestore
% start0->0
gsave
1 setlinewidth
0 0 0 edgecolor
newpath 139 375.84 moveto
139 367.4 139 357.16 139 347.71 curveto
stroke
0 0 0 edgecolor
newpath 142.5 347.51 moveto
139 337.51 lineto
135.5 347.51 lineto
closepath fill
1 setlinewidth
solid
0 0 0 edgecolor
newpath 142.5 347.51 moveto
139 337.51 lineto
135.5 347.51 lineto
closepath stroke
grestore
% 0->0
gsave
1 setlinewidth
0 0 0 edgecolor
newpath 156.27 325.5 moveto
167.79 327.33 179 325.16 179 319 curveto
179 314.76 173.7 312.42 166.64 311.96 curveto
stroke
0 0 0 edgecolor
newpath 166.07 308.48 moveto
156.27 312.5 lineto
166.44 315.47 lineto
closepath fill
1 setlinewidth
solid
0 0 0 edgecolor
newpath 166.07 308.48 moveto
156.27 312.5 lineto
166.44 315.47 lineto
closepath stroke
0 0 0 edgecolor
14 /Times-Roman set_font
179 315.4 moveto 47 ([0,0,0]) alignedtext
grestore
% 1
gsave
0.023529 0.72157 1 nodecolor
96 223 17.98 18.38 ellipse_path fill
1 setlinewidth
filled
0.023529 0.72157 1 nodecolor
96 223 17.98 18.38 ellipse_path stroke
1 setlinewidth
filled
0.023529 0.72157 1 nodecolor
96 223 21.89 22.38 ellipse_path stroke
0 0 0 nodecolor
14 /Times-Roman set_font
91 219.4 moveto 10 (1) alignedtext
grestore
% 0->1
gsave
1 setlinewidth
0 0 0 edgecolor
newpath 124.45 307.52 moveto
117.09 300.88 108.73 291.89 104 282 curveto
100.12 273.89 97.95 264.48 96.78 255.59 curveto
stroke
0 0 0 edgecolor
newpath 100.26 255.13 moveto
95.82 245.5 lineto
93.29 255.79 lineto
closepath fill
1 setlinewidth
solid
0 0 0 edgecolor
newpath 100.26 255.13 moveto
95.82 245.5 lineto
93.29 255.79 lineto
closepath stroke
0 0 0 edgecolor
14 /Times-Roman set_font
104 269.4 moveto 47 ([0,1,1]) alignedtext
grestore
% 2
gsave
0.54118 0.25098 1 nodecolor
188 223 17.89 18.38 ellipse_path fill
1 setlinewidth
filled
0.54118 0.25098 1 nodecolor
188 223 17.89 18.38 ellipse_path stroke
0 0 0 nodecolor
14 /Times-Roman set_font
183 219.4 moveto 10 (2) alignedtext
grestore
% 0->2
gsave
1 setlinewidth
0 0 0 edgecolor
newpath 147.54 302.28 moveto
155.05 287.55 166.12 265.86 174.79 248.89 curveto
stroke
0 0 0 edgecolor
newpath 178.13 250.03 moveto
179.56 239.53 lineto
171.9 246.85 lineto
closepath fill
1 setlinewidth
solid
0 0 0 edgecolor
newpath 178.13 250.03 moveto
179.56 239.53 lineto
171.9 246.85 lineto
closepath stroke
0 0 0 edgecolor
14 /Times-Roman set_font
166 269.4 moveto 47 ([1,1,1]) alignedtext
grestore
% 3
gsave
0.023529 0.72157 1 nodecolor
22 123 17.98 18.38 ellipse_path fill
1 setlinewidth
filled
0.023529 0.72157 1 nodecolor
22 123 17.98 18.38 ellipse_path stroke
1 setlinewidth
filled
0.023529 0.72157 1 nodecolor
22 123 21.89 22.38 ellipse_path stroke
0 0 0 nodecolor
14 /Times-Roman set_font
17 119.4 moveto 10 (3) alignedtext
grestore
% 1->3
gsave
1 setlinewidth
0 0 0 edgecolor
newpath 76.23 212.46 moveto
64.48 205.29 50.15 194.79 41 182 curveto
35.3 174.03 31.25 164.26 28.4 154.99 curveto
stroke
0 0 0 edgecolor
newpath 31.75 153.96 moveto
25.75 145.23 lineto
24.99 155.79 lineto
closepath fill
1 setlinewidth
solid
0 0 0 edgecolor
newpath 31.75 153.96 moveto
25.75 145.23 lineto
24.99 155.79 lineto
closepath stroke
0 0 0 edgecolor
14 /Times-Roman set_font
41 169.4 moveto 47 ([1,0,0]) alignedtext
grestore
% 4
gsave
0.54118 0.25098 1 nodecolor
90 123 17.89 18.38 ellipse_path fill
1 setlinewidth
filled
0.54118 0.25098 1 nodecolor
90 123 17.89 18.38 ellipse_path stroke
0 0 0 nodecolor
14 /Times-Roman set_font
85 119.4 moveto 10 (4) alignedtext
grestore
% 1->4
gsave
1 setlinewidth
0 0 0 edgecolor
newpath 94.64 200.31 moveto
93.77 185.89 92.65 167.1 91.72 151.65 curveto
stroke
0 0 0 edgecolor
newpath 95.21 151.36 moveto
91.12 141.59 lineto
88.22 151.78 lineto
closepath fill
1 setlinewidth
solid
0 0 0 edgecolor
newpath 95.21 151.36 moveto
91.12 141.59 lineto
88.22 151.78 lineto
closepath stroke
0 0 0 edgecolor
14 /Times-Roman set_font
94 169.4 moveto 47 ([1,1,1]) alignedtext
grestore
% 5
gsave
0.023529 0.72157 1 nodecolor
217 123 17.98 18.38 ellipse_path fill
1 setlinewidth
filled
0.023529 0.72157 1 nodecolor
217 123 17.98 18.38 ellipse_path stroke
1 setlinewidth
filled
0.023529 0.72157 1 nodecolor
217 123 21.89 22.38 ellipse_path stroke
0 0 0 nodecolor
14 /Times-Roman set_font
212 119.4 moveto 10 (5) alignedtext
grestore
% 2->5
gsave
1 setlinewidth
0 0 0 edgecolor
newpath 193.18 205.12 moveto
197.23 191.17 202.96 171.42 207.78 154.78 curveto
stroke
0 0 0 edgecolor
newpath 211.22 155.49 moveto
210.65 144.91 lineto
204.5 153.54 lineto
closepath fill
1 setlinewidth
solid
0 0 0 edgecolor
newpath 211.22 155.49 moveto
210.65 144.91 lineto
204.5 153.54 lineto
closepath stroke
0 0 0 edgecolor
14 /Times-Roman set_font
205 169.4 moveto 47 ([0,1,1]) alignedtext
grestore
% 4->4
gsave
1 setlinewidth
0 0 0 edgecolor
newpath 106.44 131.37 moveto
118.24 134.09 130 131.3 130 123 curveto
130 117.16 124.19 114.05 116.63 113.67 curveto
stroke
0 0 0 edgecolor
newpath 116.06 110.2 moveto
106.44 114.63 lineto
116.72 117.17 lineto
closepath fill
1 setlinewidth
solid
0 0 0 edgecolor
newpath 116.06 110.2 moveto
106.44 114.63 lineto
116.72 117.17 lineto
closepath stroke
0 0 0 edgecolor
14 /Times-Roman set_font
130 119.4 moveto 47 ([0,0,0]) alignedtext
grestore
% 6
gsave
0.023529 0.72157 1 nodecolor
90 23 17.98 18.38 ellipse_path fill
1 setlinewidth
filled
0.023529 0.72157 1 nodecolor
90 23 17.98 18.38 ellipse_path stroke
1 setlinewidth
filled
0.023529 0.72157 1 nodecolor
90 23 21.89 22.38 ellipse_path stroke
0 0 0 nodecolor
14 /Times-Roman set_font
85 19.4 moveto 10 (6) alignedtext
grestore
% 4->6
gsave
1 setlinewidth
0 0 0 edgecolor
newpath 90 104.19 moveto
90 90.55 90 71.74 90 55.67 curveto
stroke
0 0 0 edgecolor
newpath 93.5 55.58 moveto
90 45.58 lineto
86.5 55.58 lineto
closepath fill
1 setlinewidth
solid
0 0 0 edgecolor
newpath 93.5 55.58 moveto
90 45.58 lineto
86.5 55.58 lineto
closepath stroke
0 0 0 edgecolor
14 /Times-Roman set_font
90 69.4 moveto 47 ([1,0,0]) alignedtext
grestore
% 5->5
gsave
1 setlinewidth
0 0 0 edgecolor
newpath 237.37 131.79 moveto
249.54 133.74 261 130.81 261 123 curveto
261 117.45 255.21 114.36 247.49 113.74 curveto
stroke
0 0 0 edgecolor
newpath 247.19 110.25 moveto
237.37 114.21 lineto
247.52 117.24 lineto
closepath fill
1 setlinewidth
solid
0 0 0 edgecolor
newpath 247.19 110.25 moveto
237.37 114.21 lineto
247.52 117.24 lineto
closepath stroke
0 0 0 edgecolor
14 /Times-Roman set_font
261 119.4 moveto 47 ([0,0,0]) alignedtext
grestore
% 6->6
gsave
1 setlinewidth
0 0 0 edgecolor
newpath 110.37 31.79 moveto
122.54 33.74 134 30.81 134 23 curveto
134 17.45 128.21 14.36 120.49 13.74 curveto
stroke
0 0 0 edgecolor
newpath 120.19 10.25 moveto
110.37 14.21 lineto
120.52 17.24 lineto
closepath fill
1 setlinewidth
solid
0 0 0 edgecolor
newpath 120.19 10.25 moveto
110.37 14.21 lineto
120.52 17.24 lineto
closepath stroke
0 0 0 edgecolor
14 /Times-Roman set_font
134 19.4 moveto 98 ([0,0,0] [1,0,0]) alignedtext
grestore
endpage
showpage
grestore
%%PageTrailer
%%EndPage: 1
%%Trailer
end
restore
%%EOF
