%!PS-Adobe-3.0 EPSF-3.0
%%Creator: graphviz version 2.26.3 (20100126.1600)
%%Title: FSA Utilities
%%Pages: 1
%%BoundingBox: 36 36 690 1128
%%EndComments
save
%%BeginProlog
/DotDict 200 dict def
DotDict begin

/setupLatin1 {
mark
/EncodingVector 256 array def
 EncodingVector 0

ISOLatin1Encoding 0 255 getinterval putinterval
EncodingVector 45 /hyphen put

% Set up ISO Latin 1 character encoding
/starnetISO {
        dup dup findfont dup length dict begin
        { 1 index /FID ne { def }{ pop pop } ifelse
        } forall
        /Encoding EncodingVector def
        currentdict end definefont
} def
/Times-Roman starnetISO def
/Times-Italic starnetISO def
/Times-Bold starnetISO def
/Times-BoldItalic starnetISO def
/Helvetica starnetISO def
/Helvetica-Oblique starnetISO def
/Helvetica-Bold starnetISO def
/Helvetica-BoldOblique starnetISO def
/Courier starnetISO def
/Courier-Oblique starnetISO def
/Courier-Bold starnetISO def
/Courier-BoldOblique starnetISO def
cleartomark
} bind def

%%BeginResource: procset graphviz 0 0
/coord-font-family /Times-Roman def
/default-font-family /Times-Roman def
/coordfont coord-font-family findfont 8 scalefont def

/InvScaleFactor 1.0 def
/set_scale {
       dup 1 exch div /InvScaleFactor exch def
       scale
} bind def

% styles
/solid { [] 0 setdash } bind def
/dashed { [9 InvScaleFactor mul dup ] 0 setdash } bind def
/dotted { [1 InvScaleFactor mul 6 InvScaleFactor mul] 0 setdash } bind def
/invis {/fill {newpath} def /stroke {newpath} def /show {pop newpath} def} bind def
/bold { 2 setlinewidth } bind def
/filled { } bind def
/unfilled { } bind def
/rounded { } bind def
/diagonals { } bind def

% hooks for setting color 
/nodecolor { sethsbcolor } bind def
/edgecolor { sethsbcolor } bind def
/graphcolor { sethsbcolor } bind def
/nopcolor {pop pop pop} bind def

/beginpage {	% i j npages
	/npages exch def
	/j exch def
	/i exch def
	/str 10 string def
	npages 1 gt {
		gsave
			coordfont setfont
			0 0 moveto
			(\() show i str cvs show (,) show j str cvs show (\)) show
		grestore
	} if
} bind def

/set_font {
	findfont exch
	scalefont setfont
} def

% draw text fitted to its expected width
/alignedtext {			% width text
	/text exch def
	/width exch def
	gsave
		width 0 gt {
			[] 0 setdash
			text stringwidth pop width exch sub text length div 0 text ashow
		} if
	grestore
} def

/boxprim {				% xcorner ycorner xsize ysize
		4 2 roll
		moveto
		2 copy
		exch 0 rlineto
		0 exch rlineto
		pop neg 0 rlineto
		closepath
} bind def

/ellipse_path {
	/ry exch def
	/rx exch def
	/y exch def
	/x exch def
	matrix currentmatrix
	newpath
	x y translate
	rx ry scale
	0 0 1 0 360 arc
	setmatrix
} bind def

/endpage { showpage } bind def
/showpage { } def

/layercolorseq
	[	% layer color sequence - darkest to lightest
		[0 0 0]
		[.2 .8 .8]
		[.4 .8 .8]
		[.6 .8 .8]
		[.8 .8 .8]
	]
def

/layerlen layercolorseq length def

/setlayer {/maxlayer exch def /curlayer exch def
	layercolorseq curlayer 1 sub layerlen mod get
	aload pop sethsbcolor
	/nodecolor {nopcolor} def
	/edgecolor {nopcolor} def
	/graphcolor {nopcolor} def
} bind def

/onlayer { curlayer ne {invis} if } def

/onlayers {
	/myupper exch def
	/mylower exch def
	curlayer mylower lt
	curlayer myupper gt
	or
	{invis} if
} def

/curlayer 0 def

%%EndResource
%%EndProlog
%%BeginSetup
14 default-font-family set_font
1 setmiterlimit
% /arrowlength 10 def
% /arrowwidth 5 def

% make sure pdfmark is harmless for PS-interpreters other than Distiller
/pdfmark where {pop} {userdict /pdfmark /cleartomark load put} ifelse
% make '<<' and '>>' safe on PS Level 1 devices
/languagelevel where {pop languagelevel}{1} ifelse
2 lt {
    userdict (<<) cvn ([) cvn load put
    userdict (>>) cvn ([) cvn load put
} if

%%EndSetup
setupLatin1
%%Page: 1 1
%%PageBoundingBox: 36 36 690 1128
%%PageOrientation: Portrait
0 0 1 beginpage
gsave
36 36 654 1092 boxprim clip newpath
1 1 set_scale 0 rotate 40 41 translate
% start0
gsave
grestore
% 0
gsave
0.21961 0.75686 1 nodecolor
299.11 991 17.89 18.38 ellipse_path fill
1 setlinewidth
filled
0.21961 0.75686 1 nodecolor
299.11 991 17.89 18.38 ellipse_path stroke
0 0 0 nodecolor
14 /Times-Roman set_font
294.11 987.4 moveto 10 (0) alignedtext
grestore
% start0->0
gsave
1 setlinewidth
0 0 0 edgecolor
newpath 299.11 1047.84 moveto
299.11 1039.4 299.11 1029.16 299.11 1019.71 curveto
stroke
0 0 0 edgecolor
newpath 302.61 1019.51 moveto
299.11 1009.51 lineto
295.61 1019.51 lineto
closepath fill
1 setlinewidth
solid
0 0 0 edgecolor
newpath 302.61 1019.51 moveto
299.11 1009.51 lineto
295.61 1019.51 lineto
closepath stroke
grestore
% 0->0
gsave
1 setlinewidth
0 0 0 edgecolor
newpath 316.37 997.5 moveto
327.89 999.33 339.11 997.16 339.11 991 curveto
339.11 986.76 333.81 984.42 326.75 983.96 curveto
stroke
0 0 0 edgecolor
newpath 326.18 980.48 moveto
316.37 984.5 lineto
326.54 987.47 lineto
closepath fill
1 setlinewidth
solid
0 0 0 edgecolor
newpath 326.18 980.48 moveto
316.37 984.5 lineto
326.54 987.47 lineto
closepath stroke
0 0 0 edgecolor
14 /Times-Roman set_font
339.11 987.4 moveto 34 ([0,0]) alignedtext
grestore
% 1
gsave
0.023529 0.72157 1 nodecolor
299.11 895 17.98 18.38 ellipse_path fill
1 setlinewidth
filled
0.023529 0.72157 1 nodecolor
299.11 895 17.98 18.38 ellipse_path stroke
1 setlinewidth
filled
0.023529 0.72157 1 nodecolor
299.11 895 21.89 22.38 ellipse_path stroke
0 0 0 nodecolor
14 /Times-Roman set_font
294.11 891.4 moveto 10 (1) alignedtext
grestore
% 0->1
gsave
1 setlinewidth
0 0 0 edgecolor
newpath 299.11 972.49 moveto
299.11 959.86 299.11 942.79 299.11 927.88 curveto
stroke
0 0 0 edgecolor
newpath 302.61 927.51 moveto
299.11 917.51 lineto
295.61 927.51 lineto
closepath fill
1 setlinewidth
solid
0 0 0 edgecolor
newpath 302.61 927.51 moveto
299.11 917.51 lineto
295.61 927.51 lineto
closepath stroke
0 0 0 edgecolor
14 /Times-Roman set_font
299.11 941.4 moveto 34 ([0,1]) alignedtext
grestore
% 2
gsave
0.54118 0.25098 1 nodecolor
253.11 799 17.89 18.38 ellipse_path fill
1 setlinewidth
filled
0.54118 0.25098 1 nodecolor
253.11 799 17.89 18.38 ellipse_path stroke
0 0 0 nodecolor
14 /Times-Roman set_font
248.11 795.4 moveto 10 (2) alignedtext
grestore
% 1->2
gsave
1 setlinewidth
0 0 0 edgecolor
newpath 285.4 877.31 moveto
280.43 870.32 275.07 862.04 271.11 854 curveto
266.88 845.42 263.31 835.62 260.49 826.69 curveto
stroke
0 0 0 edgecolor
newpath 263.84 825.67 moveto
257.63 817.09 lineto
257.13 827.67 lineto
closepath fill
1 setlinewidth
solid
0 0 0 edgecolor
newpath 263.84 825.67 moveto
257.63 817.09 lineto
257.13 827.67 lineto
closepath stroke
0 0 0 edgecolor
14 /Times-Roman set_font
271.11 841.4 moveto 34 ([0,0]) alignedtext
grestore
% 3
gsave
0.54118 0.25098 1 nodecolor
518.11 799 17.89 18.38 ellipse_path fill
1 setlinewidth
filled
0.54118 0.25098 1 nodecolor
518.11 799 17.89 18.38 ellipse_path stroke
0 0 0 nodecolor
14 /Times-Roman set_font
513.11 795.4 moveto 10 (3) alignedtext
grestore
% 1->3
gsave
1 setlinewidth
0 0 0 edgecolor
newpath 319.71 885.97 moveto
359.8 868.39 448.22 829.63 492.21 810.35 curveto
stroke
0 0 0 edgecolor
newpath 493.63 813.55 moveto
501.38 806.33 lineto
490.82 807.14 lineto
closepath fill
1 setlinewidth
solid
0 0 0 edgecolor
newpath 493.63 813.55 moveto
501.38 806.33 lineto
490.82 807.14 lineto
closepath stroke
0 0 0 edgecolor
14 /Times-Roman set_font
428.11 841.4 moveto 34 ([0,1]) alignedtext
grestore
% 4
gsave
0.023529 0.72157 1 nodecolor
58.11 739 17.98 18.38 ellipse_path fill
1 setlinewidth
filled
0.023529 0.72157 1 nodecolor
58.11 739 17.98 18.38 ellipse_path stroke
1 setlinewidth
filled
0.023529 0.72157 1 nodecolor
58.11 739 21.89 22.38 ellipse_path stroke
0 0 0 nodecolor
14 /Times-Roman set_font
53.11 735.4 moveto 10 (4) alignedtext
grestore
% 1->4
gsave
1 setlinewidth
0 0 0 edgecolor
newpath 279.36 884.93 moveto
264.05 876.96 242.42 865.3 224.11 854 curveto
173.39 822.69 116.82 782.24 84.54 758.61 curveto
stroke
0 0 0 edgecolor
newpath 86.24 755.51 moveto
76.11 752.41 lineto
82.09 761.15 lineto
closepath fill
1 setlinewidth
solid
0 0 0 edgecolor
newpath 86.24 755.51 moveto
76.11 752.41 lineto
82.09 761.15 lineto
closepath stroke
0 0 0 edgecolor
14 /Times-Roman set_font
224.11 841.4 moveto 34 ([1,0]) alignedtext
grestore
% 5
gsave
0.54118 0.25098 1 nodecolor
350.11 739 17.89 18.38 ellipse_path fill
1 setlinewidth
filled
0.54118 0.25098 1 nodecolor
350.11 739 17.89 18.38 ellipse_path stroke
0 0 0 nodecolor
14 /Times-Roman set_font
345.11 735.4 moveto 10 (5) alignedtext
grestore
% 1->5
gsave
1 setlinewidth
0 0 0 edgecolor
newpath 306.09 873.64 moveto
315.21 845.75 331.18 796.9 341.17 766.34 curveto
stroke
0 0 0 edgecolor
newpath 344.53 767.32 moveto
344.31 756.73 lineto
337.88 765.15 lineto
closepath fill
1 setlinewidth
solid
0 0 0 edgecolor
newpath 344.53 767.32 moveto
344.31 756.73 lineto
337.88 765.15 lineto
closepath stroke
0 0 0 edgecolor
14 /Times-Roman set_font
318.11 841.4 moveto 34 ([1,1]) alignedtext
grestore
% 6
gsave
0.54118 0.25098 1 nodecolor
253.11 679 17.89 18.38 ellipse_path fill
1 setlinewidth
filled
0.54118 0.25098 1 nodecolor
253.11 679 17.89 18.38 ellipse_path stroke
0 0 0 nodecolor
14 /Times-Roman set_font
248.11 675.4 moveto 10 (6) alignedtext
grestore
% 2->6
gsave
1 setlinewidth
0 0 0 edgecolor
newpath 253.11 780.25 moveto
253.11 760.88 253.11 730.38 253.11 707.92 curveto
stroke
0 0 0 edgecolor
newpath 256.61 707.62 moveto
253.11 697.62 lineto
249.61 707.62 lineto
closepath fill
1 setlinewidth
solid
0 0 0 edgecolor
newpath 256.61 707.62 moveto
253.11 697.62 lineto
249.61 707.62 lineto
closepath stroke
0 0 0 edgecolor
14 /Times-Roman set_font
253.11 735.4 moveto 34 ([1,0]) alignedtext
grestore
% 7
gsave
0.54118 0.25098 1 nodecolor
141.11 679 17.89 18.38 ellipse_path fill
1 setlinewidth
filled
0.54118 0.25098 1 nodecolor
141.11 679 17.89 18.38 ellipse_path stroke
0 0 0 nodecolor
14 /Times-Roman set_font
136.11 675.4 moveto 10 (7) alignedtext
grestore
% 2->7
gsave
1 setlinewidth
0 0 0 edgecolor
newpath 239.46 786.62 moveto
231.84 779.57 222.26 770.47 214.11 762 curveto
194.77 741.92 173.88 717.91 159.42 700.89 curveto
stroke
0 0 0 edgecolor
newpath 162 698.53 moveto
152.87 693.15 lineto
156.66 703.05 lineto
closepath fill
1 setlinewidth
solid
0 0 0 edgecolor
newpath 162 698.53 moveto
152.87 693.15 lineto
156.66 703.05 lineto
closepath stroke
0 0 0 edgecolor
14 /Times-Roman set_font
214.11 735.4 moveto 34 ([1,1]) alignedtext
grestore
% 8
gsave
0.54118 0.25098 1 nodecolor
518.11 679 17.89 18.38 ellipse_path fill
1 setlinewidth
filled
0.54118 0.25098 1 nodecolor
518.11 679 17.89 18.38 ellipse_path stroke
0 0 0 nodecolor
14 /Times-Roman set_font
513.11 675.4 moveto 10 (8) alignedtext
grestore
% 3->8
gsave
1 setlinewidth
0 0 0 edgecolor
newpath 518.11 780.25 moveto
518.11 760.88 518.11 730.38 518.11 707.92 curveto
stroke
0 0 0 edgecolor
newpath 521.61 707.62 moveto
518.11 697.62 lineto
514.61 707.62 lineto
closepath fill
1 setlinewidth
solid
0 0 0 edgecolor
newpath 521.61 707.62 moveto
518.11 697.62 lineto
514.61 707.62 lineto
closepath stroke
0 0 0 edgecolor
14 /Times-Roman set_font
518.11 735.4 moveto 34 ([1,0]) alignedtext
grestore
% 9
gsave
0.54118 0.25098 1 nodecolor
195.11 235 17.89 18.38 ellipse_path fill
1 setlinewidth
filled
0.54118 0.25098 1 nodecolor
195.11 235 17.89 18.38 ellipse_path stroke
0 0 0 nodecolor
14 /Times-Roman set_font
190.11 231.4 moveto 10 (9) alignedtext
grestore
% 3->9
gsave
1 setlinewidth
0 0 0 edgecolor
newpath 533.63 789.21 moveto
560.33 771.03 612.11 729.28 612.11 679 curveto
612.11 679 612.11 679 612.11 497 curveto
612.11 392.46 557.85 367.8 472.11 308 curveto
431.32 279.55 285.2 251 223.22 239.87 curveto
stroke
0 0 0 edgecolor
newpath 223.47 236.36 moveto
213.01 238.06 lineto
222.24 243.25 lineto
closepath fill
1 setlinewidth
solid
0 0 0 edgecolor
newpath 223.47 236.36 moveto
213.01 238.06 lineto
222.24 243.25 lineto
closepath stroke
0 0 0 edgecolor
14 /Times-Roman set_font
612.11 493.4 moveto 34 ([1,1]) alignedtext
grestore
% 10
gsave
0.023529 0.72157 1 nodecolor
202.11 441 24.31 24.75 ellipse_path fill
1 setlinewidth
filled
0.023529 0.72157 1 nodecolor
202.11 441 24.31 24.75 ellipse_path stroke
1 setlinewidth
filled
0.023529 0.72157 1 nodecolor
202.11 441 28.24 28.75 ellipse_path stroke
0 0 0 nodecolor
14 /Times-Roman set_font
192.61 437.4 moveto 19 (10) alignedtext
grestore
% 4->10
gsave
1 setlinewidth
0 0 0 edgecolor
newpath 43.68 721.93 moveto
22.09 694.2 -14.03 637.85 6.11 592 curveto
22.07 555.64 117.22 493.03 168.84 461.06 curveto
stroke
0 0 0 edgecolor
newpath 170.96 463.87 moveto
177.64 455.64 lineto
167.29 457.9 lineto
closepath fill
1 setlinewidth
solid
0 0 0 edgecolor
newpath 170.96 463.87 moveto
177.64 455.64 lineto
167.29 457.9 lineto
closepath stroke
0 0 0 edgecolor
14 /Times-Roman set_font
6.11 613.4 moveto 34 ([0,0]) alignedtext
grestore
% 11
gsave
0.54118 0.25098 1 nodecolor
355.11 617 24.24 24.75 ellipse_path fill
1 setlinewidth
filled
0.54118 0.25098 1 nodecolor
355.11 617 24.24 24.75 ellipse_path stroke
0 0 0 nodecolor
14 /Times-Roman set_font
345.61 613.4 moveto 19 (11) alignedtext
grestore
% 5->11
gsave
1 setlinewidth
0 0 0 edgecolor
newpath 350.87 720.47 moveto
351.61 702.29 352.77 674.11 353.68 651.74 curveto
stroke
0 0 0 edgecolor
newpath 357.18 651.75 moveto
354.1 641.62 lineto
350.19 651.47 lineto
closepath fill
1 setlinewidth
solid
0 0 0 edgecolor
newpath 357.18 651.75 moveto
354.1 641.62 lineto
350.19 651.47 lineto
closepath stroke
0 0 0 edgecolor
14 /Times-Roman set_font
353.11 675.4 moveto 34 ([0,0]) alignedtext
grestore
% 6->10
gsave
1 setlinewidth
0 0 0 edgecolor
newpath 254.03 660.46 moveto
255.14 625.57 254.68 548.27 233.11 488 curveto
231.12 482.46 228.36 476.92 225.29 471.7 curveto
stroke
0 0 0 edgecolor
newpath 228.24 469.81 moveto
219.92 463.25 lineto
222.33 473.57 lineto
closepath fill
1 setlinewidth
solid
0 0 0 edgecolor
newpath 228.24 469.81 moveto
219.92 463.25 lineto
222.33 473.57 lineto
closepath stroke
0 0 0 edgecolor
14 /Times-Roman set_font
250.11 545.4 moveto 34 ([1,0]) alignedtext
grestore
% 12
gsave
0.54118 0.25098 1 nodecolor
482.11 549 24.24 24.75 ellipse_path fill
1 setlinewidth
filled
0.54118 0.25098 1 nodecolor
482.11 549 24.24 24.75 ellipse_path stroke
0 0 0 nodecolor
14 /Times-Roman set_font
472.61 545.4 moveto 19 (12) alignedtext
grestore
% 6->12
gsave
1 setlinewidth
0 0 0 edgecolor
newpath 270.93 675.4 moveto
303.17 668.69 369.72 653.87 390.11 642 curveto
405.69 632.93 437.35 599.32 459.13 575.11 curveto
stroke
0 0 0 edgecolor
newpath 461.77 577.41 moveto
465.83 567.62 lineto
456.55 572.74 lineto
closepath fill
1 setlinewidth
solid
0 0 0 edgecolor
newpath 461.77 577.41 moveto
465.83 567.62 lineto
456.55 572.74 lineto
closepath stroke
0 0 0 edgecolor
14 /Times-Roman set_font
443.11 613.4 moveto 34 ([0,0]) alignedtext
grestore
% 13
gsave
0.54118 0.25098 1 nodecolor
185.11 549 24.24 24.75 ellipse_path fill
1 setlinewidth
filled
0.54118 0.25098 1 nodecolor
185.11 549 24.24 24.75 ellipse_path stroke
0 0 0 nodecolor
14 /Times-Roman set_font
175.61 545.4 moveto 19 (13) alignedtext
grestore
% 6->13
gsave
1 setlinewidth
0 0 0 edgecolor
newpath 236.7 671.34 moveto
225.17 665.09 210.38 655.14 202.11 642 curveto
191.24 624.74 186.91 602.31 185.34 583.81 curveto
stroke
0 0 0 edgecolor
newpath 188.83 583.48 moveto
184.72 573.71 lineto
181.84 583.91 lineto
closepath fill
1 setlinewidth
solid
0 0 0 edgecolor
newpath 188.83 583.48 moveto
184.72 573.71 lineto
181.84 583.91 lineto
closepath stroke
0 0 0 edgecolor
14 /Times-Roman set_font
202.11 613.4 moveto 34 ([0,1]) alignedtext
grestore
% 7->9
gsave
1 setlinewidth
0 0 0 edgecolor
newpath 126.86 667.38 moveto
102.89 646.44 57.11 599.79 57.11 549 curveto
57.11 549 57.11 549 57.11 333 curveto
57.11 319.26 130.75 273.3 170.44 249.52 curveto
stroke
0 0 0 edgecolor
newpath 172.48 252.39 moveto
179.28 244.26 lineto
168.89 246.37 lineto
closepath fill
1 setlinewidth
solid
0 0 0 edgecolor
newpath 172.48 252.39 moveto
179.28 244.26 lineto
168.89 246.37 lineto
closepath stroke
0 0 0 edgecolor
14 /Times-Roman set_font
57.11 437.4 moveto 34 ([0,1]) alignedtext
grestore
% 14
gsave
0.54118 0.25098 1 nodecolor
411.11 549 24.24 24.75 ellipse_path fill
1 setlinewidth
filled
0.54118 0.25098 1 nodecolor
411.11 549 24.24 24.75 ellipse_path stroke
0 0 0 nodecolor
14 /Times-Roman set_font
401.61 545.4 moveto 19 (14) alignedtext
grestore
% 7->14
gsave
1 setlinewidth
0 0 0 edgecolor
newpath 158.94 675.17 moveto
179.93 670.06 215.22 659.57 241.11 642 curveto
265.85 625.21 260.23 606.97 286.11 592 curveto
319.15 572.88 334.64 588.14 370.11 574 curveto
374.11 572.4 378.18 570.43 382.11 568.3 curveto
stroke
0 0 0 edgecolor
newpath 384.08 571.2 moveto
390.96 563.14 lineto
380.56 565.15 lineto
closepath fill
1 setlinewidth
solid
0 0 0 edgecolor
newpath 384.08 571.2 moveto
390.96 563.14 lineto
380.56 565.15 lineto
closepath stroke
0 0 0 edgecolor
14 /Times-Roman set_font
286.11 613.4 moveto 34 ([0,0]) alignedtext
grestore
% 15
gsave
0.54118 0.25098 1 nodecolor
115.11 549 24.24 24.75 ellipse_path fill
1 setlinewidth
filled
0.54118 0.25098 1 nodecolor
115.11 549 24.24 24.75 ellipse_path stroke
0 0 0 nodecolor
14 /Times-Roman set_font
105.61 545.4 moveto 19 (15) alignedtext
grestore
% 7->15
gsave
1 setlinewidth
0 0 0 edgecolor
newpath 137.12 660.95 moveto
135.81 654.93 134.37 648.18 133.11 642 curveto
129.11 622.47 124.86 600.59 121.49 582.96 curveto
stroke
0 0 0 edgecolor
newpath 124.93 582.29 moveto
119.62 573.12 lineto
118.05 583.59 lineto
closepath fill
1 setlinewidth
solid
0 0 0 edgecolor
newpath 124.93 582.29 moveto
119.62 573.12 lineto
118.05 583.59 lineto
closepath stroke
0 0 0 edgecolor
14 /Times-Roman set_font
133.11 613.4 moveto 34 ([1,1]) alignedtext
grestore
% 8->12
gsave
1 setlinewidth
0 0 0 edgecolor
newpath 509.09 662.81 moveto
505.87 656.48 502.46 649.05 500.11 642 curveto
493.8 623.09 489.43 601.24 486.58 583.47 curveto
stroke
0 0 0 edgecolor
newpath 490.03 582.89 moveto
485.07 573.53 lineto
483.11 583.94 lineto
closepath fill
1 setlinewidth
solid
0 0 0 edgecolor
newpath 490.03 582.89 moveto
485.07 573.53 lineto
483.11 583.94 lineto
closepath stroke
0 0 0 edgecolor
14 /Times-Roman set_font
500.11 613.4 moveto 34 ([1,0]) alignedtext
grestore
% 16
gsave
0.54118 0.25098 1 nodecolor
437.11 333 24.24 24.75 ellipse_path fill
1 setlinewidth
filled
0.54118 0.25098 1 nodecolor
437.11 333 24.24 24.75 ellipse_path stroke
0 0 0 nodecolor
14 /Times-Roman set_font
427.61 329.4 moveto 19 (16) alignedtext
grestore
% 8->16
gsave
1 setlinewidth
0 0 0 edgecolor
newpath 527.31 662.95 moveto
530.44 656.64 533.54 649.18 535.11 642 curveto
546.77 588.66 559.94 486.25 528.11 412 curveto
516.27 384.41 489.11 362.93 467.53 349.37 curveto
stroke
0 0 0 edgecolor
newpath 469.05 346.21 moveto
458.68 344.06 lineto
465.45 352.21 lineto
closepath fill
1 setlinewidth
solid
0 0 0 edgecolor
newpath 469.05 346.21 moveto
458.68 344.06 lineto
465.45 352.21 lineto
closepath stroke
0 0 0 edgecolor
14 /Times-Roman set_font
547.11 493.4 moveto 34 ([1,1]) alignedtext
grestore
% 9->9
gsave
1 setlinewidth
0 0 0 edgecolor
newpath 211.54 242.7 moveto
223.35 245.2 235.11 242.64 235.11 235 curveto
235.11 229.63 229.29 226.77 221.74 226.41 curveto
stroke
0 0 0 edgecolor
newpath 221.2 222.95 moveto
211.54 227.3 lineto
221.81 229.92 lineto
closepath fill
1 setlinewidth
solid
0 0 0 edgecolor
newpath 221.2 222.95 moveto
211.54 227.3 lineto
221.81 229.92 lineto
closepath stroke
0 0 0 edgecolor
14 /Times-Roman set_font
235.11 231.4 moveto 34 ([1,1]) alignedtext
grestore
% 17
gsave
0.54118 0.25098 1 nodecolor
330.11 137 24.24 24.75 ellipse_path fill
1 setlinewidth
filled
0.54118 0.25098 1 nodecolor
330.11 137 24.24 24.75 ellipse_path stroke
0 0 0 nodecolor
14 /Times-Roman set_font
320.61 133.4 moveto 19 (17) alignedtext
grestore
% 9->17
gsave
1 setlinewidth
0 0 0 edgecolor
newpath 206.66 220.66 moveto
216.73 208.77 232.19 191.93 248.11 180 curveto
263.55 168.42 282.55 158.24 298.36 150.7 curveto
stroke
0 0 0 edgecolor
newpath 300.14 153.73 moveto
307.74 146.35 lineto
297.2 147.38 lineto
closepath fill
1 setlinewidth
solid
0 0 0 edgecolor
newpath 300.14 153.73 moveto
307.74 146.35 lineto
297.2 147.38 lineto
closepath stroke
0 0 0 edgecolor
14 /Times-Roman set_font
248.11 185.4 moveto 34 ([1,0]) alignedtext
grestore
% 11->10
gsave
1 setlinewidth
0 0 0 edgecolor
newpath 344.08 595.1 moveto
329.64 567.88 302.36 520.98 270.11 488 curveto
259.95 477.62 247.2 468.1 235.49 460.38 curveto
stroke
0 0 0 edgecolor
newpath 237.11 457.27 moveto
226.8 454.85 lineto
233.35 463.17 lineto
closepath fill
1 setlinewidth
solid
0 0 0 edgecolor
newpath 237.11 457.27 moveto
226.8 454.85 lineto
233.35 463.17 lineto
closepath stroke
0 0 0 edgecolor
14 /Times-Roman set_font
331.11 545.4 moveto 34 ([0,0]) alignedtext
grestore
% 12->16
gsave
1 setlinewidth
0 0 0 edgecolor
newpath 485.9 524.62 moveto
490.2 490.02 494.11 425.41 473.11 376 curveto
470.34 369.5 466.25 363.23 461.81 357.58 curveto
stroke
0 0 0 edgecolor
newpath 464.32 355.13 moveto
455.17 349.79 lineto
459 359.67 lineto
closepath fill
1 setlinewidth
solid
0 0 0 edgecolor
newpath 464.32 355.13 moveto
455.17 349.79 lineto
459 359.67 lineto
closepath stroke
0 0 0 edgecolor
14 /Times-Roman set_font
489.11 437.4 moveto 34 ([0,1]) alignedtext
grestore
% 18
gsave
0.54118 0.25098 1 nodecolor
430.11 441 24.24 24.75 ellipse_path fill
1 setlinewidth
filled
0.54118 0.25098 1 nodecolor
430.11 441 24.24 24.75 ellipse_path stroke
0 0 0 nodecolor
14 /Times-Roman set_font
420.61 437.4 moveto 19 (18) alignedtext
grestore
% 12->18
gsave
1 setlinewidth
0 0 0 edgecolor
newpath 465.96 530.23 moveto
460.35 523.01 454.4 514.47 450.11 506 curveto
445.18 496.28 441.21 485.13 438.14 474.84 curveto
stroke
0 0 0 edgecolor
newpath 441.43 473.61 moveto
435.38 464.91 lineto
434.69 475.49 lineto
closepath fill
1 setlinewidth
solid
0 0 0 edgecolor
newpath 441.43 473.61 moveto
435.38 464.91 lineto
434.69 475.49 lineto
closepath stroke
0 0 0 edgecolor
14 /Times-Roman set_font
450.11 493.4 moveto 34 ([0,0]) alignedtext
grestore
% 13->9
gsave
1 setlinewidth
0 0 0 edgecolor
newpath 165.29 535.04 moveto
152.46 525.52 137.52 513.35 134.11 506 curveto
130.73 498.75 133.16 495.94 134.11 488 curveto
144.05 404.37 171.85 308.39 186.24 262.39 curveto
stroke
0 0 0 edgecolor
newpath 189.58 263.42 moveto
189.26 252.83 lineto
182.9 261.31 lineto
closepath fill
1 setlinewidth
solid
0 0 0 edgecolor
newpath 189.58 263.42 moveto
189.26 252.83 lineto
182.9 261.31 lineto
closepath stroke
0 0 0 edgecolor
14 /Times-Roman set_font
154.11 381.4 moveto 34 ([0,1]) alignedtext
grestore
% 13->10
gsave
1 setlinewidth
0 0 0 edgecolor
newpath 188.92 524.76 moveto
191.02 511.42 193.68 494.56 196.05 479.46 curveto
stroke
0 0 0 edgecolor
newpath 199.54 479.79 moveto
197.64 469.36 lineto
192.63 478.7 lineto
closepath fill
1 setlinewidth
solid
0 0 0 edgecolor
newpath 199.54 479.79 moveto
197.64 469.36 lineto
192.63 478.7 lineto
closepath stroke
0 0 0 edgecolor
14 /Times-Roman set_font
194.11 493.4 moveto 34 ([1,0]) alignedtext
grestore
% 13->17
gsave
1 setlinewidth
0 0 0 edgecolor
newpath 205.42 535.19 moveto
215.12 527.62 226.1 517.46 233.11 506 curveto
268.07 448.8 308.39 251.37 323.73 171.22 curveto
stroke
0 0 0 edgecolor
newpath 327.21 171.63 moveto
325.64 161.16 lineto
320.34 170.33 lineto
closepath fill
1 setlinewidth
solid
0 0 0 edgecolor
newpath 327.21 171.63 moveto
325.64 161.16 lineto
320.34 170.33 lineto
closepath stroke
0 0 0 edgecolor
14 /Times-Roman set_font
294.11 329.4 moveto 34 ([0,0]) alignedtext
grestore
% 14->16
gsave
1 setlinewidth
0 0 0 edgecolor
newpath 396.96 528.62 moveto
392.15 521.53 386.8 513.47 382.11 506 curveto
359.34 469.75 345.11 451.71 361.11 412 curveto
370.7 388.18 391.29 367.53 408.63 353.32 curveto
stroke
0 0 0 edgecolor
newpath 411.12 355.81 moveto
416.81 346.87 lineto
406.79 350.31 lineto
closepath fill
1 setlinewidth
solid
0 0 0 edgecolor
newpath 411.12 355.81 moveto
416.81 346.87 lineto
406.79 350.31 lineto
closepath stroke
0 0 0 edgecolor
14 /Times-Roman set_font
361.11 437.4 moveto 34 ([1,1]) alignedtext
grestore
% 14->18
gsave
1 setlinewidth
0 0 0 edgecolor
newpath 396.63 529.17 moveto
389.72 517.22 383.97 501.7 389.11 488 curveto
392.33 479.4 397.92 471.34 403.95 464.41 curveto
stroke
0 0 0 edgecolor
newpath 406.8 466.49 moveto
411.12 456.82 lineto
401.71 461.68 lineto
closepath fill
1 setlinewidth
solid
0 0 0 edgecolor
newpath 406.8 466.49 moveto
411.12 456.82 lineto
401.71 461.68 lineto
closepath stroke
0 0 0 edgecolor
14 /Times-Roman set_font
389.11 493.4 moveto 34 ([1,0]) alignedtext
grestore
% 15->10
gsave
1 setlinewidth
0 0 0 edgecolor
newpath 126.44 527.17 moveto
133.17 515.09 142.28 500.13 152.11 488 curveto
158.27 480.39 165.64 472.81 172.8 466.04 curveto
stroke
0 0 0 edgecolor
newpath 175.42 468.38 moveto
180.41 459.04 lineto
170.68 463.23 lineto
closepath fill
1 setlinewidth
solid
0 0 0 edgecolor
newpath 175.42 468.38 moveto
180.41 459.04 lineto
170.68 463.23 lineto
closepath stroke
0 0 0 edgecolor
14 /Times-Roman set_font
152.11 493.4 moveto 34 ([0,1]) alignedtext
grestore
% 16->9
gsave
1 setlinewidth
0 0 0 edgecolor
newpath 414.77 323.96 moveto
369.99 305.82 269.39 265.08 221.46 245.67 curveto
stroke
0 0 0 edgecolor
newpath 222.66 242.38 moveto
212.08 241.87 lineto
220.03 248.87 lineto
closepath fill
1 setlinewidth
solid
0 0 0 edgecolor
newpath 222.66 242.38 moveto
212.08 241.87 lineto
220.03 248.87 lineto
closepath stroke
0 0 0 edgecolor
14 /Times-Roman set_font
330.11 277.4 moveto 34 ([0,1]) alignedtext
grestore
% 16->17
gsave
1 setlinewidth
0 0 0 edgecolor
newpath 418.31 317.29 moveto
401.8 302.54 378.26 279.04 364.11 254 curveto
349.54 228.22 340.73 195.64 335.75 171.42 curveto
stroke
0 0 0 edgecolor
newpath 339.18 170.74 moveto
333.84 161.59 lineto
332.31 172.07 lineto
closepath fill
1 setlinewidth
solid
0 0 0 edgecolor
newpath 339.18 170.74 moveto
333.84 161.59 lineto
332.31 172.07 lineto
closepath stroke
0 0 0 edgecolor
14 /Times-Roman set_font
364.11 231.4 moveto 34 ([0,0]) alignedtext
grestore
% 17->16
gsave
1 setlinewidth
0 0 0 edgecolor
newpath 349.5 151.71 moveto
359.05 159.51 370.36 169.61 379.11 180 curveto
408.15 214.52 423.48 265.09 430.93 298.51 curveto
stroke
0 0 0 edgecolor
newpath 427.6 299.66 moveto
433.09 308.72 lineto
434.45 298.21 lineto
closepath fill
1 setlinewidth
solid
0 0 0 edgecolor
newpath 427.6 299.66 moveto
433.09 308.72 lineto
434.45 298.21 lineto
closepath stroke
0 0 0 edgecolor
14 /Times-Roman set_font
418.11 231.4 moveto 34 ([1,1]) alignedtext
grestore
% 19
gsave
0.023529 0.72157 1 nodecolor
330.11 29 24.31 24.75 ellipse_path fill
1 setlinewidth
filled
0.023529 0.72157 1 nodecolor
330.11 29 24.31 24.75 ellipse_path stroke
1 setlinewidth
filled
0.023529 0.72157 1 nodecolor
330.11 29 28.24 28.75 ellipse_path stroke
0 0 0 nodecolor
14 /Times-Roman set_font
320.61 25.4 moveto 19 (19) alignedtext
grestore
% 17->19
gsave
1 setlinewidth
0 0 0 edgecolor
newpath 330.11 112.49 moveto
330.11 99.24 330.11 82.58 330.11 67.63 curveto
stroke
0 0 0 edgecolor
newpath 333.61 67.62 moveto
330.11 57.62 lineto
326.61 67.62 lineto
closepath fill
1 setlinewidth
solid
0 0 0 edgecolor
newpath 333.61 67.62 moveto
330.11 57.62 lineto
326.61 67.62 lineto
closepath stroke
0 0 0 edgecolor
14 /Times-Roman set_font
330.11 81.4 moveto 34 ([1,0]) alignedtext
grestore
% 18->16
gsave
1 setlinewidth
0 0 0 edgecolor
newpath 431.69 416.49 moveto
432.63 402.1 433.82 383.66 434.85 367.78 curveto
stroke
0 0 0 edgecolor
newpath 438.35 367.99 moveto
435.5 357.78 lineto
431.36 367.54 lineto
closepath fill
1 setlinewidth
solid
0 0 0 edgecolor
newpath 438.35 367.99 moveto
435.5 357.78 lineto
431.36 367.54 lineto
closepath stroke
0 0 0 edgecolor
14 /Times-Roman set_font
434.11 381.4 moveto 34 ([0,1]) alignedtext
grestore
% 18->19
gsave
1 setlinewidth
0 0 0 edgecolor
newpath 413.64 422.89 moveto
409.49 418.96 404.85 415.07 400.11 412 curveto
285.11 337.56 121.11 417.99 121.11 281 curveto
121.11 281 121.11 281 121.11 137 curveto
121.11 61.1 231.25 38.48 291.62 31.79 curveto
stroke
0 0 0 edgecolor
newpath 292.32 35.23 moveto
301.92 30.74 lineto
291.62 28.27 lineto
closepath fill
1 setlinewidth
solid
0 0 0 edgecolor
newpath 292.32 35.23 moveto
301.92 30.74 lineto
291.62 28.27 lineto
closepath stroke
0 0 0 edgecolor
14 /Times-Roman set_font
121.11 231.4 moveto 34 ([0,0]) alignedtext
grestore
% 19->16
gsave
1 setlinewidth
0 0 0 edgecolor
newpath 350.35 49.11 moveto
380.87 81.09 437.22 146.99 457.11 216 curveto
465.2 244.07 458.19 276.92 450.33 300.66 curveto
stroke
0 0 0 edgecolor
newpath 446.98 299.64 moveto
446.95 310.24 lineto
453.58 301.97 lineto
closepath fill
1 setlinewidth
solid
0 0 0 edgecolor
newpath 446.98 299.64 moveto
446.95 310.24 lineto
453.58 301.97 lineto
closepath stroke
0 0 0 edgecolor
14 /Times-Roman set_font
450.11 185.4 moveto 34 ([0,1]) alignedtext
grestore
% 19->19
gsave
1 setlinewidth
0 0 0 edgecolor
newpath 356.34 39.24 moveto
368.97 40.51 380.11 37.09 380.11 29 curveto
380.11 23.18 374.35 19.78 366.43 18.8 curveto
stroke
0 0 0 edgecolor
newpath 366.36 15.3 moveto
356.34 18.76 lineto
366.33 22.3 lineto
closepath fill
1 setlinewidth
solid
0 0 0 edgecolor
newpath 366.36 15.3 moveto
356.34 18.76 lineto
366.33 22.3 lineto
closepath stroke
0 0 0 edgecolor
14 /Times-Roman set_font
380.11 25.4 moveto 34 ([0,0]) alignedtext
grestore
endpage
showpage
grestore
%%PageTrailer
%%EndPage: 1
%%Trailer
end
restore
%%EOF
