%!PS-Adobe-3.0 EPSF-3.0
%%Creator: graphviz version 2.26.3 (20100126.1600)
%%Title: FSA Utilities
%%Pages: 1
%%BoundingBox: 36 36 2581 1108
%%EndComments
save
%%BeginProlog
/DotDict 200 dict def
DotDict begin

/setupLatin1 {
mark
/EncodingVector 256 array def
 EncodingVector 0

ISOLatin1Encoding 0 255 getinterval putinterval
EncodingVector 45 /hyphen put

% Set up ISO Latin 1 character encoding
/starnetISO {
        dup dup findfont dup length dict begin
        { 1 index /FID ne { def }{ pop pop } ifelse
        } forall
        /Encoding EncodingVector def
        currentdict end definefont
} def
/Times-Roman starnetISO def
/Times-Italic starnetISO def
/Times-Bold starnetISO def
/Times-BoldItalic starnetISO def
/Helvetica starnetISO def
/Helvetica-Oblique starnetISO def
/Helvetica-Bold starnetISO def
/Helvetica-BoldOblique starnetISO def
/Courier starnetISO def
/Courier-Oblique starnetISO def
/Courier-Bold starnetISO def
/Courier-BoldOblique starnetISO def
cleartomark
} bind def

%%BeginResource: procset graphviz 0 0
/coord-font-family /Times-Roman def
/default-font-family /Times-Roman def
/coordfont coord-font-family findfont 8 scalefont def

/InvScaleFactor 1.0 def
/set_scale {
       dup 1 exch div /InvScaleFactor exch def
       scale
} bind def

% styles
/solid { [] 0 setdash } bind def
/dashed { [9 InvScaleFactor mul dup ] 0 setdash } bind def
/dotted { [1 InvScaleFactor mul 6 InvScaleFactor mul] 0 setdash } bind def
/invis {/fill {newpath} def /stroke {newpath} def /show {pop newpath} def} bind def
/bold { 2 setlinewidth } bind def
/filled { } bind def
/unfilled { } bind def
/rounded { } bind def
/diagonals { } bind def

% hooks for setting color 
/nodecolor { sethsbcolor } bind def
/edgecolor { sethsbcolor } bind def
/graphcolor { sethsbcolor } bind def
/nopcolor {pop pop pop} bind def

/beginpage {	% i j npages
	/npages exch def
	/j exch def
	/i exch def
	/str 10 string def
	npages 1 gt {
		gsave
			coordfont setfont
			0 0 moveto
			(\() show i str cvs show (,) show j str cvs show (\)) show
		grestore
	} if
} bind def

/set_font {
	findfont exch
	scalefont setfont
} def

% draw text fitted to its expected width
/alignedtext {			% width text
	/text exch def
	/width exch def
	gsave
		width 0 gt {
			[] 0 setdash
			text stringwidth pop width exch sub text length div 0 text ashow
		} if
	grestore
} def

/boxprim {				% xcorner ycorner xsize ysize
		4 2 roll
		moveto
		2 copy
		exch 0 rlineto
		0 exch rlineto
		pop neg 0 rlineto
		closepath
} bind def

/ellipse_path {
	/ry exch def
	/rx exch def
	/y exch def
	/x exch def
	matrix currentmatrix
	newpath
	x y translate
	rx ry scale
	0 0 1 0 360 arc
	setmatrix
} bind def

/endpage { showpage } bind def
/showpage { } def

/layercolorseq
	[	% layer color sequence - darkest to lightest
		[0 0 0]
		[.2 .8 .8]
		[.4 .8 .8]
		[.6 .8 .8]
		[.8 .8 .8]
	]
def

/layerlen layercolorseq length def

/setlayer {/maxlayer exch def /curlayer exch def
	layercolorseq curlayer 1 sub layerlen mod get
	aload pop sethsbcolor
	/nodecolor {nopcolor} def
	/edgecolor {nopcolor} def
	/graphcolor {nopcolor} def
} bind def

/onlayer { curlayer ne {invis} if } def

/onlayers {
	/myupper exch def
	/mylower exch def
	curlayer mylower lt
	curlayer myupper gt
	or
	{invis} if
} def

/curlayer 0 def

%%EndResource
%%EndProlog
%%BeginSetup
14 default-font-family set_font
1 setmiterlimit
% /arrowlength 10 def
% /arrowwidth 5 def

% make sure pdfmark is harmless for PS-interpreters other than Distiller
/pdfmark where {pop} {userdict /pdfmark /cleartomark load put} ifelse
% make '<<' and '>>' safe on PS Level 1 devices
/languagelevel where {pop languagelevel}{1} ifelse
2 lt {
    userdict (<<) cvn ([) cvn load put
    userdict (>>) cvn ([) cvn load put
} if

%%EndSetup
setupLatin1
%%Page: 1 1
%%PageBoundingBox: 36 36 2581 1108
%%PageOrientation: Portrait
0 0 1 beginpage
gsave
36 36 2545 1072 boxprim clip newpath
1 1 set_scale 0 rotate 40 41 translate
% start0
gsave
grestore
% 0
gsave
0.21961 0.75686 1 nodecolor
810 971 17.89 18.38 ellipse_path fill
1 setlinewidth
filled
0.21961 0.75686 1 nodecolor
810 971 17.89 18.38 ellipse_path stroke
0 0 0 nodecolor
14 /Times-Roman set_font
805 967.4 moveto 10 (0) alignedtext
grestore
% start0->0
gsave
1 setlinewidth
0 0 0 edgecolor
newpath 810 1027.84 moveto
810 1019.4 810 1009.16 810 999.71 curveto
stroke
0 0 0 edgecolor
newpath 813.5 999.51 moveto
810 989.51 lineto
806.5 999.51 lineto
closepath fill
1 setlinewidth
solid
0 0 0 edgecolor
newpath 813.5 999.51 moveto
810 989.51 lineto
806.5 999.51 lineto
closepath stroke
grestore
% 0->0
gsave
1 setlinewidth
0 0 0 edgecolor
newpath 827.27 977.5 moveto
838.79 979.33 850 977.16 850 971 curveto
850 966.76 844.7 964.42 837.64 963.96 curveto
stroke
0 0 0 edgecolor
newpath 837.07 960.48 moveto
827.27 964.5 lineto
837.44 967.47 lineto
closepath fill
1 setlinewidth
solid
0 0 0 edgecolor
newpath 837.07 960.48 moveto
827.27 964.5 lineto
837.44 967.47 lineto
closepath stroke
0 0 0 edgecolor
14 /Times-Roman set_font
850 967.4 moveto 47 ([0,0,0]) alignedtext
grestore
% 1
gsave
0.023529 0.72157 1 nodecolor
593 781 17.98 18.38 ellipse_path fill
1 setlinewidth
filled
0.023529 0.72157 1 nodecolor
593 781 17.98 18.38 ellipse_path stroke
1 setlinewidth
filled
0.023529 0.72157 1 nodecolor
593 781 21.89 22.38 ellipse_path stroke
0 0 0 nodecolor
14 /Times-Roman set_font
588 777.4 moveto 10 (1) alignedtext
grestore
% 0->1
gsave
1 setlinewidth
0 0 0 edgecolor
newpath 795.06 959.96 moveto
785.46 952.76 772.82 943.04 762 934 curveto
708.81 889.54 649.29 834.3 617 803.84 curveto
stroke
0 0 0 edgecolor
newpath 619.07 800.98 moveto
609.4 796.65 lineto
614.26 806.06 lineto
closepath fill
1 setlinewidth
solid
0 0 0 edgecolor
newpath 619.07 800.98 moveto
609.4 796.65 lineto
614.26 806.06 lineto
closepath stroke
0 0 0 edgecolor
14 /Times-Roman set_font
719 875.4 moveto 47 ([0,1,0]) alignedtext
grestore
% 2
gsave
0.54118 0.25098 1 nodecolor
2140 781 17.89 18.38 ellipse_path fill
1 setlinewidth
filled
0.54118 0.25098 1 nodecolor
2140 781 17.89 18.38 ellipse_path stroke
0 0 0 nodecolor
14 /Times-Roman set_font
2135 777.4 moveto 10 (2) alignedtext
grestore
% 0->2
gsave
1 setlinewidth
0 0 0 edgecolor
newpath 828.3 968.39 moveto
973.15 947.69 1933.88 810.45 2111.71 785.04 curveto
stroke
0 0 0 edgecolor
newpath 2112.44 788.47 moveto
2121.84 783.59 lineto
2111.45 781.54 lineto
closepath fill
1 setlinewidth
solid
0 0 0 edgecolor
newpath 2112.44 788.47 moveto
2121.84 783.59 lineto
2111.45 781.54 lineto
closepath stroke
0 0 0 edgecolor
14 /Times-Roman set_font
1585 875.4 moveto 47 ([0,1,1]) alignedtext
grestore
% 3
gsave
0.54118 0.25098 1 nodecolor
804 879 17.89 18.38 ellipse_path fill
1 setlinewidth
filled
0.54118 0.25098 1 nodecolor
804 879 17.89 18.38 ellipse_path stroke
0 0 0 nodecolor
14 /Times-Roman set_font
799 875.4 moveto 10 (3) alignedtext
grestore
% 0->3
gsave
1 setlinewidth
0 0 0 edgecolor
newpath 794.08 961.51 moveto
784.88 955.04 774.14 945.56 769 934 curveto
763.15 920.85 771.75 907.2 781.88 896.78 curveto
stroke
0 0 0 edgecolor
newpath 784.42 899.2 moveto
789.35 889.83 lineto
779.64 894.08 lineto
closepath fill
1 setlinewidth
solid
0 0 0 edgecolor
newpath 784.42 899.2 moveto
789.35 889.83 lineto
779.64 894.08 lineto
closepath stroke
0 0 0 edgecolor
14 /Times-Roman set_font
769 921.4 moveto 47 ([1,1,1]) alignedtext
grestore
% 4
gsave
0.023529 0.72157 1 nodecolor
684 23 17.98 18.38 ellipse_path fill
1 setlinewidth
filled
0.023529 0.72157 1 nodecolor
684 23 17.98 18.38 ellipse_path stroke
1 setlinewidth
filled
0.023529 0.72157 1 nodecolor
684 23 21.89 22.38 ellipse_path stroke
0 0 0 nodecolor
14 /Times-Roman set_font
679 19.4 moveto 10 (4) alignedtext
grestore
% 1->4
gsave
1 setlinewidth
0 0 0 edgecolor
newpath 570.84 779.51 moveto
463.18 771.97 0 736.12 0 677 curveto
0 677 0 677 0 125 curveto
0 56.72 74.71 80.35 141 64 curveto
238.75 39.89 549.71 27.52 651.45 24.04 curveto
stroke
0 0 0 edgecolor
newpath 651.84 27.53 moveto
661.71 23.7 lineto
651.6 20.53 lineto
closepath fill
1 setlinewidth
solid
0 0 0 edgecolor
newpath 651.84 27.53 moveto
661.71 23.7 lineto
651.6 20.53 lineto
closepath stroke
0 0 0 edgecolor
14 /Times-Roman set_font
0 397.4 moveto 98 ([0,0,0] [0,1,0]) alignedtext
grestore
% 5
gsave
0.54118 0.25098 1 nodecolor
900 457 17.89 18.38 ellipse_path fill
1 setlinewidth
filled
0.54118 0.25098 1 nodecolor
900 457 17.89 18.38 ellipse_path stroke
0 0 0 nodecolor
14 /Times-Roman set_font
895 453.4 moveto 10 (5) alignedtext
grestore
% 1->5
gsave
1 setlinewidth
0 0 0 edgecolor
newpath 608.65 764.49 moveto
659.98 710.31 823.25 538 880.19 477.91 curveto
stroke
0 0 0 edgecolor
newpath 882.85 480.18 moveto
887.19 470.52 lineto
877.77 475.37 lineto
closepath fill
1 setlinewidth
solid
0 0 0 edgecolor
newpath 882.85 480.18 moveto
887.19 470.52 lineto
877.77 475.37 lineto
closepath stroke
0 0 0 edgecolor
14 /Times-Roman set_font
746 621.4 moveto 47 ([0,0,1]) alignedtext
grestore
% 6
gsave
0.023529 0.72157 1 nodecolor
519 677 17.98 18.38 ellipse_path fill
1 setlinewidth
filled
0.023529 0.72157 1 nodecolor
519 677 17.98 18.38 ellipse_path stroke
1 setlinewidth
filled
0.023529 0.72157 1 nodecolor
519 677 21.89 22.38 ellipse_path stroke
0 0 0 nodecolor
14 /Times-Roman set_font
514 673.4 moveto 10 (6) alignedtext
grestore
% 1->6
gsave
1 setlinewidth
0 0 0 edgecolor
newpath 586.44 759.48 moveto
582.08 747.23 575.58 731.98 567 720 curveto
560.97 711.58 553.03 703.63 545.35 696.91 curveto
stroke
0 0 0 edgecolor
newpath 547.14 693.85 moveto
537.21 690.14 lineto
542.66 699.23 lineto
closepath fill
1 setlinewidth
solid
0 0 0 edgecolor
newpath 547.14 693.85 moveto
537.21 690.14 lineto
542.66 699.23 lineto
closepath stroke
0 0 0 edgecolor
14 /Times-Roman set_font
578 725.4 moveto 47 ([1,0,1]) alignedtext
grestore
% 7
gsave
0.54118 0.25098 1 nodecolor
2018 569 17.89 18.38 ellipse_path fill
1 setlinewidth
filled
0.54118 0.25098 1 nodecolor
2018 569 17.89 18.38 ellipse_path stroke
0 0 0 nodecolor
14 /Times-Roman set_font
2013 565.4 moveto 10 (7) alignedtext
grestore
% 2->7
gsave
1 setlinewidth
0 0 0 edgecolor
newpath 2127.22 767.58 moveto
2113.34 752.51 2091.12 726.89 2076 702 curveto
2055 667.45 2037.54 623.95 2027.43 596.29 curveto
stroke
0 0 0 edgecolor
newpath 2030.59 594.75 moveto
2023.92 586.52 lineto
2024 597.12 lineto
closepath fill
1 setlinewidth
solid
0 0 0 edgecolor
newpath 2030.59 594.75 moveto
2023.92 586.52 lineto
2024 597.12 lineto
closepath stroke
0 0 0 edgecolor
14 /Times-Roman set_font
2076 673.4 moveto 47 ([0,0,0]) alignedtext
grestore
% 8
gsave
0.54118 0.25098 1 nodecolor
2243 345 17.89 18.38 ellipse_path fill
1 setlinewidth
filled
0.54118 0.25098 1 nodecolor
2243 345 17.89 18.38 ellipse_path stroke
0 0 0 nodecolor
14 /Times-Roman set_font
2238 341.4 moveto 10 (8) alignedtext
grestore
% 2->8
gsave
1 setlinewidth
0 0 0 edgecolor
newpath 2158.32 779.59 moveto
2230.34 773.54 2490 746.89 2490 677 curveto
2490 677 2490 677 2490 457 curveto
2490 409.28 2335.12 366.91 2270.65 351.33 curveto
stroke
0 0 0 edgecolor
newpath 2271.3 347.89 moveto
2260.76 348.99 lineto
2269.68 354.7 lineto
closepath fill
1 setlinewidth
solid
0 0 0 edgecolor
newpath 2271.3 347.89 moveto
2260.76 348.99 lineto
2269.68 354.7 lineto
closepath stroke
0 0 0 edgecolor
14 /Times-Roman set_font
2490 565.4 moveto 47 ([0,1,0]) alignedtext
grestore
% 9
gsave
0.54118 0.25098 1 nodecolor
1946 457 17.89 18.38 ellipse_path fill
1 setlinewidth
filled
0.54118 0.25098 1 nodecolor
1946 457 17.89 18.38 ellipse_path stroke
0 0 0 nodecolor
14 /Times-Roman set_font
1941 453.4 moveto 10 (9) alignedtext
grestore
% 2->9
gsave
1 setlinewidth
0 0 0 edgecolor
newpath 2139.33 762.44 moveto
2138.37 734.56 2136.63 680.21 2136 634 curveto
2135.89 626 2132.23 623.05 2136 616 curveto
2142.81 603.28 2156.19 610.72 2163 598 curveto
2182.87 560.87 2182.18 532.31 2151 504 curveto
2125.25 480.62 2024.28 466.01 1974.32 460.06 curveto
stroke
0 0 0 edgecolor
newpath 1974.53 456.56 moveto
1964.2 458.89 lineto
1973.73 463.52 lineto
closepath fill
1 setlinewidth
solid
0 0 0 edgecolor
newpath 1974.53 456.56 moveto
1964.2 458.89 lineto
1973.73 463.52 lineto
closepath stroke
0 0 0 edgecolor
14 /Times-Roman set_font
2136 621.4 moveto 98 ([0,1,1] [1,1,1]) alignedtext
grestore
% 10
gsave
0.54118 0.25098 1 nodecolor
2265 677 24.24 24.75 ellipse_path fill
1 setlinewidth
filled
0.54118 0.25098 1 nodecolor
2265 677 24.24 24.75 ellipse_path stroke
0 0 0 nodecolor
14 /Times-Roman set_font
2255.5 673.4 moveto 19 (10) alignedtext
grestore
% 2->10
gsave
1 setlinewidth
0 0 0 edgecolor
newpath 2148.19 764.28 moveto
2155.38 750.97 2166.88 732.54 2181 720 curveto
2196.05 706.63 2216.01 696.19 2232.69 688.95 curveto
stroke
0 0 0 edgecolor
newpath 2234.18 692.12 moveto
2242.08 685.05 lineto
2231.5 685.65 lineto
closepath fill
1 setlinewidth
solid
0 0 0 edgecolor
newpath 2234.18 692.12 moveto
2242.08 685.05 lineto
2231.5 685.65 lineto
closepath stroke
0 0 0 edgecolor
14 /Times-Roman set_font
2181 725.4 moveto 47 ([1,0,0]) alignedtext
grestore
% 11
gsave
0.023529 0.72157 1 nodecolor
1881 345 24.31 24.75 ellipse_path fill
1 setlinewidth
filled
0.023529 0.72157 1 nodecolor
1881 345 24.31 24.75 ellipse_path stroke
1 setlinewidth
filled
0.023529 0.72157 1 nodecolor
1881 345 28.24 28.75 ellipse_path stroke
0 0 0 nodecolor
14 /Times-Roman set_font
1871.5 341.4 moveto 19 (11) alignedtext
grestore
% 2->11
gsave
1 setlinewidth
0 0 0 edgecolor
newpath 2122.11 778.34 moveto
2068.01 769.9 1907.99 741.92 1877 702 curveto
1837.18 650.7 1866.33 474.93 1865 410 curveto
1864.84 402 1863.69 399.89 1865 392 curveto
1865.58 388.49 1866.39 384.89 1867.34 381.33 curveto
stroke
0 0 0 edgecolor
newpath 1870.78 382.04 moveto
1870.31 371.45 lineto
1864.08 380.02 lineto
closepath fill
1 setlinewidth
solid
0 0 0 edgecolor
newpath 1870.78 382.04 moveto
1870.31 371.45 lineto
1864.08 380.02 lineto
closepath stroke
0 0 0 edgecolor
14 /Times-Roman set_font
1857 565.4 moveto 47 ([1,1,0]) alignedtext
grestore
% 3->0
gsave
1 setlinewidth
0 0 0 edgecolor
newpath 813.2 895.05 moveto
816.33 901.36 819.43 908.82 821 916 curveto
822.97 925.03 821.97 934.92 819.93 943.79 curveto
stroke
0 0 0 edgecolor
newpath 816.5 943.05 moveto
817.18 953.63 lineto
823.25 944.94 lineto
closepath fill
1 setlinewidth
solid
0 0 0 edgecolor
newpath 816.5 943.05 moveto
817.18 953.63 lineto
823.25 944.94 lineto
closepath stroke
0 0 0 edgecolor
14 /Times-Roman set_font
822 921.4 moveto 47 ([1,1,1]) alignedtext
grestore
% 3->3
gsave
1 setlinewidth
0 0 0 edgecolor
newpath 820.44 886.7 moveto
832.24 889.2 844 886.64 844 879 curveto
844 873.63 838.19 870.77 830.63 870.41 curveto
stroke
0 0 0 edgecolor
newpath 830.09 866.95 moveto
820.44 871.3 lineto
830.7 873.92 lineto
closepath fill
1 setlinewidth
solid
0 0 0 edgecolor
newpath 830.09 866.95 moveto
820.44 871.3 lineto
830.7 873.92 lineto
closepath stroke
0 0 0 edgecolor
14 /Times-Roman set_font
844 875.4 moveto 47 ([0,0,0]) alignedtext
grestore
% 12
gsave
0.023529 0.72157 1 nodecolor
594 569 24.31 24.75 ellipse_path fill
1 setlinewidth
filled
0.023529 0.72157 1 nodecolor
594 569 24.31 24.75 ellipse_path stroke
1 setlinewidth
filled
0.023529 0.72157 1 nodecolor
594 569 28.24 28.75 ellipse_path stroke
0 0 0 nodecolor
14 /Times-Roman set_font
584.5 565.4 moveto 19 (12) alignedtext
grestore
% 3->12
gsave
1 setlinewidth
0 0 0 edgecolor
newpath 793.59 863.63 moveto
760.95 815.46 660.21 666.74 615.62 600.92 curveto
stroke
0 0 0 edgecolor
newpath 618.47 598.88 moveto
609.96 592.57 lineto
612.68 602.81 lineto
closepath fill
1 setlinewidth
solid
0 0 0 edgecolor
newpath 618.47 598.88 moveto
609.96 592.57 lineto
612.68 602.81 lineto
closepath stroke
0 0 0 edgecolor
14 /Times-Roman set_font
706 725.4 moveto 47 ([0,1,0]) alignedtext
grestore
% 13
gsave
0.54118 0.25098 1 nodecolor
1631 781 24.24 24.75 ellipse_path fill
1 setlinewidth
filled
0.54118 0.25098 1 nodecolor
1631 781 24.24 24.75 ellipse_path stroke
0 0 0 nodecolor
14 /Times-Roman set_font
1621.5 777.4 moveto 19 (13) alignedtext
grestore
% 3->13
gsave
1 setlinewidth
0 0 0 edgecolor
newpath 822.04 876.86 moveto
926.79 864.45 1456.93 801.63 1597.01 785.03 curveto
stroke
0 0 0 edgecolor
newpath 1597.63 788.48 moveto
1607.15 783.83 lineto
1596.81 781.53 lineto
closepath fill
1 setlinewidth
solid
0 0 0 edgecolor
newpath 1597.63 788.48 moveto
1607.15 783.83 lineto
1596.81 781.53 lineto
closepath stroke
0 0 0 edgecolor
14 /Times-Roman set_font
1267 829.4 moveto 47 ([0,1,1]) alignedtext
grestore
% 5->4
gsave
1 setlinewidth
0 0 0 edgecolor
newpath 881.99 454.85 moveto
843.29 449.21 751.98 430.34 706 374 curveto
657.79 314.93 642.56 268.64 683 204 curveto
692.7 188.5 710.3 201.5 720 186 curveto
724.24 179.22 720.58 175.98 720 168 curveto
717.77 137.53 717.14 129.7 710 100 curveto
706.26 84.43 700.73 67.54 695.73 53.55 curveto
stroke
0 0 0 edgecolor
newpath 698.93 52.13 moveto
692.21 43.94 lineto
692.36 54.54 lineto
closepath fill
1 setlinewidth
solid
0 0 0 edgecolor
newpath 698.93 52.13 moveto
692.21 43.94 lineto
692.36 54.54 lineto
closepath stroke
0 0 0 edgecolor
14 /Times-Roman set_font
683 229.4 moveto 98 ([0,1,1] [1,1,1]) alignedtext
grestore
% 14
gsave
0.54118 0.25098 1 nodecolor
1144 233 24.24 24.75 ellipse_path fill
1 setlinewidth
filled
0.54118 0.25098 1 nodecolor
1144 233 24.24 24.75 ellipse_path stroke
0 0 0 nodecolor
14 /Times-Roman set_font
1134.5 229.4 moveto 19 (14) alignedtext
grestore
% 5->14
gsave
1 setlinewidth
0 0 0 edgecolor
newpath 896.76 438.67 moveto
892.71 410.33 888.79 355.06 911 316 curveto
952.91 242.28 1013.79 289.52 1094 262 curveto
1101.18 259.54 1108.48 256 1115.2 252.23 curveto
stroke
0 0 0 edgecolor
newpath 1117.14 255.16 moveto
1123.95 247.04 lineto
1113.56 249.14 lineto
closepath fill
1 setlinewidth
solid
0 0 0 edgecolor
newpath 1117.14 255.16 moveto
1123.95 247.04 lineto
1113.56 249.14 lineto
closepath stroke
0 0 0 edgecolor
14 /Times-Roman set_font
911 341.4 moveto 98 ([0,0,0] [1,0,0]) alignedtext
grestore
% 15
gsave
0.023529 0.72157 1 nodecolor
1664 345 24.31 24.75 ellipse_path fill
1 setlinewidth
filled
0.023529 0.72157 1 nodecolor
1664 345 24.31 24.75 ellipse_path stroke
1 setlinewidth
filled
0.023529 0.72157 1 nodecolor
1664 345 28.24 28.75 ellipse_path stroke
0 0 0 nodecolor
14 /Times-Roman set_font
1654.5 341.4 moveto 19 (15) alignedtext
grestore
% 5->15
gsave
1 setlinewidth
0 0 0 edgecolor
newpath 917.67 452.62 moveto
943.21 446.41 991.98 435.04 1034 428 curveto
1100.66 416.84 1118.93 424.24 1185 410 curveto
1210.97 404.4 1216.01 397.5 1242 392 curveto
1381.37 362.53 1550.8 350.77 1625.48 346.77 curveto
stroke
0 0 0 edgecolor
newpath 1625.99 350.25 moveto
1635.8 346.24 lineto
1625.63 343.26 lineto
closepath fill
1 setlinewidth
solid
0 0 0 edgecolor
newpath 1625.99 350.25 moveto
1635.8 346.24 lineto
1625.63 343.26 lineto
closepath stroke
0 0 0 edgecolor
14 /Times-Roman set_font
1242 397.4 moveto 98 ([0,0,1] [1,0,1]) alignedtext
grestore
% 6->1
gsave
1 setlinewidth
0 0 0 edgecolor
newpath 513.89 698.98 moveto
512.24 711.24 512.29 726.34 519 738 curveto
528.27 754.1 546.14 764.74 561.99 771.4 curveto
stroke
0 0 0 edgecolor
newpath 560.92 774.74 moveto
571.51 775.05 lineto
563.43 768.2 lineto
closepath fill
1 setlinewidth
solid
0 0 0 edgecolor
newpath 560.92 774.74 moveto
571.51 775.05 lineto
563.43 768.2 lineto
closepath stroke
0 0 0 edgecolor
14 /Times-Roman set_font
519 725.4 moveto 47 ([1,0,1]) alignedtext
grestore
% 6->4
gsave
1 setlinewidth
0 0 0 edgecolor
newpath 496.99 675.92 moveto
412.69 671.17 115 648.77 115 569 curveto
115 569 115 569 115 125 curveto
115 78.5 156.38 80.1 200 64 curveto
283.32 33.26 557.19 25.35 651.64 23.51 curveto
stroke
0 0 0 edgecolor
newpath 651.8 27.01 moveto
661.74 23.32 lineto
651.67 20.01 lineto
closepath fill
1 setlinewidth
solid
0 0 0 edgecolor
newpath 651.8 27.01 moveto
661.74 23.32 lineto
651.67 20.01 lineto
closepath stroke
0 0 0 edgecolor
14 /Times-Roman set_font
115 341.4 moveto 98 ([0,1,1] [1,1,1]) alignedtext
grestore
% 16
gsave
0.54118 0.25098 1 nodecolor
419 345 24.24 24.75 ellipse_path fill
1 setlinewidth
filled
0.54118 0.25098 1 nodecolor
419 345 24.24 24.75 ellipse_path stroke
0 0 0 nodecolor
14 /Times-Roman set_font
409.5 341.4 moveto 19 (16) alignedtext
grestore
% 6->16
gsave
1 setlinewidth
0 0 0 edgecolor
newpath 502.88 661.2 moveto
477.48 635.06 429.18 579.89 411 522 curveto
395.94 474.05 403.36 415.22 410.7 378.92 curveto
stroke
0 0 0 edgecolor
newpath 414.18 379.37 moveto
412.85 368.86 lineto
407.34 377.91 lineto
closepath fill
1 setlinewidth
solid
0 0 0 edgecolor
newpath 414.18 379.37 moveto
412.85 368.86 lineto
407.34 377.91 lineto
closepath stroke
0 0 0 edgecolor
14 /Times-Roman set_font
411 509.4 moveto 47 ([0,0,0]) alignedtext
grestore
% 17
gsave
0.023529 0.72157 1 nodecolor
1058 569 24.31 24.75 ellipse_path fill
1 setlinewidth
filled
0.023529 0.72157 1 nodecolor
1058 569 24.31 24.75 ellipse_path stroke
1 setlinewidth
filled
0.023529 0.72157 1 nodecolor
1058 569 28.24 28.75 ellipse_path stroke
0 0 0 nodecolor
14 /Times-Roman set_font
1048.5 565.4 moveto 19 (17) alignedtext
grestore
% 6->17
gsave
1 setlinewidth
0 0 0 edgecolor
newpath 541.12 675.04 moveto
592.45 670.26 723.46 656.69 831 634 curveto
899.28 619.59 977.13 595.6 1021.63 581.15 curveto
stroke
0 0 0 edgecolor
newpath 1022.99 584.39 moveto
1031.4 577.95 lineto
1020.81 577.73 lineto
closepath fill
1 setlinewidth
solid
0 0 0 edgecolor
newpath 1022.99 584.39 moveto
1031.4 577.95 lineto
1020.81 577.73 lineto
closepath stroke
0 0 0 edgecolor
14 /Times-Roman set_font
900 621.4 moveto 47 ([0,0,1]) alignedtext
grestore
% 7->7
gsave
1 setlinewidth
0 0 0 edgecolor
newpath 2034.02 578.26 moveto
2045.96 581.49 2058 578.41 2058 569 curveto
2058 562.31 2051.92 558.82 2044.11 558.52 curveto
stroke
0 0 0 edgecolor
newpath 2043.53 555.07 moveto
2034.02 559.74 lineto
2044.37 562.01 lineto
closepath fill
1 setlinewidth
solid
0 0 0 edgecolor
newpath 2043.53 555.07 moveto
2034.02 559.74 lineto
2044.37 562.01 lineto
closepath stroke
0 0 0 edgecolor
14 /Times-Roman set_font
2058 565.4 moveto 98 ([0,0,0] [1,0,0]) alignedtext
grestore
% 7->8
gsave
1 setlinewidth
0 0 0 edgecolor
newpath 2036.03 566.89 moveto
2063.75 562.79 2117.18 551.4 2151 522 curveto
2197.47 481.61 2223.77 411.95 2235.5 373.16 curveto
stroke
0 0 0 edgecolor
newpath 2238.99 373.67 moveto
2238.42 363.09 lineto
2232.27 371.71 lineto
closepath fill
1 setlinewidth
solid
0 0 0 edgecolor
newpath 2238.99 373.67 moveto
2238.42 363.09 lineto
2232.27 371.71 lineto
closepath stroke
0 0 0 edgecolor
14 /Times-Roman set_font
2214 453.4 moveto 98 ([0,1,0] [1,1,0]) alignedtext
grestore
% 7->9
gsave
1 setlinewidth
0 0 0 edgecolor
newpath 2030.95 555.41 moveto
2042.29 541.78 2055.45 520.53 2045 504 curveto
2029.57 479.59 1997.64 467.61 1974.2 461.89 curveto
stroke
0 0 0 edgecolor
newpath 1974.63 458.4 moveto
1964.12 459.69 lineto
1973.14 465.24 lineto
closepath fill
1 setlinewidth
solid
0 0 0 edgecolor
newpath 1974.63 458.4 moveto
1964.12 459.69 lineto
1973.14 465.24 lineto
closepath stroke
0 0 0 edgecolor
14 /Times-Roman set_font
2048 509.4 moveto 98 ([0,1,1] [1,1,1]) alignedtext
grestore
% 8->14
gsave
1 setlinewidth
0 0 0 edgecolor
newpath 2224.82 342.99 moveto
2175.72 337.64 2036.33 323 1920 316 curveto
1854.98 312.09 1395.87 318.38 1334 298 curveto
1320.65 293.6 1320.7 286.02 1308 280 curveto
1265.06 259.66 1211.55 246.36 1177.56 239.26 curveto
stroke
0 0 0 edgecolor
newpath 1178.17 235.81 moveto
1167.68 237.25 lineto
1176.78 242.67 lineto
closepath fill
1 setlinewidth
solid
0 0 0 edgecolor
newpath 1178.17 235.81 moveto
1167.68 237.25 lineto
1176.78 242.67 lineto
closepath stroke
0 0 0 edgecolor
14 /Times-Roman set_font
1334 285.4 moveto 98 ([0,1,0] [1,1,0]) alignedtext
grestore
% 18
gsave
0.54118 0.25098 1 nodecolor
1847 233 24.24 24.75 ellipse_path fill
1 setlinewidth
filled
0.54118 0.25098 1 nodecolor
1847 233 24.24 24.75 ellipse_path stroke
0 0 0 nodecolor
14 /Times-Roman set_font
1837.5 229.4 moveto 19 (18) alignedtext
grestore
% 8->18
gsave
1 setlinewidth
0 0 0 edgecolor
newpath 2226.6 336.77 moveto
2209.49 327.95 2182.13 313.16 2160 298 curveto
2149.58 290.86 2149.52 285.19 2138 280 curveto
2092.49 259.51 1947.38 242.96 1880.88 236.24 curveto
stroke
0 0 0 edgecolor
newpath 1881.2 232.75 moveto
1870.91 235.25 lineto
1880.51 239.72 lineto
closepath fill
1 setlinewidth
solid
0 0 0 edgecolor
newpath 1881.2 232.75 moveto
1870.91 235.25 lineto
1880.51 239.72 lineto
closepath stroke
0 0 0 edgecolor
14 /Times-Roman set_font
2160 285.4 moveto 98 ([0,0,0] [1,0,0]) alignedtext
grestore
% 19
gsave
0.023529 0.72157 1 nodecolor
2164 233 24.31 24.75 ellipse_path fill
1 setlinewidth
filled
0.023529 0.72157 1 nodecolor
2164 233 24.31 24.75 ellipse_path stroke
1 setlinewidth
filled
0.023529 0.72157 1 nodecolor
2164 233 28.24 28.75 ellipse_path stroke
0 0 0 nodecolor
14 /Times-Roman set_font
2154.5 229.4 moveto 19 (19) alignedtext
grestore
% 8->19
gsave
1 setlinewidth
0 0 0 edgecolor
newpath 2254.1 330.39 moveto
2263.14 316.57 2272.91 295.67 2263 280 curveto
2249.51 258.66 2223.41 246.82 2201.4 240.36 curveto
stroke
0 0 0 edgecolor
newpath 2202.19 236.95 moveto
2191.63 237.75 lineto
2200.39 243.71 lineto
closepath fill
1 setlinewidth
solid
0 0 0 edgecolor
newpath 2202.19 236.95 moveto
2191.63 237.75 lineto
2200.39 243.71 lineto
closepath stroke
0 0 0 edgecolor
14 /Times-Roman set_font
2267 285.4 moveto 98 ([0,0,1] [1,0,1]) alignedtext
grestore
% 9->7
gsave
1 setlinewidth
0 0 0 edgecolor
newpath 1941.61 474.95 moveto
1939.24 488.67 1938.21 507.61 1946 522 curveto
1955.53 539.61 1974.85 551.67 1991.07 559.16 curveto
stroke
0 0 0 edgecolor
newpath 1990.09 562.55 moveto
2000.66 563.24 lineto
1992.83 556.11 lineto
closepath fill
1 setlinewidth
solid
0 0 0 edgecolor
newpath 1990.09 562.55 moveto
2000.66 563.24 lineto
1992.83 556.11 lineto
closepath stroke
0 0 0 edgecolor
14 /Times-Roman set_font
1946 509.4 moveto 98 ([0,1,1] [1,1,1]) alignedtext
grestore
% 9->9
gsave
1 setlinewidth
0 0 0 edgecolor
newpath 1962.02 466.26 moveto
1973.96 469.49 1986 466.41 1986 457 curveto
1986 450.31 1979.92 446.82 1972.11 446.52 curveto
stroke
0 0 0 edgecolor
newpath 1971.53 443.07 moveto
1962.02 447.74 lineto
1972.37 450.01 lineto
closepath fill
1 setlinewidth
solid
0 0 0 edgecolor
newpath 1971.53 443.07 moveto
1962.02 447.74 lineto
1972.37 450.01 lineto
closepath stroke
0 0 0 edgecolor
14 /Times-Roman set_font
1986 453.4 moveto 98 ([0,0,0] [1,0,0]) alignedtext
grestore
% 9->15
gsave
1 setlinewidth
0 0 0 edgecolor
newpath 1931.18 446.36 moveto
1910.83 432.19 1872.69 407.15 1837 392 curveto
1792.15 372.96 1737.46 359.63 1701.74 352.15 curveto
stroke
0 0 0 edgecolor
newpath 1702.24 348.68 moveto
1691.74 350.1 lineto
1700.84 355.54 lineto
closepath fill
1 setlinewidth
solid
0 0 0 edgecolor
newpath 1702.24 348.68 moveto
1691.74 350.1 lineto
1700.84 355.54 lineto
closepath stroke
0 0 0 edgecolor
14 /Times-Roman set_font
1871 397.4 moveto 98 ([0,1,0] [1,1,0]) alignedtext
grestore
% 10->2
gsave
1 setlinewidth
0 0 0 edgecolor
newpath 2257.07 700.18 moveto
2251.84 712.68 2243.92 727.61 2233 738 curveto
2214.56 755.54 2187.69 766.9 2167.56 773.52 curveto
stroke
0 0 0 edgecolor
newpath 2166.26 770.26 moveto
2157.74 776.55 lineto
2168.32 776.95 lineto
closepath fill
1 setlinewidth
solid
0 0 0 edgecolor
newpath 2166.26 770.26 moveto
2157.74 776.55 lineto
2168.32 776.95 lineto
closepath stroke
0 0 0 edgecolor
14 /Times-Roman set_font
2246 725.4 moveto 47 ([1,0,0]) alignedtext
grestore
% 10->7
gsave
1 setlinewidth
0 0 0 edgecolor
newpath 2260.36 652.92 moveto
2256.67 640.14 2250.2 625.22 2239 616 curveto
2209.75 591.92 2098.79 577.42 2046.1 571.75 curveto
stroke
0 0 0 edgecolor
newpath 2046.39 568.26 moveto
2036.09 570.71 lineto
2045.67 575.22 lineto
closepath fill
1 setlinewidth
solid
0 0 0 edgecolor
newpath 2046.39 568.26 moveto
2036.09 570.71 lineto
2045.67 575.22 lineto
closepath stroke
0 0 0 edgecolor
14 /Times-Roman set_font
2252 621.4 moveto 47 ([0,0,0]) alignedtext
grestore
% 10->8
gsave
1 setlinewidth
0 0 0 edgecolor
newpath 2287 666.43 moveto
2310.22 653.85 2345.32 630.4 2359 598 curveto
2369.03 574.25 2363.6 565.36 2359 540 curveto
2349.51 487.69 2344.49 473.5 2317 428 curveto
2302.42 403.86 2280.38 380.24 2264.14 364.41 curveto
stroke
0 0 0 edgecolor
newpath 2266.35 361.67 moveto
2256.7 357.3 lineto
2261.51 366.74 lineto
closepath fill
1 setlinewidth
solid
0 0 0 edgecolor
newpath 2266.35 361.67 moveto
2256.7 357.3 lineto
2261.51 366.74 lineto
closepath stroke
0 0 0 edgecolor
14 /Times-Roman set_font
2355 509.4 moveto 98 ([0,1,0] [1,1,0]) alignedtext
grestore
% 10->9
gsave
1 setlinewidth
0 0 0 edgecolor
newpath 2284.64 662.59 moveto
2299.11 650.15 2314.58 631.76 2304 616 curveto
2292.22 598.46 2276.27 611.48 2260 598 curveto
2221.64 566.23 2240.4 531.68 2199 504 curveto
2162.45 479.56 2032.56 464.92 1974.46 459.46 curveto
stroke
0 0 0 edgecolor
newpath 1974.44 455.94 moveto
1964.16 458.51 lineto
1973.8 462.91 lineto
closepath fill
1 setlinewidth
solid
0 0 0 edgecolor
newpath 1974.44 455.94 moveto
1964.16 458.51 lineto
1973.8 462.91 lineto
closepath stroke
0 0 0 edgecolor
14 /Times-Roman set_font
2260 565.4 moveto 98 ([0,1,1] [1,1,1]) alignedtext
grestore
% 11->14
gsave
1 setlinewidth
0 0 0 edgecolor
newpath 1853.39 339.4 moveto
1818.52 332.58 1756.59 321.32 1703 316 curveto
1648.34 310.57 1259.35 319.94 1209 298 curveto
1199 293.64 1181.16 275.42 1166.7 259.37 curveto
stroke
0 0 0 edgecolor
newpath 1169.17 256.89 moveto
1159.91 251.74 lineto
1163.94 261.54 lineto
closepath fill
1 setlinewidth
solid
0 0 0 edgecolor
newpath 1169.17 256.89 moveto
1159.91 251.74 lineto
1163.94 261.54 lineto
closepath stroke
0 0 0 edgecolor
14 /Times-Roman set_font
1209 285.4 moveto 98 ([0,1,0] [1,1,0]) alignedtext
grestore
% 11->18
gsave
1 setlinewidth
0 0 0 edgecolor
newpath 1877.97 316.42 moveto
1876.29 304.93 1873.75 291.66 1870 280 curveto
1868.26 274.6 1866 269.03 1863.58 263.7 curveto
stroke
0 0 0 edgecolor
newpath 1866.61 261.94 moveto
1859.11 254.45 lineto
1860.31 264.98 lineto
closepath fill
1 setlinewidth
solid
0 0 0 edgecolor
newpath 1866.61 261.94 moveto
1859.11 254.45 lineto
1860.31 264.98 lineto
closepath stroke
0 0 0 edgecolor
14 /Times-Roman set_font
1874 285.4 moveto 98 ([0,0,0] [1,0,0]) alignedtext
grestore
% 11->19
gsave
1 setlinewidth
0 0 0 edgecolor
newpath 1906.9 334.06 moveto
1938.12 320.94 1992.22 298.41 2039 280 curveto
2068.9 268.23 2103.07 255.43 2128.11 246.16 curveto
stroke
0 0 0 edgecolor
newpath 2129.4 249.42 moveto
2137.57 242.67 lineto
2126.98 242.85 lineto
closepath fill
1 setlinewidth
solid
0 0 0 edgecolor
newpath 2129.4 249.42 moveto
2137.57 242.67 lineto
2126.98 242.85 lineto
closepath stroke
0 0 0 edgecolor
14 /Times-Roman set_font
2039 285.4 moveto 98 ([0,0,1] [1,0,1]) alignedtext
grestore
% 12->16
gsave
1 setlinewidth
0 0 0 edgecolor
newpath 566.27 562.52 moveto
541.57 555.67 505.49 542.91 480 522 curveto
437.23 486.92 424.37 420.26 420.55 379.51 curveto
stroke
0 0 0 edgecolor
newpath 424.04 379.18 moveto
419.74 369.49 lineto
417.06 379.74 lineto
closepath fill
1 setlinewidth
solid
0 0 0 edgecolor
newpath 424.04 379.18 moveto
419.74 369.49 lineto
417.06 379.74 lineto
closepath stroke
0 0 0 edgecolor
14 /Times-Roman set_font
451 453.4 moveto 47 ([0,1,0]) alignedtext
grestore
% 20
gsave
0.54118 0.25098 1 nodecolor
210 233 24.24 24.75 ellipse_path fill
1 setlinewidth
filled
0.54118 0.25098 1 nodecolor
210 233 24.24 24.75 ellipse_path stroke
0 0 0 nodecolor
14 /Times-Roman set_font
200.5 229.4 moveto 19 (20) alignedtext
grestore
% 12->20
gsave
1 setlinewidth
0 0 0 edgecolor
newpath 566.47 563.58 moveto
537.71 557.02 492.1 544.02 458 522 curveto
350.18 452.38 263.28 322.18 227.57 263.3 curveto
stroke
0 0 0 edgecolor
newpath 230.43 261.25 moveto
222.28 254.48 lineto
224.42 264.85 lineto
closepath fill
1 setlinewidth
solid
0 0 0 edgecolor
newpath 230.43 261.25 moveto
222.28 254.48 lineto
224.42 264.85 lineto
closepath stroke
0 0 0 edgecolor
14 /Times-Roman set_font
332 397.4 moveto 47 ([0,0,0]) alignedtext
grestore
% 21
gsave
0.023529 0.72157 1 nodecolor
1073 457 24.31 24.75 ellipse_path fill
1 setlinewidth
filled
0.023529 0.72157 1 nodecolor
1073 457 24.31 24.75 ellipse_path stroke
1 setlinewidth
filled
0.023529 0.72157 1 nodecolor
1073 457 28.24 28.75 ellipse_path stroke
0 0 0 nodecolor
14 /Times-Roman set_font
1063.5 453.4 moveto 19 (21) alignedtext
grestore
% 12->21
gsave
1 setlinewidth
0 0 0 edgecolor
newpath 622.18 567.24 moveto
712.36 561.43 990.09 542.07 1025 522 curveto
1037.41 514.87 1047.55 503.1 1055.26 491.53 curveto
stroke
0 0 0 edgecolor
newpath 1058.38 493.13 moveto
1060.68 482.79 lineto
1052.43 489.44 lineto
closepath fill
1 setlinewidth
solid
0 0 0 edgecolor
newpath 1058.38 493.13 moveto
1060.68 482.79 lineto
1052.43 489.44 lineto
closepath stroke
0 0 0 edgecolor
14 /Times-Roman set_font
1044 509.4 moveto 47 ([0,0,1]) alignedtext
grestore
% 22
gsave
0.54118 0.25098 1 nodecolor
741 345 24.24 24.75 ellipse_path fill
1 setlinewidth
filled
0.54118 0.25098 1 nodecolor
741 345 24.24 24.75 ellipse_path stroke
0 0 0 nodecolor
14 /Times-Roman set_font
731.5 341.4 moveto 19 (22) alignedtext
grestore
% 12->22
gsave
1 setlinewidth
0 0 0 edgecolor
newpath 615.92 550.6 moveto
624.93 542.4 635.09 532.28 643 522 curveto
678.99 475.24 709.94 413.63 726.98 376.8 curveto
stroke
0 0 0 edgecolor
newpath 730.23 378.09 moveto
731.2 367.54 lineto
723.86 375.19 lineto
closepath fill
1 setlinewidth
solid
0 0 0 edgecolor
newpath 730.23 378.09 moveto
731.2 367.54 lineto
723.86 375.19 lineto
closepath stroke
0 0 0 edgecolor
14 /Times-Roman set_font
701 453.4 moveto 47 ([0,1,1]) alignedtext
grestore
% 23
gsave
0.023529 0.72157 1 nodecolor
542 457 24.31 24.75 ellipse_path fill
1 setlinewidth
filled
0.023529 0.72157 1 nodecolor
542 457 24.31 24.75 ellipse_path stroke
1 setlinewidth
filled
0.023529 0.72157 1 nodecolor
542 457 28.24 28.75 ellipse_path stroke
0 0 0 nodecolor
14 /Times-Roman set_font
532.5 453.4 moveto 19 (23) alignedtext
grestore
% 12->23
gsave
1 setlinewidth
0 0 0 edgecolor
newpath 576.6 546.4 moveto
571.4 538.92 566.02 530.36 562 522 curveto
557.87 513.4 554.35 503.76 551.47 494.59 curveto
stroke
0 0 0 edgecolor
newpath 554.8 493.48 moveto
548.6 484.89 lineto
548.09 495.47 lineto
closepath fill
1 setlinewidth
solid
0 0 0 edgecolor
newpath 554.8 493.48 moveto
548.6 484.89 lineto
548.09 495.47 lineto
closepath stroke
0 0 0 edgecolor
14 /Times-Roman set_font
562 509.4 moveto 47 ([1,0,1]) alignedtext
grestore
% 24
gsave
0.54118 0.25098 1 nodecolor
615 233 24.24 24.75 ellipse_path fill
1 setlinewidth
filled
0.54118 0.25098 1 nodecolor
615 233 24.24 24.75 ellipse_path stroke
0 0 0 nodecolor
14 /Times-Roman set_font
605.5 229.4 moveto 19 (24) alignedtext
grestore
% 12->24
gsave
1 setlinewidth
0 0 0 edgecolor
newpath 604.61 542.53 moveto
606.81 535.93 608.81 528.79 610 522 curveto
625.81 431.4 621.54 322.39 617.84 267.78 curveto
stroke
0 0 0 edgecolor
newpath 621.32 267.33 moveto
617.12 257.6 lineto
614.34 267.82 lineto
closepath fill
1 setlinewidth
solid
0 0 0 edgecolor
newpath 621.32 267.33 moveto
617.12 257.6 lineto
614.34 267.82 lineto
closepath stroke
0 0 0 edgecolor
14 /Times-Roman set_font
621 397.4 moveto 47 ([1,1,1]) alignedtext
grestore
% 13->7
gsave
1 setlinewidth
0 0 0 edgecolor
newpath 1654.92 778.05 moveto
1690.67 773.05 1759.65 761.13 1814 738 curveto
1878.77 710.43 1883.82 683.04 1947 652 curveto
1968.57 641.4 1981.35 651.34 1998 634 curveto
2007.39 624.22 2012.38 610.13 2015.03 597.57 curveto
stroke
0 0 0 edgecolor
newpath 2018.51 597.95 moveto
2016.75 587.51 lineto
2011.61 596.78 lineto
closepath fill
1 setlinewidth
solid
0 0 0 edgecolor
newpath 2018.51 597.95 moveto
2016.75 587.51 lineto
2011.61 596.78 lineto
closepath stroke
0 0 0 edgecolor
14 /Times-Roman set_font
1947 673.4 moveto 98 ([0,1,1] [1,1,1]) alignedtext
grestore
% 13->9
gsave
1 setlinewidth
0 0 0 edgecolor
newpath 1655.03 776.9 moveto
1679.18 771.66 1716.14 760.44 1740 738 curveto
1783.6 697 1749.45 652.34 1797 616 curveto
1834.27 587.52 1865.63 628.81 1901 598 curveto
1909.74 590.39 1928.5 523.5 1938.83 484.65 curveto
stroke
0 0 0 edgecolor
newpath 1942.21 485.53 moveto
1941.38 474.97 lineto
1935.45 483.74 lineto
closepath fill
1 setlinewidth
solid
0 0 0 edgecolor
newpath 1942.21 485.53 moveto
1941.38 474.97 lineto
1935.45 483.74 lineto
closepath stroke
0 0 0 edgecolor
14 /Times-Roman set_font
1797 621.4 moveto 47 ([0,0,0]) alignedtext
grestore
% 13->15
gsave
1 setlinewidth
0 0 0 edgecolor
newpath 1618.01 759.95 moveto
1606.67 739.53 1592 707.27 1592 677 curveto
1592 677 1592 677 1592 457 curveto
1592 427.25 1592.27 417.25 1608 392 curveto
1614.11 382.18 1622.97 373.4 1631.84 366.16 curveto
stroke
0 0 0 edgecolor
newpath 1634.11 368.83 moveto
1639.91 359.96 lineto
1629.85 363.28 lineto
closepath fill
1 setlinewidth
solid
0 0 0 edgecolor
newpath 1634.11 368.83 moveto
1639.91 359.96 lineto
1629.85 363.28 lineto
closepath stroke
0 0 0 edgecolor
14 /Times-Roman set_font
1592 565.4 moveto 47 ([0,1,0]) alignedtext
grestore
% 25
gsave
0.54118 0.25098 1 nodecolor
1703 677 24.24 24.75 ellipse_path fill
1 setlinewidth
filled
0.54118 0.25098 1 nodecolor
1703 677 24.24 24.75 ellipse_path stroke
0 0 0 nodecolor
14 /Times-Roman set_font
1693.5 673.4 moveto 19 (25) alignedtext
grestore
% 13->25
gsave
1 setlinewidth
0 0 0 edgecolor
newpath 1623.5 757.55 moveto
1621.08 745.56 1620.48 731.18 1627 720 curveto
1636.3 704.06 1653.94 693.55 1669.88 686.92 curveto
stroke
0 0 0 edgecolor
newpath 1671.39 690.09 moveto
1679.5 683.28 lineto
1668.91 683.55 lineto
closepath fill
1 setlinewidth
solid
0 0 0 edgecolor
newpath 1671.39 690.09 moveto
1679.5 683.28 lineto
1668.91 683.55 lineto
closepath stroke
0 0 0 edgecolor
14 /Times-Roman set_font
1627 725.4 moveto 47 ([1,0,0]) alignedtext
grestore
% 26
gsave
0.023529 0.72157 1 nodecolor
1489 569 24.31 24.75 ellipse_path fill
1 setlinewidth
filled
0.023529 0.72157 1 nodecolor
1489 569 24.31 24.75 ellipse_path stroke
1 setlinewidth
filled
0.023529 0.72157 1 nodecolor
1489 569 28.24 28.75 ellipse_path stroke
0 0 0 nodecolor
14 /Times-Roman set_font
1479.5 565.4 moveto 19 (26) alignedtext
grestore
% 13->26
gsave
1 setlinewidth
0 0 0 edgecolor
newpath 1609.18 769.78 moveto
1585.73 756.62 1549.02 732.67 1528 702 curveto
1508.55 673.63 1498.66 635.47 1493.72 607.31 curveto
stroke
0 0 0 edgecolor
newpath 1497.17 606.73 moveto
1492.12 597.42 lineto
1490.26 607.85 lineto
closepath fill
1 setlinewidth
solid
0 0 0 edgecolor
newpath 1497.17 606.73 moveto
1492.12 597.42 lineto
1490.26 607.85 lineto
closepath stroke
0 0 0 edgecolor
14 /Times-Roman set_font
1528 673.4 moveto 47 ([1,1,0]) alignedtext
grestore
% 14->4
gsave
1 setlinewidth
0 0 0 edgecolor
newpath 1137.6 209.18 moveto
1132.61 195.14 1124.25 178.17 1111 168 curveto
1080.37 144.48 1059.94 168.41 1026 150 curveto
998.38 135.01 1002.48 116.93 976 100 curveto
936.9 75.01 922.59 76.83 878 64 curveto
821.75 47.82 754.65 35.05 715.92 28.29 curveto
stroke
0 0 0 edgecolor
newpath 716.23 24.79 moveto
705.78 26.55 lineto
715.04 31.69 lineto
closepath fill
1 setlinewidth
solid
0 0 0 edgecolor
newpath 716.23 24.79 moveto
705.78 26.55 lineto
715.04 31.69 lineto
closepath stroke
0 0 0 edgecolor
14 /Times-Roman set_font
1026 121.4 moveto 200 ([0,0,1] [0,1,1] [1,0,1] [1,1,1]) alignedtext
grestore
% 27
gsave
0.54118 0.25098 1 nodecolor
825 125 24.24 24.75 ellipse_path fill
1 setlinewidth
filled
0.54118 0.25098 1 nodecolor
825 125 24.24 24.75 ellipse_path stroke
0 0 0 nodecolor
14 /Times-Roman set_font
815.5 121.4 moveto 19 (27) alignedtext
grestore
% 14->27
gsave
1 setlinewidth
0 0 0 edgecolor
newpath 1125.4 217.35 moveto
1118.7 212.41 1110.85 207.37 1103 204 curveto
1065.11 187.74 1049.97 202.07 1012 186 curveto
999.06 180.52 998.76 173.9 986 168 curveto
944.3 148.71 892.38 136.81 858.96 130.55 curveto
stroke
0 0 0 edgecolor
newpath 859.27 127.04 moveto
848.8 128.71 lineto
858.02 133.93 lineto
closepath fill
1 setlinewidth
solid
0 0 0 edgecolor
newpath 859.27 127.04 moveto
848.8 128.71 lineto
858.02 133.93 lineto
closepath stroke
0 0 0 edgecolor
14 /Times-Roman set_font
1012 173.4 moveto 98 ([0,0,0] [1,0,0]) alignedtext
grestore
% 28
gsave
0.54118 0.25098 1 nodecolor
1664 233 24.24 24.75 ellipse_path fill
1 setlinewidth
filled
0.54118 0.25098 1 nodecolor
1664 233 24.24 24.75 ellipse_path stroke
0 0 0 nodecolor
14 /Times-Roman set_font
1654.5 229.4 moveto 19 (28) alignedtext
grestore
% 15->28
gsave
1 setlinewidth
0 0 0 edgecolor
newpath 1661.16 316.19 moveto
1660.68 310.19 1660.25 303.89 1660 298 curveto
1659.58 288.13 1659.91 277.42 1660.53 267.6 curveto
stroke
0 0 0 edgecolor
newpath 1664.04 267.61 moveto
1661.3 257.37 lineto
1657.06 267.08 lineto
closepath fill
1 setlinewidth
solid
0 0 0 edgecolor
newpath 1664.04 267.61 moveto
1661.3 257.37 lineto
1657.06 267.08 lineto
closepath stroke
0 0 0 edgecolor
14 /Times-Roman set_font
1660 285.4 moveto 98 ([0,0,1] [1,0,1]) alignedtext
grestore
% 16->4
gsave
1 setlinewidth
0 0 0 edgecolor
newpath 397.62 333.69 moveto
351.09 307.44 247.31 239.19 280 168 curveto
309.59 103.56 336.45 93.36 401 64 curveto
445.3 43.85 587.77 30.51 652.03 25.37 curveto
stroke
0 0 0 edgecolor
newpath 652.31 28.86 moveto
662.01 24.59 lineto
651.76 21.88 lineto
closepath fill
1 setlinewidth
solid
0 0 0 edgecolor
newpath 652.31 28.86 moveto
662.01 24.59 lineto
651.76 21.88 lineto
closepath stroke
0 0 0 edgecolor
14 /Times-Roman set_font
280 173.4 moveto 200 ([0,0,1] [0,1,1] [1,0,1] [1,1,1]) alignedtext
grestore
% 29
gsave
0.54118 0.25098 1 nodecolor
407 125 24.24 24.75 ellipse_path fill
1 setlinewidth
filled
0.54118 0.25098 1 nodecolor
407 125 24.24 24.75 ellipse_path stroke
0 0 0 nodecolor
14 /Times-Roman set_font
397.5 121.4 moveto 19 (29) alignedtext
grestore
% 16->29
gsave
1 setlinewidth
0 0 0 edgecolor
newpath 417.8 320.38 moveto
417.6 289.93 421.63 237.95 448 204 curveto
459.22 189.56 475.3 201.5 485 186 curveto
489.24 179.22 489.07 174.89 485 168 curveto
475.21 151.42 456.48 140.79 439.83 134.25 curveto
stroke
0 0 0 edgecolor
newpath 440.94 130.93 moveto
430.35 130.86 lineto
438.58 137.52 lineto
closepath fill
1 setlinewidth
solid
0 0 0 edgecolor
newpath 440.94 130.93 moveto
430.35 130.86 lineto
438.58 137.52 lineto
closepath stroke
0 0 0 edgecolor
14 /Times-Roman set_font
448 229.4 moveto 47 ([0,0,0]) alignedtext
grestore
% 17->5
gsave
1 setlinewidth
0 0 0 edgecolor
newpath 1032.85 555.89 moveto
1016.49 547.01 994.95 534.64 977 522 curveto
957.09 507.98 936.06 489.98 921.02 476.49 curveto
stroke
0 0 0 edgecolor
newpath 923.08 473.63 moveto
913.32 469.5 lineto
918.38 478.81 lineto
closepath fill
1 setlinewidth
solid
0 0 0 edgecolor
newpath 923.08 473.63 moveto
913.32 469.5 lineto
918.38 478.81 lineto
closepath stroke
0 0 0 edgecolor
14 /Times-Roman set_font
977 509.4 moveto 47 ([1,0,1]) alignedtext
grestore
% 30
gsave
0.54118 0.25098 1 nodecolor
1203 457 24.24 24.75 ellipse_path fill
1 setlinewidth
filled
0.54118 0.25098 1 nodecolor
1203 457 24.24 24.75 ellipse_path stroke
0 0 0 nodecolor
14 /Times-Roman set_font
1193.5 453.4 moveto 19 (30) alignedtext
grestore
% 17->30
gsave
1 setlinewidth
0 0 0 edgecolor
newpath 1080.34 551.75 moveto
1105.97 531.95 1148 499.48 1175.59 478.17 curveto
stroke
0 0 0 edgecolor
newpath 1177.88 480.83 moveto
1183.65 471.94 lineto
1173.6 475.29 lineto
closepath fill
1 setlinewidth
solid
0 0 0 edgecolor
newpath 1177.88 480.83 moveto
1183.65 471.94 lineto
1173.6 475.29 lineto
closepath stroke
0 0 0 edgecolor
14 /Times-Roman set_font
1139 509.4 moveto 47 ([0,0,1]) alignedtext
grestore
% 18->4
gsave
1 setlinewidth
0 0 0 edgecolor
newpath 1832.43 213.3 moveto
1802.72 175.08 1730.82 92.15 1647 64 curveto
1557.26 33.86 873.66 24.97 716.25 23.31 curveto
stroke
0 0 0 edgecolor
newpath 716.29 19.81 moveto
706.25 23.21 lineto
716.21 26.81 lineto
closepath fill
1 setlinewidth
solid
0 0 0 edgecolor
newpath 716.29 19.81 moveto
706.25 23.21 lineto
716.21 26.81 lineto
closepath stroke
0 0 0 edgecolor
14 /Times-Roman set_font
1775 121.4 moveto 98 ([0,0,1] [1,0,1]) alignedtext
grestore
% 18->27
gsave
1 setlinewidth
0 0 0 edgecolor
newpath 1823.54 227.64 moveto
1794.46 221.17 1743.32 210.38 1699 204 curveto
1527.14 179.27 1483.16 180.76 1310 168 curveto
1164.4 157.27 1127.17 165.5 982 150 curveto
939.34 145.45 890.61 137.21 858.9 131.43 curveto
stroke
0 0 0 edgecolor
newpath 859.3 127.95 moveto
848.84 129.58 lineto
858.04 134.83 lineto
closepath fill
1 setlinewidth
solid
0 0 0 edgecolor
newpath 859.3 127.95 moveto
848.84 129.58 lineto
858.04 134.83 lineto
closepath stroke
0 0 0 edgecolor
14 /Times-Roman set_font
1551 173.4 moveto 98 ([0,1,0] [1,1,0]) alignedtext
grestore
% 19->8
gsave
1 setlinewidth
0 0 0 edgecolor
newpath 2192.35 234.64 moveto
2246.99 238.46 2363.64 250 2388 280 curveto
2421.52 321.29 2322.32 337.25 2271.29 342.62 curveto
stroke
0 0 0 edgecolor
newpath 2270.81 339.15 moveto
2261.19 343.61 lineto
2271.49 346.12 lineto
closepath fill
1 setlinewidth
solid
0 0 0 edgecolor
newpath 2270.81 339.15 moveto
2261.19 343.61 lineto
2271.49 346.12 lineto
closepath stroke
0 0 0 edgecolor
14 /Times-Roman set_font
2394 285.4 moveto 98 ([0,0,1] [1,0,1]) alignedtext
grestore
% 31
gsave
0.54118 0.25098 1 nodecolor
1664 125 24.24 24.75 ellipse_path fill
1 setlinewidth
filled
0.54118 0.25098 1 nodecolor
1664 125 24.24 24.75 ellipse_path stroke
0 0 0 nodecolor
14 /Times-Roman set_font
1654.5 121.4 moveto 19 (31) alignedtext
grestore
% 19->31
gsave
1 setlinewidth
0 0 0 edgecolor
newpath 2136.41 227.04 moveto
2050.95 208.58 1790.85 152.4 1697.66 132.27 curveto
stroke
0 0 0 edgecolor
newpath 1698.16 128.8 moveto
1687.65 130.11 lineto
1696.69 135.64 lineto
closepath fill
1 setlinewidth
solid
0 0 0 edgecolor
newpath 1698.16 128.8 moveto
1687.65 130.11 lineto
1696.69 135.64 lineto
closepath stroke
0 0 0 edgecolor
14 /Times-Roman set_font
1943 173.4 moveto 98 ([0,1,1] [1,1,1]) alignedtext
grestore
% 20->4
gsave
1 setlinewidth
0 0 0 edgecolor
newpath 197.75 211.57 moveto
183.45 183.4 164.56 133.59 188 100 curveto
214.56 61.95 240.79 74.46 286 64 curveto
419.3 33.16 583.08 25.51 651.53 23.62 curveto
stroke
0 0 0 edgecolor
newpath 651.77 27.11 moveto
661.68 23.36 lineto
651.59 20.11 lineto
closepath fill
1 setlinewidth
solid
0 0 0 edgecolor
newpath 651.77 27.11 moveto
661.68 23.36 lineto
651.59 20.11 lineto
closepath stroke
0 0 0 edgecolor
14 /Times-Roman set_font
188 121.4 moveto 98 ([0,0,1] [1,0,1]) alignedtext
grestore
% 20->29
gsave
1 setlinewidth
0 0 0 edgecolor
newpath 203.26 209.25 moveto
200.94 195.75 200.87 179.34 210 168 curveto
215.14 161.61 318.35 141.53 373.27 131.23 curveto
stroke
0 0 0 edgecolor
newpath 374.06 134.64 moveto
383.25 129.37 lineto
372.78 127.76 lineto
closepath fill
1 setlinewidth
solid
0 0 0 edgecolor
newpath 374.06 134.64 moveto
383.25 129.37 lineto
372.78 127.76 lineto
closepath stroke
0 0 0 edgecolor
14 /Times-Roman set_font
210 173.4 moveto 47 ([0,1,0]) alignedtext
grestore
% 21->8
gsave
1 setlinewidth
0 0 0 edgecolor
newpath 1099.58 446.84 moveto
1118.38 440.16 1144.36 431.95 1168 428 curveto
1392.14 390.51 1455.25 449.73 1679 410 curveto
1704.32 405.5 1708.81 397.22 1734 392 curveto
1745.89 389.54 2109.94 356.89 2214.92 347.51 curveto
stroke
0 0 0 edgecolor
newpath 2215.42 350.98 moveto
2225.07 346.6 lineto
2214.79 344 lineto
closepath fill
1 setlinewidth
solid
0 0 0 edgecolor
newpath 2215.42 350.98 moveto
2225.07 346.6 lineto
2214.79 344 lineto
closepath stroke
0 0 0 edgecolor
14 /Times-Roman set_font
1734 397.4 moveto 98 ([0,0,1] [1,0,1]) alignedtext
grestore
% 21->14
gsave
1 setlinewidth
0 0 0 edgecolor
newpath 1080.5 429.28 moveto
1088.35 400.73 1101.29 355.03 1114 316 curveto
1119.45 299.27 1126.05 280.85 1131.67 265.62 curveto
stroke
0 0 0 edgecolor
newpath 1134.99 266.71 moveto
1135.2 256.12 lineto
1128.43 264.27 lineto
closepath fill
1 setlinewidth
solid
0 0 0 edgecolor
newpath 1134.99 266.71 moveto
1135.2 256.12 lineto
1128.43 264.27 lineto
closepath stroke
0 0 0 edgecolor
14 /Times-Roman set_font
1114 341.4 moveto 47 ([1,1,1]) alignedtext
grestore
% 32
gsave
0.54118 0.25098 1 nodecolor
1044 345 24.24 24.75 ellipse_path fill
1 setlinewidth
filled
0.54118 0.25098 1 nodecolor
1044 345 24.24 24.75 ellipse_path stroke
0 0 0 nodecolor
14 /Times-Roman set_font
1034.5 341.4 moveto 19 (32) alignedtext
grestore
% 21->32
gsave
1 setlinewidth
0 0 0 edgecolor
newpath 1052.7 437.3 moveto
1046.05 429.5 1039.47 420.01 1036 410 curveto
1032.54 400.01 1032.65 388.7 1034.19 378.35 curveto
stroke
0 0 0 edgecolor
newpath 1037.65 378.88 moveto
1036.13 368.4 lineto
1030.78 377.54 lineto
closepath fill
1 setlinewidth
solid
0 0 0 edgecolor
newpath 1037.65 378.88 moveto
1036.13 368.4 lineto
1030.78 377.54 lineto
closepath stroke
0 0 0 edgecolor
14 /Times-Roman set_font
1036 397.4 moveto 47 ([0,1,1]) alignedtext
grestore
% 22->27
gsave
1 setlinewidth
0 0 0 edgecolor
newpath 749.31 321.86 moveto
754.4 309.03 761.56 293.08 770 280 curveto
775.8 271.01 780.85 271.38 786 262 curveto
803.86 229.47 814.18 188 819.67 159.25 curveto
stroke
0 0 0 edgecolor
newpath 823.13 159.74 moveto
821.47 149.27 lineto
816.25 158.49 lineto
closepath fill
1 setlinewidth
solid
0 0 0 edgecolor
newpath 823.13 159.74 moveto
821.47 149.27 lineto
816.25 158.49 lineto
closepath stroke
0 0 0 edgecolor
14 /Times-Roman set_font
808 229.4 moveto 47 ([1,0,1]) alignedtext
grestore
% 33
gsave
0.54118 0.25098 1 nodecolor
918 233 24.24 24.75 ellipse_path fill
1 setlinewidth
filled
0.54118 0.25098 1 nodecolor
918 233 24.24 24.75 ellipse_path stroke
0 0 0 nodecolor
14 /Times-Roman set_font
908.5 229.4 moveto 19 (33) alignedtext
grestore
% 22->33
gsave
1 setlinewidth
0 0 0 edgecolor
newpath 752.75 323.61 moveto
761.85 309.08 775.79 290.64 793 280 curveto
825.48 259.93 842.03 277.34 877 262 curveto
881.77 259.91 886.54 257.21 891.06 254.31 curveto
stroke
0 0 0 edgecolor
newpath 893.12 257.14 moveto
899.37 248.58 lineto
889.15 251.38 lineto
closepath fill
1 setlinewidth
solid
0 0 0 edgecolor
newpath 893.12 257.14 moveto
899.37 248.58 lineto
889.15 251.38 lineto
closepath stroke
0 0 0 edgecolor
14 /Times-Roman set_font
793 285.4 moveto 47 ([0,0,1]) alignedtext
grestore
% 23->4
gsave
1 setlinewidth
0 0 0 edgecolor
newpath 533.7 429.35 moveto
519.04 374.71 494.69 251.02 546 168 curveto
577.2 117.53 628.17 69.88 658.66 43.74 curveto
stroke
0 0 0 edgecolor
newpath 660.94 46.39 moveto
666.31 37.26 lineto
656.42 41.05 lineto
closepath fill
1 setlinewidth
solid
0 0 0 edgecolor
newpath 660.94 46.39 moveto
666.31 37.26 lineto
656.42 41.05 lineto
closepath stroke
0 0 0 edgecolor
14 /Times-Roman set_font
529 229.4 moveto 47 ([0,0,0]) alignedtext
grestore
% 23->8
gsave
1 setlinewidth
0 0 0 edgecolor
newpath 569.25 449.7 moveto
596.91 442.66 641.08 432.44 680 428 curveto
878.75 405.33 1383.67 448.34 1580 410 curveto
1601.95 405.71 1605.14 396.74 1627 392 curveto
1754.5 364.35 1789.9 383.83 1920 374 curveto
2028.95 365.76 2158.33 353.35 2214.56 347.82 curveto
stroke
0 0 0 edgecolor
newpath 2215.19 351.28 moveto
2224.8 346.82 lineto
2214.51 344.31 lineto
closepath fill
1 setlinewidth
solid
0 0 0 edgecolor
newpath 2215.19 351.28 moveto
2224.8 346.82 lineto
2214.51 344.31 lineto
closepath stroke
0 0 0 edgecolor
14 /Times-Roman set_font
1627 397.4 moveto 47 ([0,0,1]) alignedtext
grestore
% 23->12
gsave
1 setlinewidth
0 0 0 edgecolor
newpath 517.25 470.71 moveto
497.72 483.39 475.68 503.06 488 522 curveto
502.98 545.03 532.12 556.87 556.07 562.89 curveto
stroke
0 0 0 edgecolor
newpath 555.43 566.34 moveto
565.95 565.14 lineto
556.97 559.51 lineto
closepath fill
1 setlinewidth
solid
0 0 0 edgecolor
newpath 555.43 566.34 moveto
565.95 565.14 lineto
556.97 559.51 lineto
closepath stroke
0 0 0 edgecolor
14 /Times-Roman set_font
488 509.4 moveto 47 ([1,0,1]) alignedtext
grestore
% 23->14
gsave
1 setlinewidth
0 0 0 edgecolor
newpath 568.63 447.97 moveto
596.09 438.61 640.11 423.5 678 410 curveto
721.71 394.42 736.12 397.72 776 374 curveto
809.56 354.04 809.32 337.37 842 316 curveto
873.62 295.32 882.59 290.07 919 280 curveto
994.36 259.15 1019.64 286.15 1094 262 curveto
1101.22 259.66 1108.53 256.17 1115.26 252.41 curveto
stroke
0 0 0 edgecolor
newpath 1117.2 255.33 moveto
1124.01 247.21 lineto
1113.62 249.31 lineto
closepath fill
1 setlinewidth
solid
0 0 0 edgecolor
newpath 1117.2 255.33 moveto
1124.01 247.21 lineto
1113.62 249.31 lineto
closepath stroke
0 0 0 edgecolor
14 /Times-Roman set_font
842 341.4 moveto 47 ([0,1,1]) alignedtext
grestore
% 23->16
gsave
1 setlinewidth
0 0 0 edgecolor
newpath 515.85 446.66 moveto
498 438.64 474.67 426.17 458 410 curveto
448.16 400.46 439.87 387.92 433.5 376.4 curveto
stroke
0 0 0 edgecolor
newpath 436.56 374.69 moveto
428.81 367.46 lineto
430.36 377.94 lineto
closepath fill
1 setlinewidth
solid
0 0 0 edgecolor
newpath 436.56 374.69 moveto
428.81 367.46 lineto
430.36 377.94 lineto
closepath stroke
0 0 0 edgecolor
14 /Times-Roman set_font
458 397.4 moveto 47 ([1,1,1]) alignedtext
grestore
% 24->4
gsave
1 setlinewidth
0 0 0 edgecolor
newpath 622.65 209.72 moveto
635.12 171.76 659.85 96.5 673.8 54.03 curveto
stroke
0 0 0 edgecolor
newpath 677.14 55.08 moveto
676.94 44.49 lineto
670.49 52.89 lineto
closepath fill
1 setlinewidth
solid
0 0 0 edgecolor
newpath 677.14 55.08 moveto
676.94 44.49 lineto
670.49 52.89 lineto
closepath stroke
0 0 0 edgecolor
14 /Times-Roman set_font
658 121.4 moveto 47 ([0,1,0]) alignedtext
grestore
% 24->27
gsave
1 setlinewidth
0 0 0 edgecolor
newpath 634.55 218.1 moveto
641.19 213.34 648.76 208.21 656 204 curveto
701.88 177.34 758.25 152.45 792.89 137.98 curveto
stroke
0 0 0 edgecolor
newpath 794.59 141.07 moveto
802.49 134.01 lineto
791.91 134.6 lineto
closepath fill
1 setlinewidth
solid
0 0 0 edgecolor
newpath 794.59 141.07 moveto
802.49 134.01 lineto
791.91 134.6 lineto
closepath stroke
0 0 0 edgecolor
14 /Times-Roman set_font
724 173.4 moveto 47 ([0,0,1]) alignedtext
grestore
% 24->29
gsave
1 setlinewidth
0 0 0 edgecolor
newpath 595.1 218.66 moveto
588.44 213.93 580.94 208.68 574 204 curveto
549.47 187.45 544.37 181.41 518 168 curveto
492.6 155.08 462.36 143.61 439.86 135.77 curveto
stroke
0 0 0 edgecolor
newpath 440.71 132.36 moveto
430.12 132.43 lineto
438.44 138.98 lineto
closepath fill
1 setlinewidth
solid
0 0 0 edgecolor
newpath 440.71 132.36 moveto
430.12 132.43 lineto
438.44 138.98 lineto
closepath stroke
0 0 0 edgecolor
14 /Times-Roman set_font
548 173.4 moveto 47 ([1,0,1]) alignedtext
grestore
% 25->7
gsave
1 setlinewidth
0 0 0 edgecolor
newpath 1726.45 670.72 moveto
1755.44 662.82 1806.21 648.5 1849 634 curveto
1899.99 616.72 1958.4 593.46 1991.48 579.97 curveto
stroke
0 0 0 edgecolor
newpath 1992.97 583.14 moveto
2000.89 576.11 lineto
1990.31 576.66 lineto
closepath fill
1 setlinewidth
solid
0 0 0 edgecolor
newpath 1992.97 583.14 moveto
2000.89 576.11 lineto
1990.31 576.66 lineto
closepath stroke
0 0 0 edgecolor
14 /Times-Roman set_font
1895 621.4 moveto 98 ([0,1,1] [1,1,1]) alignedtext
grestore
% 25->9
gsave
1 setlinewidth
0 0 0 edgecolor
newpath 1712.79 654.39 moveto
1727.98 620.1 1757.29 557.15 1775 540 curveto
1816.64 499.67 1881.65 475.61 1918.35 464.48 curveto
stroke
0 0 0 edgecolor
newpath 1919.73 467.72 moveto
1928.34 461.56 lineto
1917.76 461 lineto
closepath fill
1 setlinewidth
solid
0 0 0 edgecolor
newpath 1919.73 467.72 moveto
1928.34 461.56 lineto
1917.76 461 lineto
closepath stroke
0 0 0 edgecolor
14 /Times-Roman set_font
1775 565.4 moveto 47 ([0,0,0]) alignedtext
grestore
% 25->13
gsave
1 setlinewidth
0 0 0 edgecolor
newpath 1696.48 700.86 moveto
1692.56 712.68 1686.8 726.79 1679 738 curveto
1673.37 746.1 1665.93 753.71 1658.59 760.22 curveto
stroke
0 0 0 edgecolor
newpath 1656.15 757.7 moveto
1650.76 766.82 lineto
1660.66 763.05 lineto
closepath fill
1 setlinewidth
solid
0 0 0 edgecolor
newpath 1656.15 757.7 moveto
1650.76 766.82 lineto
1660.66 763.05 lineto
closepath stroke
0 0 0 edgecolor
14 /Times-Roman set_font
1688 725.4 moveto 47 ([1,0,0]) alignedtext
grestore
% 25->15
gsave
1 setlinewidth
0 0 0 edgecolor
newpath 1706.72 652.69 moveto
1711.43 624.86 1720.68 578.19 1735 540 curveto
1760.48 472.04 1846.37 450.92 1804 392 curveto
1791.86 375.11 1738.87 360.75 1701.69 352.5 curveto
stroke
0 0 0 edgecolor
newpath 1702.18 349.03 moveto
1691.67 350.34 lineto
1700.71 355.87 lineto
closepath fill
1 setlinewidth
solid
0 0 0 edgecolor
newpath 1702.18 349.03 moveto
1691.67 350.34 lineto
1700.71 355.87 lineto
closepath stroke
0 0 0 edgecolor
14 /Times-Roman set_font
1756 509.4 moveto 47 ([0,1,0]) alignedtext
grestore
% 25->17
gsave
1 setlinewidth
0 0 0 edgecolor
newpath 1679.28 673.03 moveto
1582.32 656.79 1215.58 595.39 1095.98 575.36 curveto
stroke
0 0 0 edgecolor
newpath 1096.28 571.86 moveto
1085.84 573.66 lineto
1095.12 578.76 lineto
closepath fill
1 setlinewidth
solid
0 0 0 edgecolor
newpath 1096.28 571.86 moveto
1085.84 573.66 lineto
1095.12 578.76 lineto
closepath stroke
0 0 0 edgecolor
14 /Times-Roman set_font
1438 621.4 moveto 47 ([1,1,0]) alignedtext
grestore
% 26->4
gsave
1 setlinewidth
0 0 0 edgecolor
newpath 1485.28 540.31 moveto
1477.55 480.57 1460.07 344.55 1455 298 curveto
1448.72 240.32 1478.33 214.02 1443 168 curveto
1352.51 50.14 850.3 27.68 716.67 23.77 curveto
stroke
0 0 0 edgecolor
newpath 716.38 20.26 moveto
706.29 23.48 lineto
716.19 27.26 lineto
closepath fill
1 setlinewidth
solid
0 0 0 edgecolor
newpath 716.38 20.26 moveto
706.29 23.48 lineto
716.19 27.26 lineto
closepath stroke
0 0 0 edgecolor
14 /Times-Roman set_font
1455 285.4 moveto 149 ([0,0,0] [1,0,0] [1,1,0]) alignedtext
grestore
% 26->28
gsave
1 setlinewidth
0 0 0 edgecolor
newpath 1495.02 540.83 moveto
1505.55 491.73 1526.32 395.35 1528 392 curveto
1552.68 342.68 1573.19 339.94 1609 298 curveto
1619.76 285.4 1631.65 271.36 1641.61 259.57 curveto
stroke
0 0 0 edgecolor
newpath 1644.38 261.71 moveto
1648.16 251.81 lineto
1639.03 257.19 lineto
closepath fill
1 setlinewidth
solid
0 0 0 edgecolor
newpath 1644.38 261.71 moveto
1648.16 251.81 lineto
1639.03 257.19 lineto
closepath stroke
0 0 0 edgecolor
14 /Times-Roman set_font
1528 397.4 moveto 47 ([0,0,1]) alignedtext
grestore
% 26->30
gsave
1 setlinewidth
0 0 0 edgecolor
newpath 1462.86 558.76 moveto
1410.44 538.23 1292.59 492.09 1235.38 469.68 curveto
stroke
0 0 0 edgecolor
newpath 1236.35 466.3 moveto
1225.76 465.91 lineto
1233.8 472.82 lineto
closepath fill
1 setlinewidth
solid
0 0 0 edgecolor
newpath 1236.35 466.3 moveto
1225.76 465.91 lineto
1233.8 472.82 lineto
closepath stroke
0 0 0 edgecolor
14 /Times-Roman set_font
1363 509.4 moveto 47 ([1,0,1]) alignedtext
grestore
% 27->4
gsave
1 setlinewidth
0 0 0 edgecolor
newpath 807.04 108.32 moveto
792.87 95.53 772.34 77.79 753 64 curveto
740.13 54.82 725.11 45.72 712.38 38.44 curveto
stroke
0 0 0 edgecolor
newpath 714.01 35.34 moveto
703.58 33.48 lineto
710.57 41.44 lineto
closepath fill
1 setlinewidth
solid
0 0 0 edgecolor
newpath 714.01 35.34 moveto
703.58 33.48 lineto
710.57 41.44 lineto
closepath stroke
0 0 0 edgecolor
14 /Times-Roman set_font
775 69.4 moveto 98 ([0,1,1] [1,1,1]) alignedtext
grestore
% 27->27
gsave
1 setlinewidth
0 0 0 edgecolor
newpath 847.25 134.28 moveto
859.61 136.02 871 132.92 871 125 curveto
871 119.37 865.24 116.18 857.47 115.42 curveto
stroke
0 0 0 edgecolor
newpath 857.14 111.93 moveto
847.25 115.72 lineto
857.34 118.93 lineto
closepath fill
1 setlinewidth
solid
0 0 0 edgecolor
newpath 857.14 111.93 moveto
847.25 115.72 lineto
857.34 118.93 lineto
closepath stroke
0 0 0 edgecolor
14 /Times-Roman set_font
871 121.4 moveto 98 ([0,0,0] [1,0,0]) alignedtext
grestore
% 28->15
gsave
1 setlinewidth
0 0 0 edgecolor
newpath 1687.6 237.88 moveto
1722.9 246.33 1783.27 265.94 1763 298 curveto
1749.51 319.34 1723.41 331.18 1701.4 337.64 curveto
stroke
0 0 0 edgecolor
newpath 1700.39 334.29 moveto
1691.63 340.25 lineto
1702.19 341.05 lineto
closepath fill
1 setlinewidth
solid
0 0 0 edgecolor
newpath 1700.39 334.29 moveto
1691.63 340.25 lineto
1702.19 341.05 lineto
closepath stroke
0 0 0 edgecolor
14 /Times-Roman set_font
1767 285.4 moveto 98 ([0,0,1] [1,0,1]) alignedtext
grestore
% 28->31
gsave
1 setlinewidth
0 0 0 edgecolor
newpath 1664 208.49 moveto
1664 194.23 1664 176.02 1664 160.24 curveto
stroke
0 0 0 edgecolor
newpath 1667.5 159.78 moveto
1664 149.78 lineto
1660.5 159.78 lineto
closepath fill
1 setlinewidth
solid
0 0 0 edgecolor
newpath 1667.5 159.78 moveto
1664 149.78 lineto
1660.5 159.78 lineto
closepath stroke
0 0 0 edgecolor
14 /Times-Roman set_font
1664 173.4 moveto 98 ([0,0,0] [1,0,0]) alignedtext
grestore
% 29->4
gsave
1 setlinewidth
0 0 0 edgecolor
newpath 403.8 100.62 moveto
403.57 88.07 405.73 73.46 415 64 curveto
431.39 47.26 583.93 31.84 651.75 25.75 curveto
stroke
0 0 0 edgecolor
newpath 652.22 29.22 moveto
661.87 24.86 lineto
651.6 22.25 lineto
closepath fill
1 setlinewidth
solid
0 0 0 edgecolor
newpath 652.22 29.22 moveto
661.87 24.86 lineto
651.6 22.25 lineto
closepath stroke
0 0 0 edgecolor
14 /Times-Roman set_font
415 69.4 moveto 98 ([0,1,1] [1,1,1]) alignedtext
grestore
% 29->29
gsave
1 setlinewidth
0 0 0 edgecolor
newpath 429.25 134.28 moveto
441.61 136.02 453 132.92 453 125 curveto
453 119.37 447.24 116.18 439.47 115.42 curveto
stroke
0 0 0 edgecolor
newpath 439.14 111.93 moveto
429.25 115.72 lineto
439.34 118.93 lineto
closepath fill
1 setlinewidth
solid
0 0 0 edgecolor
newpath 439.14 111.93 moveto
429.25 115.72 lineto
439.34 118.93 lineto
closepath stroke
0 0 0 edgecolor
14 /Times-Roman set_font
453 121.4 moveto 47 ([0,0,0]) alignedtext
grestore
% 30->14
gsave
1 setlinewidth
0 0 0 edgecolor
newpath 1196.69 433.03 moveto
1186.13 392.95 1164.87 312.23 1152.83 266.53 curveto
stroke
0 0 0 edgecolor
newpath 1156.2 265.58 moveto
1150.27 256.8 lineto
1149.43 267.36 lineto
closepath fill
1 setlinewidth
solid
0 0 0 edgecolor
newpath 1156.2 265.58 moveto
1150.27 256.8 lineto
1149.43 267.36 lineto
closepath stroke
0 0 0 edgecolor
14 /Times-Roman set_font
1180 341.4 moveto 47 ([1,0,0]) alignedtext
grestore
% 30->15
gsave
1 setlinewidth
0 0 0 edgecolor
newpath 1225.77 449.16 moveto
1270.5 433.85 1368.48 400.68 1403 392 curveto
1481.33 372.32 1574.86 357.54 1625.98 350.19 curveto
stroke
0 0 0 edgecolor
newpath 1626.51 353.65 moveto
1635.92 348.78 lineto
1625.53 346.72 lineto
closepath fill
1 setlinewidth
solid
0 0 0 edgecolor
newpath 1626.51 353.65 moveto
1635.92 348.78 lineto
1625.53 346.72 lineto
closepath stroke
0 0 0 edgecolor
14 /Times-Roman set_font
1403 397.4 moveto 98 ([0,0,1] [1,0,1]) alignedtext
grestore
% 30->32
gsave
1 setlinewidth
0 0 0 edgecolor
newpath 1182.95 442.92 moveto
1159.46 426.42 1119.38 398.25 1085 374 curveto
1080.94 371.14 1076.65 368.11 1072.45 365.13 curveto
stroke
0 0 0 edgecolor
newpath 1074.2 362.09 moveto
1064.01 359.17 lineto
1070.16 367.8 lineto
closepath fill
1 setlinewidth
solid
0 0 0 edgecolor
newpath 1074.2 362.09 moveto
1064.01 359.17 lineto
1070.16 367.8 lineto
closepath stroke
0 0 0 edgecolor
14 /Times-Roman set_font
1133 397.4 moveto 47 ([0,0,0]) alignedtext
grestore
% 31->4
gsave
1 setlinewidth
0 0 0 edgecolor
newpath 1641.64 115.62 moveto
1606.9 101.54 1537.58 75.38 1476 64 curveto
1326.53 36.38 845.75 25.9 716.34 23.55 curveto
stroke
0 0 0 edgecolor
newpath 716.33 20.05 moveto
706.27 23.37 lineto
716.21 27.04 lineto
closepath fill
1 setlinewidth
solid
0 0 0 edgecolor
newpath 716.33 20.05 moveto
706.27 23.37 lineto
716.21 27.04 lineto
closepath stroke
0 0 0 edgecolor
14 /Times-Roman set_font
1544 69.4 moveto 98 ([0,0,1] [1,0,1]) alignedtext
grestore
% 32->4
gsave
1 setlinewidth
0 0 0 edgecolor
newpath 1064.58 332.28 moveto
1072.8 327.21 1082.34 321.33 1091 316 curveto
1130.08 291.95 1151.05 298.39 1179 262 curveto
1205.55 227.43 1183.71 204.85 1207 168 curveto
1213.39 157.89 1222.13 160.92 1227 150 curveto
1236.04 129.7 1241.57 116.78 1227 100 curveto
1193.21 61.08 828.08 32.91 716.32 25.15 curveto
stroke
0 0 0 edgecolor
newpath 716.23 21.64 moveto
706.02 24.44 lineto
715.76 28.62 lineto
closepath fill
1 setlinewidth
solid
0 0 0 edgecolor
newpath 716.23 21.64 moveto
706.02 24.44 lineto
715.76 28.62 lineto
closepath stroke
0 0 0 edgecolor
14 /Times-Roman set_font
1207 173.4 moveto 98 ([0,0,1] [1,0,1]) alignedtext
grestore
% 32->27
gsave
1 setlinewidth
0 0 0 edgecolor
newpath 1046.33 320.52 moveto
1047.89 289.73 1045.78 236.9 1018 204 curveto
1007.08 191.07 909.18 154.89 857.17 136.32 curveto
stroke
0 0 0 edgecolor
newpath 858.31 133.01 moveto
847.72 132.96 lineto
855.96 139.61 lineto
closepath fill
1 setlinewidth
solid
0 0 0 edgecolor
newpath 858.31 133.01 moveto
847.72 132.96 lineto
855.96 139.61 lineto
closepath stroke
0 0 0 edgecolor
14 /Times-Roman set_font
1042 229.4 moveto 47 ([1,0,0]) alignedtext
grestore
% 32->33
gsave
1 setlinewidth
0 0 0 edgecolor
newpath 1025 329.85 moveto
1013.79 320.79 999.41 308.94 987 298 curveto
972.04 284.81 955.77 269.54 942.8 257.11 curveto
stroke
0 0 0 edgecolor
newpath 945.21 254.57 moveto
935.57 250.16 lineto
940.35 259.62 lineto
closepath fill
1 setlinewidth
solid
0 0 0 edgecolor
newpath 945.21 254.57 moveto
935.57 250.16 lineto
940.35 259.62 lineto
closepath stroke
0 0 0 edgecolor
14 /Times-Roman set_font
987 285.4 moveto 47 ([0,0,0]) alignedtext
grestore
% 33->27
gsave
1 setlinewidth
0 0 0 edgecolor
newpath 901.8 214.19 moveto
886.8 196.77 864.34 170.69 847.58 151.22 curveto
stroke
0 0 0 edgecolor
newpath 850.19 148.89 moveto
841.01 143.6 lineto
844.89 153.46 lineto
closepath fill
1 setlinewidth
solid
0 0 0 edgecolor
newpath 850.19 148.89 moveto
841.01 143.6 lineto
844.89 153.46 lineto
closepath stroke
0 0 0 edgecolor
14 /Times-Roman set_font
877 173.4 moveto 47 ([1,0,0]) alignedtext
grestore
% 33->33
gsave
1 setlinewidth
0 0 0 edgecolor
newpath 940.25 243 moveto
952.61 244.86 964 241.53 964 233 curveto
964 226.93 958.24 223.5 950.47 222.69 curveto
stroke
0 0 0 edgecolor
newpath 950.13 219.2 moveto
940.25 223 lineto
950.35 226.19 lineto
closepath fill
1 setlinewidth
solid
0 0 0 edgecolor
newpath 950.13 219.2 moveto
940.25 223 lineto
950.35 226.19 lineto
closepath stroke
0 0 0 edgecolor
14 /Times-Roman set_font
964 229.4 moveto 47 ([0,0,0]) alignedtext
grestore
endpage
showpage
grestore
%%PageTrailer
%%EndPage: 1
%%Trailer
end
restore
%%EOF
