%!PS-Adobe-3.0 EPSF-3.0
%%Creator: graphviz version 2.26.3 (20100126.1600)
%%Title: FSA Utilities
%%Pages: 1
%%BoundingBox: 47 36 565 764
%%EndComments
save
%%BeginProlog
/DotDict 200 dict def
DotDict begin

/setupLatin1 {
mark
/EncodingVector 256 array def
 EncodingVector 0

ISOLatin1Encoding 0 255 getinterval putinterval
EncodingVector 45 /hyphen put

% Set up ISO Latin 1 character encoding
/starnetISO {
        dup dup findfont dup length dict begin
        { 1 index /FID ne { def }{ pop pop } ifelse
        } forall
        /Encoding EncodingVector def
        currentdict end definefont
} def
/Times-Roman starnetISO def
/Times-Italic starnetISO def
/Times-Bold starnetISO def
/Times-BoldItalic starnetISO def
/Helvetica starnetISO def
/Helvetica-Oblique starnetISO def
/Helvetica-Bold starnetISO def
/Helvetica-BoldOblique starnetISO def
/Courier starnetISO def
/Courier-Oblique starnetISO def
/Courier-Bold starnetISO def
/Courier-BoldOblique starnetISO def
cleartomark
} bind def

%%BeginResource: procset graphviz 0 0
/coord-font-family /Times-Roman def
/default-font-family /Times-Roman def
/coordfont coord-font-family findfont 8 scalefont def

/InvScaleFactor 1.0 def
/set_scale {
       dup 1 exch div /InvScaleFactor exch def
       scale
} bind def

% styles
/solid { [] 0 setdash } bind def
/dashed { [9 InvScaleFactor mul dup ] 0 setdash } bind def
/dotted { [1 InvScaleFactor mul 6 InvScaleFactor mul] 0 setdash } bind def
/invis {/fill {newpath} def /stroke {newpath} def /show {pop newpath} def} bind def
/bold { 2 setlinewidth } bind def
/filled { } bind def
/unfilled { } bind def
/rounded { } bind def
/diagonals { } bind def

% hooks for setting color 
/nodecolor { sethsbcolor } bind def
/edgecolor { sethsbcolor } bind def
/graphcolor { sethsbcolor } bind def
/nopcolor {pop pop pop} bind def

/beginpage {	% i j npages
	/npages exch def
	/j exch def
	/i exch def
	/str 10 string def
	npages 1 gt {
		gsave
			coordfont setfont
			0 0 moveto
			(\() show i str cvs show (,) show j str cvs show (\)) show
		grestore
	} if
} bind def

/set_font {
	findfont exch
	scalefont setfont
} def

% draw text fitted to its expected width
/alignedtext {			% width text
	/text exch def
	/width exch def
	gsave
		width 0 gt {
			[] 0 setdash
			text stringwidth pop width exch sub text length div 0 text ashow
		} if
	grestore
} def

/boxprim {				% xcorner ycorner xsize ysize
		4 2 roll
		moveto
		2 copy
		exch 0 rlineto
		0 exch rlineto
		pop neg 0 rlineto
		closepath
} bind def

/ellipse_path {
	/ry exch def
	/rx exch def
	/y exch def
	/x exch def
	matrix currentmatrix
	newpath
	x y translate
	rx ry scale
	0 0 1 0 360 arc
	setmatrix
} bind def

/endpage { showpage } bind def
/showpage { } def

/layercolorseq
	[	% layer color sequence - darkest to lightest
		[0 0 0]
		[.2 .8 .8]
		[.4 .8 .8]
		[.6 .8 .8]
		[.8 .8 .8]
	]
def

/layerlen layercolorseq length def

/setlayer {/maxlayer exch def /curlayer exch def
	layercolorseq curlayer 1 sub layerlen mod get
	aload pop sethsbcolor
	/nodecolor {nopcolor} def
	/edgecolor {nopcolor} def
	/graphcolor {nopcolor} def
} bind def

/onlayer { curlayer ne {invis} if } def

/onlayers {
	/myupper exch def
	/mylower exch def
	curlayer mylower lt
	curlayer myupper gt
	or
	{invis} if
} def

/curlayer 0 def

%%EndResource
%%EndProlog
%%BeginSetup
14 default-font-family set_font
1 setmiterlimit
% /arrowlength 10 def
% /arrowwidth 5 def

% make sure pdfmark is harmless for PS-interpreters other than Distiller
/pdfmark where {pop} {userdict /pdfmark /cleartomark load put} ifelse
% make '<<' and '>>' safe on PS Level 1 devices
/languagelevel where {pop languagelevel}{1} ifelse
2 lt {
    userdict (<<) cvn ([) cvn load put
    userdict (>>) cvn ([) cvn load put
} if

%%EndSetup
setupLatin1
%%Page: 1 1
%%PageBoundingBox: 47 36 565 764
%%PageOrientation: Portrait
0 0 1 beginpage
gsave
47 36 518 728 boxprim clip newpath
1 1 set_scale 0 rotate 51 41 translate
% start0
gsave
grestore
% 0
gsave
0.21961 0.75686 1 nodecolor
218 627 17.89 18.38 ellipse_path fill
1 setlinewidth
filled
0.21961 0.75686 1 nodecolor
218 627 17.89 18.38 ellipse_path stroke
0 0 0 nodecolor
14 /Times-Roman set_font
213 623.4 moveto 10 (0) alignedtext
grestore
% start0->0
gsave
1 setlinewidth
0 0 0 edgecolor
newpath 218 683.84 moveto
218 675.4 218 665.16 218 655.71 curveto
stroke
0 0 0 edgecolor
newpath 221.5 655.51 moveto
218 645.51 lineto
214.5 655.51 lineto
closepath fill
1 setlinewidth
solid
0 0 0 edgecolor
newpath 221.5 655.51 moveto
218 645.51 lineto
214.5 655.51 lineto
closepath stroke
grestore
% 0->0
gsave
1 setlinewidth
0 0 0 edgecolor
newpath 235.27 633.5 moveto
246.79 635.33 258 633.16 258 627 curveto
258 622.76 252.7 620.42 245.64 619.96 curveto
stroke
0 0 0 edgecolor
newpath 245.07 616.48 moveto
235.27 620.5 lineto
245.44 623.47 lineto
closepath fill
1 setlinewidth
solid
0 0 0 edgecolor
newpath 245.07 616.48 moveto
235.27 620.5 lineto
245.44 623.47 lineto
closepath stroke
0 0 0 edgecolor
14 /Times-Roman set_font
258 623.4 moveto 34 ([0,0]) alignedtext
grestore
% 1
gsave
0.023529 0.72157 1 nodecolor
152 531 17.98 18.38 ellipse_path fill
1 setlinewidth
filled
0.023529 0.72157 1 nodecolor
152 531 17.98 18.38 ellipse_path stroke
1 setlinewidth
filled
0.023529 0.72157 1 nodecolor
152 531 21.89 22.38 ellipse_path stroke
0 0 0 nodecolor
14 /Times-Roman set_font
147 527.4 moveto 10 (1) alignedtext
grestore
% 0->1
gsave
1 setlinewidth
0 0 0 edgecolor
newpath 207.4 611.58 moveto
197.53 597.22 182.6 575.51 170.73 558.24 curveto
stroke
0 0 0 edgecolor
newpath 173.39 555.94 moveto
164.84 549.68 lineto
167.62 559.9 lineto
closepath fill
1 setlinewidth
solid
0 0 0 edgecolor
newpath 173.39 555.94 moveto
164.84 549.68 lineto
167.62 559.9 lineto
closepath stroke
0 0 0 edgecolor
14 /Times-Roman set_font
190 577.4 moveto 34 ([1,0]) alignedtext
grestore
% 2
gsave
0.54118 0.25098 1 nodecolor
276 531 17.89 18.38 ellipse_path fill
1 setlinewidth
filled
0.54118 0.25098 1 nodecolor
276 531 17.89 18.38 ellipse_path stroke
0 0 0 nodecolor
14 /Times-Roman set_font
271 527.4 moveto 10 (2) alignedtext
grestore
% 0->2
gsave
1 setlinewidth
0 0 0 edgecolor
newpath 227.58 611.15 moveto
236.73 596 250.66 572.95 261.23 555.45 curveto
stroke
0 0 0 edgecolor
newpath 264.23 557.25 moveto
266.41 546.88 lineto
258.24 553.63 lineto
closepath fill
1 setlinewidth
solid
0 0 0 edgecolor
newpath 264.23 557.25 moveto
266.41 546.88 lineto
258.24 553.63 lineto
closepath stroke
0 0 0 edgecolor
14 /Times-Roman set_font
250 577.4 moveto 34 ([1,1]) alignedtext
grestore
% 3
gsave
0.023529 0.72157 1 nodecolor
201 23 17.98 18.38 ellipse_path fill
1 setlinewidth
filled
0.023529 0.72157 1 nodecolor
201 23 17.98 18.38 ellipse_path stroke
1 setlinewidth
filled
0.023529 0.72157 1 nodecolor
201 23 21.89 22.38 ellipse_path stroke
0 0 0 nodecolor
14 /Times-Roman set_font
196 19.4 moveto 10 (3) alignedtext
grestore
% 1->3
gsave
1 setlinewidth
0 0 0 edgecolor
newpath 130.22 527.61 moveto
88.19 519.71 0 495.86 0 435 curveto
0 435 0 435 0 125 curveto
0 50.37 111.55 30.33 168.45 24.96 curveto
stroke
0 0 0 edgecolor
newpath 169.05 28.42 moveto
178.72 24.09 lineto
168.46 21.44 lineto
closepath fill
1 setlinewidth
solid
0 0 0 edgecolor
newpath 169.05 28.42 moveto
178.72 24.09 lineto
168.46 21.44 lineto
closepath stroke
0 0 0 edgecolor
14 /Times-Roman set_font
0 285.4 moveto 71 ([0,0] [1,0]) alignedtext
grestore
% 4
gsave
0.54118 0.25098 1 nodecolor
152 435 17.89 18.38 ellipse_path fill
1 setlinewidth
filled
0.54118 0.25098 1 nodecolor
152 435 17.89 18.38 ellipse_path stroke
0 0 0 nodecolor
14 /Times-Roman set_font
147 431.4 moveto 10 (4) alignedtext
grestore
% 1->4
gsave
1 setlinewidth
0 0 0 edgecolor
newpath 152 508.25 moveto
152 494.99 152 478.15 152 463.95 curveto
stroke
0 0 0 edgecolor
newpath 155.5 463.72 moveto
152 453.72 lineto
148.5 463.72 lineto
closepath fill
1 setlinewidth
solid
0 0 0 edgecolor
newpath 155.5 463.72 moveto
152 453.72 lineto
148.5 463.72 lineto
closepath stroke
0 0 0 edgecolor
14 /Times-Roman set_font
152 477.4 moveto 34 ([0,1]) alignedtext
grestore
% 2->2
gsave
1 setlinewidth
0 0 0 edgecolor
newpath 292.44 539.37 moveto
304.24 542.09 316 539.3 316 531 curveto
316 525.16 310.19 522.05 302.63 521.67 curveto
stroke
0 0 0 edgecolor
newpath 302.06 518.2 moveto
292.44 522.63 lineto
302.72 525.17 lineto
closepath fill
1 setlinewidth
solid
0 0 0 edgecolor
newpath 302.06 518.2 moveto
292.44 522.63 lineto
302.72 525.17 lineto
closepath stroke
0 0 0 edgecolor
14 /Times-Roman set_font
316 527.4 moveto 34 ([0,0]) alignedtext
grestore
% 5
gsave
0.54118 0.25098 1 nodecolor
257 339 17.89 18.38 ellipse_path fill
1 setlinewidth
filled
0.54118 0.25098 1 nodecolor
257 339 17.89 18.38 ellipse_path stroke
0 0 0 nodecolor
14 /Times-Roman set_font
252 335.4 moveto 10 (5) alignedtext
grestore
% 2->5
gsave
1 setlinewidth
0 0 0 edgecolor
newpath 274.18 512.59 moveto
270.86 479.06 263.81 407.81 259.85 367.8 curveto
stroke
0 0 0 edgecolor
newpath 263.31 367.24 moveto
258.84 357.64 lineto
256.35 367.93 lineto
closepath fill
1 setlinewidth
solid
0 0 0 edgecolor
newpath 263.31 367.24 moveto
258.84 357.64 lineto
256.35 367.93 lineto
closepath stroke
0 0 0 edgecolor
14 /Times-Roman set_font
268 431.4 moveto 34 ([1,0]) alignedtext
grestore
% 6
gsave
0.54118 0.25098 1 nodecolor
357 435 17.89 18.38 ellipse_path fill
1 setlinewidth
filled
0.54118 0.25098 1 nodecolor
357 435 17.89 18.38 ellipse_path stroke
0 0 0 nodecolor
14 /Times-Roman set_font
352 431.4 moveto 10 (6) alignedtext
grestore
% 2->6
gsave
1 setlinewidth
0 0 0 edgecolor
newpath 277.35 512.33 moveto
279.08 499.82 283.03 483.58 292 472 curveto
301.79 459.36 317.2 450.32 330.55 444.34 curveto
stroke
0 0 0 edgecolor
newpath 331.9 447.57 moveto
339.81 440.52 lineto
329.23 441.1 lineto
closepath fill
1 setlinewidth
solid
0 0 0 edgecolor
newpath 331.9 447.57 moveto
339.81 440.52 lineto
329.23 441.1 lineto
closepath stroke
0 0 0 edgecolor
14 /Times-Roman set_font
292 477.4 moveto 34 ([1,1]) alignedtext
grestore
% 4->3
gsave
1 setlinewidth
0 0 0 edgecolor
newpath 137.8 423.62 moveto
118.94 407.14 88 374.65 88 339 curveto
88 339 88 339 88 125 curveto
88 80.26 137.41 50.09 170.89 34.78 curveto
stroke
0 0 0 edgecolor
newpath 172.51 37.89 moveto
180.27 30.68 lineto
169.71 31.48 lineto
closepath fill
1 setlinewidth
solid
0 0 0 edgecolor
newpath 172.51 37.89 moveto
180.27 30.68 lineto
169.71 31.48 lineto
closepath stroke
0 0 0 edgecolor
14 /Times-Roman set_font
88 229.4 moveto 34 ([1,1]) alignedtext
grestore
% 7
gsave
0.54118 0.25098 1 nodecolor
173 233 17.89 18.38 ellipse_path fill
1 setlinewidth
filled
0.54118 0.25098 1 nodecolor
173 233 17.89 18.38 ellipse_path stroke
0 0 0 nodecolor
14 /Times-Roman set_font
168 229.4 moveto 10 (7) alignedtext
grestore
% 4->7
gsave
1 setlinewidth
0 0 0 edgecolor
newpath 153.94 416.36 moveto
157.62 380.96 165.64 303.79 170.01 261.73 curveto
stroke
0 0 0 edgecolor
newpath 173.51 261.9 moveto
171.07 251.6 lineto
166.55 261.18 lineto
closepath fill
1 setlinewidth
solid
0 0 0 edgecolor
newpath 173.51 261.9 moveto
171.07 251.6 lineto
166.55 261.18 lineto
closepath stroke
0 0 0 edgecolor
14 /Times-Roman set_font
164 335.4 moveto 34 ([0,0]) alignedtext
grestore
% 8
gsave
0.023529 0.72157 1 nodecolor
429 339 17.98 18.38 ellipse_path fill
1 setlinewidth
filled
0.023529 0.72157 1 nodecolor
429 339 17.98 18.38 ellipse_path stroke
1 setlinewidth
filled
0.023529 0.72157 1 nodecolor
429 339 21.89 22.38 ellipse_path stroke
0 0 0 nodecolor
14 /Times-Roman set_font
424 335.4 moveto 10 (8) alignedtext
grestore
% 4->8
gsave
1 setlinewidth
0 0 0 edgecolor
newpath 169.33 428.99 moveto
215.14 413.12 339.92 369.87 398.22 349.67 curveto
stroke
0 0 0 edgecolor
newpath 399.67 352.87 moveto
407.97 346.29 lineto
397.38 346.26 lineto
closepath fill
1 setlinewidth
solid
0 0 0 edgecolor
newpath 399.67 352.87 moveto
407.97 346.29 lineto
397.38 346.26 lineto
closepath stroke
0 0 0 edgecolor
14 /Times-Roman set_font
307 385.4 moveto 34 ([0,1]) alignedtext
grestore
% 5->7
gsave
1 setlinewidth
0 0 0 edgecolor
newpath 242.61 327.75 moveto
233.24 320 221.11 309.12 212 298 curveto
202.1 285.91 192.99 271.05 186.07 258.6 curveto
stroke
0 0 0 edgecolor
newpath 189.06 256.76 moveto
181.23 249.62 lineto
182.9 260.09 lineto
closepath fill
1 setlinewidth
solid
0 0 0 edgecolor
newpath 189.06 256.76 moveto
181.23 249.62 lineto
182.9 260.09 lineto
closepath stroke
0 0 0 edgecolor
14 /Times-Roman set_font
212 285.4 moveto 34 ([1,0]) alignedtext
grestore
% 9
gsave
0.54118 0.25098 1 nodecolor
259 233 17.89 18.38 ellipse_path fill
1 setlinewidth
filled
0.54118 0.25098 1 nodecolor
259 233 17.89 18.38 ellipse_path stroke
0 0 0 nodecolor
14 /Times-Roman set_font
254 229.4 moveto 10 (9) alignedtext
grestore
% 5->9
gsave
1 setlinewidth
0 0 0 edgecolor
newpath 254.28 320.67 moveto
253.36 313.61 252.45 305.44 252 298 curveto
251.51 290.01 251.41 287.98 252 280 curveto
252.45 273.89 253.23 267.36 254.11 261.18 curveto
stroke
0 0 0 edgecolor
newpath 257.58 261.65 moveto
255.64 251.23 lineto
250.66 260.58 lineto
closepath fill
1 setlinewidth
solid
0 0 0 edgecolor
newpath 257.58 261.65 moveto
255.64 251.23 lineto
250.66 260.58 lineto
closepath stroke
0 0 0 edgecolor
14 /Times-Roman set_font
252 285.4 moveto 34 ([0,0]) alignedtext
grestore
% 10
gsave
0.023529 0.72157 1 nodecolor
374 233 24.31 24.75 ellipse_path fill
1 setlinewidth
filled
0.023529 0.72157 1 nodecolor
374 233 24.31 24.75 ellipse_path stroke
1 setlinewidth
filled
0.023529 0.72157 1 nodecolor
374 233 28.24 28.75 ellipse_path stroke
0 0 0 nodecolor
14 /Times-Roman set_font
364.5 229.4 moveto 19 (10) alignedtext
grestore
% 5->10
gsave
1 setlinewidth
0 0 0 edgecolor
newpath 268.36 324.36 moveto
278.39 311.9 293.74 293.86 309 280 curveto
319.09 270.84 330.96 261.82 341.78 254.16 curveto
stroke
0 0 0 edgecolor
newpath 343.95 256.92 moveto
350.17 248.34 lineto
339.96 251.16 lineto
closepath fill
1 setlinewidth
solid
0 0 0 edgecolor
newpath 343.95 256.92 moveto
350.17 248.34 lineto
339.96 251.16 lineto
closepath stroke
0 0 0 edgecolor
14 /Times-Roman set_font
309 285.4 moveto 34 ([0,1]) alignedtext
grestore
% 6->2
gsave
1 setlinewidth
0 0 0 edgecolor
newpath 351.21 452.6 moveto
346.87 464.06 340.1 478.88 331 490 curveto
322.6 500.26 311.1 509.36 300.78 516.36 curveto
stroke
0 0 0 edgecolor
newpath 298.63 513.58 moveto
292.13 521.94 lineto
302.43 519.46 lineto
closepath fill
1 setlinewidth
solid
0 0 0 edgecolor
newpath 298.63 513.58 moveto
292.13 521.94 lineto
302.43 519.46 lineto
closepath stroke
0 0 0 edgecolor
14 /Times-Roman set_font
341 477.4 moveto 34 ([1,1]) alignedtext
grestore
% 6->6
gsave
1 setlinewidth
0 0 0 edgecolor
newpath 373.44 442.7 moveto
385.24 445.2 397 442.64 397 435 curveto
397 429.63 391.19 426.77 383.63 426.41 curveto
stroke
0 0 0 edgecolor
newpath 383.09 422.95 moveto
373.44 427.3 lineto
383.7 429.92 lineto
closepath fill
1 setlinewidth
solid
0 0 0 edgecolor
newpath 383.09 422.95 moveto
373.44 427.3 lineto
383.7 429.92 lineto
closepath stroke
0 0 0 edgecolor
14 /Times-Roman set_font
397 431.4 moveto 34 ([0,0]) alignedtext
grestore
% 6->8
gsave
1 setlinewidth
0 0 0 edgecolor
newpath 368.25 420 moveto
379.19 405.41 396.05 382.93 409.24 365.35 curveto
stroke
0 0 0 edgecolor
newpath 412.17 367.27 moveto
415.37 357.17 lineto
406.57 363.07 lineto
closepath fill
1 setlinewidth
solid
0 0 0 edgecolor
newpath 412.17 367.27 moveto
415.37 357.17 lineto
406.57 363.07 lineto
closepath stroke
0 0 0 edgecolor
14 /Times-Roman set_font
397 385.4 moveto 34 ([1,0]) alignedtext
grestore
% 7->3
gsave
1 setlinewidth
0 0 0 edgecolor
newpath 167.72 215.08 moveto
160.94 189.28 151.15 140.31 161 100 curveto
165.28 82.47 174.31 64.49 182.71 50.32 curveto
stroke
0 0 0 edgecolor
newpath 185.82 51.95 moveto
188.08 41.6 lineto
179.86 48.28 lineto
closepath fill
1 setlinewidth
solid
0 0 0 edgecolor
newpath 185.82 51.95 moveto
188.08 41.6 lineto
179.86 48.28 lineto
closepath stroke
0 0 0 edgecolor
14 /Times-Roman set_font
161 121.4 moveto 71 ([0,1] [1,1]) alignedtext
grestore
% 11
gsave
0.54118 0.25098 1 nodecolor
339 125 24.24 24.75 ellipse_path fill
1 setlinewidth
filled
0.54118 0.25098 1 nodecolor
339 125 24.24 24.75 ellipse_path stroke
0 0 0 nodecolor
14 /Times-Roman set_font
329.5 121.4 moveto 19 (11) alignedtext
grestore
% 7->11
gsave
1 setlinewidth
0 0 0 edgecolor
newpath 188.32 223.03 moveto
215.99 205.03 274.72 166.82 310.14 143.78 curveto
stroke
0 0 0 edgecolor
newpath 312.13 146.66 moveto
318.6 138.27 lineto
308.31 140.79 lineto
closepath fill
1 setlinewidth
solid
0 0 0 edgecolor
newpath 312.13 146.66 moveto
318.6 138.27 lineto
308.31 140.79 lineto
closepath stroke
0 0 0 edgecolor
14 /Times-Roman set_font
270 173.4 moveto 34 ([0,0]) alignedtext
grestore
% 12
gsave
0.54118 0.25098 1 nodecolor
481 233 24.24 24.75 ellipse_path fill
1 setlinewidth
filled
0.54118 0.25098 1 nodecolor
481 233 24.24 24.75 ellipse_path stroke
0 0 0 nodecolor
14 /Times-Roman set_font
471.5 229.4 moveto 19 (12) alignedtext
grestore
% 8->12
gsave
1 setlinewidth
0 0 0 edgecolor
newpath 425.82 316.51 moveto
425.16 305.1 425.89 291.3 431 280 curveto
435.78 269.45 444.14 260.13 452.67 252.63 curveto
stroke
0 0 0 edgecolor
newpath 454.93 255.31 moveto
460.46 246.28 lineto
450.5 249.89 lineto
closepath fill
1 setlinewidth
solid
0 0 0 edgecolor
newpath 454.93 255.31 moveto
460.46 246.28 lineto
450.5 249.89 lineto
closepath stroke
0 0 0 edgecolor
14 /Times-Roman set_font
431 285.4 moveto 34 ([0,1]) alignedtext
grestore
% 9->3
gsave
1 setlinewidth
0 0 0 edgecolor
newpath 256.6 214.65 moveto
252.95 188.73 245.11 140.09 233 100 curveto
228.17 84.01 221.19 66.79 214.99 52.7 curveto
stroke
0 0 0 edgecolor
newpath 218.14 51.19 moveto
210.85 43.5 lineto
211.76 54.06 lineto
closepath fill
1 setlinewidth
solid
0 0 0 edgecolor
newpath 218.14 51.19 moveto
210.85 43.5 lineto
211.76 54.06 lineto
closepath stroke
0 0 0 edgecolor
14 /Times-Roman set_font
245 121.4 moveto 34 ([0,1]) alignedtext
grestore
% 9->11
gsave
1 setlinewidth
0 0 0 edgecolor
newpath 276.38 227.14 moveto
293.88 220.24 320.08 207 333 186 curveto
337.82 178.16 340.07 168.66 340.93 159.51 curveto
stroke
0 0 0 edgecolor
newpath 344.43 159.59 moveto
341.38 149.44 lineto
337.44 159.28 lineto
closepath fill
1 setlinewidth
solid
0 0 0 edgecolor
newpath 344.43 159.59 moveto
341.38 149.44 lineto
337.44 159.28 lineto
closepath stroke
0 0 0 edgecolor
14 /Times-Roman set_font
339 173.4 moveto 34 ([1,0]) alignedtext
grestore
% 10->5
gsave
1 setlinewidth
0 0 0 edgecolor
newpath 367.93 260.92 moveto
364.01 273.52 357.75 287.82 348 298 curveto
330.85 315.9 304.45 326.6 284.49 332.55 curveto
stroke
0 0 0 edgecolor
newpath 283.44 329.21 moveto
274.73 335.25 lineto
285.3 335.96 lineto
closepath fill
1 setlinewidth
solid
0 0 0 edgecolor
newpath 283.44 329.21 moveto
274.73 335.25 lineto
285.3 335.96 lineto
closepath stroke
0 0 0 edgecolor
14 /Times-Roman set_font
359 285.4 moveto 34 ([0,1]) alignedtext
grestore
% 13
gsave
0.54118 0.25098 1 nodecolor
461 125 24.24 24.75 ellipse_path fill
1 setlinewidth
filled
0.54118 0.25098 1 nodecolor
461 125 24.24 24.75 ellipse_path stroke
0 0 0 nodecolor
14 /Times-Roman set_font
451.5 121.4 moveto 19 (13) alignedtext
grestore
% 10->13
gsave
1 setlinewidth
0 0 0 edgecolor
newpath 391.82 210.88 moveto
405.52 193.87 424.54 170.27 439.16 152.11 curveto
stroke
0 0 0 edgecolor
newpath 441.99 154.18 moveto
445.54 144.19 lineto
436.54 149.79 lineto
closepath fill
1 setlinewidth
solid
0 0 0 edgecolor
newpath 441.99 154.18 moveto
445.54 144.19 lineto
436.54 149.79 lineto
closepath stroke
0 0 0 edgecolor
14 /Times-Roman set_font
425 173.4 moveto 34 ([1,1]) alignedtext
grestore
% 11->3
gsave
1 setlinewidth
0 0 0 edgecolor
newpath 322.75 106.84 moveto
310.64 93.94 293.28 76.73 276 64 curveto
261.92 53.63 244.92 44.12 230.66 36.88 curveto
stroke
0 0 0 edgecolor
newpath 231.82 33.55 moveto
221.3 32.24 lineto
228.71 39.82 lineto
closepath fill
1 setlinewidth
solid
0 0 0 edgecolor
newpath 231.82 33.55 moveto
221.3 32.24 lineto
228.71 39.82 lineto
closepath stroke
0 0 0 edgecolor
14 /Times-Roman set_font
296 69.4 moveto 34 ([1,1]) alignedtext
grestore
% 11->11
gsave
1 setlinewidth
0 0 0 edgecolor
newpath 361.25 134.28 moveto
373.61 136.02 385 132.92 385 125 curveto
385 119.37 379.24 116.18 371.47 115.42 curveto
stroke
0 0 0 edgecolor
newpath 371.14 111.93 moveto
361.25 115.72 lineto
371.34 118.93 lineto
closepath fill
1 setlinewidth
solid
0 0 0 edgecolor
newpath 371.14 111.93 moveto
361.25 115.72 lineto
371.34 118.93 lineto
closepath stroke
0 0 0 edgecolor
14 /Times-Roman set_font
385 121.4 moveto 34 ([0,0]) alignedtext
grestore
% 12->8
gsave
1 setlinewidth
0 0 0 edgecolor
newpath 480.38 257.58 moveto
479.2 270.25 476.4 285.59 470 298 curveto
466.1 305.55 460.32 312.57 454.32 318.6 curveto
stroke
0 0 0 edgecolor
newpath 451.66 316.29 moveto
446.73 325.67 lineto
456.43 321.42 lineto
closepath fill
1 setlinewidth
solid
0 0 0 edgecolor
newpath 451.66 316.29 moveto
446.73 325.67 lineto
456.43 321.42 lineto
closepath stroke
0 0 0 edgecolor
14 /Times-Roman set_font
476 285.4 moveto 34 ([0,1]) alignedtext
grestore
% 12->13
gsave
1 setlinewidth
0 0 0 edgecolor
newpath 476.51 208.76 moveto
473.81 194.17 470.33 175.37 467.35 159.27 curveto
stroke
0 0 0 edgecolor
newpath 470.74 158.35 moveto
465.47 149.16 lineto
463.85 159.63 lineto
closepath fill
1 setlinewidth
solid
0 0 0 edgecolor
newpath 470.74 158.35 moveto
465.47 149.16 lineto
463.85 159.63 lineto
closepath stroke
0 0 0 edgecolor
14 /Times-Roman set_font
472 173.4 moveto 34 ([0,0]) alignedtext
grestore
% 13->3
gsave
1 setlinewidth
0 0 0 edgecolor
newpath 441.93 110.11 moveto
436.9 106.54 431.38 102.93 426 100 curveto
361.24 64.75 277.34 41.21 232.51 30.19 curveto
stroke
0 0 0 edgecolor
newpath 233.32 26.79 moveto
222.78 27.85 lineto
231.68 33.59 lineto
closepath fill
1 setlinewidth
solid
0 0 0 edgecolor
newpath 233.32 26.79 moveto
222.78 27.85 lineto
231.68 33.59 lineto
closepath stroke
0 0 0 edgecolor
14 /Times-Roman set_font
385 69.4 moveto 34 ([0,1]) alignedtext
grestore
endpage
showpage
grestore
%%PageTrailer
%%EndPage: 1
%%Trailer
end
restore
%%EOF
