%!PS-Adobe-3.0 EPSF-3.0
%%Creator: graphviz version 2.26.3 (20100126.1600)
%%Title: FSA Utilities
%%Pages: 1
%%BoundingBox: 146 36 467 816
%%EndComments
save
%%BeginProlog
/DotDict 200 dict def
DotDict begin

/setupLatin1 {
mark
/EncodingVector 256 array def
 EncodingVector 0

ISOLatin1Encoding 0 255 getinterval putinterval
EncodingVector 45 /hyphen put

% Set up ISO Latin 1 character encoding
/starnetISO {
        dup dup findfont dup length dict begin
        { 1 index /FID ne { def }{ pop pop } ifelse
        } forall
        /Encoding EncodingVector def
        currentdict end definefont
} def
/Times-Roman starnetISO def
/Times-Italic starnetISO def
/Times-Bold starnetISO def
/Times-BoldItalic starnetISO def
/Helvetica starnetISO def
/Helvetica-Oblique starnetISO def
/Helvetica-Bold starnetISO def
/Helvetica-BoldOblique starnetISO def
/Courier starnetISO def
/Courier-Oblique starnetISO def
/Courier-Bold starnetISO def
/Courier-BoldOblique starnetISO def
cleartomark
} bind def

%%BeginResource: procset graphviz 0 0
/coord-font-family /Times-Roman def
/default-font-family /Times-Roman def
/coordfont coord-font-family findfont 8 scalefont def

/InvScaleFactor 1.0 def
/set_scale {
       dup 1 exch div /InvScaleFactor exch def
       scale
} bind def

% styles
/solid { [] 0 setdash } bind def
/dashed { [9 InvScaleFactor mul dup ] 0 setdash } bind def
/dotted { [1 InvScaleFactor mul 6 InvScaleFactor mul] 0 setdash } bind def
/invis {/fill {newpath} def /stroke {newpath} def /show {pop newpath} def} bind def
/bold { 2 setlinewidth } bind def
/filled { } bind def
/unfilled { } bind def
/rounded { } bind def
/diagonals { } bind def

% hooks for setting color 
/nodecolor { sethsbcolor } bind def
/edgecolor { sethsbcolor } bind def
/graphcolor { sethsbcolor } bind def
/nopcolor {pop pop pop} bind def

/beginpage {	% i j npages
	/npages exch def
	/j exch def
	/i exch def
	/str 10 string def
	npages 1 gt {
		gsave
			coordfont setfont
			0 0 moveto
			(\() show i str cvs show (,) show j str cvs show (\)) show
		grestore
	} if
} bind def

/set_font {
	findfont exch
	scalefont setfont
} def

% draw text fitted to its expected width
/alignedtext {			% width text
	/text exch def
	/width exch def
	gsave
		width 0 gt {
			[] 0 setdash
			text stringwidth pop width exch sub text length div 0 text ashow
		} if
	grestore
} def

/boxprim {				% xcorner ycorner xsize ysize
		4 2 roll
		moveto
		2 copy
		exch 0 rlineto
		0 exch rlineto
		pop neg 0 rlineto
		closepath
} bind def

/ellipse_path {
	/ry exch def
	/rx exch def
	/y exch def
	/x exch def
	matrix currentmatrix
	newpath
	x y translate
	rx ry scale
	0 0 1 0 360 arc
	setmatrix
} bind def

/endpage { showpage } bind def
/showpage { } def

/layercolorseq
	[	% layer color sequence - darkest to lightest
		[0 0 0]
		[.2 .8 .8]
		[.4 .8 .8]
		[.6 .8 .8]
		[.8 .8 .8]
	]
def

/layerlen layercolorseq length def

/setlayer {/maxlayer exch def /curlayer exch def
	layercolorseq curlayer 1 sub layerlen mod get
	aload pop sethsbcolor
	/nodecolor {nopcolor} def
	/edgecolor {nopcolor} def
	/graphcolor {nopcolor} def
} bind def

/onlayer { curlayer ne {invis} if } def

/onlayers {
	/myupper exch def
	/mylower exch def
	curlayer mylower lt
	curlayer myupper gt
	or
	{invis} if
} def

/curlayer 0 def

%%EndResource
%%EndProlog
%%BeginSetup
14 default-font-family set_font
1 setmiterlimit
% /arrowlength 10 def
% /arrowwidth 5 def

% make sure pdfmark is harmless for PS-interpreters other than Distiller
/pdfmark where {pop} {userdict /pdfmark /cleartomark load put} ifelse
% make '<<' and '>>' safe on PS Level 1 devices
/languagelevel where {pop languagelevel}{1} ifelse
2 lt {
    userdict (<<) cvn ([) cvn load put
    userdict (>>) cvn ([) cvn load put
} if

%%EndSetup
setupLatin1
%%Page: 1 1
%%PageBoundingBox: 146 36 467 816
%%PageOrientation: Portrait
0 0 1 beginpage
gsave
146 36 321 780 boxprim clip newpath
1 1 set_scale 0 rotate 149.5 41 translate
% start0
gsave
grestore
% 0
gsave
0.21961 0.75686 1 nodecolor
118 679 17.89 18.38 ellipse_path fill
1 setlinewidth
filled
0.21961 0.75686 1 nodecolor
118 679 17.89 18.38 ellipse_path stroke
0 0 0 nodecolor
14 /Times-Roman set_font
113 675.4 moveto 10 (0) alignedtext
grestore
% start0->0
gsave
1 setlinewidth
0 0 0 edgecolor
newpath 118 735.84 moveto
118 727.4 118 717.16 118 707.71 curveto
stroke
0 0 0 edgecolor
newpath 121.5 707.51 moveto
118 697.51 lineto
114.5 707.51 lineto
closepath fill
1 setlinewidth
solid
0 0 0 edgecolor
newpath 121.5 707.51 moveto
118 697.51 lineto
114.5 707.51 lineto
closepath stroke
grestore
% 0->0
gsave
1 setlinewidth
0 0 0 edgecolor
newpath 135.27 685.5 moveto
146.79 687.33 158 685.16 158 679 curveto
158 674.76 152.7 672.42 145.64 671.96 curveto
stroke
0 0 0 edgecolor
newpath 145.07 668.48 moveto
135.27 672.5 lineto
145.44 675.47 lineto
closepath fill
1 setlinewidth
solid
0 0 0 edgecolor
newpath 145.07 668.48 moveto
135.27 672.5 lineto
145.44 675.47 lineto
closepath stroke
0 0 0 edgecolor
14 /Times-Roman set_font
158 675.4 moveto 34 ([0,0]) alignedtext
grestore
% 1
gsave
0.54118 0.25098 1 nodecolor
118 587 17.89 18.38 ellipse_path fill
1 setlinewidth
filled
0.54118 0.25098 1 nodecolor
118 587 17.89 18.38 ellipse_path stroke
0 0 0 nodecolor
14 /Times-Roman set_font
113 583.4 moveto 10 (1) alignedtext
grestore
% 0->1
gsave
1 setlinewidth
0 0 0 edgecolor
newpath 118 660.38 moveto
118 647.54 118 630.22 118 615.63 curveto
stroke
0 0 0 edgecolor
newpath 121.5 615.59 moveto
118 605.59 lineto
114.5 615.59 lineto
closepath fill
1 setlinewidth
solid
0 0 0 edgecolor
newpath 121.5 615.59 moveto
118 605.59 lineto
114.5 615.59 lineto
closepath stroke
0 0 0 edgecolor
14 /Times-Roman set_font
118 629.4 moveto 34 ([0,1]) alignedtext
grestore
% 2
gsave
0.54118 0.25098 1 nodecolor
18 219 17.89 18.38 ellipse_path fill
1 setlinewidth
filled
0.54118 0.25098 1 nodecolor
18 219 17.89 18.38 ellipse_path stroke
0 0 0 nodecolor
14 /Times-Roman set_font
13 215.4 moveto 10 (2) alignedtext
grestore
% 1->2
gsave
1 setlinewidth
0 0 0 edgecolor
newpath 100.81 581.27 moveto
70.56 569.97 11 541.79 11 495 curveto
11 495 11 495 11 311 curveto
11 289.81 12.87 265.95 14.68 247.84 curveto
stroke
0 0 0 edgecolor
newpath 18.18 247.96 moveto
15.75 237.65 lineto
11.22 247.23 lineto
closepath fill
1 setlinewidth
solid
0 0 0 edgecolor
newpath 18.18 247.96 moveto
15.75 237.65 lineto
11.22 247.23 lineto
closepath stroke
0 0 0 edgecolor
14 /Times-Roman set_font
11 399.4 moveto 34 ([0,0]) alignedtext
grestore
% 3
gsave
0.54118 0.25098 1 nodecolor
118 495 17.89 18.38 ellipse_path fill
1 setlinewidth
filled
0.54118 0.25098 1 nodecolor
118 495 17.89 18.38 ellipse_path stroke
0 0 0 nodecolor
14 /Times-Roman set_font
113 491.4 moveto 10 (3) alignedtext
grestore
% 1->3
gsave
1 setlinewidth
0 0 0 edgecolor
newpath 118 568.38 moveto
118 555.54 118 538.22 118 523.63 curveto
stroke
0 0 0 edgecolor
newpath 121.5 523.59 moveto
118 513.59 lineto
114.5 523.59 lineto
closepath fill
1 setlinewidth
solid
0 0 0 edgecolor
newpath 121.5 523.59 moveto
118 513.59 lineto
114.5 523.59 lineto
closepath stroke
0 0 0 edgecolor
14 /Times-Roman set_font
118 537.4 moveto 34 ([1,0]) alignedtext
grestore
% 4
gsave
0.54118 0.25098 1 nodecolor
197 311 17.89 18.38 ellipse_path fill
1 setlinewidth
filled
0.54118 0.25098 1 nodecolor
197 311 17.89 18.38 ellipse_path stroke
0 0 0 nodecolor
14 /Times-Roman set_font
192 307.4 moveto 10 (4) alignedtext
grestore
% 1->4
gsave
1 setlinewidth
0 0 0 edgecolor
newpath 134.6 579.46 moveto
168.42 563.05 244.59 520.48 274 458 curveto
296.19 410.86 248.6 356.97 218.75 329.38 curveto
stroke
0 0 0 edgecolor
newpath 221.02 326.71 moveto
211.24 322.64 lineto
216.34 331.92 lineto
closepath fill
1 setlinewidth
solid
0 0 0 edgecolor
newpath 221.02 326.71 moveto
211.24 322.64 lineto
216.34 331.92 lineto
closepath stroke
0 0 0 edgecolor
14 /Times-Roman set_font
279 445.4 moveto 34 ([1,1]) alignedtext
grestore
% 5
gsave
0.023529 0.72157 1 nodecolor
107 23 17.98 18.38 ellipse_path fill
1 setlinewidth
filled
0.023529 0.72157 1 nodecolor
107 23 17.98 18.38 ellipse_path stroke
1 setlinewidth
filled
0.023529 0.72157 1 nodecolor
107 23 21.89 22.38 ellipse_path stroke
0 0 0 nodecolor
14 /Times-Roman set_font
102 19.4 moveto 10 (5) alignedtext
grestore
% 2->5
gsave
1 setlinewidth
0 0 0 edgecolor
newpath 18.44 200.33 moveto
19.66 176.07 24.12 132.93 40 100 curveto
50.23 78.8 67.88 58.87 82.5 44.59 curveto
stroke
0 0 0 edgecolor
newpath 84.96 47.09 moveto
89.81 37.67 lineto
80.15 42 lineto
closepath fill
1 setlinewidth
solid
0 0 0 edgecolor
newpath 84.96 47.09 moveto
89.81 37.67 lineto
80.15 42 lineto
closepath stroke
0 0 0 edgecolor
14 /Times-Roman set_font
40 119.4 moveto 34 ([0,0]) alignedtext
grestore
% 6
gsave
0.023529 0.72157 1 nodecolor
107 123 17.98 18.38 ellipse_path fill
1 setlinewidth
filled
0.023529 0.72157 1 nodecolor
107 123 17.98 18.38 ellipse_path stroke
1 setlinewidth
filled
0.023529 0.72157 1 nodecolor
107 123 21.89 22.38 ellipse_path stroke
0 0 0 nodecolor
14 /Times-Roman set_font
102 119.4 moveto 10 (6) alignedtext
grestore
% 2->6
gsave
1 setlinewidth
0 0 0 edgecolor
newpath 30.75 205.25 moveto
44.8 190.09 67.65 165.44 84.68 147.07 curveto
stroke
0 0 0 edgecolor
newpath 87.35 149.34 moveto
91.58 139.63 lineto
82.22 144.59 lineto
closepath fill
1 setlinewidth
solid
0 0 0 edgecolor
newpath 87.35 149.34 moveto
91.58 139.63 lineto
82.22 144.59 lineto
closepath stroke
0 0 0 edgecolor
14 /Times-Roman set_font
68 169.4 moveto 34 ([1,0]) alignedtext
grestore
% 7
gsave
0.54118 0.25098 1 nodecolor
197 403 17.89 18.38 ellipse_path fill
1 setlinewidth
filled
0.54118 0.25098 1 nodecolor
197 403 17.89 18.38 ellipse_path stroke
0 0 0 nodecolor
14 /Times-Roman set_font
192 399.4 moveto 10 (7) alignedtext
grestore
% 3->7
gsave
1 setlinewidth
0 0 0 edgecolor
newpath 111.58 477.53 moveto
108.51 465.98 106.86 451 114 440 curveto
126.1 421.35 150.03 412.02 169.09 407.4 curveto
stroke
0 0 0 edgecolor
newpath 170.02 410.79 moveto
179.08 405.29 lineto
168.57 403.94 lineto
closepath fill
1 setlinewidth
solid
0 0 0 edgecolor
newpath 170.02 410.79 moveto
179.08 405.29 lineto
168.57 403.94 lineto
closepath stroke
0 0 0 edgecolor
14 /Times-Roman set_font
114 445.4 moveto 71 ([0,1] [1,0]) alignedtext
grestore
% 8
gsave
0.54118 0.25098 1 nodecolor
118 219 17.89 18.38 ellipse_path fill
1 setlinewidth
filled
0.54118 0.25098 1 nodecolor
118 219 17.89 18.38 ellipse_path stroke
0 0 0 nodecolor
14 /Times-Roman set_font
113 215.4 moveto 10 (8) alignedtext
grestore
% 3->8
gsave
1 setlinewidth
0 0 0 edgecolor
newpath 110.68 478 moveto
108.38 471.83 106.14 464.71 105 458 curveto
103.65 450.11 104.93 448 105 440 curveto
105.67 358.21 96.58 336.99 108 256 curveto
108.43 252.94 109.04 249.76 109.74 246.63 curveto
stroke
0 0 0 edgecolor
newpath 113.14 247.43 moveto
112.21 236.88 lineto
106.36 245.71 lineto
closepath fill
1 setlinewidth
solid
0 0 0 edgecolor
newpath 113.14 247.43 moveto
112.21 236.88 lineto
106.36 245.71 lineto
closepath stroke
0 0 0 edgecolor
14 /Times-Roman set_font
104 353.4 moveto 34 ([1,1]) alignedtext
grestore
% 4->5
gsave
1 setlinewidth
0 0 0 edgecolor
newpath 202.85 293.13 moveto
204.54 287.12 206.16 280.33 207 274 curveto
212.15 235.19 192.66 172.63 190 164 curveto
175.71 117.59 172.91 104.42 146 64 curveto
141.66 57.48 136.24 51.04 130.83 45.27 curveto
stroke
0 0 0 edgecolor
newpath 133.07 42.55 moveto
123.57 37.86 lineto
128.07 47.45 lineto
closepath fill
1 setlinewidth
solid
0 0 0 edgecolor
newpath 133.07 42.55 moveto
123.57 37.86 lineto
128.07 47.45 lineto
closepath stroke
0 0 0 edgecolor
14 /Times-Roman set_font
196 169.4 moveto 34 ([1,1]) alignedtext
grestore
% 4->8
gsave
1 setlinewidth
0 0 0 edgecolor
newpath 185.74 296.26 moveto
177.04 285.02 164.56 269.28 153 256 curveto
148.24 250.53 142.94 244.77 137.94 239.47 curveto
stroke
0 0 0 edgecolor
newpath 140.35 236.93 moveto
130.91 232.11 lineto
135.28 241.76 lineto
closepath fill
1 setlinewidth
solid
0 0 0 edgecolor
newpath 140.35 236.93 moveto
130.91 232.11 lineto
135.28 241.76 lineto
closepath stroke
0 0 0 edgecolor
14 /Times-Roman set_font
168 261.4 moveto 34 ([0,0]) alignedtext
grestore
% 6->5
gsave
1 setlinewidth
0 0 0 edgecolor
newpath 107 100.31 moveto
107 87.14 107 70.32 107 55.74 curveto
stroke
0 0 0 edgecolor
newpath 110.5 55.6 moveto
107 45.6 lineto
103.5 55.6 lineto
closepath fill
1 setlinewidth
solid
0 0 0 edgecolor
newpath 110.5 55.6 moveto
107 45.6 lineto
103.5 55.6 lineto
closepath stroke
0 0 0 edgecolor
14 /Times-Roman set_font
107 69.4 moveto 34 ([0,0]) alignedtext
grestore
% 7->3
gsave
1 setlinewidth
0 0 0 edgecolor
newpath 198.79 421.63 moveto
198.95 433.08 197.35 447.52 190 458 curveto
179.48 473.01 160.99 482.33 145.38 487.86 curveto
stroke
0 0 0 edgecolor
newpath 144.11 484.59 moveto
135.65 490.97 lineto
146.24 491.26 lineto
closepath fill
1 setlinewidth
solid
0 0 0 edgecolor
newpath 144.11 484.59 moveto
135.65 490.97 lineto
146.24 491.26 lineto
closepath stroke
0 0 0 edgecolor
14 /Times-Roman set_font
198 445.4 moveto 71 ([0,1] [1,0]) alignedtext
grestore
% 7->4
gsave
1 setlinewidth
0 0 0 edgecolor
newpath 197 384.38 moveto
197 371.54 197 354.22 197 339.63 curveto
stroke
0 0 0 edgecolor
newpath 200.5 339.59 moveto
197 329.59 lineto
193.5 339.59 lineto
closepath fill
1 setlinewidth
solid
0 0 0 edgecolor
newpath 200.5 339.59 moveto
197 329.59 lineto
193.5 339.59 lineto
closepath stroke
0 0 0 edgecolor
14 /Times-Roman set_font
197 353.4 moveto 34 ([1,1]) alignedtext
grestore
% 8->4
gsave
1 setlinewidth
0 0 0 edgecolor
newpath 113.36 236.96 moveto
111.46 248.42 111.08 263.12 118 274 curveto
129.19 291.6 151.21 300.97 169.16 305.88 curveto
stroke
0 0 0 edgecolor
newpath 168.35 309.28 moveto
178.89 308.22 lineto
169.99 302.47 lineto
closepath fill
1 setlinewidth
solid
0 0 0 edgecolor
newpath 168.35 309.28 moveto
178.89 308.22 lineto
169.99 302.47 lineto
closepath stroke
0 0 0 edgecolor
14 /Times-Roman set_font
118 261.4 moveto 34 ([0,0]) alignedtext
grestore
% 8->6
gsave
1 setlinewidth
0 0 0 edgecolor
newpath 115.88 200.49 moveto
114.42 187.74 112.44 170.46 110.72 155.45 curveto
stroke
0 0 0 edgecolor
newpath 114.19 155.04 moveto
109.58 145.51 lineto
107.24 155.84 lineto
closepath fill
1 setlinewidth
solid
0 0 0 edgecolor
newpath 114.19 155.04 moveto
109.58 145.51 lineto
107.24 155.84 lineto
closepath stroke
0 0 0 edgecolor
14 /Times-Roman set_font
114 169.4 moveto 71 ([0,1] [1,0]) alignedtext
grestore
endpage
showpage
grestore
%%PageTrailer
%%EndPage: 1
%%Trailer
end
restore
%%EOF
