%!PS-Adobe-3.0 EPSF-3.0
%%Creator: graphviz version 2.36.0 (20140111.2315)
%%Title: FSA Utilities
%%Pages: 1
%%BoundingBox: 275 189 337 603
%%EndComments
save
%%BeginProlog
/DotDict 200 dict def
DotDict begin

/setupLatin1 {
mark
/EncodingVector 256 array def
 EncodingVector 0

ISOLatin1Encoding 0 255 getinterval putinterval
EncodingVector 45 /hyphen put

% Set up ISO Latin 1 character encoding
/starnetISO {
        dup dup findfont dup length dict begin
        { 1 index /FID ne { def }{ pop pop } ifelse
        } forall
        /Encoding EncodingVector def
        currentdict end definefont
} def
/Times-Roman starnetISO def
/Times-Italic starnetISO def
/Times-Bold starnetISO def
/Times-BoldItalic starnetISO def
/Helvetica starnetISO def
/Helvetica-Oblique starnetISO def
/Helvetica-Bold starnetISO def
/Helvetica-BoldOblique starnetISO def
/Courier starnetISO def
/Courier-Oblique starnetISO def
/Courier-Bold starnetISO def
/Courier-BoldOblique starnetISO def
cleartomark
} bind def

%%BeginResource: procset graphviz 0 0
/coord-font-family /Times-Roman def
/default-font-family /Times-Roman def
/coordfont coord-font-family findfont 8 scalefont def

/InvScaleFactor 1.0 def
/set_scale {
       dup 1 exch div /InvScaleFactor exch def
       scale
} bind def

% styles
/solid { [] 0 setdash } bind def
/dashed { [9 InvScaleFactor mul dup ] 0 setdash } bind def
/dotted { [1 InvScaleFactor mul 6 InvScaleFactor mul] 0 setdash } bind def
/invis {/fill {newpath} def /stroke {newpath} def /show {pop newpath} def} bind def
/bold { 2 setlinewidth } bind def
/filled { } bind def
/unfilled { } bind def
/rounded { } bind def
/diagonals { } bind def
/tapered { } bind def

% hooks for setting color 
/nodecolor { sethsbcolor } bind def
/edgecolor { sethsbcolor } bind def
/graphcolor { sethsbcolor } bind def
/nopcolor {pop pop pop} bind def

/beginpage {	% i j npages
	/npages exch def
	/j exch def
	/i exch def
	/str 10 string def
	npages 1 gt {
		gsave
			coordfont setfont
			0 0 moveto
			(\() show i str cvs show (,) show j str cvs show (\)) show
		grestore
	} if
} bind def

/set_font {
	findfont exch
	scalefont setfont
} def

% draw text fitted to its expected width
/alignedtext {			% width text
	/text exch def
	/width exch def
	gsave
		width 0 gt {
			[] 0 setdash
			text stringwidth pop width exch sub text length div 0 text ashow
		} if
	grestore
} def

/boxprim {				% xcorner ycorner xsize ysize
		4 2 roll
		moveto
		2 copy
		exch 0 rlineto
		0 exch rlineto
		pop neg 0 rlineto
		closepath
} bind def

/ellipse_path {
	/ry exch def
	/rx exch def
	/y exch def
	/x exch def
	matrix currentmatrix
	newpath
	x y translate
	rx ry scale
	0 0 1 0 360 arc
	setmatrix
} bind def

/endpage { showpage } bind def
/showpage { } def

/layercolorseq
	[	% layer color sequence - darkest to lightest
		[0 0 0]
		[.2 .8 .8]
		[.4 .8 .8]
		[.6 .8 .8]
		[.8 .8 .8]
	]
def

/layerlen layercolorseq length def

/setlayer {/maxlayer exch def /curlayer exch def
	layercolorseq curlayer 1 sub layerlen mod get
	aload pop sethsbcolor
	/nodecolor {nopcolor} def
	/edgecolor {nopcolor} def
	/graphcolor {nopcolor} def
} bind def

/onlayer { curlayer ne {invis} if } def

/onlayers {
	/myupper exch def
	/mylower exch def
	curlayer mylower lt
	curlayer myupper gt
	or
	{invis} if
} def

/curlayer 0 def

%%EndResource
%%EndProlog
%%BeginSetup
14 default-font-family set_font
1 setmiterlimit
% /arrowlength 10 def
% /arrowwidth 5 def

% make sure pdfmark is harmless for PS-interpreters other than Distiller
/pdfmark where {pop} {userdict /pdfmark /cleartomark load put} ifelse
% make '<<' and '>>' safe on PS Level 1 devices
/languagelevel where {pop languagelevel}{1} ifelse
2 lt {
    userdict (<<) cvn ([) cvn load put
    userdict (>>) cvn ([) cvn load put
} if

%%EndSetup
setupLatin1
%%Page: 1 1
%%PageBoundingBox: 275 189 337 603
%%PageOrientation: Portrait
0 0 1 beginpage
gsave
275 189 62 414 boxprim clip newpath
1 1 set_scale 0 rotate 279 193 translate
% start0
gsave
grestore
% 0
gsave
0.83922 0.48235 0.8549 nodecolor
27 310 17.59 18 ellipse_path fill
1 setlinewidth
filled
0.83922 0.48235 0.8549 nodecolor
27 310 17.59 18 ellipse_path stroke
1 setlinewidth
filled
0.83922 0.48235 0.8549 nodecolor
27 310 21.5 22 ellipse_path stroke
0 0 0 nodecolor
14 /Times-Roman set_font
23.5 306.3 moveto 7 (0) alignedtext
grestore
% start0->0
gsave
1 setlinewidth
0 0 0 edgecolor
newpath 27 369.75 moveto
27 361.67 27 351.78 27 342.44 curveto
stroke
0 0 0 edgecolor
newpath 30.5 342.25 moveto
27 332.25 lineto
23.5 342.25 lineto
closepath fill
1 setlinewidth
solid
0 0 0 edgecolor
newpath 30.5 342.25 moveto
27 332.25 lineto
23.5 342.25 lineto
closepath stroke
grestore
% 1
gsave
0.023529 0.72157 1 nodecolor
27 214 17.59 18 ellipse_path fill
1 setlinewidth
filled
0.023529 0.72157 1 nodecolor
27 214 17.59 18 ellipse_path stroke
1 setlinewidth
filled
0.023529 0.72157 1 nodecolor
27 214 21.5 22 ellipse_path stroke
0 0 0 nodecolor
14 /Times-Roman set_font
23.5 210.3 moveto 7 (1) alignedtext
grestore
% 0->1
gsave
1 setlinewidth
0 0 0 edgecolor
newpath 27 287.67 moveto
27 275.53 27 260.1 27 246.58 curveto
stroke
0 0 0 edgecolor
newpath 30.5 246.25 moveto
27 236.25 lineto
23.5 246.25 lineto
closepath fill
1 setlinewidth
solid
0 0 0 edgecolor
newpath 30.5 246.25 moveto
27 236.25 lineto
23.5 246.25 lineto
closepath stroke
0 0 0 edgecolor
14 /Times-Roman set_font
27 258.3 moveto 7 (b) alignedtext
grestore
% 2
gsave
0.023529 0.72157 1 nodecolor
27 118 17.59 18 ellipse_path fill
1 setlinewidth
filled
0.023529 0.72157 1 nodecolor
27 118 17.59 18 ellipse_path stroke
1 setlinewidth
filled
0.023529 0.72157 1 nodecolor
27 118 21.5 22 ellipse_path stroke
0 0 0 nodecolor
14 /Times-Roman set_font
23.5 114.3 moveto 7 (2) alignedtext
grestore
% 1->2
gsave
1 setlinewidth
0 0 0 edgecolor
newpath 27 191.67 moveto
27 179.53 27 164.1 27 150.58 curveto
stroke
0 0 0 edgecolor
newpath 30.5 150.25 moveto
27 140.25 lineto
23.5 150.25 lineto
closepath fill
1 setlinewidth
solid
0 0 0 edgecolor
newpath 30.5 150.25 moveto
27 140.25 lineto
23.5 150.25 lineto
closepath stroke
0 0 0 edgecolor
14 /Times-Roman set_font
27 162.3 moveto 7 (a) alignedtext
grestore
% 3
gsave
0.023529 0.72157 1 nodecolor
27 22 17.59 18 ellipse_path fill
1 setlinewidth
filled
0.023529 0.72157 1 nodecolor
27 22 17.59 18 ellipse_path stroke
1 setlinewidth
filled
0.023529 0.72157 1 nodecolor
27 22 21.5 22 ellipse_path stroke
0 0 0 nodecolor
14 /Times-Roman set_font
23.5 18.3 moveto 7 (3) alignedtext
grestore
% 2->3
gsave
1 setlinewidth
0 0 0 edgecolor
newpath 27 95.67 moveto
27 83.53 27 68.1 27 54.58 curveto
stroke
0 0 0 edgecolor
newpath 30.5 54.25 moveto
27 44.25 lineto
23.5 54.25 lineto
closepath fill
1 setlinewidth
solid
0 0 0 edgecolor
newpath 30.5 54.25 moveto
27 44.25 lineto
23.5 54.25 lineto
closepath stroke
0 0 0 edgecolor
14 /Times-Roman set_font
27 66.3 moveto 17 (a b) alignedtext
grestore
endpage
showpage
grestore
%%PageTrailer
%%EndPage: 1
%%Trailer
end
restore
%%EOF
