%!PS-Adobe-3.0 EPSF-3.0
%%Creator: graphviz version 2.26.3 (20100126.1600)
%%Title: FSA Utilities
%%Pages: 1
%%BoundingBox: 182 102 430 690
%%EndComments
save
%%BeginProlog
/DotDict 200 dict def
DotDict begin

/setupLatin1 {
mark
/EncodingVector 256 array def
 EncodingVector 0

ISOLatin1Encoding 0 255 getinterval putinterval
EncodingVector 45 /hyphen put

% Set up ISO Latin 1 character encoding
/starnetISO {
        dup dup findfont dup length dict begin
        { 1 index /FID ne { def }{ pop pop } ifelse
        } forall
        /Encoding EncodingVector def
        currentdict end definefont
} def
/Times-Roman starnetISO def
/Times-Italic starnetISO def
/Times-Bold starnetISO def
/Times-BoldItalic starnetISO def
/Helvetica starnetISO def
/Helvetica-Oblique starnetISO def
/Helvetica-Bold starnetISO def
/Helvetica-BoldOblique starnetISO def
/Courier starnetISO def
/Courier-Oblique starnetISO def
/Courier-Bold starnetISO def
/Courier-BoldOblique starnetISO def
cleartomark
} bind def

%%BeginResource: procset graphviz 0 0
/coord-font-family /Times-Roman def
/default-font-family /Times-Roman def
/coordfont coord-font-family findfont 8 scalefont def

/InvScaleFactor 1.0 def
/set_scale {
       dup 1 exch div /InvScaleFactor exch def
       scale
} bind def

% styles
/solid { [] 0 setdash } bind def
/dashed { [9 InvScaleFactor mul dup ] 0 setdash } bind def
/dotted { [1 InvScaleFactor mul 6 InvScaleFactor mul] 0 setdash } bind def
/invis {/fill {newpath} def /stroke {newpath} def /show {pop newpath} def} bind def
/bold { 2 setlinewidth } bind def
/filled { } bind def
/unfilled { } bind def
/rounded { } bind def
/diagonals { } bind def

% hooks for setting color 
/nodecolor { sethsbcolor } bind def
/edgecolor { sethsbcolor } bind def
/graphcolor { sethsbcolor } bind def
/nopcolor {pop pop pop} bind def

/beginpage {	% i j npages
	/npages exch def
	/j exch def
	/i exch def
	/str 10 string def
	npages 1 gt {
		gsave
			coordfont setfont
			0 0 moveto
			(\() show i str cvs show (,) show j str cvs show (\)) show
		grestore
	} if
} bind def

/set_font {
	findfont exch
	scalefont setfont
} def

% draw text fitted to its expected width
/alignedtext {			% width text
	/text exch def
	/width exch def
	gsave
		width 0 gt {
			[] 0 setdash
			text stringwidth pop width exch sub text length div 0 text ashow
		} if
	grestore
} def

/boxprim {				% xcorner ycorner xsize ysize
		4 2 roll
		moveto
		2 copy
		exch 0 rlineto
		0 exch rlineto
		pop neg 0 rlineto
		closepath
} bind def

/ellipse_path {
	/ry exch def
	/rx exch def
	/y exch def
	/x exch def
	matrix currentmatrix
	newpath
	x y translate
	rx ry scale
	0 0 1 0 360 arc
	setmatrix
} bind def

/endpage { showpage } bind def
/showpage { } def

/layercolorseq
	[	% layer color sequence - darkest to lightest
		[0 0 0]
		[.2 .8 .8]
		[.4 .8 .8]
		[.6 .8 .8]
		[.8 .8 .8]
	]
def

/layerlen layercolorseq length def

/setlayer {/maxlayer exch def /curlayer exch def
	layercolorseq curlayer 1 sub layerlen mod get
	aload pop sethsbcolor
	/nodecolor {nopcolor} def
	/edgecolor {nopcolor} def
	/graphcolor {nopcolor} def
} bind def

/onlayer { curlayer ne {invis} if } def

/onlayers {
	/myupper exch def
	/mylower exch def
	curlayer mylower lt
	curlayer myupper gt
	or
	{invis} if
} def

/curlayer 0 def

%%EndResource
%%EndProlog
%%BeginSetup
14 default-font-family set_font
1 setmiterlimit
% /arrowlength 10 def
% /arrowwidth 5 def

% make sure pdfmark is harmless for PS-interpreters other than Distiller
/pdfmark where {pop} {userdict /pdfmark /cleartomark load put} ifelse
% make '<<' and '>>' safe on PS Level 1 devices
/languagelevel where {pop languagelevel}{1} ifelse
2 lt {
    userdict (<<) cvn ([) cvn load put
    userdict (>>) cvn ([) cvn load put
} if

%%EndSetup
setupLatin1
%%Page: 1 1
%%PageBoundingBox: 182 102 430 690
%%PageOrientation: Portrait
0 0 1 beginpage
gsave
182 102 248 588 boxprim clip newpath
1 1 set_scale 0 rotate 186 107 translate
% start0
gsave
grestore
% 0
gsave
0.21961 0.75686 1 nodecolor
190 487 17.89 18.38 ellipse_path fill
1 setlinewidth
filled
0.21961 0.75686 1 nodecolor
190 487 17.89 18.38 ellipse_path stroke
0 0 0 nodecolor
14 /Times-Roman set_font
185 483.4 moveto 10 (0) alignedtext
grestore
% start0->0
gsave
1 setlinewidth
0 0 0 edgecolor
newpath 190 543.84 moveto
190 535.4 190 525.16 190 515.71 curveto
stroke
0 0 0 edgecolor
newpath 193.5 515.51 moveto
190 505.51 lineto
186.5 515.51 lineto
closepath fill
1 setlinewidth
solid
0 0 0 edgecolor
newpath 193.5 515.51 moveto
190 505.51 lineto
186.5 515.51 lineto
closepath stroke
grestore
% 0->0
gsave
1 setlinewidth
0 0 0 edgecolor
newpath 207.27 493.5 moveto
218.79 495.33 230 493.16 230 487 curveto
230 482.76 224.7 480.42 217.64 479.96 curveto
stroke
0 0 0 edgecolor
newpath 217.07 476.48 moveto
207.27 480.5 lineto
217.44 483.47 lineto
closepath fill
1 setlinewidth
solid
0 0 0 edgecolor
newpath 217.07 476.48 moveto
207.27 480.5 lineto
217.44 483.47 lineto
closepath stroke
0 0 0 edgecolor
14 /Times-Roman set_font
230 483.4 moveto 10 (0) alignedtext
grestore
% 1
gsave
0.54118 0.25098 1 nodecolor
137 395 17.89 18.38 ellipse_path fill
1 setlinewidth
filled
0.54118 0.25098 1 nodecolor
137 395 17.89 18.38 ellipse_path stroke
0 0 0 nodecolor
14 /Times-Roman set_font
132 391.4 moveto 10 (1) alignedtext
grestore
% 0->1
gsave
1 setlinewidth
0 0 0 edgecolor
newpath 180.77 470.97 moveto
172.69 456.95 160.81 436.33 151.46 420.11 curveto
stroke
0 0 0 edgecolor
newpath 154.33 418.07 moveto
146.3 411.15 lineto
148.26 421.56 lineto
closepath fill
1 setlinewidth
solid
0 0 0 edgecolor
newpath 154.33 418.07 moveto
146.3 411.15 lineto
148.26 421.56 lineto
closepath stroke
0 0 0 edgecolor
14 /Times-Roman set_font
168 437.4 moveto 10 (1) alignedtext
grestore
% 2
gsave
0.54118 0.25098 1 nodecolor
109 111 17.89 18.38 ellipse_path fill
1 setlinewidth
filled
0.54118 0.25098 1 nodecolor
109 111 17.89 18.38 ellipse_path stroke
0 0 0 nodecolor
14 /Times-Roman set_font
104 107.4 moveto 10 (2) alignedtext
grestore
% 1->2
gsave
1 setlinewidth
0 0 0 edgecolor
newpath 140.28 376.67 moveto
146.27 339.71 157.05 253.85 142 184 curveto
138.36 167.1 130.47 149.4 123.32 135.66 curveto
stroke
0 0 0 edgecolor
newpath 126.39 133.97 moveto
118.55 126.84 lineto
120.23 137.3 lineto
closepath fill
1 setlinewidth
solid
0 0 0 edgecolor
newpath 126.39 133.97 moveto
118.55 126.84 lineto
120.23 137.3 lineto
closepath stroke
0 0 0 edgecolor
14 /Times-Roman set_font
149 253.4 moveto 10 (0) alignedtext
grestore
% 3
gsave
0.54118 0.25098 1 nodecolor
104 303 17.89 18.38 ellipse_path fill
1 setlinewidth
filled
0.54118 0.25098 1 nodecolor
104 303 17.89 18.38 ellipse_path stroke
0 0 0 nodecolor
14 /Times-Roman set_font
99 299.4 moveto 10 (3) alignedtext
grestore
% 1->3
gsave
1 setlinewidth
0 0 0 edgecolor
newpath 130.64 377.26 moveto
125.81 363.81 119.1 345.1 113.62 329.82 curveto
stroke
0 0 0 edgecolor
newpath 116.9 328.6 moveto
110.23 320.37 lineto
110.31 330.97 lineto
closepath fill
1 setlinewidth
solid
0 0 0 edgecolor
newpath 116.9 328.6 moveto
110.23 320.37 lineto
110.31 330.97 lineto
closepath stroke
0 0 0 edgecolor
14 /Times-Roman set_font
123 345.4 moveto 10 (1) alignedtext
grestore
% 2->0
gsave
1 setlinewidth
0 0 0 edgecolor
newpath 126.31 116.51 moveto
158.21 127.86 223 157.06 223 207 curveto
223 395 223 395 223 395 curveto
223 418.62 213.24 443.76 204.34 461.78 curveto
stroke
0 0 0 edgecolor
newpath 201.05 460.52 moveto
199.54 471 lineto
207.26 463.74 lineto
closepath fill
1 setlinewidth
solid
0 0 0 edgecolor
newpath 201.05 460.52 moveto
199.54 471 lineto
207.26 463.74 lineto
closepath stroke
0 0 0 edgecolor
14 /Times-Roman set_font
223 299.4 moveto 10 (0) alignedtext
grestore
% 4
gsave
0.54118 0.25098 1 nodecolor
72 19 17.89 18.38 ellipse_path fill
1 setlinewidth
filled
0.54118 0.25098 1 nodecolor
72 19 17.89 18.38 ellipse_path stroke
0 0 0 nodecolor
14 /Times-Roman set_font
67 15.4 moveto 10 (4) alignedtext
grestore
% 2->4
gsave
1 setlinewidth
0 0 0 edgecolor
newpath 93.84 100.56 moveto
85.7 93.99 76.45 84.74 72 74 curveto
68.6 65.78 67.67 56.27 67.87 47.48 curveto
stroke
0 0 0 edgecolor
newpath 71.38 47.49 moveto
68.58 37.27 lineto
64.39 47 lineto
closepath fill
1 setlinewidth
solid
0 0 0 edgecolor
newpath 71.38 47.49 moveto
68.58 37.27 lineto
64.39 47 lineto
closepath stroke
0 0 0 edgecolor
14 /Times-Roman set_font
72 61.4 moveto 10 (1) alignedtext
grestore
% 3->2
gsave
1 setlinewidth
0 0 0 edgecolor
newpath 93.38 287.92 moveto
84.08 273.74 71.26 251.51 66 230 curveto
61.14 210.14 60.62 203.72 66 184 curveto
70.98 165.72 81.83 147.36 91.39 133.62 curveto
stroke
0 0 0 edgecolor
newpath 94.38 135.46 moveto
97.41 125.31 lineto
88.71 131.36 lineto
closepath fill
1 setlinewidth
solid
0 0 0 edgecolor
newpath 94.38 135.46 moveto
97.41 125.31 lineto
88.71 131.36 lineto
closepath stroke
0 0 0 edgecolor
14 /Times-Roman set_font
66 203.4 moveto 10 (0) alignedtext
grestore
% 5
gsave
0.023529 0.72157 1 nodecolor
109 207 17.98 18.38 ellipse_path fill
1 setlinewidth
filled
0.023529 0.72157 1 nodecolor
109 207 17.98 18.38 ellipse_path stroke
1 setlinewidth
filled
0.023529 0.72157 1 nodecolor
109 207 21.89 22.38 ellipse_path stroke
0 0 0 nodecolor
14 /Times-Roman set_font
104 203.4 moveto 10 (5) alignedtext
grestore
% 3->5
gsave
1 setlinewidth
0 0 0 edgecolor
newpath 104.96 284.49 moveto
105.62 271.86 106.51 254.79 107.29 239.88 curveto
stroke
0 0 0 edgecolor
newpath 110.8 239.68 moveto
107.83 229.51 lineto
103.81 239.31 lineto
closepath fill
1 setlinewidth
solid
0 0 0 edgecolor
newpath 110.8 239.68 moveto
107.83 229.51 lineto
103.81 239.31 lineto
closepath stroke
0 0 0 edgecolor
14 /Times-Roman set_font
106 253.4 moveto 10 (1) alignedtext
grestore
% 4->1
gsave
1 setlinewidth
0 0 0 edgecolor
newpath 56.73 28.86 moveto
35.6 43.84 0 74.49 0 111 curveto
0 303 0 303 0 303 curveto
0 355.07 69.06 379.58 109.12 389.41 curveto
stroke
0 0 0 edgecolor
newpath 108.56 392.88 moveto
119.09 391.71 lineto
110.13 386.06 lineto
closepath fill
1 setlinewidth
solid
0 0 0 edgecolor
newpath 108.56 392.88 moveto
119.09 391.71 lineto
110.13 386.06 lineto
closepath stroke
0 0 0 edgecolor
14 /Times-Roman set_font
0 203.4 moveto 10 (1) alignedtext
grestore
% 4->2
gsave
1 setlinewidth
0 0 0 edgecolor
newpath 78.93 36.23 moveto
84.35 49.7 91.98 68.67 98.2 84.13 curveto
stroke
0 0 0 edgecolor
newpath 95.06 85.72 moveto
102.04 93.7 lineto
101.56 83.11 lineto
closepath fill
1 setlinewidth
solid
0 0 0 edgecolor
newpath 95.06 85.72 moveto
102.04 93.7 lineto
101.56 83.11 lineto
closepath stroke
0 0 0 edgecolor
14 /Times-Roman set_font
93 61.4 moveto 10 (0) alignedtext
grestore
% 5->2
gsave
1 setlinewidth
0 0 0 edgecolor
newpath 109 184.25 moveto
109 170.99 109 154.15 109 139.95 curveto
stroke
0 0 0 edgecolor
newpath 112.5 139.72 moveto
109 129.72 lineto
105.5 139.72 lineto
closepath fill
1 setlinewidth
solid
0 0 0 edgecolor
newpath 112.5 139.72 moveto
109 129.72 lineto
105.5 139.72 lineto
closepath stroke
0 0 0 edgecolor
14 /Times-Roman set_font
109 153.4 moveto 10 (0) alignedtext
grestore
% 5->3
gsave
1 setlinewidth
0 0 0 edgecolor
newpath 99.31 227.41 moveto
96.73 233.85 94.3 241.09 93 248 curveto
91.29 257.08 92.36 266.98 94.38 275.85 curveto
stroke
0 0 0 edgecolor
newpath 91.06 276.97 moveto
97.08 285.68 lineto
97.81 275.11 lineto
closepath fill
1 setlinewidth
solid
0 0 0 edgecolor
newpath 91.06 276.97 moveto
97.08 285.68 lineto
97.81 275.11 lineto
closepath stroke
0 0 0 edgecolor
14 /Times-Roman set_font
93 253.4 moveto 10 (1) alignedtext
grestore
endpage
showpage
grestore
%%PageTrailer
%%EndPage: 1
%%Trailer
end
restore
%%EOF
