%!PS-Adobe-3.0 EPSF-3.0
%%Creator: graphviz version 2.26.3 (20100126.1600)
%%Title: FSA Utilities
%%Pages: 1
%%BoundingBox: 77 102 535 690
%%EndComments
save
%%BeginProlog
/DotDict 200 dict def
DotDict begin

/setupLatin1 {
mark
/EncodingVector 256 array def
 EncodingVector 0

ISOLatin1Encoding 0 255 getinterval putinterval
EncodingVector 45 /hyphen put

% Set up ISO Latin 1 character encoding
/starnetISO {
        dup dup findfont dup length dict begin
        { 1 index /FID ne { def }{ pop pop } ifelse
        } forall
        /Encoding EncodingVector def
        currentdict end definefont
} def
/Times-Roman starnetISO def
/Times-Italic starnetISO def
/Times-Bold starnetISO def
/Times-BoldItalic starnetISO def
/Helvetica starnetISO def
/Helvetica-Oblique starnetISO def
/Helvetica-Bold starnetISO def
/Helvetica-BoldOblique starnetISO def
/Courier starnetISO def
/Courier-Oblique starnetISO def
/Courier-Bold starnetISO def
/Courier-BoldOblique starnetISO def
cleartomark
} bind def

%%BeginResource: procset graphviz 0 0
/coord-font-family /Times-Roman def
/default-font-family /Times-Roman def
/coordfont coord-font-family findfont 8 scalefont def

/InvScaleFactor 1.0 def
/set_scale {
       dup 1 exch div /InvScaleFactor exch def
       scale
} bind def

% styles
/solid { [] 0 setdash } bind def
/dashed { [9 InvScaleFactor mul dup ] 0 setdash } bind def
/dotted { [1 InvScaleFactor mul 6 InvScaleFactor mul] 0 setdash } bind def
/invis {/fill {newpath} def /stroke {newpath} def /show {pop newpath} def} bind def
/bold { 2 setlinewidth } bind def
/filled { } bind def
/unfilled { } bind def
/rounded { } bind def
/diagonals { } bind def

% hooks for setting color 
/nodecolor { sethsbcolor } bind def
/edgecolor { sethsbcolor } bind def
/graphcolor { sethsbcolor } bind def
/nopcolor {pop pop pop} bind def

/beginpage {	% i j npages
	/npages exch def
	/j exch def
	/i exch def
	/str 10 string def
	npages 1 gt {
		gsave
			coordfont setfont
			0 0 moveto
			(\() show i str cvs show (,) show j str cvs show (\)) show
		grestore
	} if
} bind def

/set_font {
	findfont exch
	scalefont setfont
} def

% draw text fitted to its expected width
/alignedtext {			% width text
	/text exch def
	/width exch def
	gsave
		width 0 gt {
			[] 0 setdash
			text stringwidth pop width exch sub text length div 0 text ashow
		} if
	grestore
} def

/boxprim {				% xcorner ycorner xsize ysize
		4 2 roll
		moveto
		2 copy
		exch 0 rlineto
		0 exch rlineto
		pop neg 0 rlineto
		closepath
} bind def

/ellipse_path {
	/ry exch def
	/rx exch def
	/y exch def
	/x exch def
	matrix currentmatrix
	newpath
	x y translate
	rx ry scale
	0 0 1 0 360 arc
	setmatrix
} bind def

/endpage { showpage } bind def
/showpage { } def

/layercolorseq
	[	% layer color sequence - darkest to lightest
		[0 0 0]
		[.2 .8 .8]
		[.4 .8 .8]
		[.6 .8 .8]
		[.8 .8 .8]
	]
def

/layerlen layercolorseq length def

/setlayer {/maxlayer exch def /curlayer exch def
	layercolorseq curlayer 1 sub layerlen mod get
	aload pop sethsbcolor
	/nodecolor {nopcolor} def
	/edgecolor {nopcolor} def
	/graphcolor {nopcolor} def
} bind def

/onlayer { curlayer ne {invis} if } def

/onlayers {
	/myupper exch def
	/mylower exch def
	curlayer mylower lt
	curlayer myupper gt
	or
	{invis} if
} def

/curlayer 0 def

%%EndResource
%%EndProlog
%%BeginSetup
14 default-font-family set_font
1 setmiterlimit
% /arrowlength 10 def
% /arrowwidth 5 def

% make sure pdfmark is harmless for PS-interpreters other than Distiller
/pdfmark where {pop} {userdict /pdfmark /cleartomark load put} ifelse
% make '<<' and '>>' safe on PS Level 1 devices
/languagelevel where {pop languagelevel}{1} ifelse
2 lt {
    userdict (<<) cvn ([) cvn load put
    userdict (>>) cvn ([) cvn load put
} if

%%EndSetup
setupLatin1
%%Page: 1 1
%%PageBoundingBox: 77 102 535 690
%%PageOrientation: Portrait
0 0 1 beginpage
gsave
77 102 458 588 boxprim clip newpath
1 1 set_scale 0 rotate 81 107 translate
% start0
gsave
grestore
% 0
gsave
0.21961 0.75686 1 nodecolor
210 487 17.89 18.38 ellipse_path fill
1 setlinewidth
filled
0.21961 0.75686 1 nodecolor
210 487 17.89 18.38 ellipse_path stroke
0 0 0 nodecolor
14 /Times-Roman set_font
205 483.4 moveto 10 (0) alignedtext
grestore
% start0->0
gsave
1 setlinewidth
0 0 0 edgecolor
newpath 210 543.84 moveto
210 535.4 210 525.16 210 515.71 curveto
stroke
0 0 0 edgecolor
newpath 213.5 515.51 moveto
210 505.51 lineto
206.5 515.51 lineto
closepath fill
1 setlinewidth
solid
0 0 0 edgecolor
newpath 213.5 515.51 moveto
210 505.51 lineto
206.5 515.51 lineto
closepath stroke
grestore
% 0->0
gsave
1 setlinewidth
0 0 0 edgecolor
newpath 227.27 493.5 moveto
238.79 495.33 250 493.16 250 487 curveto
250 482.76 244.7 480.42 237.64 479.96 curveto
stroke
0 0 0 edgecolor
newpath 237.07 476.48 moveto
227.27 480.5 lineto
237.44 483.47 lineto
closepath fill
1 setlinewidth
solid
0 0 0 edgecolor
newpath 237.07 476.48 moveto
227.27 480.5 lineto
237.44 483.47 lineto
closepath stroke
0 0 0 edgecolor
14 /Times-Roman set_font
250 483.4 moveto 34 ([0,0]) alignedtext
grestore
% 1
gsave
0.023529 0.72157 1 nodecolor
151 23 17.98 18.38 ellipse_path fill
1 setlinewidth
filled
0.023529 0.72157 1 nodecolor
151 23 17.98 18.38 ellipse_path stroke
1 setlinewidth
filled
0.023529 0.72157 1 nodecolor
151 23 21.89 22.38 ellipse_path stroke
0 0 0 nodecolor
14 /Times-Roman set_font
146 19.4 moveto 10 (1) alignedtext
grestore
% 0->1
gsave
1 setlinewidth
0 0 0 edgecolor
newpath 192.1 483.2 moveto
141.31 471.93 0 436.79 0 395 curveto
0 395 0 395 0 119 curveto
0 63.06 74.71 38.32 119.02 28.56 curveto
stroke
0 0 0 edgecolor
newpath 119.96 31.95 moveto
129.04 26.5 lineto
118.54 25.09 lineto
closepath fill
1 setlinewidth
solid
0 0 0 edgecolor
newpath 119.96 31.95 moveto
129.04 26.5 lineto
118.54 25.09 lineto
closepath stroke
0 0 0 edgecolor
14 /Times-Roman set_font
0 253.4 moveto 34 ([0,1]) alignedtext
grestore
% 2
gsave
0.54118 0.25098 1 nodecolor
149 395 17.89 18.38 ellipse_path fill
1 setlinewidth
filled
0.54118 0.25098 1 nodecolor
149 395 17.89 18.38 ellipse_path stroke
0 0 0 nodecolor
14 /Times-Roman set_font
144 391.4 moveto 10 (2) alignedtext
grestore
% 0->2
gsave
1 setlinewidth
0 0 0 edgecolor
newpath 192.35 482.39 moveto
176.81 477.29 155.12 467.4 145 450 curveto
140.24 441.82 139.76 431.76 140.95 422.49 curveto
stroke
0 0 0 edgecolor
newpath 144.42 422.99 moveto
142.87 412.51 lineto
137.55 421.66 lineto
closepath fill
1 setlinewidth
solid
0 0 0 edgecolor
newpath 144.42 422.99 moveto
142.87 412.51 lineto
137.55 421.66 lineto
closepath stroke
0 0 0 edgecolor
14 /Times-Roman set_font
145 437.4 moveto 34 ([1,0]) alignedtext
grestore
% 3
gsave
0.54118 0.25098 1 nodecolor
212 303 17.89 18.38 ellipse_path fill
1 setlinewidth
filled
0.54118 0.25098 1 nodecolor
212 303 17.89 18.38 ellipse_path stroke
0 0 0 nodecolor
14 /Times-Roman set_font
207 299.4 moveto 10 (3) alignedtext
grestore
% 0->3
gsave
1 setlinewidth
0 0 0 edgecolor
newpath 221.6 472.41 moveto
226.05 465.93 230.63 457.97 233 450 curveto
246.93 403.13 248.42 387.02 235 340 curveto
233.64 335.25 231.48 330.52 229.02 326.1 curveto
stroke
0 0 0 edgecolor
newpath 231.95 324.19 moveto
223.68 317.57 lineto
226.02 327.9 lineto
closepath fill
1 setlinewidth
solid
0 0 0 edgecolor
newpath 231.95 324.19 moveto
223.68 317.57 lineto
226.02 327.9 lineto
closepath stroke
0 0 0 edgecolor
14 /Times-Roman set_font
244 391.4 moveto 34 ([2,0]) alignedtext
grestore
% 4
gsave
0.54118 0.25098 1 nodecolor
309 119 17.89 18.38 ellipse_path fill
1 setlinewidth
filled
0.54118 0.25098 1 nodecolor
309 119 17.89 18.38 ellipse_path stroke
0 0 0 nodecolor
14 /Times-Roman set_font
304 115.4 moveto 10 (4) alignedtext
grestore
% 0->4
gsave
1 setlinewidth
0 0 0 edgecolor
newpath 227.92 483.06 moveto
278.04 471.52 416 436.03 416 395 curveto
416 395 416 395 416 211 curveto
416 168.78 367.5 141.71 335.81 128.53 curveto
stroke
0 0 0 edgecolor
newpath 336.78 125.15 moveto
326.19 124.73 lineto
334.21 131.66 lineto
closepath fill
1 setlinewidth
solid
0 0 0 edgecolor
newpath 336.78 125.15 moveto
326.19 124.73 lineto
334.21 131.66 lineto
closepath stroke
0 0 0 edgecolor
14 /Times-Roman set_font
416 299.4 moveto 34 ([2,1]) alignedtext
grestore
% 2->0
gsave
1 setlinewidth
0 0 0 edgecolor
newpath 162.73 407.48 moveto
169.68 414.27 177.91 423.09 184 432 curveto
189.97 440.74 195.25 451.06 199.47 460.39 curveto
stroke
0 0 0 edgecolor
newpath 196.28 461.85 moveto
203.46 469.64 lineto
202.71 459.07 lineto
closepath fill
1 setlinewidth
solid
0 0 0 edgecolor
newpath 196.28 461.85 moveto
203.46 469.64 lineto
202.71 459.07 lineto
closepath stroke
0 0 0 edgecolor
14 /Times-Roman set_font
194 437.4 moveto 34 ([0,0]) alignedtext
grestore
% 2->1
gsave
1 setlinewidth
0 0 0 edgecolor
newpath 132.37 387.81 moveto
105.62 374.98 56 345.47 56 303 curveto
56 303 56 303 56 119 curveto
56 81.08 93.91 52.76 121.84 37.04 curveto
stroke
0 0 0 edgecolor
newpath 123.7 40.01 moveto
130.85 32.2 lineto
120.39 33.85 lineto
closepath fill
1 setlinewidth
solid
0 0 0 edgecolor
newpath 123.7 40.01 moveto
130.85 32.2 lineto
120.39 33.85 lineto
closepath stroke
0 0 0 edgecolor
14 /Times-Roman set_font
56 207.4 moveto 34 ([0,1]) alignedtext
grestore
% 2->2
gsave
1 setlinewidth
0 0 0 edgecolor
newpath 165.44 402.7 moveto
177.24 405.2 189 402.64 189 395 curveto
189 389.63 183.19 386.77 175.63 386.41 curveto
stroke
0 0 0 edgecolor
newpath 175.09 382.95 moveto
165.44 387.3 lineto
175.7 389.92 lineto
closepath fill
1 setlinewidth
solid
0 0 0 edgecolor
newpath 175.09 382.95 moveto
165.44 387.3 lineto
175.7 389.92 lineto
closepath stroke
0 0 0 edgecolor
14 /Times-Roman set_font
189 391.4 moveto 34 ([1,0]) alignedtext
grestore
% 2->3
gsave
1 setlinewidth
0 0 0 edgecolor
newpath 163.19 382.98 moveto
170.63 376.18 179.51 367.21 186 358 curveto
192.09 349.35 197.4 339.04 201.6 329.7 curveto
stroke
0 0 0 edgecolor
newpath 204.85 331 moveto
205.57 320.43 lineto
198.42 328.25 lineto
closepath fill
1 setlinewidth
solid
0 0 0 edgecolor
newpath 204.85 331 moveto
205.57 320.43 lineto
198.42 328.25 lineto
closepath stroke
0 0 0 edgecolor
14 /Times-Roman set_font
196 345.4 moveto 34 ([2,0]) alignedtext
grestore
% 3->1
gsave
1 setlinewidth
0 0 0 edgecolor
newpath 223.68 288.43 moveto
228.15 281.96 232.72 274 235 266 curveto
248.44 218.92 243.79 202.68 229 156 curveto
216.22 115.65 189.47 74.4 170.88 48.76 curveto
stroke
0 0 0 edgecolor
newpath 173.68 46.66 moveto
164.92 40.69 lineto
168.04 50.81 lineto
closepath fill
1 setlinewidth
solid
0 0 0 edgecolor
newpath 173.68 46.66 moveto
164.92 40.69 lineto
168.04 50.81 lineto
closepath stroke
0 0 0 edgecolor
14 /Times-Roman set_font
234 161.4 moveto 34 ([1,1]) alignedtext
grestore
% 3->2
gsave
1 setlinewidth
0 0 0 edgecolor
newpath 194.7 308.32 moveto
180.25 313.77 160.53 323.77 151 340 curveto
146.37 347.88 144.93 357.54 144.92 366.56 curveto
stroke
0 0 0 edgecolor
newpath 141.44 366.91 moveto
145.48 376.7 lineto
148.43 366.52 lineto
closepath fill
1 setlinewidth
solid
0 0 0 edgecolor
newpath 141.44 366.91 moveto
145.48 376.7 lineto
148.43 366.52 lineto
closepath stroke
0 0 0 edgecolor
14 /Times-Roman set_font
151 345.4 moveto 34 ([0,0]) alignedtext
grestore
% 3->3
gsave
1 setlinewidth
0 0 0 edgecolor
newpath 228.44 310.7 moveto
240.24 313.2 252 310.64 252 303 curveto
252 297.63 246.19 294.77 238.63 294.41 curveto
stroke
0 0 0 edgecolor
newpath 238.09 290.95 moveto
228.44 295.3 lineto
238.7 297.92 lineto
closepath fill
1 setlinewidth
solid
0 0 0 edgecolor
newpath 238.09 290.95 moveto
228.44 295.3 lineto
238.7 297.92 lineto
closepath stroke
0 0 0 edgecolor
14 /Times-Roman set_font
252 299.4 moveto 34 ([2,0]) alignedtext
grestore
% 3->4
gsave
1 setlinewidth
0 0 0 edgecolor
newpath 229.64 298.11 moveto
245.34 292.81 267.67 282.79 280 266 curveto
305.6 231.16 310.18 179.59 310.25 147.71 curveto
stroke
0 0 0 edgecolor
newpath 313.75 147.66 moveto
310.12 137.7 lineto
306.75 147.74 lineto
closepath fill
1 setlinewidth
solid
0 0 0 edgecolor
newpath 313.75 147.66 moveto
310.12 137.7 lineto
306.75 147.74 lineto
closepath stroke
0 0 0 edgecolor
14 /Times-Roman set_font
306 207.4 moveto 71 ([0,1] [2,1]) alignedtext
grestore
% 5
gsave
0.54118 0.25098 1 nodecolor
151 211 17.89 18.38 ellipse_path fill
1 setlinewidth
filled
0.54118 0.25098 1 nodecolor
151 211 17.89 18.38 ellipse_path stroke
0 0 0 nodecolor
14 /Times-Roman set_font
146 207.4 moveto 10 (5) alignedtext
grestore
% 3->5
gsave
1 setlinewidth
0 0 0 edgecolor
newpath 205.46 285.64 moveto
200.84 274.42 194.05 259.77 186 248 curveto
181.91 242.02 176.85 236.07 171.86 230.75 curveto
stroke
0 0 0 edgecolor
newpath 174.23 228.17 moveto
164.73 223.48 lineto
169.23 233.07 lineto
closepath fill
1 setlinewidth
solid
0 0 0 edgecolor
newpath 174.23 228.17 moveto
164.73 223.48 lineto
169.23 233.07 lineto
closepath stroke
0 0 0 edgecolor
14 /Times-Roman set_font
196 253.4 moveto 34 ([1,0]) alignedtext
grestore
% 4->1
gsave
1 setlinewidth
0 0 0 edgecolor
newpath 301.38 102.15 moveto
295.09 89.98 285.07 73.99 272 64 curveto
245.83 43.99 209.29 33.4 183.23 28.03 curveto
stroke
0 0 0 edgecolor
newpath 183.59 24.54 moveto
173.11 26.1 lineto
182.27 31.41 lineto
closepath fill
1 setlinewidth
solid
0 0 0 edgecolor
newpath 183.59 24.54 moveto
173.11 26.1 lineto
182.27 31.41 lineto
closepath stroke
0 0 0 edgecolor
14 /Times-Roman set_font
288 69.4 moveto 34 ([2,0]) alignedtext
grestore
% 4->4
gsave
1 setlinewidth
0 0 0 edgecolor
newpath 325.44 126.7 moveto
337.24 129.2 349 126.64 349 119 curveto
349 113.63 343.19 110.77 335.63 110.41 curveto
stroke
0 0 0 edgecolor
newpath 335.09 106.95 moveto
325.44 111.3 lineto
335.7 113.92 lineto
closepath fill
1 setlinewidth
solid
0 0 0 edgecolor
newpath 335.09 106.95 moveto
325.44 111.3 lineto
335.7 113.92 lineto
closepath stroke
0 0 0 edgecolor
14 /Times-Roman set_font
349 115.4 moveto 34 ([1,0]) alignedtext
grestore
% 5->1
gsave
1 setlinewidth
0 0 0 edgecolor
newpath 151 192.29 moveto
151 160.47 151 95.44 151 55.89 curveto
stroke
0 0 0 edgecolor
newpath 154.5 55.69 moveto
151 45.69 lineto
147.5 55.69 lineto
closepath fill
1 setlinewidth
solid
0 0 0 edgecolor
newpath 154.5 55.69 moveto
151 45.69 lineto
147.5 55.69 lineto
closepath stroke
0 0 0 edgecolor
14 /Times-Roman set_font
151 115.4 moveto 34 ([1,1]) alignedtext
grestore
% 5->2
gsave
1 setlinewidth
0 0 0 edgecolor
newpath 145.19 228.88 moveto
143.5 234.89 141.88 241.67 141 248 curveto
128.85 335.84 137.35 335.86 140 358 curveto
140.35 360.95 140.86 364.01 141.46 367.05 curveto
stroke
0 0 0 edgecolor
newpath 138.11 368.11 moveto
143.73 377.09 lineto
144.94 366.57 lineto
closepath fill
1 setlinewidth
solid
0 0 0 edgecolor
newpath 138.11 368.11 moveto
143.73 377.09 lineto
144.94 366.57 lineto
closepath stroke
0 0 0 edgecolor
14 /Times-Roman set_font
136 299.4 moveto 34 ([0,0]) alignedtext
grestore
% 5->3
gsave
1 setlinewidth
0 0 0 edgecolor
newpath 146.72 228.97 moveto
145.02 240.3 144.72 254.85 151 266 curveto
158.36 279.07 172.41 288.06 185.17 293.9 curveto
stroke
0 0 0 edgecolor
newpath 183.97 297.19 moveto
194.55 297.76 lineto
186.64 290.72 lineto
closepath fill
1 setlinewidth
solid
0 0 0 edgecolor
newpath 183.97 297.19 moveto
194.55 297.76 lineto
186.64 290.72 lineto
closepath stroke
0 0 0 edgecolor
14 /Times-Roman set_font
151 253.4 moveto 34 ([2,0]) alignedtext
grestore
% 5->4
gsave
1 setlinewidth
0 0 0 edgecolor
newpath 159.96 194.87 moveto
167.54 182.59 179.49 166.13 194 156 curveto
220.22 137.7 255.99 128.08 280.64 123.28 curveto
stroke
0 0 0 edgecolor
newpath 281.56 126.67 moveto
290.79 121.46 lineto
280.33 119.78 lineto
closepath fill
1 setlinewidth
solid
0 0 0 edgecolor
newpath 281.56 126.67 moveto
290.79 121.46 lineto
280.33 119.78 lineto
closepath stroke
0 0 0 edgecolor
14 /Times-Roman set_font
194 161.4 moveto 34 ([0,1]) alignedtext
grestore
% 5->5
gsave
1 setlinewidth
0 0 0 edgecolor
newpath 167.44 218.7 moveto
179.24 221.2 191 218.64 191 211 curveto
191 205.63 185.19 202.77 177.63 202.41 curveto
stroke
0 0 0 edgecolor
newpath 177.09 198.95 moveto
167.44 203.3 lineto
177.7 205.92 lineto
closepath fill
1 setlinewidth
solid
0 0 0 edgecolor
newpath 177.09 198.95 moveto
167.44 203.3 lineto
177.7 205.92 lineto
closepath stroke
0 0 0 edgecolor
14 /Times-Roman set_font
191 207.4 moveto 34 ([1,0]) alignedtext
grestore
endpage
showpage
grestore
%%PageTrailer
%%EndPage: 1
%%Trailer
end
restore
%%EOF
