%!PS-Adobe-3.0 EPSF-3.0
%%Creator: graphviz version 2.26.3 (20100126.1600)
%%Title: FSA Utilities
%%Pages: 1
%%BoundingBox: 36 148 895 644
%%EndComments
save
%%BeginProlog
/DotDict 200 dict def
DotDict begin

/setupLatin1 {
mark
/EncodingVector 256 array def
 EncodingVector 0

ISOLatin1Encoding 0 255 getinterval putinterval
EncodingVector 45 /hyphen put

% Set up ISO Latin 1 character encoding
/starnetISO {
        dup dup findfont dup length dict begin
        { 1 index /FID ne { def }{ pop pop } ifelse
        } forall
        /Encoding EncodingVector def
        currentdict end definefont
} def
/Times-Roman starnetISO def
/Times-Italic starnetISO def
/Times-Bold starnetISO def
/Times-BoldItalic starnetISO def
/Helvetica starnetISO def
/Helvetica-Oblique starnetISO def
/Helvetica-Bold starnetISO def
/Helvetica-BoldOblique starnetISO def
/Courier starnetISO def
/Courier-Oblique starnetISO def
/Courier-Bold starnetISO def
/Courier-BoldOblique starnetISO def
cleartomark
} bind def

%%BeginResource: procset graphviz 0 0
/coord-font-family /Times-Roman def
/default-font-family /Times-Roman def
/coordfont coord-font-family findfont 8 scalefont def

/InvScaleFactor 1.0 def
/set_scale {
       dup 1 exch div /InvScaleFactor exch def
       scale
} bind def

% styles
/solid { [] 0 setdash } bind def
/dashed { [9 InvScaleFactor mul dup ] 0 setdash } bind def
/dotted { [1 InvScaleFactor mul 6 InvScaleFactor mul] 0 setdash } bind def
/invis {/fill {newpath} def /stroke {newpath} def /show {pop newpath} def} bind def
/bold { 2 setlinewidth } bind def
/filled { } bind def
/unfilled { } bind def
/rounded { } bind def
/diagonals { } bind def

% hooks for setting color 
/nodecolor { sethsbcolor } bind def
/edgecolor { sethsbcolor } bind def
/graphcolor { sethsbcolor } bind def
/nopcolor {pop pop pop} bind def

/beginpage {	% i j npages
	/npages exch def
	/j exch def
	/i exch def
	/str 10 string def
	npages 1 gt {
		gsave
			coordfont setfont
			0 0 moveto
			(\() show i str cvs show (,) show j str cvs show (\)) show
		grestore
	} if
} bind def

/set_font {
	findfont exch
	scalefont setfont
} def

% draw text fitted to its expected width
/alignedtext {			% width text
	/text exch def
	/width exch def
	gsave
		width 0 gt {
			[] 0 setdash
			text stringwidth pop width exch sub text length div 0 text ashow
		} if
	grestore
} def

/boxprim {				% xcorner ycorner xsize ysize
		4 2 roll
		moveto
		2 copy
		exch 0 rlineto
		0 exch rlineto
		pop neg 0 rlineto
		closepath
} bind def

/ellipse_path {
	/ry exch def
	/rx exch def
	/y exch def
	/x exch def
	matrix currentmatrix
	newpath
	x y translate
	rx ry scale
	0 0 1 0 360 arc
	setmatrix
} bind def

/endpage { showpage } bind def
/showpage { } def

/layercolorseq
	[	% layer color sequence - darkest to lightest
		[0 0 0]
		[.2 .8 .8]
		[.4 .8 .8]
		[.6 .8 .8]
		[.8 .8 .8]
	]
def

/layerlen layercolorseq length def

/setlayer {/maxlayer exch def /curlayer exch def
	layercolorseq curlayer 1 sub layerlen mod get
	aload pop sethsbcolor
	/nodecolor {nopcolor} def
	/edgecolor {nopcolor} def
	/graphcolor {nopcolor} def
} bind def

/onlayer { curlayer ne {invis} if } def

/onlayers {
	/myupper exch def
	/mylower exch def
	curlayer mylower lt
	curlayer myupper gt
	or
	{invis} if
} def

/curlayer 0 def

%%EndResource
%%EndProlog
%%BeginSetup
14 default-font-family set_font
1 setmiterlimit
% /arrowlength 10 def
% /arrowwidth 5 def

% make sure pdfmark is harmless for PS-interpreters other than Distiller
/pdfmark where {pop} {userdict /pdfmark /cleartomark load put} ifelse
% make '<<' and '>>' safe on PS Level 1 devices
/languagelevel where {pop languagelevel}{1} ifelse
2 lt {
    userdict (<<) cvn ([) cvn load put
    userdict (>>) cvn ([) cvn load put
} if

%%EndSetup
setupLatin1
%%Page: 1 1
%%PageBoundingBox: 36 148 895 644
%%PageOrientation: Portrait
0 0 1 beginpage
gsave
36 148 859 496 boxprim clip newpath
1 1 set_scale 0 rotate 40 153 translate
% start0
gsave
grestore
% 0
gsave
0.21961 0.75686 1 nodecolor
349 395 17.89 18.38 ellipse_path fill
1 setlinewidth
filled
0.21961 0.75686 1 nodecolor
349 395 17.89 18.38 ellipse_path stroke
0 0 0 nodecolor
14 /Times-Roman set_font
344 391.4 moveto 10 (0) alignedtext
grestore
% start0->0
gsave
1 setlinewidth
0 0 0 edgecolor
newpath 349 451.84 moveto
349 443.4 349 433.16 349 423.71 curveto
stroke
0 0 0 edgecolor
newpath 352.5 423.51 moveto
349 413.51 lineto
345.5 423.51 lineto
closepath fill
1 setlinewidth
solid
0 0 0 edgecolor
newpath 352.5 423.51 moveto
349 413.51 lineto
345.5 423.51 lineto
closepath stroke
grestore
% 0->0
gsave
1 setlinewidth
0 0 0 edgecolor
newpath 366.27 401.5 moveto
377.79 403.33 389 401.16 389 395 curveto
389 390.76 383.7 388.42 376.64 387.96 curveto
stroke
0 0 0 edgecolor
newpath 376.07 384.48 moveto
366.27 388.5 lineto
376.44 391.47 lineto
closepath fill
1 setlinewidth
solid
0 0 0 edgecolor
newpath 376.07 384.48 moveto
366.27 388.5 lineto
376.44 391.47 lineto
closepath stroke
0 0 0 edgecolor
14 /Times-Roman set_font
389 391.4 moveto 146 ([0,0] [1,0] [5,0] [8,0]) alignedtext
grestore
% 1
gsave
0.023529 0.72157 1 nodecolor
369 23 17.98 18.38 ellipse_path fill
1 setlinewidth
filled
0.023529 0.72157 1 nodecolor
369 23 17.98 18.38 ellipse_path stroke
1 setlinewidth
filled
0.023529 0.72157 1 nodecolor
369 23 21.89 22.38 ellipse_path stroke
0 0 0 nodecolor
14 /Times-Roman set_font
364 19.4 moveto 10 (1) alignedtext
grestore
% 0->1
gsave
1 setlinewidth
0 0 0 edgecolor
newpath 330.73 394.17 moveto
258.92 390.41 0 372.08 0 303 curveto
0 303 0 303 0 119 curveto
0 49.75 246.52 29.57 336.57 24.51 curveto
stroke
0 0 0 edgecolor
newpath 336.95 27.99 moveto
346.75 23.96 lineto
336.58 21 lineto
closepath fill
1 setlinewidth
solid
0 0 0 edgecolor
newpath 336.95 27.99 moveto
346.75 23.96 lineto
336.58 21 lineto
closepath stroke
0 0 0 edgecolor
14 /Times-Roman set_font
0 207.4 moveto 109 ([1,2] [4,2] [7,2]) alignedtext
grestore
% 2
gsave
0.54118 0.25098 1 nodecolor
410 303 17.89 18.38 ellipse_path fill
1 setlinewidth
filled
0.54118 0.25098 1 nodecolor
410 303 17.89 18.38 ellipse_path stroke
0 0 0 nodecolor
14 /Times-Roman set_font
405 299.4 moveto 10 (2) alignedtext
grestore
% 0->2
gsave
1 setlinewidth
0 0 0 edgecolor
newpath 342.87 377.49 moveto
339.99 366.08 338.46 351.26 345 340 curveto
353.14 326 368.78 316.86 382.68 311.16 curveto
stroke
0 0 0 edgecolor
newpath 384.18 314.34 moveto
392.35 307.61 lineto
381.76 307.77 lineto
closepath fill
1 setlinewidth
solid
0 0 0 edgecolor
newpath 384.18 314.34 moveto
392.35 307.61 lineto
381.76 307.77 lineto
closepath stroke
0 0 0 edgecolor
14 /Times-Roman set_font
345 345.4 moveto 34 ([2,0]) alignedtext
grestore
% 3
gsave
0.54118 0.25098 1 nodecolor
482 119 17.89 18.38 ellipse_path fill
1 setlinewidth
filled
0.54118 0.25098 1 nodecolor
482 119 17.89 18.38 ellipse_path stroke
0 0 0 nodecolor
14 /Times-Roman set_font
477 115.4 moveto 10 (3) alignedtext
grestore
% 0->3
gsave
1 setlinewidth
0 0 0 edgecolor
newpath 331.38 390.39 moveto
278.87 375.69 129.25 326.19 166 248 curveto
193.26 190.01 218.9 183.02 277 156 curveto
308.02 141.57 405.15 128.26 453.74 122.3 curveto
stroke
0 0 0 edgecolor
newpath 454.37 125.75 moveto
463.88 121.07 lineto
453.53 118.8 lineto
closepath fill
1 setlinewidth
solid
0 0 0 edgecolor
newpath 454.37 125.75 moveto
463.88 121.07 lineto
453.53 118.8 lineto
closepath stroke
0 0 0 edgecolor
14 /Times-Roman set_font
166 253.4 moveto 71 ([3,0] [6,0]) alignedtext
grestore
% 4
gsave
0.54118 0.25098 1 nodecolor
648 211 17.89 18.38 ellipse_path fill
1 setlinewidth
filled
0.54118 0.25098 1 nodecolor
648 211 17.89 18.38 ellipse_path stroke
0 0 0 nodecolor
14 /Times-Roman set_font
643 207.4 moveto 10 (4) alignedtext
grestore
% 0->4
gsave
1 setlinewidth
0 0 0 edgecolor
newpath 366.93 393.2 moveto
397.19 389.64 459.82 380.08 508 358 curveto
571.04 329.12 595.15 323.44 634 266 curveto
639.24 258.26 642.52 248.7 644.57 239.73 curveto
stroke
0 0 0 edgecolor
newpath 648.06 240.1 moveto
646.46 229.63 lineto
641.18 238.81 lineto
closepath fill
1 setlinewidth
solid
0 0 0 edgecolor
newpath 648.06 240.1 moveto
646.46 229.63 lineto
641.18 238.81 lineto
closepath stroke
0 0 0 edgecolor
14 /Times-Roman set_font
620 299.4 moveto 71 ([4,0] [7,0]) alignedtext
grestore
% 1->1
gsave
1 setlinewidth
0 0 0 edgecolor
newpath 389.37 31.79 moveto
401.54 33.74 413 30.81 413 23 curveto
413 17.45 407.21 14.36 399.49 13.74 curveto
stroke
0 0 0 edgecolor
newpath 399.19 10.25 moveto
389.37 14.21 lineto
399.52 17.24 lineto
closepath fill
1 setlinewidth
solid
0 0 0 edgecolor
newpath 399.19 10.25 moveto
389.37 14.21 lineto
399.52 17.24 lineto
closepath stroke
0 0 0 edgecolor
14 /Times-Roman set_font
413 19.4 moveto 34 ([0,0]) alignedtext
grestore
% 2->0
gsave
1 setlinewidth
0 0 0 edgecolor
newpath 403.46 320.36 moveto
398.84 331.58 392.05 346.23 384 358 curveto
379.91 363.98 374.85 369.93 369.86 375.25 curveto
stroke
0 0 0 edgecolor
newpath 367.23 372.93 moveto
362.73 382.52 lineto
372.23 377.83 lineto
closepath fill
1 setlinewidth
solid
0 0 0 edgecolor
newpath 367.23 372.93 moveto
362.73 382.52 lineto
372.23 377.83 lineto
closepath stroke
0 0 0 edgecolor
14 /Times-Roman set_font
394 345.4 moveto 109 ([0,0] [1,0] [5,0]) alignedtext
grestore
% 2->1
gsave
1 setlinewidth
0 0 0 edgecolor
newpath 396.2 290.36 moveto
373.98 268.98 331.14 223.15 315 174 curveto
300.45 129.7 328.04 78.74 348.87 48.79 curveto
stroke
0 0 0 edgecolor
newpath 351.79 50.73 moveto
354.79 40.56 lineto
346.11 46.64 lineto
closepath fill
1 setlinewidth
solid
0 0 0 edgecolor
newpath 351.79 50.73 moveto
354.79 40.56 lineto
346.11 46.64 lineto
closepath stroke
0 0 0 edgecolor
14 /Times-Roman set_font
315 161.4 moveto 146 ([1,2] [4,2] [7,4] [8,2]) alignedtext
grestore
% 2->2
gsave
1 setlinewidth
0 0 0 edgecolor
newpath 426.44 310.7 moveto
438.24 313.2 450 310.64 450 303 curveto
450 297.63 444.19 294.77 436.63 294.41 curveto
stroke
0 0 0 edgecolor
newpath 436.09 290.95 moveto
426.44 295.3 lineto
436.7 297.92 lineto
closepath fill
1 setlinewidth
solid
0 0 0 edgecolor
newpath 436.09 290.95 moveto
426.44 295.3 lineto
436.7 297.92 lineto
closepath stroke
0 0 0 edgecolor
14 /Times-Roman set_font
450 299.4 moveto 71 ([2,0] [7,0]) alignedtext
grestore
% 2->3
gsave
1 setlinewidth
0 0 0 edgecolor
newpath 401.37 286.77 moveto
390.2 263.28 374.58 219.63 396 192 curveto
415.68 166.61 442.93 196.36 466 174 curveto
473.13 167.09 477.13 157.2 479.36 147.71 curveto
stroke
0 0 0 edgecolor
newpath 482.83 148.18 moveto
481.15 137.72 lineto
475.94 146.95 lineto
closepath fill
1 setlinewidth
solid
0 0 0 edgecolor
newpath 482.83 148.18 moveto
481.15 137.72 lineto
475.94 146.95 lineto
closepath stroke
0 0 0 edgecolor
14 /Times-Roman set_font
396 207.4 moveto 71 ([3,0] [6,0]) alignedtext
grestore
% 2->4
gsave
1 setlinewidth
0 0 0 edgecolor
newpath 427.76 299.66 moveto
452.77 294.55 499.38 283.49 536 266 curveto
548.68 259.94 549.71 254.81 562 248 curveto
581.13 237.4 603.92 227.72 621.23 220.92 curveto
stroke
0 0 0 edgecolor
newpath 622.64 224.13 moveto
630.72 217.27 lineto
620.13 217.59 lineto
closepath fill
1 setlinewidth
solid
0 0 0 edgecolor
newpath 622.64 224.13 moveto
630.72 217.27 lineto
620.13 217.59 lineto
closepath stroke
0 0 0 edgecolor
14 /Times-Roman set_font
562 253.4 moveto 71 ([4,0] [8,0]) alignedtext
grestore
% 3->0
gsave
1 setlinewidth
0 0 0 edgecolor
newpath 463.84 121.07 moveto
424.29 125.85 331.84 138.61 306 156 curveto
265.1 183.54 258.41 200.84 244 248 curveto
227.1 303.3 289.01 355.2 324.97 379.9 curveto
stroke
0 0 0 edgecolor
newpath 323.23 382.95 moveto
333.49 385.59 lineto
327.12 377.13 lineto
closepath fill
1 setlinewidth
solid
0 0 0 edgecolor
newpath 323.23 382.95 moveto
333.49 385.59 lineto
327.12 377.13 lineto
closepath stroke
0 0 0 edgecolor
14 /Times-Roman set_font
244 253.4 moveto 109 ([0,0] [1,0] [5,0]) alignedtext
grestore
% 3->1
gsave
1 setlinewidth
0 0 0 edgecolor
newpath 467.69 106.84 moveto
449.18 91.11 416.62 63.46 393.99 44.23 curveto
stroke
0 0 0 edgecolor
newpath 396.03 41.37 moveto
386.14 37.57 lineto
391.5 46.71 lineto
closepath fill
1 setlinewidth
solid
0 0 0 edgecolor
newpath 396.03 41.37 moveto
386.14 37.57 lineto
391.5 46.71 lineto
closepath stroke
0 0 0 edgecolor
14 /Times-Roman set_font
435 69.4 moveto 146 ([1,2] [4,2] [5,4] [6,6]) alignedtext
grestore
% 3->2
gsave
1 setlinewidth
0 0 0 edgecolor
newpath 489.78 135.78 moveto
493.86 146.64 497.55 161.1 495 174 curveto
489.79 200.4 489.69 209.72 472 230 curveto
461.53 242.01 452.19 236.66 441 248 curveto
432.89 256.22 426.2 266.98 421.14 276.81 curveto
stroke
0 0 0 edgecolor
newpath 417.99 275.3 moveto
416.8 285.83 lineto
424.29 278.34 lineto
closepath fill
1 setlinewidth
solid
0 0 0 edgecolor
newpath 417.99 275.3 moveto
416.8 285.83 lineto
424.29 278.34 lineto
closepath stroke
0 0 0 edgecolor
14 /Times-Roman set_font
491 207.4 moveto 71 ([2,0] [7,0]) alignedtext
grestore
% 3->3
gsave
1 setlinewidth
0 0 0 edgecolor
newpath 498.44 126.7 moveto
510.24 129.2 522 126.64 522 119 curveto
522 113.63 516.19 110.77 508.63 110.41 curveto
stroke
0 0 0 edgecolor
newpath 508.09 106.95 moveto
498.44 111.3 lineto
508.7 113.92 lineto
closepath fill
1 setlinewidth
solid
0 0 0 edgecolor
newpath 508.09 106.95 moveto
498.44 111.3 lineto
508.7 113.92 lineto
closepath stroke
0 0 0 edgecolor
14 /Times-Roman set_font
522 115.4 moveto 109 ([3,0] [6,0] [8,0]) alignedtext
grestore
% 3->4
gsave
1 setlinewidth
0 0 0 edgecolor
newpath 499.87 121.8 moveto
533.25 127.33 603.35 140.49 622 156 curveto
630.47 163.04 636.35 173.47 640.35 183.36 curveto
stroke
0 0 0 edgecolor
newpath 637.1 184.67 moveto
643.74 192.92 lineto
643.69 182.32 lineto
closepath fill
1 setlinewidth
solid
0 0 0 edgecolor
newpath 637.1 184.67 moveto
643.74 192.92 lineto
643.69 182.32 lineto
closepath stroke
0 0 0 edgecolor
14 /Times-Roman set_font
635 161.4 moveto 34 ([4,0]) alignedtext
grestore
% 4->0
gsave
1 setlinewidth
0 0 0 edgecolor
newpath 663.89 220.66 moveto
692.62 239.4 748.25 282.36 726 322 curveto
710.96 348.79 696.04 347.99 667 358 curveto
613.74 376.35 445.43 388.84 377.67 393.24 curveto
stroke
0 0 0 edgecolor
newpath 377.09 389.77 moveto
367.33 393.9 lineto
377.53 396.76 lineto
closepath fill
1 setlinewidth
solid
0 0 0 edgecolor
newpath 377.09 389.77 moveto
367.33 393.9 lineto
377.53 396.76 lineto
closepath stroke
0 0 0 edgecolor
14 /Times-Roman set_font
731 299.4 moveto 109 ([0,0] [1,0] [5,0]) alignedtext
grestore
% 4->1
gsave
1 setlinewidth
0 0 0 edgecolor
newpath 660.63 197.35 moveto
665.85 190.8 671.3 182.53 674 174 curveto
676.41 166.37 676.25 163.68 674 156 curveto
658.06 101.71 638.2 85.83 586 64 curveto
523.75 37.96 444.54 28.35 401.1 24.88 curveto
stroke
0 0 0 edgecolor
newpath 401.35 21.39 moveto
391.11 24.14 lineto
400.83 28.37 lineto
closepath fill
1 setlinewidth
solid
0 0 0 edgecolor
newpath 401.35 21.39 moveto
391.11 24.14 lineto
400.83 28.37 lineto
closepath stroke
0 0 0 edgecolor
14 /Times-Roman set_font
667 115.4 moveto 184 ([1,2] [4,2] [7,4] [8,2] [8,8]) alignedtext
grestore
% 4->2
gsave
1 setlinewidth
0 0 0 edgecolor
newpath 630.84 217.14 moveto
618.73 221.27 602.03 226.58 587 230 curveto
533.13 242.25 513.26 222.98 464 248 curveto
449.41 255.41 436.43 268.3 426.86 279.73 curveto
stroke
0 0 0 edgecolor
newpath 424 277.7 moveto
420.52 287.7 lineto
429.48 282.06 lineto
closepath fill
1 setlinewidth
solid
0 0 0 edgecolor
newpath 424 277.7 moveto
420.52 287.7 lineto
429.48 282.06 lineto
closepath stroke
0 0 0 edgecolor
14 /Times-Roman set_font
464 253.4 moveto 71 ([2,0] [7,0]) alignedtext
grestore
% 4->3
gsave
1 setlinewidth
0 0 0 edgecolor
newpath 630.26 206.17 moveto
610.02 200.25 576.35 189.11 550 174 curveto
540.41 168.5 519.73 151.46 503.68 137.79 curveto
stroke
0 0 0 edgecolor
newpath 505.66 134.88 moveto
495.79 131.03 lineto
501.1 140.19 lineto
closepath fill
1 setlinewidth
solid
0 0 0 edgecolor
newpath 505.66 134.88 moveto
495.79 131.03 lineto
501.1 140.19 lineto
closepath stroke
0 0 0 edgecolor
14 /Times-Roman set_font
550 161.4 moveto 71 ([3,0] [6,0]) alignedtext
grestore
% 4->4
gsave
1 setlinewidth
0 0 0 edgecolor
newpath 664.44 218.7 moveto
676.24 221.2 688 218.64 688 211 curveto
688 205.63 682.19 202.77 674.63 202.41 curveto
stroke
0 0 0 edgecolor
newpath 674.09 198.95 moveto
664.44 203.3 lineto
674.7 205.92 lineto
closepath fill
1 setlinewidth
solid
0 0 0 edgecolor
newpath 674.09 198.95 moveto
664.44 203.3 lineto
674.7 205.92 lineto
closepath stroke
0 0 0 edgecolor
14 /Times-Roman set_font
688 207.4 moveto 71 ([4,0] [8,0]) alignedtext
grestore
endpage
showpage
grestore
%%PageTrailer
%%EndPage: 1
%%Trailer
end
restore
%%EOF
