%!PS-Adobe-3.0 EPSF-3.0
%%Creator: graphviz version 2.26.3 (20100126.1600)
%%Title: FSA Utilities
%%Pages: 1
%%BoundingBox: 192 194 420 598
%%EndComments
save
%%BeginProlog
/DotDict 200 dict def
DotDict begin

/setupLatin1 {
mark
/EncodingVector 256 array def
 EncodingVector 0

ISOLatin1Encoding 0 255 getinterval putinterval
EncodingVector 45 /hyphen put

% Set up ISO Latin 1 character encoding
/starnetISO {
        dup dup findfont dup length dict begin
        { 1 index /FID ne { def }{ pop pop } ifelse
        } forall
        /Encoding EncodingVector def
        currentdict end definefont
} def
/Times-Roman starnetISO def
/Times-Italic starnetISO def
/Times-Bold starnetISO def
/Times-BoldItalic starnetISO def
/Helvetica starnetISO def
/Helvetica-Oblique starnetISO def
/Helvetica-Bold starnetISO def
/Helvetica-BoldOblique starnetISO def
/Courier starnetISO def
/Courier-Oblique starnetISO def
/Courier-Bold starnetISO def
/Courier-BoldOblique starnetISO def
cleartomark
} bind def

%%BeginResource: procset graphviz 0 0
/coord-font-family /Times-Roman def
/default-font-family /Times-Roman def
/coordfont coord-font-family findfont 8 scalefont def

/InvScaleFactor 1.0 def
/set_scale {
       dup 1 exch div /InvScaleFactor exch def
       scale
} bind def

% styles
/solid { [] 0 setdash } bind def
/dashed { [9 InvScaleFactor mul dup ] 0 setdash } bind def
/dotted { [1 InvScaleFactor mul 6 InvScaleFactor mul] 0 setdash } bind def
/invis {/fill {newpath} def /stroke {newpath} def /show {pop newpath} def} bind def
/bold { 2 setlinewidth } bind def
/filled { } bind def
/unfilled { } bind def
/rounded { } bind def
/diagonals { } bind def

% hooks for setting color 
/nodecolor { sethsbcolor } bind def
/edgecolor { sethsbcolor } bind def
/graphcolor { sethsbcolor } bind def
/nopcolor {pop pop pop} bind def

/beginpage {	% i j npages
	/npages exch def
	/j exch def
	/i exch def
	/str 10 string def
	npages 1 gt {
		gsave
			coordfont setfont
			0 0 moveto
			(\() show i str cvs show (,) show j str cvs show (\)) show
		grestore
	} if
} bind def

/set_font {
	findfont exch
	scalefont setfont
} def

% draw text fitted to its expected width
/alignedtext {			% width text
	/text exch def
	/width exch def
	gsave
		width 0 gt {
			[] 0 setdash
			text stringwidth pop width exch sub text length div 0 text ashow
		} if
	grestore
} def

/boxprim {				% xcorner ycorner xsize ysize
		4 2 roll
		moveto
		2 copy
		exch 0 rlineto
		0 exch rlineto
		pop neg 0 rlineto
		closepath
} bind def

/ellipse_path {
	/ry exch def
	/rx exch def
	/y exch def
	/x exch def
	matrix currentmatrix
	newpath
	x y translate
	rx ry scale
	0 0 1 0 360 arc
	setmatrix
} bind def

/endpage { showpage } bind def
/showpage { } def

/layercolorseq
	[	% layer color sequence - darkest to lightest
		[0 0 0]
		[.2 .8 .8]
		[.4 .8 .8]
		[.6 .8 .8]
		[.8 .8 .8]
	]
def

/layerlen layercolorseq length def

/setlayer {/maxlayer exch def /curlayer exch def
	layercolorseq curlayer 1 sub layerlen mod get
	aload pop sethsbcolor
	/nodecolor {nopcolor} def
	/edgecolor {nopcolor} def
	/graphcolor {nopcolor} def
} bind def

/onlayer { curlayer ne {invis} if } def

/onlayers {
	/myupper exch def
	/mylower exch def
	curlayer mylower lt
	curlayer myupper gt
	or
	{invis} if
} def

/curlayer 0 def

%%EndResource
%%EndProlog
%%BeginSetup
14 default-font-family set_font
1 setmiterlimit
% /arrowlength 10 def
% /arrowwidth 5 def

% make sure pdfmark is harmless for PS-interpreters other than Distiller
/pdfmark where {pop} {userdict /pdfmark /cleartomark load put} ifelse
% make '<<' and '>>' safe on PS Level 1 devices
/languagelevel where {pop languagelevel}{1} ifelse
2 lt {
    userdict (<<) cvn ([) cvn load put
    userdict (>>) cvn ([) cvn load put
} if

%%EndSetup
setupLatin1
%%Page: 1 1
%%PageBoundingBox: 192 194 420 598
%%PageOrientation: Portrait
0 0 1 beginpage
gsave
192 194 228 404 boxprim clip newpath
1 1 set_scale 0 rotate 195.728 199 translate
% start0
gsave
grestore
% 0
gsave
0.21961 0.75686 1 nodecolor
95.54 303 17.89 18.38 ellipse_path fill
1 setlinewidth
filled
0.21961 0.75686 1 nodecolor
95.54 303 17.89 18.38 ellipse_path stroke
0 0 0 nodecolor
14 /Times-Roman set_font
90.54 299.4 moveto 10 (0) alignedtext
grestore
% start0->0
gsave
1 setlinewidth
0 0 0 edgecolor
newpath 95.54 359.84 moveto
95.54 351.4 95.54 341.16 95.54 331.71 curveto
stroke
0 0 0 edgecolor
newpath 99.05 331.51 moveto
95.54 321.51 lineto
92.05 331.51 lineto
closepath fill
1 setlinewidth
solid
0 0 0 edgecolor
newpath 99.05 331.51 moveto
95.54 321.51 lineto
92.05 331.51 lineto
closepath stroke
grestore
% 0->0
gsave
1 setlinewidth
0 0 0 edgecolor
newpath 112.81 309.5 moveto
124.33 311.33 135.54 309.16 135.54 303 curveto
135.54 298.76 130.25 296.42 123.19 295.96 curveto
stroke
0 0 0 edgecolor
newpath 122.62 292.48 moveto
112.81 296.5 lineto
122.98 299.47 lineto
closepath fill
1 setlinewidth
solid
0 0 0 edgecolor
newpath 122.62 292.48 moveto
112.81 296.5 lineto
122.98 299.47 lineto
closepath stroke
0 0 0 edgecolor
14 /Times-Roman set_font
135.54 299.4 moveto 34 ([0,0]) alignedtext
grestore
% 1
gsave
0.54118 0.25098 1 nodecolor
69.54 211 17.89 18.38 ellipse_path fill
1 setlinewidth
filled
0.54118 0.25098 1 nodecolor
69.54 211 17.89 18.38 ellipse_path stroke
0 0 0 nodecolor
14 /Times-Roman set_font
64.54 207.4 moveto 10 (1) alignedtext
grestore
% 0->1
gsave
1 setlinewidth
0 0 0 edgecolor
newpath 77.3 301.54 moveto
55.54 298.71 20.03 290.39 3.54 266 curveto
-9.74 246.34 18.97 229.87 42.62 220.23 curveto
stroke
0 0 0 edgecolor
newpath 43.89 223.49 moveto
51.98 216.64 lineto
41.39 216.95 lineto
closepath fill
1 setlinewidth
solid
0 0 0 edgecolor
newpath 43.89 223.49 moveto
51.98 216.64 lineto
41.39 216.95 lineto
closepath stroke
0 0 0 edgecolor
14 /Times-Roman set_font
3.54 253.4 moveto 71 ([1,0] [2,0]) alignedtext
grestore
% 2
gsave
0.54118 0.25098 1 nodecolor
142.54 119 17.89 18.38 ellipse_path fill
1 setlinewidth
filled
0.54118 0.25098 1 nodecolor
142.54 119 17.89 18.38 ellipse_path stroke
0 0 0 nodecolor
14 /Times-Roman set_font
137.54 115.4 moveto 10 (2) alignedtext
grestore
% 0->2
gsave
1 setlinewidth
0 0 0 edgecolor
newpath 113.19 298.39 moveto
128.73 293.29 150.43 283.4 160.54 266 curveto
182.47 228.29 167.43 176.01 154.79 145.03 curveto
stroke
0 0 0 edgecolor
newpath 157.98 143.57 moveto
150.82 135.76 lineto
151.54 146.33 lineto
closepath fill
1 setlinewidth
solid
0 0 0 edgecolor
newpath 157.98 143.57 moveto
150.82 135.76 lineto
151.54 146.33 lineto
closepath stroke
0 0 0 edgecolor
14 /Times-Roman set_font
171.54 207.4 moveto 34 ([2,1]) alignedtext
grestore
% 1->0
gsave
1 setlinewidth
0 0 0 edgecolor
newpath 74.58 228.83 moveto
78.29 241.93 83.39 259.99 87.63 275.01 curveto
stroke
0 0 0 edgecolor
newpath 84.32 276.15 moveto
90.41 284.82 lineto
91.06 274.25 lineto
closepath fill
1 setlinewidth
solid
0 0 0 edgecolor
newpath 84.32 276.15 moveto
90.41 284.82 lineto
91.06 274.25 lineto
closepath stroke
0 0 0 edgecolor
14 /Times-Roman set_font
84.54 253.4 moveto 71 ([0,0] [2,0]) alignedtext
grestore
% 1->1
gsave
1 setlinewidth
0 0 0 edgecolor
newpath 85.98 218.7 moveto
97.79 221.2 109.54 218.64 109.54 211 curveto
109.54 205.63 103.73 202.77 96.18 202.41 curveto
stroke
0 0 0 edgecolor
newpath 95.64 198.95 moveto
85.98 203.3 lineto
96.25 205.92 lineto
closepath fill
1 setlinewidth
solid
0 0 0 edgecolor
newpath 95.64 198.95 moveto
85.98 203.3 lineto
96.25 205.92 lineto
closepath stroke
0 0 0 edgecolor
14 /Times-Roman set_font
109.54 207.4 moveto 34 ([1,0]) alignedtext
grestore
% 1->2
gsave
1 setlinewidth
0 0 0 edgecolor
newpath 80.95 196.63 moveto
92.67 181.86 111.07 158.67 124.71 141.47 curveto
stroke
0 0 0 edgecolor
newpath 127.5 143.59 moveto
130.98 133.58 lineto
122.02 139.24 lineto
closepath fill
1 setlinewidth
solid
0 0 0 edgecolor
newpath 127.5 143.59 moveto
130.98 133.58 lineto
122.02 139.24 lineto
closepath stroke
0 0 0 edgecolor
14 /Times-Roman set_font
112.54 161.4 moveto 34 ([1,1]) alignedtext
grestore
% 3
gsave
0.023529 0.72157 1 nodecolor
142.54 23 17.98 18.38 ellipse_path fill
1 setlinewidth
filled
0.023529 0.72157 1 nodecolor
142.54 23 17.98 18.38 ellipse_path stroke
1 setlinewidth
filled
0.023529 0.72157 1 nodecolor
142.54 23 21.89 22.38 ellipse_path stroke
0 0 0 nodecolor
14 /Times-Roman set_font
137.54 19.4 moveto 10 (3) alignedtext
grestore
% 2->3
gsave
1 setlinewidth
0 0 0 edgecolor
newpath 142.54 100.49 moveto
142.54 87.86 142.54 70.79 142.54 55.88 curveto
stroke
0 0 0 edgecolor
newpath 146.05 55.51 moveto
142.54 45.51 lineto
139.05 55.51 lineto
closepath fill
1 setlinewidth
solid
0 0 0 edgecolor
newpath 146.05 55.51 moveto
142.54 45.51 lineto
139.05 55.51 lineto
closepath stroke
0 0 0 edgecolor
14 /Times-Roman set_font
142.54 69.4 moveto 34 ([1,1]) alignedtext
grestore
% 3->3
gsave
1 setlinewidth
0 0 0 edgecolor
newpath 162.91 31.79 moveto
175.09 33.74 186.54 30.81 186.54 23 curveto
186.54 17.45 180.75 14.36 173.03 13.74 curveto
stroke
0 0 0 edgecolor
newpath 172.74 10.25 moveto
162.91 14.21 lineto
173.06 17.24 lineto
closepath fill
1 setlinewidth
solid
0 0 0 edgecolor
newpath 172.74 10.25 moveto
162.91 14.21 lineto
173.06 17.24 lineto
closepath stroke
0 0 0 edgecolor
14 /Times-Roman set_font
186.54 19.4 moveto 34 ([0,0]) alignedtext
grestore
endpage
showpage
grestore
%%PageTrailer
%%EndPage: 1
%%Trailer
end
restore
%%EOF
