%!PS-Adobe-3.0 EPSF-3.0
%%Creator: graphviz version 2.26.3 (20100126.1600)
%%Title: FSA Utilities
%%Pages: 1
%%BoundingBox: 36 240 576 552
%%EndComments
save
%%BeginProlog
/DotDict 200 dict def
DotDict begin

/setupLatin1 {
mark
/EncodingVector 256 array def
 EncodingVector 0

ISOLatin1Encoding 0 255 getinterval putinterval
EncodingVector 45 /hyphen put

% Set up ISO Latin 1 character encoding
/starnetISO {
        dup dup findfont dup length dict begin
        { 1 index /FID ne { def }{ pop pop } ifelse
        } forall
        /Encoding EncodingVector def
        currentdict end definefont
} def
/Times-Roman starnetISO def
/Times-Italic starnetISO def
/Times-Bold starnetISO def
/Times-BoldItalic starnetISO def
/Helvetica starnetISO def
/Helvetica-Oblique starnetISO def
/Helvetica-Bold starnetISO def
/Helvetica-BoldOblique starnetISO def
/Courier starnetISO def
/Courier-Oblique starnetISO def
/Courier-Bold starnetISO def
/Courier-BoldOblique starnetISO def
cleartomark
} bind def

%%BeginResource: procset graphviz 0 0
/coord-font-family /Times-Roman def
/default-font-family /Times-Roman def
/coordfont coord-font-family findfont 8 scalefont def

/InvScaleFactor 1.0 def
/set_scale {
       dup 1 exch div /InvScaleFactor exch def
       scale
} bind def

% styles
/solid { [] 0 setdash } bind def
/dashed { [9 InvScaleFactor mul dup ] 0 setdash } bind def
/dotted { [1 InvScaleFactor mul 6 InvScaleFactor mul] 0 setdash } bind def
/invis {/fill {newpath} def /stroke {newpath} def /show {pop newpath} def} bind def
/bold { 2 setlinewidth } bind def
/filled { } bind def
/unfilled { } bind def
/rounded { } bind def
/diagonals { } bind def

% hooks for setting color 
/nodecolor { sethsbcolor } bind def
/edgecolor { sethsbcolor } bind def
/graphcolor { sethsbcolor } bind def
/nopcolor {pop pop pop} bind def

/beginpage {	% i j npages
	/npages exch def
	/j exch def
	/i exch def
	/str 10 string def
	npages 1 gt {
		gsave
			coordfont setfont
			0 0 moveto
			(\() show i str cvs show (,) show j str cvs show (\)) show
		grestore
	} if
} bind def

/set_font {
	findfont exch
	scalefont setfont
} def

% draw text fitted to its expected width
/alignedtext {			% width text
	/text exch def
	/width exch def
	gsave
		width 0 gt {
			[] 0 setdash
			text stringwidth pop width exch sub text length div 0 text ashow
		} if
	grestore
} def

/boxprim {				% xcorner ycorner xsize ysize
		4 2 roll
		moveto
		2 copy
		exch 0 rlineto
		0 exch rlineto
		pop neg 0 rlineto
		closepath
} bind def

/ellipse_path {
	/ry exch def
	/rx exch def
	/y exch def
	/x exch def
	matrix currentmatrix
	newpath
	x y translate
	rx ry scale
	0 0 1 0 360 arc
	setmatrix
} bind def

/endpage { showpage } bind def
/showpage { } def

/layercolorseq
	[	% layer color sequence - darkest to lightest
		[0 0 0]
		[.2 .8 .8]
		[.4 .8 .8]
		[.6 .8 .8]
		[.8 .8 .8]
	]
def

/layerlen layercolorseq length def

/setlayer {/maxlayer exch def /curlayer exch def
	layercolorseq curlayer 1 sub layerlen mod get
	aload pop sethsbcolor
	/nodecolor {nopcolor} def
	/edgecolor {nopcolor} def
	/graphcolor {nopcolor} def
} bind def

/onlayer { curlayer ne {invis} if } def

/onlayers {
	/myupper exch def
	/mylower exch def
	curlayer mylower lt
	curlayer myupper gt
	or
	{invis} if
} def

/curlayer 0 def

%%EndResource
%%EndProlog
%%BeginSetup
14 default-font-family set_font
1 setmiterlimit
% /arrowlength 10 def
% /arrowwidth 5 def

% make sure pdfmark is harmless for PS-interpreters other than Distiller
/pdfmark where {pop} {userdict /pdfmark /cleartomark load put} ifelse
% make '<<' and '>>' safe on PS Level 1 devices
/languagelevel where {pop languagelevel}{1} ifelse
2 lt {
    userdict (<<) cvn ([) cvn load put
    userdict (>>) cvn ([) cvn load put
} if

%%EndSetup
setupLatin1
%%Page: 1 1
%%PageBoundingBox: 36 240 576 552
%%PageOrientation: Portrait
0 0 1 beginpage
gsave
36 240 540 312 boxprim clip newpath
1 1 set_scale 0 rotate 40.1182 245 translate
% start0
gsave
grestore
% 0
gsave
0.21961 0.75686 1 nodecolor
55.76 211 17.89 18.38 ellipse_path fill
1 setlinewidth
filled
0.21961 0.75686 1 nodecolor
55.76 211 17.89 18.38 ellipse_path stroke
0 0 0 nodecolor
14 /Times-Roman set_font
50.76 207.4 moveto 10 (0) alignedtext
grestore
% start0->0
gsave
1 setlinewidth
0 0 0 edgecolor
newpath 55.76 267.84 moveto
55.76 259.4 55.76 249.16 55.76 239.71 curveto
stroke
0 0 0 edgecolor
newpath 59.26 239.51 moveto
55.76 229.51 lineto
52.26 239.51 lineto
closepath fill
1 setlinewidth
solid
0 0 0 edgecolor
newpath 59.26 239.51 moveto
55.76 229.51 lineto
52.26 239.51 lineto
closepath stroke
grestore
% 0->0
gsave
1 setlinewidth
0 0 0 edgecolor
newpath 73.03 217.5 moveto
84.55 219.33 95.76 217.16 95.76 211 curveto
95.76 206.76 90.46 204.42 83.41 203.96 curveto
stroke
0 0 0 edgecolor
newpath 82.83 200.48 moveto
73.03 204.5 lineto
83.2 207.47 lineto
closepath fill
1 setlinewidth
solid
0 0 0 edgecolor
newpath 82.83 200.48 moveto
73.03 204.5 lineto
83.2 207.47 lineto
closepath stroke
0 0 0 edgecolor
14 /Times-Roman set_font
95.76 207.4 moveto 436 ([0,0] [2,0] [3,0] [4,0] [5,0] [6,0] [7,0] [8,0] [10,0] [11,0] [12,0]) alignedtext
grestore
% 1
gsave
0.54118 0.25098 1 nodecolor
55.76 119 17.89 18.38 ellipse_path fill
1 setlinewidth
filled
0.54118 0.25098 1 nodecolor
55.76 119 17.89 18.38 ellipse_path stroke
0 0 0 nodecolor
14 /Times-Roman set_font
50.76 115.4 moveto 10 (1) alignedtext
grestore
% 0->1
gsave
1 setlinewidth
0 0 0 edgecolor
newpath 38.76 204.3 moveto
26.29 198.38 10.29 188.43 2.76 174 curveto
-6.22 156.78 12.43 141.26 30.03 131.13 curveto
stroke
0 0 0 edgecolor
newpath 31.81 134.15 moveto
38.98 126.35 lineto
28.51 127.97 lineto
closepath fill
1 setlinewidth
solid
0 0 0 edgecolor
newpath 31.81 134.15 moveto
38.98 126.35 lineto
28.51 127.97 lineto
closepath stroke
0 0 0 edgecolor
14 /Times-Roman set_font
2.76 161.4 moveto 71 ([1,0] [9,0]) alignedtext
grestore
% 1->0
gsave
1 setlinewidth
0 0 0 edgecolor
newpath 67.44 133.57 moveto
71.91 140.04 76.48 148 78.76 156 curveto
80.96 163.69 80.96 166.31 78.76 174 curveto
77.41 178.75 75.25 183.48 72.78 187.9 curveto
stroke
0 0 0 edgecolor
newpath 69.78 186.1 moveto
67.44 196.43 lineto
75.72 189.81 lineto
closepath fill
1 setlinewidth
solid
0 0 0 edgecolor
newpath 69.78 186.1 moveto
67.44 196.43 lineto
75.72 189.81 lineto
closepath stroke
0 0 0 edgecolor
14 /Times-Roman set_font
79.76 161.4 moveto 436 ([0,0] [2,0] [3,0] [4,0] [5,0] [6,0] [7,0] [8,0] [10,0] [11,0] [12,0]) alignedtext
grestore
% 1->1
gsave
1 setlinewidth
0 0 0 edgecolor
newpath 72.2 126.7 moveto
84 129.2 95.76 126.64 95.76 119 curveto
95.76 113.63 89.95 110.77 82.39 110.41 curveto
stroke
0 0 0 edgecolor
newpath 81.86 106.95 moveto
72.2 111.3 lineto
82.47 113.92 lineto
closepath fill
1 setlinewidth
solid
0 0 0 edgecolor
newpath 81.86 106.95 moveto
72.2 111.3 lineto
82.47 113.92 lineto
closepath stroke
0 0 0 edgecolor
14 /Times-Roman set_font
95.76 115.4 moveto 71 ([1,0] [9,0]) alignedtext
grestore
% 2
gsave
0.023529 0.72157 1 nodecolor
55.76 23 17.98 18.38 ellipse_path fill
1 setlinewidth
filled
0.023529 0.72157 1 nodecolor
55.76 23 17.98 18.38 ellipse_path stroke
1 setlinewidth
filled
0.023529 0.72157 1 nodecolor
55.76 23 21.89 22.38 ellipse_path stroke
0 0 0 nodecolor
14 /Times-Roman set_font
50.76 19.4 moveto 10 (2) alignedtext
grestore
% 1->2
gsave
1 setlinewidth
0 0 0 edgecolor
newpath 55.76 100.49 moveto
55.76 87.86 55.76 70.79 55.76 55.88 curveto
stroke
0 0 0 edgecolor
newpath 59.26 55.51 moveto
55.76 45.51 lineto
52.26 55.51 lineto
closepath fill
1 setlinewidth
solid
0 0 0 edgecolor
newpath 59.26 55.51 moveto
55.76 45.51 lineto
52.26 55.51 lineto
closepath stroke
0 0 0 edgecolor
14 /Times-Roman set_font
55.76 69.4 moveto 43 ([12,8]) alignedtext
grestore
% 2->2
gsave
1 setlinewidth
0 0 0 edgecolor
newpath 76.13 31.79 moveto
88.31 33.74 99.76 30.81 99.76 23 curveto
99.76 17.45 93.97 14.36 86.25 13.74 curveto
stroke
0 0 0 edgecolor
newpath 85.96 10.25 moveto
76.13 14.21 lineto
86.28 17.24 lineto
closepath fill
1 setlinewidth
solid
0 0 0 edgecolor
newpath 85.96 10.25 moveto
76.13 14.21 lineto
86.28 17.24 lineto
closepath stroke
0 0 0 edgecolor
14 /Times-Roman set_font
99.76 19.4 moveto 34 ([0,0]) alignedtext
grestore
endpage
showpage
grestore
%%PageTrailer
%%EndPage: 1
%%Trailer
end
restore
%%EOF
