%!PS-Adobe-3.0 EPSF-3.0
%%Creator: graphviz version 2.26.3 (20100126.1600)
%%Title: FSA Utilities
%%Pages: 1
%%BoundingBox: 211 186 401 606
%%EndComments
save
%%BeginProlog
/DotDict 200 dict def
DotDict begin

/setupLatin1 {
mark
/EncodingVector 256 array def
 EncodingVector 0

ISOLatin1Encoding 0 255 getinterval putinterval
EncodingVector 45 /hyphen put

% Set up ISO Latin 1 character encoding
/starnetISO {
        dup dup findfont dup length dict begin
        { 1 index /FID ne { def }{ pop pop } ifelse
        } forall
        /Encoding EncodingVector def
        currentdict end definefont
} def
/Times-Roman starnetISO def
/Times-Italic starnetISO def
/Times-Bold starnetISO def
/Times-BoldItalic starnetISO def
/Helvetica starnetISO def
/Helvetica-Oblique starnetISO def
/Helvetica-Bold starnetISO def
/Helvetica-BoldOblique starnetISO def
/Courier starnetISO def
/Courier-Oblique starnetISO def
/Courier-Bold starnetISO def
/Courier-BoldOblique starnetISO def
cleartomark
} bind def

%%BeginResource: procset graphviz 0 0
/coord-font-family /Times-Roman def
/default-font-family /Times-Roman def
/coordfont coord-font-family findfont 8 scalefont def

/InvScaleFactor 1.0 def
/set_scale {
       dup 1 exch div /InvScaleFactor exch def
       scale
} bind def

% styles
/solid { [] 0 setdash } bind def
/dashed { [9 InvScaleFactor mul dup ] 0 setdash } bind def
/dotted { [1 InvScaleFactor mul 6 InvScaleFactor mul] 0 setdash } bind def
/invis {/fill {newpath} def /stroke {newpath} def /show {pop newpath} def} bind def
/bold { 2 setlinewidth } bind def
/filled { } bind def
/unfilled { } bind def
/rounded { } bind def
/diagonals { } bind def

% hooks for setting color 
/nodecolor { sethsbcolor } bind def
/edgecolor { sethsbcolor } bind def
/graphcolor { sethsbcolor } bind def
/nopcolor {pop pop pop} bind def

/beginpage {	% i j npages
	/npages exch def
	/j exch def
	/i exch def
	/str 10 string def
	npages 1 gt {
		gsave
			coordfont setfont
			0 0 moveto
			(\() show i str cvs show (,) show j str cvs show (\)) show
		grestore
	} if
} bind def

/set_font {
	findfont exch
	scalefont setfont
} def

% draw text fitted to its expected width
/alignedtext {			% width text
	/text exch def
	/width exch def
	gsave
		width 0 gt {
			[] 0 setdash
			text stringwidth pop width exch sub text length div 0 text ashow
		} if
	grestore
} def

/boxprim {				% xcorner ycorner xsize ysize
		4 2 roll
		moveto
		2 copy
		exch 0 rlineto
		0 exch rlineto
		pop neg 0 rlineto
		closepath
} bind def

/ellipse_path {
	/ry exch def
	/rx exch def
	/y exch def
	/x exch def
	matrix currentmatrix
	newpath
	x y translate
	rx ry scale
	0 0 1 0 360 arc
	setmatrix
} bind def

/endpage { showpage } bind def
/showpage { } def

/layercolorseq
	[	% layer color sequence - darkest to lightest
		[0 0 0]
		[.2 .8 .8]
		[.4 .8 .8]
		[.6 .8 .8]
		[.8 .8 .8]
	]
def

/layerlen layercolorseq length def

/setlayer {/maxlayer exch def /curlayer exch def
	layercolorseq curlayer 1 sub layerlen mod get
	aload pop sethsbcolor
	/nodecolor {nopcolor} def
	/edgecolor {nopcolor} def
	/graphcolor {nopcolor} def
} bind def

/onlayer { curlayer ne {invis} if } def

/onlayers {
	/myupper exch def
	/mylower exch def
	curlayer mylower lt
	curlayer myupper gt
	or
	{invis} if
} def

/curlayer 0 def

%%EndResource
%%EndProlog
%%BeginSetup
14 default-font-family set_font
1 setmiterlimit
% /arrowlength 10 def
% /arrowwidth 5 def

% make sure pdfmark is harmless for PS-interpreters other than Distiller
/pdfmark where {pop} {userdict /pdfmark /cleartomark load put} ifelse
% make '<<' and '>>' safe on PS Level 1 devices
/languagelevel where {pop languagelevel}{1} ifelse
2 lt {
    userdict (<<) cvn ([) cvn load put
    userdict (>>) cvn ([) cvn load put
} if

%%EndSetup
setupLatin1
%%Page: 1 1
%%PageBoundingBox: 211 186 401 606
%%PageOrientation: Portrait
0 0 1 beginpage
gsave
211 186 190 420 boxprim clip newpath
1 1 set_scale 0 rotate 215 191 translate
% start0
gsave
grestore
% 0
gsave
0.21961 0.75686 1 nodecolor
132 319 17.89 18.38 ellipse_path fill
1 setlinewidth
filled
0.21961 0.75686 1 nodecolor
132 319 17.89 18.38 ellipse_path stroke
0 0 0 nodecolor
14 /Times-Roman set_font
127 315.4 moveto 10 (0) alignedtext
grestore
% start0->0
gsave
1 setlinewidth
0 0 0 edgecolor
newpath 132 375.84 moveto
132 367.4 132 357.16 132 347.71 curveto
stroke
0 0 0 edgecolor
newpath 135.5 347.51 moveto
132 337.51 lineto
128.5 347.51 lineto
closepath fill
1 setlinewidth
solid
0 0 0 edgecolor
newpath 135.5 347.51 moveto
132 337.51 lineto
128.5 347.51 lineto
closepath stroke
grestore
% 0->0
gsave
1 setlinewidth
0 0 0 edgecolor
newpath 149.27 325.5 moveto
160.79 327.33 172 325.16 172 319 curveto
172 314.76 166.7 312.42 159.64 311.96 curveto
stroke
0 0 0 edgecolor
newpath 159.07 308.48 moveto
149.27 312.5 lineto
159.44 315.47 lineto
closepath fill
1 setlinewidth
solid
0 0 0 edgecolor
newpath 159.07 308.48 moveto
149.27 312.5 lineto
159.44 315.47 lineto
closepath stroke
0 0 0 edgecolor
14 /Times-Roman set_font
172 315.4 moveto 10 (0) alignedtext
grestore
% 1
gsave
0.023529 0.72157 1 nodecolor
89 223 17.98 18.38 ellipse_path fill
1 setlinewidth
filled
0.023529 0.72157 1 nodecolor
89 223 17.98 18.38 ellipse_path stroke
1 setlinewidth
filled
0.023529 0.72157 1 nodecolor
89 223 21.89 22.38 ellipse_path stroke
0 0 0 nodecolor
14 /Times-Roman set_font
84 219.4 moveto 10 (1) alignedtext
grestore
% 0->1
gsave
1 setlinewidth
0 0 0 edgecolor
newpath 124.31 301.84 moveto
118.27 288.35 109.71 269.23 102.52 253.19 curveto
stroke
0 0 0 edgecolor
newpath 105.55 251.38 moveto
98.27 243.69 lineto
99.16 254.25 lineto
closepath fill
1 setlinewidth
solid
0 0 0 edgecolor
newpath 105.55 251.38 moveto
98.27 243.69 lineto
99.16 254.25 lineto
closepath stroke
0 0 0 edgecolor
14 /Times-Roman set_font
114 269.4 moveto 10 (1) alignedtext
grestore
% 2
gsave
0.023529 0.72157 1 nodecolor
89 123 17.98 18.38 ellipse_path fill
1 setlinewidth
filled
0.023529 0.72157 1 nodecolor
89 123 17.98 18.38 ellipse_path stroke
1 setlinewidth
filled
0.023529 0.72157 1 nodecolor
89 123 21.89 22.38 ellipse_path stroke
0 0 0 nodecolor
14 /Times-Roman set_font
84 119.4 moveto 10 (2) alignedtext
grestore
% 1->2
gsave
1 setlinewidth
0 0 0 edgecolor
newpath 89 200.31 moveto
89 187.14 89 170.32 89 155.74 curveto
stroke
0 0 0 edgecolor
newpath 92.5 155.6 moveto
89 145.6 lineto
85.5 155.6 lineto
closepath fill
1 setlinewidth
solid
0 0 0 edgecolor
newpath 92.5 155.6 moveto
89 145.6 lineto
85.5 155.6 lineto
closepath stroke
0 0 0 edgecolor
14 /Times-Roman set_font
89 169.4 moveto 10 (0) alignedtext
grestore
% 3
gsave
0.54118 0.25098 1 nodecolor
155 123 17.89 18.38 ellipse_path fill
1 setlinewidth
filled
0.54118 0.25098 1 nodecolor
155 123 17.89 18.38 ellipse_path stroke
0 0 0 nodecolor
14 /Times-Roman set_font
150 119.4 moveto 10 (3) alignedtext
grestore
% 1->3
gsave
1 setlinewidth
0 0 0 edgecolor
newpath 101.41 204.19 moveto
112.1 188 127.58 164.55 139.15 147.01 curveto
stroke
0 0 0 edgecolor
newpath 142.22 148.72 moveto
144.81 138.45 lineto
136.38 144.86 lineto
closepath fill
1 setlinewidth
solid
0 0 0 edgecolor
newpath 142.22 148.72 moveto
144.81 138.45 lineto
136.38 144.86 lineto
closepath stroke
0 0 0 edgecolor
14 /Times-Roman set_font
127 169.4 moveto 10 (1) alignedtext
grestore
% 4
gsave
0.023529 0.72157 1 nodecolor
22 23 17.98 18.38 ellipse_path fill
1 setlinewidth
filled
0.023529 0.72157 1 nodecolor
22 23 17.98 18.38 ellipse_path stroke
1 setlinewidth
filled
0.023529 0.72157 1 nodecolor
22 23 21.89 22.38 ellipse_path stroke
0 0 0 nodecolor
14 /Times-Roman set_font
17 19.4 moveto 10 (4) alignedtext
grestore
% 2->4
gsave
1 setlinewidth
0 0 0 edgecolor
newpath 76.4 104.19 moveto
66.2 88.97 51.69 67.32 40.23 50.2 curveto
stroke
0 0 0 edgecolor
newpath 43.02 48.08 moveto
34.55 41.72 lineto
37.2 51.98 lineto
closepath fill
1 setlinewidth
solid
0 0 0 edgecolor
newpath 43.02 48.08 moveto
34.55 41.72 lineto
37.2 51.98 lineto
closepath stroke
0 0 0 edgecolor
14 /Times-Roman set_font
61 69.4 moveto 10 (0) alignedtext
grestore
% 5
gsave
0.023529 0.72157 1 nodecolor
126 23 17.98 18.38 ellipse_path fill
1 setlinewidth
filled
0.023529 0.72157 1 nodecolor
126 23 17.98 18.38 ellipse_path stroke
1 setlinewidth
filled
0.023529 0.72157 1 nodecolor
126 23 21.89 22.38 ellipse_path stroke
0 0 0 nodecolor
14 /Times-Roman set_font
121 19.4 moveto 10 (5) alignedtext
grestore
% 2->5
gsave
1 setlinewidth
0 0 0 edgecolor
newpath 85.29 100.73 moveto
84.31 89.38 84.55 75.57 89 64 curveto
91.74 56.86 96.37 50.19 101.44 44.39 curveto
stroke
0 0 0 edgecolor
newpath 104.08 46.69 moveto
108.49 37.06 lineto
99.03 41.84 lineto
closepath fill
1 setlinewidth
solid
0 0 0 edgecolor
newpath 104.08 46.69 moveto
108.49 37.06 lineto
99.03 41.84 lineto
closepath stroke
0 0 0 edgecolor
14 /Times-Roman set_font
89 69.4 moveto 10 (1) alignedtext
grestore
% 3->0
gsave
1 setlinewidth
0 0 0 edgecolor
newpath 152.83 141.53 moveto
148.79 175.9 140.13 249.7 135.35 290.47 curveto
stroke
0 0 0 edgecolor
newpath 131.85 290.22 moveto
134.16 300.56 lineto
138.81 291.04 lineto
closepath fill
1 setlinewidth
solid
0 0 0 edgecolor
newpath 131.85 290.22 moveto
134.16 300.56 lineto
138.81 291.04 lineto
closepath stroke
0 0 0 edgecolor
14 /Times-Roman set_font
145 219.4 moveto 10 (0) alignedtext
grestore
% 3->5
gsave
1 setlinewidth
0 0 0 edgecolor
newpath 155.51 104.25 moveto
155.32 92.45 154.13 77.03 150 64 curveto
148.52 59.33 146.44 54.62 144.11 50.14 curveto
stroke
0 0 0 edgecolor
newpath 147.09 48.31 moveto
139.1 41.36 lineto
141.01 51.78 lineto
closepath fill
1 setlinewidth
solid
0 0 0 edgecolor
newpath 147.09 48.31 moveto
139.1 41.36 lineto
141.01 51.78 lineto
closepath stroke
0 0 0 edgecolor
14 /Times-Roman set_font
153 69.4 moveto 10 (1) alignedtext
grestore
% 4->1
gsave
1 setlinewidth
0 0 0 edgecolor
newpath 24.26 45.8 moveto
27.25 70.94 33.66 112.29 46 146 curveto
52.35 163.34 62.26 181.43 70.96 195.71 curveto
stroke
0 0 0 edgecolor
newpath 68.19 197.88 moveto
76.46 204.5 lineto
74.13 194.17 lineto
closepath fill
1 setlinewidth
solid
0 0 0 edgecolor
newpath 68.19 197.88 moveto
76.46 204.5 lineto
74.13 194.17 lineto
closepath stroke
0 0 0 edgecolor
14 /Times-Roman set_font
46 119.4 moveto 10 (1) alignedtext
grestore
% 4->4
gsave
1 setlinewidth
0 0 0 edgecolor
newpath 42.37 31.79 moveto
54.54 33.74 66 30.81 66 23 curveto
66 17.45 60.21 14.36 52.49 13.74 curveto
stroke
0 0 0 edgecolor
newpath 52.19 10.25 moveto
42.37 14.21 lineto
52.52 17.24 lineto
closepath fill
1 setlinewidth
solid
0 0 0 edgecolor
newpath 52.19 10.25 moveto
42.37 14.21 lineto
52.52 17.24 lineto
closepath stroke
0 0 0 edgecolor
14 /Times-Roman set_font
66 19.4 moveto 10 (0) alignedtext
grestore
% 5->2
gsave
1 setlinewidth
0 0 0 edgecolor
newpath 118.16 44.18 moveto
113.02 58.09 106.19 76.53 100.44 92.07 curveto
stroke
0 0 0 edgecolor
newpath 97.03 91.2 moveto
96.85 101.79 lineto
103.6 93.63 lineto
closepath fill
1 setlinewidth
solid
0 0 0 edgecolor
newpath 97.03 91.2 moveto
96.85 101.79 lineto
103.6 93.63 lineto
closepath stroke
0 0 0 edgecolor
14 /Times-Roman set_font
110 69.4 moveto 23 (0 1) alignedtext
grestore
endpage
showpage
grestore
%%PageTrailer
%%EndPage: 1
%%Trailer
end
restore
%%EOF
