%!PS-Adobe-3.0 EPSF-3.0
%%Creator: graphviz version 2.26.3 (20100126.1600)
%%Title: FSA Utilities
%%Pages: 1
%%BoundingBox: 245 240 367 552
%%EndComments
save
%%BeginProlog
/DotDict 200 dict def
DotDict begin

/setupLatin1 {
mark
/EncodingVector 256 array def
 EncodingVector 0

ISOLatin1Encoding 0 255 getinterval putinterval
EncodingVector 45 /hyphen put

% Set up ISO Latin 1 character encoding
/starnetISO {
        dup dup findfont dup length dict begin
        { 1 index /FID ne { def }{ pop pop } ifelse
        } forall
        /Encoding EncodingVector def
        currentdict end definefont
} def
/Times-Roman starnetISO def
/Times-Italic starnetISO def
/Times-Bold starnetISO def
/Times-BoldItalic starnetISO def
/Helvetica starnetISO def
/Helvetica-Oblique starnetISO def
/Helvetica-Bold starnetISO def
/Helvetica-BoldOblique starnetISO def
/Courier starnetISO def
/Courier-Oblique starnetISO def
/Courier-Bold starnetISO def
/Courier-BoldOblique starnetISO def
cleartomark
} bind def

%%BeginResource: procset graphviz 0 0
/coord-font-family /Times-Roman def
/default-font-family /Times-Roman def
/coordfont coord-font-family findfont 8 scalefont def

/InvScaleFactor 1.0 def
/set_scale {
       dup 1 exch div /InvScaleFactor exch def
       scale
} bind def

% styles
/solid { [] 0 setdash } bind def
/dashed { [9 InvScaleFactor mul dup ] 0 setdash } bind def
/dotted { [1 InvScaleFactor mul 6 InvScaleFactor mul] 0 setdash } bind def
/invis {/fill {newpath} def /stroke {newpath} def /show {pop newpath} def} bind def
/bold { 2 setlinewidth } bind def
/filled { } bind def
/unfilled { } bind def
/rounded { } bind def
/diagonals { } bind def

% hooks for setting color 
/nodecolor { sethsbcolor } bind def
/edgecolor { sethsbcolor } bind def
/graphcolor { sethsbcolor } bind def
/nopcolor {pop pop pop} bind def

/beginpage {	% i j npages
	/npages exch def
	/j exch def
	/i exch def
	/str 10 string def
	npages 1 gt {
		gsave
			coordfont setfont
			0 0 moveto
			(\() show i str cvs show (,) show j str cvs show (\)) show
		grestore
	} if
} bind def

/set_font {
	findfont exch
	scalefont setfont
} def

% draw text fitted to its expected width
/alignedtext {			% width text
	/text exch def
	/width exch def
	gsave
		width 0 gt {
			[] 0 setdash
			text stringwidth pop width exch sub text length div 0 text ashow
		} if
	grestore
} def

/boxprim {				% xcorner ycorner xsize ysize
		4 2 roll
		moveto
		2 copy
		exch 0 rlineto
		0 exch rlineto
		pop neg 0 rlineto
		closepath
} bind def

/ellipse_path {
	/ry exch def
	/rx exch def
	/y exch def
	/x exch def
	matrix currentmatrix
	newpath
	x y translate
	rx ry scale
	0 0 1 0 360 arc
	setmatrix
} bind def

/endpage { showpage } bind def
/showpage { } def

/layercolorseq
	[	% layer color sequence - darkest to lightest
		[0 0 0]
		[.2 .8 .8]
		[.4 .8 .8]
		[.6 .8 .8]
		[.8 .8 .8]
	]
def

/layerlen layercolorseq length def

/setlayer {/maxlayer exch def /curlayer exch def
	layercolorseq curlayer 1 sub layerlen mod get
	aload pop sethsbcolor
	/nodecolor {nopcolor} def
	/edgecolor {nopcolor} def
	/graphcolor {nopcolor} def
} bind def

/onlayer { curlayer ne {invis} if } def

/onlayers {
	/myupper exch def
	/mylower exch def
	curlayer mylower lt
	curlayer myupper gt
	or
	{invis} if
} def

/curlayer 0 def

%%EndResource
%%EndProlog
%%BeginSetup
14 default-font-family set_font
1 setmiterlimit
% /arrowlength 10 def
% /arrowwidth 5 def

% make sure pdfmark is harmless for PS-interpreters other than Distiller
/pdfmark where {pop} {userdict /pdfmark /cleartomark load put} ifelse
% make '<<' and '>>' safe on PS Level 1 devices
/languagelevel where {pop languagelevel}{1} ifelse
2 lt {
    userdict (<<) cvn ([) cvn load put
    userdict (>>) cvn ([) cvn load put
} if

%%EndSetup
setupLatin1
%%Page: 1 1
%%PageBoundingBox: 245 240 367 552
%%PageOrientation: Portrait
0 0 1 beginpage
gsave
245 240 122 312 boxprim clip newpath
1 1 set_scale 0 rotate 248.911 245 translate
% start0
gsave
grestore
% 0
gsave
0.21961 0.75686 1 nodecolor
36.18 211 17.89 18.38 ellipse_path fill
1 setlinewidth
filled
0.21961 0.75686 1 nodecolor
36.18 211 17.89 18.38 ellipse_path stroke
0 0 0 nodecolor
14 /Times-Roman set_font
31.18 207.4 moveto 10 (0) alignedtext
grestore
% start0->0
gsave
1 setlinewidth
0 0 0 edgecolor
newpath 36.18 267.84 moveto
36.18 259.4 36.18 249.16 36.18 239.71 curveto
stroke
0 0 0 edgecolor
newpath 39.68 239.51 moveto
36.18 229.51 lineto
32.68 239.51 lineto
closepath fill
1 setlinewidth
solid
0 0 0 edgecolor
newpath 39.68 239.51 moveto
36.18 229.51 lineto
32.68 239.51 lineto
closepath stroke
grestore
% 0->0
gsave
1 setlinewidth
0 0 0 edgecolor
newpath 53.45 217.5 moveto
64.97 219.33 76.18 217.16 76.18 211 curveto
76.18 206.76 70.88 204.42 63.82 203.96 curveto
stroke
0 0 0 edgecolor
newpath 63.25 200.48 moveto
53.45 204.5 lineto
63.62 207.47 lineto
closepath fill
1 setlinewidth
solid
0 0 0 edgecolor
newpath 63.25 200.48 moveto
53.45 204.5 lineto
63.62 207.47 lineto
closepath stroke
0 0 0 edgecolor
14 /Times-Roman set_font
76.18 207.4 moveto 34 ([0,0]) alignedtext
grestore
% 1
gsave
0.54118 0.25098 1 nodecolor
36.18 119 17.89 18.38 ellipse_path fill
1 setlinewidth
filled
0.54118 0.25098 1 nodecolor
36.18 119 17.89 18.38 ellipse_path stroke
0 0 0 nodecolor
14 /Times-Roman set_font
31.18 115.4 moveto 10 (1) alignedtext
grestore
% 0->1
gsave
1 setlinewidth
0 0 0 edgecolor
newpath 21.51 199.67 moveto
14.21 193.08 6.11 184.08 2.18 174 curveto
-.73 166.55 -.73 163.45 2.18 156 curveto
4.82 149.23 9.34 142.95 14.24 137.55 curveto
stroke
0 0 0 edgecolor
newpath 16.88 139.86 moveto
21.51 130.33 lineto
11.95 134.89 lineto
closepath fill
1 setlinewidth
solid
0 0 0 edgecolor
newpath 16.88 139.86 moveto
21.51 130.33 lineto
11.95 134.89 lineto
closepath stroke
0 0 0 edgecolor
14 /Times-Roman set_font
2.18 161.4 moveto 34 ([1,0]) alignedtext
grestore
% 1->0
gsave
1 setlinewidth
0 0 0 edgecolor
newpath 39.16 137.39 moveto
39.99 143.32 40.77 149.92 41.18 156 curveto
41.72 163.98 41.72 166.02 41.18 174 curveto
40.99 176.75 40.73 179.62 40.42 182.47 curveto
stroke
0 0 0 edgecolor
newpath 36.92 182.25 moveto
39.16 192.61 lineto
43.87 183.12 lineto
closepath fill
1 setlinewidth
solid
0 0 0 edgecolor
newpath 36.92 182.25 moveto
39.16 192.61 lineto
43.87 183.12 lineto
closepath stroke
0 0 0 edgecolor
14 /Times-Roman set_font
41.18 161.4 moveto 71 ([0,0] [1,0]) alignedtext
grestore
% 2
gsave
0.023529 0.72157 1 nodecolor
36.18 23 17.98 18.38 ellipse_path fill
1 setlinewidth
filled
0.023529 0.72157 1 nodecolor
36.18 23 17.98 18.38 ellipse_path stroke
1 setlinewidth
filled
0.023529 0.72157 1 nodecolor
36.18 23 21.89 22.38 ellipse_path stroke
0 0 0 nodecolor
14 /Times-Roman set_font
31.18 19.4 moveto 10 (2) alignedtext
grestore
% 1->2
gsave
1 setlinewidth
0 0 0 edgecolor
newpath 36.18 100.49 moveto
36.18 87.86 36.18 70.79 36.18 55.88 curveto
stroke
0 0 0 edgecolor
newpath 39.68 55.51 moveto
36.18 45.51 lineto
32.68 55.51 lineto
closepath fill
1 setlinewidth
solid
0 0 0 edgecolor
newpath 39.68 55.51 moveto
36.18 45.51 lineto
32.68 55.51 lineto
closepath stroke
0 0 0 edgecolor
14 /Times-Roman set_font
36.18 69.4 moveto 34 ([0,1]) alignedtext
grestore
% 2->2
gsave
1 setlinewidth
0 0 0 edgecolor
newpath 56.55 31.79 moveto
68.72 33.74 80.18 30.81 80.18 23 curveto
80.18 17.45 74.39 14.36 66.66 13.74 curveto
stroke
0 0 0 edgecolor
newpath 66.37 10.25 moveto
56.55 14.21 lineto
66.7 17.24 lineto
closepath fill
1 setlinewidth
solid
0 0 0 edgecolor
newpath 66.37 10.25 moveto
56.55 14.21 lineto
66.7 17.24 lineto
closepath stroke
0 0 0 edgecolor
14 /Times-Roman set_font
80.18 19.4 moveto 34 ([0,0]) alignedtext
grestore
endpage
showpage
grestore
%%PageTrailer
%%EndPage: 1
%%Trailer
end
restore
%%EOF
