%!PS-Adobe-3.0 EPSF-3.0
%%Creator: graphviz version 2.26.3 (20100126.1600)
%%Title: FSA Utilities
%%Pages: 1
%%BoundingBox: 204 84 408 708
%%EndComments
save
%%BeginProlog
/DotDict 200 dict def
DotDict begin

/setupLatin1 {
mark
/EncodingVector 256 array def
 EncodingVector 0

ISOLatin1Encoding 0 255 getinterval putinterval
EncodingVector 45 /hyphen put

% Set up ISO Latin 1 character encoding
/starnetISO {
        dup dup findfont dup length dict begin
        { 1 index /FID ne { def }{ pop pop } ifelse
        } forall
        /Encoding EncodingVector def
        currentdict end definefont
} def
/Times-Roman starnetISO def
/Times-Italic starnetISO def
/Times-Bold starnetISO def
/Times-BoldItalic starnetISO def
/Helvetica starnetISO def
/Helvetica-Oblique starnetISO def
/Helvetica-Bold starnetISO def
/Helvetica-BoldOblique starnetISO def
/Courier starnetISO def
/Courier-Oblique starnetISO def
/Courier-Bold starnetISO def
/Courier-BoldOblique starnetISO def
cleartomark
} bind def

%%BeginResource: procset graphviz 0 0
/coord-font-family /Times-Roman def
/default-font-family /Times-Roman def
/coordfont coord-font-family findfont 8 scalefont def

/InvScaleFactor 1.0 def
/set_scale {
       dup 1 exch div /InvScaleFactor exch def
       scale
} bind def

% styles
/solid { [] 0 setdash } bind def
/dashed { [9 InvScaleFactor mul dup ] 0 setdash } bind def
/dotted { [1 InvScaleFactor mul 6 InvScaleFactor mul] 0 setdash } bind def
/invis {/fill {newpath} def /stroke {newpath} def /show {pop newpath} def} bind def
/bold { 2 setlinewidth } bind def
/filled { } bind def
/unfilled { } bind def
/rounded { } bind def
/diagonals { } bind def

% hooks for setting color 
/nodecolor { sethsbcolor } bind def
/edgecolor { sethsbcolor } bind def
/graphcolor { sethsbcolor } bind def
/nopcolor {pop pop pop} bind def

/beginpage {	% i j npages
	/npages exch def
	/j exch def
	/i exch def
	/str 10 string def
	npages 1 gt {
		gsave
			coordfont setfont
			0 0 moveto
			(\() show i str cvs show (,) show j str cvs show (\)) show
		grestore
	} if
} bind def

/set_font {
	findfont exch
	scalefont setfont
} def

% draw text fitted to its expected width
/alignedtext {			% width text
	/text exch def
	/width exch def
	gsave
		width 0 gt {
			[] 0 setdash
			text stringwidth pop width exch sub text length div 0 text ashow
		} if
	grestore
} def

/boxprim {				% xcorner ycorner xsize ysize
		4 2 roll
		moveto
		2 copy
		exch 0 rlineto
		0 exch rlineto
		pop neg 0 rlineto
		closepath
} bind def

/ellipse_path {
	/ry exch def
	/rx exch def
	/y exch def
	/x exch def
	matrix currentmatrix
	newpath
	x y translate
	rx ry scale
	0 0 1 0 360 arc
	setmatrix
} bind def

/endpage { showpage } bind def
/showpage { } def

/layercolorseq
	[	% layer color sequence - darkest to lightest
		[0 0 0]
		[.2 .8 .8]
		[.4 .8 .8]
		[.6 .8 .8]
		[.8 .8 .8]
	]
def

/layerlen layercolorseq length def

/setlayer {/maxlayer exch def /curlayer exch def
	layercolorseq curlayer 1 sub layerlen mod get
	aload pop sethsbcolor
	/nodecolor {nopcolor} def
	/edgecolor {nopcolor} def
	/graphcolor {nopcolor} def
} bind def

/onlayer { curlayer ne {invis} if } def

/onlayers {
	/myupper exch def
	/mylower exch def
	curlayer mylower lt
	curlayer myupper gt
	or
	{invis} if
} def

/curlayer 0 def

%%EndResource
%%EndProlog
%%BeginSetup
14 default-font-family set_font
1 setmiterlimit
% /arrowlength 10 def
% /arrowwidth 5 def

% make sure pdfmark is harmless for PS-interpreters other than Distiller
/pdfmark where {pop} {userdict /pdfmark /cleartomark load put} ifelse
% make '<<' and '>>' safe on PS Level 1 devices
/languagelevel where {pop languagelevel}{1} ifelse
2 lt {
    userdict (<<) cvn ([) cvn load put
    userdict (>>) cvn ([) cvn load put
} if

%%EndSetup
setupLatin1
%%Page: 1 1
%%PageBoundingBox: 204 84 408 708
%%PageOrientation: Portrait
0 0 1 beginpage
gsave
204 84 204 624 boxprim clip newpath
1 1 set_scale 0 rotate 208 89 translate
% start0
gsave
grestore
% 0
gsave
0.83922 0.48235 0.8549 nodecolor
70 519 17.98 18.38 ellipse_path fill
1 setlinewidth
filled
0.83922 0.48235 0.8549 nodecolor
70 519 17.98 18.38 ellipse_path stroke
1 setlinewidth
filled
0.83922 0.48235 0.8549 nodecolor
70 519 21.89 22.38 ellipse_path stroke
0 0 0 nodecolor
14 /Times-Roman set_font
65 515.4 moveto 10 (0) alignedtext
grestore
% start0->0
gsave
1 setlinewidth
0 0 0 edgecolor
newpath 70 579.68 moveto
70 571.38 70 561.3 70 551.77 curveto
stroke
0 0 0 edgecolor
newpath 73.5 551.74 moveto
70 541.74 lineto
66.5 551.74 lineto
closepath fill
1 setlinewidth
solid
0 0 0 edgecolor
newpath 73.5 551.74 moveto
70 541.74 lineto
66.5 551.74 lineto
closepath stroke
grestore
% 0->0
gsave
1 setlinewidth
0 0 0 edgecolor
newpath 90.82 526.44 moveto
102.83 527.96 114 525.48 114 519 curveto
114 514.44 108.48 511.86 101.02 511.26 curveto
stroke
0 0 0 edgecolor
newpath 100.72 507.77 moveto
90.82 511.56 lineto
100.92 514.77 lineto
closepath fill
1 setlinewidth
solid
0 0 0 edgecolor
newpath 100.72 507.77 moveto
90.82 511.56 lineto
100.92 514.77 lineto
closepath stroke
0 0 0 edgecolor
14 /Times-Roman set_font
114 515.4 moveto 34 ([0,0]) alignedtext
grestore
% 1
gsave
0.54118 0.25098 1 nodecolor
70 423 17.89 18.38 ellipse_path fill
1 setlinewidth
filled
0.54118 0.25098 1 nodecolor
70 423 17.89 18.38 ellipse_path stroke
0 0 0 nodecolor
14 /Times-Roman set_font
65 419.4 moveto 10 (1) alignedtext
grestore
% 0->1
gsave
1 setlinewidth
0 0 0 edgecolor
newpath 70 496.25 moveto
70 482.99 70 466.15 70 451.95 curveto
stroke
0 0 0 edgecolor
newpath 73.5 451.72 moveto
70 441.72 lineto
66.5 451.72 lineto
closepath fill
1 setlinewidth
solid
0 0 0 edgecolor
newpath 73.5 451.72 moveto
70 441.72 lineto
66.5 451.72 lineto
closepath stroke
0 0 0 edgecolor
14 /Times-Roman set_font
70 465.4 moveto 34 ([0,1]) alignedtext
grestore
% 2
gsave
0.54118 0.25098 1 nodecolor
70 331 17.89 18.38 ellipse_path fill
1 setlinewidth
filled
0.54118 0.25098 1 nodecolor
70 331 17.89 18.38 ellipse_path stroke
0 0 0 nodecolor
14 /Times-Roman set_font
65 327.4 moveto 10 (2) alignedtext
grestore
% 1->2
gsave
1 setlinewidth
0 0 0 edgecolor
newpath 70 404.38 moveto
70 391.54 70 374.22 70 359.63 curveto
stroke
0 0 0 edgecolor
newpath 73.5 359.59 moveto
70 349.59 lineto
66.5 359.59 lineto
closepath fill
1 setlinewidth
solid
0 0 0 edgecolor
newpath 73.5 359.59 moveto
70 349.59 lineto
66.5 359.59 lineto
closepath stroke
0 0 0 edgecolor
14 /Times-Roman set_font
70 373.4 moveto 34 ([0,0]) alignedtext
grestore
% 3
gsave
0.54118 0.25098 1 nodecolor
40 239 17.89 18.38 ellipse_path fill
1 setlinewidth
filled
0.54118 0.25098 1 nodecolor
40 239 17.89 18.38 ellipse_path stroke
0 0 0 nodecolor
14 /Times-Roman set_font
35 235.4 moveto 10 (3) alignedtext
grestore
% 2->3
gsave
1 setlinewidth
0 0 0 edgecolor
newpath 56.4 318.69 moveto
50.11 312.07 43.32 303.35 40 294 curveto
37.05 285.68 36.23 276.2 36.39 267.48 curveto
stroke
0 0 0 edgecolor
newpath 39.89 267.54 moveto
36.99 257.35 lineto
32.9 267.13 lineto
closepath fill
1 setlinewidth
solid
0 0 0 edgecolor
newpath 39.89 267.54 moveto
36.99 257.35 lineto
32.9 267.13 lineto
closepath stroke
0 0 0 edgecolor
14 /Times-Roman set_font
40 281.4 moveto 34 ([0,0]) alignedtext
grestore
% 4
gsave
0.023529 0.72157 1 nodecolor
146 179 17.98 18.38 ellipse_path fill
1 setlinewidth
filled
0.023529 0.72157 1 nodecolor
146 179 17.98 18.38 ellipse_path stroke
1 setlinewidth
filled
0.023529 0.72157 1 nodecolor
146 179 21.89 22.38 ellipse_path stroke
0 0 0 nodecolor
14 /Times-Roman set_font
141 175.4 moveto 10 (4) alignedtext
grestore
% 2->4
gsave
1 setlinewidth
0 0 0 edgecolor
newpath 78.28 314.44 moveto
90.97 289.06 115.42 240.16 131.21 208.59 curveto
stroke
0 0 0 edgecolor
newpath 134.46 209.9 moveto
135.81 199.39 lineto
128.2 206.77 lineto
closepath fill
1 setlinewidth
solid
0 0 0 edgecolor
newpath 134.46 209.9 moveto
135.81 199.39 lineto
128.2 206.77 lineto
closepath stroke
0 0 0 edgecolor
14 /Times-Roman set_font
96 281.4 moveto 34 ([1,0]) alignedtext
grestore
% 5
gsave
0.54118 0.25098 1 nodecolor
18 119 17.89 18.38 ellipse_path fill
1 setlinewidth
filled
0.54118 0.25098 1 nodecolor
18 119 17.89 18.38 ellipse_path stroke
0 0 0 nodecolor
14 /Times-Roman set_font
13 115.4 moveto 10 (5) alignedtext
grestore
% 3->5
gsave
1 setlinewidth
0 0 0 edgecolor
newpath 36.66 220.77 moveto
33.09 201.3 27.38 170.18 23.22 147.47 curveto
stroke
0 0 0 edgecolor
newpath 26.62 146.6 moveto
21.37 137.4 lineto
19.73 147.86 lineto
closepath fill
1 setlinewidth
solid
0 0 0 edgecolor
newpath 26.62 146.6 moveto
21.37 137.4 lineto
19.73 147.86 lineto
closepath stroke
0 0 0 edgecolor
14 /Times-Roman set_font
33 175.4 moveto 34 ([1,0]) alignedtext
grestore
% 6
gsave
0.023529 0.72157 1 nodecolor
118 23 17.98 18.38 ellipse_path fill
1 setlinewidth
filled
0.023529 0.72157 1 nodecolor
118 23 17.98 18.38 ellipse_path stroke
1 setlinewidth
filled
0.023529 0.72157 1 nodecolor
118 23 21.89 22.38 ellipse_path stroke
0 0 0 nodecolor
14 /Times-Roman set_font
113 19.4 moveto 10 (6) alignedtext
grestore
% 4->6
gsave
1 setlinewidth
0 0 0 edgecolor
newpath 143.77 156.43 moveto
142.05 140.58 139.4 118.91 136 100 curveto
133.31 85.03 129.58 68.6 126.21 54.78 curveto
stroke
0 0 0 edgecolor
newpath 129.53 53.64 moveto
123.73 44.78 lineto
122.74 55.33 lineto
closepath fill
1 setlinewidth
solid
0 0 0 edgecolor
newpath 129.53 53.64 moveto
123.73 44.78 lineto
122.74 55.33 lineto
closepath stroke
0 0 0 edgecolor
14 /Times-Roman set_font
141 115.4 moveto 34 ([0,0]) alignedtext
grestore
% 5->5
gsave
1 setlinewidth
0 0 0 edgecolor
newpath 34.44 126.7 moveto
46.24 129.2 58 126.64 58 119 curveto
58 113.63 52.19 110.77 44.63 110.41 curveto
stroke
0 0 0 edgecolor
newpath 44.09 106.95 moveto
34.44 111.3 lineto
44.7 113.92 lineto
closepath fill
1 setlinewidth
solid
0 0 0 edgecolor
newpath 44.09 106.95 moveto
34.44 111.3 lineto
44.7 113.92 lineto
closepath stroke
0 0 0 edgecolor
14 /Times-Roman set_font
58 115.4 moveto 71 ([0,0] [1,1]) alignedtext
grestore
% 5->6
gsave
1 setlinewidth
0 0 0 edgecolor
newpath 31.49 106.05 moveto
47.58 90.6 74.78 64.49 94.39 45.67 curveto
stroke
0 0 0 edgecolor
newpath 96.96 48.05 moveto
101.75 38.6 lineto
92.11 43 lineto
closepath fill
1 setlinewidth
solid
0 0 0 edgecolor
newpath 96.96 48.05 moveto
101.75 38.6 lineto
92.11 43 lineto
closepath stroke
0 0 0 edgecolor
14 /Times-Roman set_font
73 69.4 moveto 34 ([1,0]) alignedtext
grestore
% 6->6
gsave
1 setlinewidth
0 0 0 edgecolor
newpath 138.37 31.79 moveto
150.54 33.74 162 30.81 162 23 curveto
162 17.45 156.21 14.36 148.49 13.74 curveto
stroke
0 0 0 edgecolor
newpath 148.19 10.25 moveto
138.37 14.21 lineto
148.52 17.24 lineto
closepath fill
1 setlinewidth
solid
0 0 0 edgecolor
newpath 148.19 10.25 moveto
138.37 14.21 lineto
148.52 17.24 lineto
closepath stroke
0 0 0 edgecolor
14 /Times-Roman set_font
162 19.4 moveto 34 ([0,1]) alignedtext
grestore
endpage
showpage
grestore
%%PageTrailer
%%EndPage: 1
%%Trailer
end
restore
%%EOF
