%!PS-Adobe-3.0 EPSF-3.0
%%Creator: graphviz version 2.26.3 (20100126.1600)
%%Title: FSA Utilities
%%Pages: 1
%%BoundingBox: 166 144 446 648
%%EndComments
save
%%BeginProlog
/DotDict 200 dict def
DotDict begin

/setupLatin1 {
mark
/EncodingVector 256 array def
 EncodingVector 0

ISOLatin1Encoding 0 255 getinterval putinterval
EncodingVector 45 /hyphen put

% Set up ISO Latin 1 character encoding
/starnetISO {
        dup dup findfont dup length dict begin
        { 1 index /FID ne { def }{ pop pop } ifelse
        } forall
        /Encoding EncodingVector def
        currentdict end definefont
} def
/Times-Roman starnetISO def
/Times-Italic starnetISO def
/Times-Bold starnetISO def
/Times-BoldItalic starnetISO def
/Helvetica starnetISO def
/Helvetica-Oblique starnetISO def
/Helvetica-Bold starnetISO def
/Helvetica-BoldOblique starnetISO def
/Courier starnetISO def
/Courier-Oblique starnetISO def
/Courier-Bold starnetISO def
/Courier-BoldOblique starnetISO def
cleartomark
} bind def

%%BeginResource: procset graphviz 0 0
/coord-font-family /Times-Roman def
/default-font-family /Times-Roman def
/coordfont coord-font-family findfont 8 scalefont def

/InvScaleFactor 1.0 def
/set_scale {
       dup 1 exch div /InvScaleFactor exch def
       scale
} bind def

% styles
/solid { [] 0 setdash } bind def
/dashed { [9 InvScaleFactor mul dup ] 0 setdash } bind def
/dotted { [1 InvScaleFactor mul 6 InvScaleFactor mul] 0 setdash } bind def
/invis {/fill {newpath} def /stroke {newpath} def /show {pop newpath} def} bind def
/bold { 2 setlinewidth } bind def
/filled { } bind def
/unfilled { } bind def
/rounded { } bind def
/diagonals { } bind def

% hooks for setting color 
/nodecolor { sethsbcolor } bind def
/edgecolor { sethsbcolor } bind def
/graphcolor { sethsbcolor } bind def
/nopcolor {pop pop pop} bind def

/beginpage {	% i j npages
	/npages exch def
	/j exch def
	/i exch def
	/str 10 string def
	npages 1 gt {
		gsave
			coordfont setfont
			0 0 moveto
			(\() show i str cvs show (,) show j str cvs show (\)) show
		grestore
	} if
} bind def

/set_font {
	findfont exch
	scalefont setfont
} def

% draw text fitted to its expected width
/alignedtext {			% width text
	/text exch def
	/width exch def
	gsave
		width 0 gt {
			[] 0 setdash
			text stringwidth pop width exch sub text length div 0 text ashow
		} if
	grestore
} def

/boxprim {				% xcorner ycorner xsize ysize
		4 2 roll
		moveto
		2 copy
		exch 0 rlineto
		0 exch rlineto
		pop neg 0 rlineto
		closepath
} bind def

/ellipse_path {
	/ry exch def
	/rx exch def
	/y exch def
	/x exch def
	matrix currentmatrix
	newpath
	x y translate
	rx ry scale
	0 0 1 0 360 arc
	setmatrix
} bind def

/endpage { showpage } bind def
/showpage { } def

/layercolorseq
	[	% layer color sequence - darkest to lightest
		[0 0 0]
		[.2 .8 .8]
		[.4 .8 .8]
		[.6 .8 .8]
		[.8 .8 .8]
	]
def

/layerlen layercolorseq length def

/setlayer {/maxlayer exch def /curlayer exch def
	layercolorseq curlayer 1 sub layerlen mod get
	aload pop sethsbcolor
	/nodecolor {nopcolor} def
	/edgecolor {nopcolor} def
	/graphcolor {nopcolor} def
} bind def

/onlayer { curlayer ne {invis} if } def

/onlayers {
	/myupper exch def
	/mylower exch def
	curlayer mylower lt
	curlayer myupper gt
	or
	{invis} if
} def

/curlayer 0 def

%%EndResource
%%EndProlog
%%BeginSetup
14 default-font-family set_font
1 setmiterlimit
% /arrowlength 10 def
% /arrowwidth 5 def

% make sure pdfmark is harmless for PS-interpreters other than Distiller
/pdfmark where {pop} {userdict /pdfmark /cleartomark load put} ifelse
% make '<<' and '>>' safe on PS Level 1 devices
/languagelevel where {pop languagelevel}{1} ifelse
2 lt {
    userdict (<<) cvn ([) cvn load put
    userdict (>>) cvn ([) cvn load put
} if

%%EndSetup
setupLatin1
%%Page: 1 1
%%PageBoundingBox: 166 144 446 648
%%PageOrientation: Portrait
0 0 1 beginpage
gsave
166 144 280 504 boxprim clip newpath
1 1 set_scale 0 rotate 169.819 149 translate
% start0
gsave
grestore
% 0
gsave
0.83922 0.48235 0.8549 nodecolor
188.36 399 17.98 18.38 ellipse_path fill
1 setlinewidth
filled
0.83922 0.48235 0.8549 nodecolor
188.36 399 17.98 18.38 ellipse_path stroke
1 setlinewidth
filled
0.83922 0.48235 0.8549 nodecolor
188.36 399 21.89 22.38 ellipse_path stroke
0 0 0 nodecolor
14 /Times-Roman set_font
183.36 395.4 moveto 10 (0) alignedtext
grestore
% start0->0
gsave
1 setlinewidth
0 0 0 edgecolor
newpath 188.36 459.68 moveto
188.36 451.38 188.36 441.3 188.36 431.77 curveto
stroke
0 0 0 edgecolor
newpath 191.86 431.74 moveto
188.36 421.74 lineto
184.86 431.74 lineto
closepath fill
1 setlinewidth
solid
0 0 0 edgecolor
newpath 191.86 431.74 moveto
188.36 421.74 lineto
184.86 431.74 lineto
closepath stroke
grestore
% 0->0
gsave
1 setlinewidth
0 0 0 edgecolor
newpath 209.19 406.44 moveto
221.19 407.96 232.36 405.48 232.36 399 curveto
232.36 394.44 226.84 391.86 219.39 391.26 curveto
stroke
0 0 0 edgecolor
newpath 219.08 387.77 moveto
209.19 391.56 lineto
219.28 394.77 lineto
closepath fill
1 setlinewidth
solid
0 0 0 edgecolor
newpath 219.08 387.77 moveto
209.19 391.56 lineto
219.28 394.77 lineto
closepath stroke
0 0 0 edgecolor
14 /Times-Roman set_font
232.36 395.4 moveto 34 ([0,0]) alignedtext
grestore
% 1
gsave
0.54118 0.25098 1 nodecolor
188.36 303 17.89 18.38 ellipse_path fill
1 setlinewidth
filled
0.54118 0.25098 1 nodecolor
188.36 303 17.89 18.38 ellipse_path stroke
0 0 0 nodecolor
14 /Times-Roman set_font
183.36 299.4 moveto 10 (1) alignedtext
grestore
% 0->1
gsave
1 setlinewidth
0 0 0 edgecolor
newpath 188.36 376.25 moveto
188.36 362.99 188.36 346.15 188.36 331.95 curveto
stroke
0 0 0 edgecolor
newpath 191.86 331.72 moveto
188.36 321.72 lineto
184.86 331.72 lineto
closepath fill
1 setlinewidth
solid
0 0 0 edgecolor
newpath 191.86 331.72 moveto
188.36 321.72 lineto
184.86 331.72 lineto
closepath stroke
0 0 0 edgecolor
14 /Times-Roman set_font
188.36 345.4 moveto 34 ([0,1]) alignedtext
grestore
% 2
gsave
0.54118 0.25098 1 nodecolor
67.36 211 17.89 18.38 ellipse_path fill
1 setlinewidth
filled
0.54118 0.25098 1 nodecolor
67.36 211 17.89 18.38 ellipse_path stroke
0 0 0 nodecolor
14 /Times-Roman set_font
62.36 207.4 moveto 10 (2) alignedtext
grestore
% 1->2
gsave
1 setlinewidth
0 0 0 edgecolor
newpath 173.53 291.72 moveto
152.64 275.84 114.39 246.76 89.96 228.18 curveto
stroke
0 0 0 edgecolor
newpath 92.02 225.35 moveto
81.94 222.09 lineto
87.78 230.92 lineto
closepath fill
1 setlinewidth
solid
0 0 0 edgecolor
newpath 92.02 225.35 moveto
81.94 222.09 lineto
87.78 230.92 lineto
closepath stroke
0 0 0 edgecolor
14 /Times-Roman set_font
138.36 253.4 moveto 34 ([0,0]) alignedtext
grestore
% 3
gsave
0.023529 0.72157 1 nodecolor
67.36 23 17.98 18.38 ellipse_path fill
1 setlinewidth
filled
0.023529 0.72157 1 nodecolor
67.36 23 17.98 18.38 ellipse_path stroke
1 setlinewidth
filled
0.023529 0.72157 1 nodecolor
67.36 23 21.89 22.38 ellipse_path stroke
0 0 0 nodecolor
14 /Times-Roman set_font
62.36 19.4 moveto 10 (3) alignedtext
grestore
% 1->3
gsave
1 setlinewidth
0 0 0 edgecolor
newpath 197.92 287.1 moveto
218.31 250.93 261.22 160.9 223.36 100 curveto
196.25 56.39 136.35 36.74 99.16 28.46 curveto
stroke
0 0 0 edgecolor
newpath 99.83 25.03 moveto
89.32 26.42 lineto
98.4 31.88 lineto
closepath fill
1 setlinewidth
solid
0 0 0 edgecolor
newpath 99.83 25.03 moveto
89.32 26.42 lineto
98.4 31.88 lineto
closepath stroke
0 0 0 edgecolor
14 /Times-Roman set_font
238.36 161.4 moveto 34 ([1,0]) alignedtext
grestore
% 2->3
gsave
1 setlinewidth
0 0 0 edgecolor
newpath 52.79 199.7 moveto
37.38 186.73 13.99 163.89 4.36 138 curveto
-1.52 122.17 -1.32 115.91 4.36 100 curveto
12.01 78.59 28.44 58.84 42.61 44.7 curveto
stroke
0 0 0 edgecolor
newpath 45.38 46.9 moveto
50.18 37.45 lineto
40.54 41.84 lineto
closepath fill
1 setlinewidth
solid
0 0 0 edgecolor
newpath 45.38 46.9 moveto
50.18 37.45 lineto
40.54 41.84 lineto
closepath stroke
0 0 0 edgecolor
14 /Times-Roman set_font
4.36 115.4 moveto 34 ([2,1]) alignedtext
grestore
% 4
gsave
0.54118 0.25098 1 nodecolor
67.36 119 17.89 18.38 ellipse_path fill
1 setlinewidth
filled
0.54118 0.25098 1 nodecolor
67.36 119 17.89 18.38 ellipse_path stroke
0 0 0 nodecolor
14 /Times-Roman set_font
62.36 115.4 moveto 10 (4) alignedtext
grestore
% 2->4
gsave
1 setlinewidth
0 0 0 edgecolor
newpath 67.36 192.38 moveto
67.36 179.54 67.36 162.22 67.36 147.63 curveto
stroke
0 0 0 edgecolor
newpath 70.86 147.59 moveto
67.36 137.59 lineto
63.86 147.59 lineto
closepath fill
1 setlinewidth
solid
0 0 0 edgecolor
newpath 70.86 147.59 moveto
67.36 137.59 lineto
63.86 147.59 lineto
closepath stroke
0 0 0 edgecolor
14 /Times-Roman set_font
67.36 161.4 moveto 71 ([1,1] [2,2]) alignedtext
grestore
% 3->3
gsave
1 setlinewidth
0 0 0 edgecolor
newpath 87.73 31.79 moveto
99.9 33.74 111.36 30.81 111.36 23 curveto
111.36 17.45 105.57 14.36 97.85 13.74 curveto
stroke
0 0 0 edgecolor
newpath 97.56 10.25 moveto
87.73 14.21 lineto
97.88 17.24 lineto
closepath fill
1 setlinewidth
solid
0 0 0 edgecolor
newpath 97.56 10.25 moveto
87.73 14.21 lineto
97.88 17.24 lineto
closepath stroke
0 0 0 edgecolor
14 /Times-Roman set_font
111.36 19.4 moveto 34 ([0,2]) alignedtext
grestore
% 4->3
gsave
1 setlinewidth
0 0 0 edgecolor
newpath 67.36 100.49 moveto
67.36 87.86 67.36 70.79 67.36 55.88 curveto
stroke
0 0 0 edgecolor
newpath 70.86 55.51 moveto
67.36 45.51 lineto
63.86 55.51 lineto
closepath fill
1 setlinewidth
solid
0 0 0 edgecolor
newpath 70.86 55.51 moveto
67.36 45.51 lineto
63.86 55.51 lineto
closepath stroke
0 0 0 edgecolor
14 /Times-Roman set_font
67.36 69.4 moveto 71 ([1,0] [2,1]) alignedtext
grestore
% 4->4
gsave
1 setlinewidth
0 0 0 edgecolor
newpath 83.8 126.7 moveto
95.6 129.2 107.36 126.64 107.36 119 curveto
107.36 113.63 101.55 110.77 93.99 110.41 curveto
stroke
0 0 0 edgecolor
newpath 93.46 106.95 moveto
83.8 111.3 lineto
94.06 113.92 lineto
closepath fill
1 setlinewidth
solid
0 0 0 edgecolor
newpath 93.46 106.95 moveto
83.8 111.3 lineto
94.06 113.92 lineto
closepath stroke
0 0 0 edgecolor
14 /Times-Roman set_font
107.36 115.4 moveto 109 ([0,0] [1,1] [2,2]) alignedtext
grestore
endpage
showpage
grestore
%%PageTrailer
%%EndPage: 1
%%Trailer
end
restore
%%EOF
