%!PS-Adobe-3.0 EPSF-3.0
%%Creator: graphviz version 2.26.3 (20100126.1600)
%%Title: FSA Utilities
%%Pages: 1
%%BoundingBox: 73 42 539 750
%%EndComments
save
%%BeginProlog
/DotDict 200 dict def
DotDict begin

/setupLatin1 {
mark
/EncodingVector 256 array def
 EncodingVector 0

ISOLatin1Encoding 0 255 getinterval putinterval
EncodingVector 45 /hyphen put

% Set up ISO Latin 1 character encoding
/starnetISO {
        dup dup findfont dup length dict begin
        { 1 index /FID ne { def }{ pop pop } ifelse
        } forall
        /Encoding EncodingVector def
        currentdict end definefont
} def
/Times-Roman starnetISO def
/Times-Italic starnetISO def
/Times-Bold starnetISO def
/Times-BoldItalic starnetISO def
/Helvetica starnetISO def
/Helvetica-Oblique starnetISO def
/Helvetica-Bold starnetISO def
/Helvetica-BoldOblique starnetISO def
/Courier starnetISO def
/Courier-Oblique starnetISO def
/Courier-Bold starnetISO def
/Courier-BoldOblique starnetISO def
cleartomark
} bind def

%%BeginResource: procset graphviz 0 0
/coord-font-family /Times-Roman def
/default-font-family /Times-Roman def
/coordfont coord-font-family findfont 8 scalefont def

/InvScaleFactor 1.0 def
/set_scale {
       dup 1 exch div /InvScaleFactor exch def
       scale
} bind def

% styles
/solid { [] 0 setdash } bind def
/dashed { [9 InvScaleFactor mul dup ] 0 setdash } bind def
/dotted { [1 InvScaleFactor mul 6 InvScaleFactor mul] 0 setdash } bind def
/invis {/fill {newpath} def /stroke {newpath} def /show {pop newpath} def} bind def
/bold { 2 setlinewidth } bind def
/filled { } bind def
/unfilled { } bind def
/rounded { } bind def
/diagonals { } bind def

% hooks for setting color 
/nodecolor { sethsbcolor } bind def
/edgecolor { sethsbcolor } bind def
/graphcolor { sethsbcolor } bind def
/nopcolor {pop pop pop} bind def

/beginpage {	% i j npages
	/npages exch def
	/j exch def
	/i exch def
	/str 10 string def
	npages 1 gt {
		gsave
			coordfont setfont
			0 0 moveto
			(\() show i str cvs show (,) show j str cvs show (\)) show
		grestore
	} if
} bind def

/set_font {
	findfont exch
	scalefont setfont
} def

% draw text fitted to its expected width
/alignedtext {			% width text
	/text exch def
	/width exch def
	gsave
		width 0 gt {
			[] 0 setdash
			text stringwidth pop width exch sub text length div 0 text ashow
		} if
	grestore
} def

/boxprim {				% xcorner ycorner xsize ysize
		4 2 roll
		moveto
		2 copy
		exch 0 rlineto
		0 exch rlineto
		pop neg 0 rlineto
		closepath
} bind def

/ellipse_path {
	/ry exch def
	/rx exch def
	/y exch def
	/x exch def
	matrix currentmatrix
	newpath
	x y translate
	rx ry scale
	0 0 1 0 360 arc
	setmatrix
} bind def

/endpage { showpage } bind def
/showpage { } def

/layercolorseq
	[	% layer color sequence - darkest to lightest
		[0 0 0]
		[.2 .8 .8]
		[.4 .8 .8]
		[.6 .8 .8]
		[.8 .8 .8]
	]
def

/layerlen layercolorseq length def

/setlayer {/maxlayer exch def /curlayer exch def
	layercolorseq curlayer 1 sub layerlen mod get
	aload pop sethsbcolor
	/nodecolor {nopcolor} def
	/edgecolor {nopcolor} def
	/graphcolor {nopcolor} def
} bind def

/onlayer { curlayer ne {invis} if } def

/onlayers {
	/myupper exch def
	/mylower exch def
	curlayer mylower lt
	curlayer myupper gt
	or
	{invis} if
} def

/curlayer 0 def

%%EndResource
%%EndProlog
%%BeginSetup
14 default-font-family set_font
1 setmiterlimit
% /arrowlength 10 def
% /arrowwidth 5 def

% make sure pdfmark is harmless for PS-interpreters other than Distiller
/pdfmark where {pop} {userdict /pdfmark /cleartomark load put} ifelse
% make '<<' and '>>' safe on PS Level 1 devices
/languagelevel where {pop languagelevel}{1} ifelse
2 lt {
    userdict (<<) cvn ([) cvn load put
    userdict (>>) cvn ([) cvn load put
} if

%%EndSetup
setupLatin1
%%Page: 1 1
%%PageBoundingBox: 73 42 539 750
%%PageOrientation: Portrait
0 0 1 beginpage
gsave
73 42 466 708 boxprim clip newpath
1 1 set_scale 0 rotate 77.0517 47 translate
% start0
gsave
grestore
% 0
gsave
0.83922 0.48235 0.8549 nodecolor
253.9 603 17.98 18.38 ellipse_path fill
1 setlinewidth
filled
0.83922 0.48235 0.8549 nodecolor
253.9 603 17.98 18.38 ellipse_path stroke
1 setlinewidth
filled
0.83922 0.48235 0.8549 nodecolor
253.9 603 21.89 22.38 ellipse_path stroke
0 0 0 nodecolor
14 /Times-Roman set_font
248.9 599.4 moveto 10 (0) alignedtext
grestore
% start0->0
gsave
1 setlinewidth
0 0 0 edgecolor
newpath 253.9 663.68 moveto
253.9 655.38 253.9 645.3 253.9 635.77 curveto
stroke
0 0 0 edgecolor
newpath 257.4 635.74 moveto
253.9 625.74 lineto
250.4 635.74 lineto
closepath fill
1 setlinewidth
solid
0 0 0 edgecolor
newpath 257.4 635.74 moveto
253.9 625.74 lineto
250.4 635.74 lineto
closepath stroke
grestore
% 0->0
gsave
1 setlinewidth
0 0 0 edgecolor
newpath 274.72 610.44 moveto
286.72 611.96 297.9 609.48 297.9 603 curveto
297.9 598.44 292.37 595.86 284.92 595.26 curveto
stroke
0 0 0 edgecolor
newpath 284.61 591.77 moveto
274.72 595.56 lineto
284.82 598.77 lineto
closepath fill
1 setlinewidth
solid
0 0 0 edgecolor
newpath 284.61 591.77 moveto
274.72 595.56 lineto
284.82 598.77 lineto
closepath stroke
0 0 0 edgecolor
14 /Times-Roman set_font
297.9 599.4 moveto 34 ([0,0]) alignedtext
grestore
% 1
gsave
0.54118 0.25098 1 nodecolor
253.9 507 17.89 18.38 ellipse_path fill
1 setlinewidth
filled
0.54118 0.25098 1 nodecolor
253.9 507 17.89 18.38 ellipse_path stroke
0 0 0 nodecolor
14 /Times-Roman set_font
248.9 503.4 moveto 10 (1) alignedtext
grestore
% 0->1
gsave
1 setlinewidth
0 0 0 edgecolor
newpath 253.9 580.25 moveto
253.9 566.99 253.9 550.15 253.9 535.95 curveto
stroke
0 0 0 edgecolor
newpath 257.4 535.72 moveto
253.9 525.72 lineto
250.4 535.72 lineto
closepath fill
1 setlinewidth
solid
0 0 0 edgecolor
newpath 257.4 535.72 moveto
253.9 525.72 lineto
250.4 535.72 lineto
closepath stroke
0 0 0 edgecolor
14 /Times-Roman set_font
253.9 549.4 moveto 34 ([0,1]) alignedtext
grestore
% 2
gsave
0.54118 0.25098 1 nodecolor
97.9 415 17.89 18.38 ellipse_path fill
1 setlinewidth
filled
0.54118 0.25098 1 nodecolor
97.9 415 17.89 18.38 ellipse_path stroke
0 0 0 nodecolor
14 /Times-Roman set_font
92.9 411.4 moveto 10 (2) alignedtext
grestore
% 1->2
gsave
1 setlinewidth
0 0 0 edgecolor
newpath 238.08 497.67 moveto
210.87 481.62 155 448.67 122.61 429.57 curveto
stroke
0 0 0 edgecolor
newpath 124.15 426.42 moveto
113.75 424.35 lineto
120.59 432.45 lineto
closepath fill
1 setlinewidth
solid
0 0 0 edgecolor
newpath 124.15 426.42 moveto
113.75 424.35 lineto
120.59 432.45 lineto
closepath stroke
0 0 0 edgecolor
14 /Times-Roman set_font
188.9 457.4 moveto 34 ([0,0]) alignedtext
grestore
% 3
gsave
0.54118 0.25098 1 nodecolor
309.9 415 17.89 18.38 ellipse_path fill
1 setlinewidth
filled
0.54118 0.25098 1 nodecolor
309.9 415 17.89 18.38 ellipse_path stroke
0 0 0 nodecolor
14 /Times-Roman set_font
304.9 411.4 moveto 10 (3) alignedtext
grestore
% 1->3
gsave
1 setlinewidth
0 0 0 edgecolor
newpath 263.65 490.97 moveto
272.24 476.86 284.9 456.07 294.79 439.81 curveto
stroke
0 0 0 edgecolor
newpath 298.04 441.2 moveto
300.25 430.84 lineto
292.06 437.56 lineto
closepath fill
1 setlinewidth
solid
0 0 0 edgecolor
newpath 298.04 441.2 moveto
300.25 430.84 lineto
292.06 437.56 lineto
closepath stroke
0 0 0 edgecolor
14 /Times-Roman set_font
286.9 457.4 moveto 34 ([0,1]) alignedtext
grestore
% 4
gsave
0.023529 0.72157 1 nodecolor
309.9 227 17.98 18.38 ellipse_path fill
1 setlinewidth
filled
0.023529 0.72157 1 nodecolor
309.9 227 17.98 18.38 ellipse_path stroke
1 setlinewidth
filled
0.023529 0.72157 1 nodecolor
309.9 227 21.89 22.38 ellipse_path stroke
0 0 0 nodecolor
14 /Times-Roman set_font
304.9 223.4 moveto 10 (4) alignedtext
grestore
% 1->4
gsave
1 setlinewidth
0 0 0 edgecolor
newpath 255.04 488.28 moveto
256.98 460.19 261.65 405.57 270.9 360 curveto
278.11 324.45 290.35 284.65 299.2 257.93 curveto
stroke
0 0 0 edgecolor
newpath 302.54 258.97 moveto
302.4 248.37 lineto
295.91 256.74 lineto
closepath fill
1 setlinewidth
solid
0 0 0 edgecolor
newpath 302.54 258.97 moveto
302.4 248.37 lineto
295.91 256.74 lineto
closepath stroke
0 0 0 edgecolor
14 /Times-Roman set_font
270.9 365.4 moveto 34 ([1,1]) alignedtext
grestore
% 5
gsave
0.54118 0.25098 1 nodecolor
97.9 323 17.89 18.38 ellipse_path fill
1 setlinewidth
filled
0.54118 0.25098 1 nodecolor
97.9 323 17.89 18.38 ellipse_path stroke
0 0 0 nodecolor
14 /Times-Roman set_font
92.9 319.4 moveto 10 (5) alignedtext
grestore
% 2->5
gsave
1 setlinewidth
0 0 0 edgecolor
newpath 97.9 396.38 moveto
97.9 383.54 97.9 366.22 97.9 351.63 curveto
stroke
0 0 0 edgecolor
newpath 101.4 351.59 moveto
97.9 341.59 lineto
94.4 351.59 lineto
closepath fill
1 setlinewidth
solid
0 0 0 edgecolor
newpath 101.4 351.59 moveto
97.9 341.59 lineto
94.4 351.59 lineto
closepath stroke
0 0 0 edgecolor
14 /Times-Roman set_font
97.9 365.4 moveto 34 ([0,2]) alignedtext
grestore
% 6
gsave
0.54118 0.25098 1 nodecolor
21.9 131 17.89 18.38 ellipse_path fill
1 setlinewidth
filled
0.54118 0.25098 1 nodecolor
21.9 131 17.89 18.38 ellipse_path stroke
0 0 0 nodecolor
14 /Times-Roman set_font
16.9 127.4 moveto 10 (6) alignedtext
grestore
% 2->6
gsave
1 setlinewidth
0 0 0 edgecolor
newpath 84.66 402.24 moveto
63.36 380.67 22.31 334.59 6.9 286 curveto
-6.76 242.94 3.8 190.05 12.79 158.51 curveto
stroke
0 0 0 edgecolor
newpath 16.21 159.26 moveto
15.73 148.68 lineto
9.51 157.25 lineto
closepath fill
1 setlinewidth
solid
0 0 0 edgecolor
newpath 16.21 159.26 moveto
15.73 148.68 lineto
9.51 157.25 lineto
closepath stroke
0 0 0 edgecolor
14 /Times-Roman set_font
6.9 273.4 moveto 34 ([1,2]) alignedtext
grestore
% 3->4
gsave
1 setlinewidth
0 0 0 edgecolor
newpath 309.9 396.29 moveto
309.9 364.47 309.9 299.44 309.9 259.89 curveto
stroke
0 0 0 edgecolor
newpath 313.4 259.69 moveto
309.9 249.69 lineto
306.4 259.69 lineto
closepath fill
1 setlinewidth
solid
0 0 0 edgecolor
newpath 313.4 259.69 moveto
309.9 249.69 lineto
306.4 259.69 lineto
closepath stroke
0 0 0 edgecolor
14 /Times-Roman set_font
309.9 319.4 moveto 34 ([2,0]) alignedtext
grestore
% 7
gsave
0.54118 0.25098 1 nodecolor
383.9 323 17.89 18.38 ellipse_path fill
1 setlinewidth
filled
0.54118 0.25098 1 nodecolor
383.9 323 17.89 18.38 ellipse_path stroke
0 0 0 nodecolor
14 /Times-Roman set_font
378.9 319.4 moveto 10 (7) alignedtext
grestore
% 3->7
gsave
1 setlinewidth
0 0 0 edgecolor
newpath 321.46 400.63 moveto
333.41 385.77 352.21 362.39 366.06 345.17 curveto
stroke
0 0 0 edgecolor
newpath 368.87 347.26 moveto
372.42 337.27 lineto
363.42 342.87 lineto
closepath fill
1 setlinewidth
solid
0 0 0 edgecolor
newpath 368.87 347.26 moveto
372.42 337.27 lineto
363.42 342.87 lineto
closepath stroke
0 0 0 edgecolor
14 /Times-Roman set_font
352.9 365.4 moveto 34 ([1,0]) alignedtext
grestore
% 5->6
gsave
1 setlinewidth
0 0 0 edgecolor
newpath 83.58 311.25 moveto
68.62 298.05 45.85 275.17 34.9 250 curveto
22.33 221.12 20.09 184.72 20.35 159.83 curveto
stroke
0 0 0 edgecolor
newpath 23.85 159.68 moveto
20.6 149.6 lineto
16.85 159.51 lineto
closepath fill
1 setlinewidth
solid
0 0 0 edgecolor
newpath 23.85 159.68 moveto
20.6 149.6 lineto
16.85 159.51 lineto
closepath stroke
0 0 0 edgecolor
14 /Times-Roman set_font
34.9 223.4 moveto 34 ([2,1]) alignedtext
grestore
% 8
gsave
0.54118 0.25098 1 nodecolor
97.9 227 17.89 18.38 ellipse_path fill
1 setlinewidth
filled
0.54118 0.25098 1 nodecolor
97.9 227 17.89 18.38 ellipse_path stroke
0 0 0 nodecolor
14 /Times-Roman set_font
92.9 223.4 moveto 10 (8) alignedtext
grestore
% 5->8
gsave
1 setlinewidth
0 0 0 edgecolor
newpath 97.9 304.49 moveto
97.9 290.77 97.9 271.79 97.9 256.05 curveto
stroke
0 0 0 edgecolor
newpath 101.4 255.78 moveto
97.9 245.78 lineto
94.4 255.78 lineto
closepath fill
1 setlinewidth
solid
0 0 0 edgecolor
newpath 101.4 255.78 moveto
97.9 245.78 lineto
94.4 255.78 lineto
closepath stroke
0 0 0 edgecolor
14 /Times-Roman set_font
97.9 273.4 moveto 34 ([1,1]) alignedtext
grestore
% 9
gsave
0.54118 0.25098 1 nodecolor
171.9 131 17.89 18.38 ellipse_path fill
1 setlinewidth
filled
0.54118 0.25098 1 nodecolor
171.9 131 17.89 18.38 ellipse_path stroke
0 0 0 nodecolor
14 /Times-Roman set_font
166.9 127.4 moveto 10 (9) alignedtext
grestore
% 5->9
gsave
1 setlinewidth
0 0 0 edgecolor
newpath 113 312.34 moveto
130.65 299.28 159.85 275.7 178.9 250 curveto
197.6 224.76 202.07 216.66 208.9 186 curveto
210.64 178.19 211.96 175.39 208.9 168 curveto
205.84 160.61 200.51 153.93 194.83 148.35 curveto
stroke
0 0 0 edgecolor
newpath 196.86 145.47 moveto
187.06 141.44 lineto
192.21 150.7 lineto
closepath fill
1 setlinewidth
solid
0 0 0 edgecolor
newpath 196.86 145.47 moveto
187.06 141.44 lineto
192.21 150.7 lineto
closepath stroke
0 0 0 edgecolor
14 /Times-Roman set_font
203.9 223.4 moveto 34 ([2,2]) alignedtext
grestore
% 10
gsave
0.023529 0.72157 1 nodecolor
97.9 29 24.31 24.75 ellipse_path fill
1 setlinewidth
filled
0.023529 0.72157 1 nodecolor
97.9 29 24.31 24.75 ellipse_path stroke
1 setlinewidth
filled
0.023529 0.72157 1 nodecolor
97.9 29 28.24 28.75 ellipse_path stroke
0 0 0 nodecolor
14 /Times-Roman set_font
88.4 25.4 moveto 19 (10) alignedtext
grestore
% 6->10
gsave
1 setlinewidth
0 0 0 edgecolor
newpath 27.81 113.44 moveto
32.1 102.14 38.6 87.47 46.9 76 curveto
52.75 67.91 60.17 60.12 67.53 53.29 curveto
stroke
0 0 0 edgecolor
newpath 70.25 55.55 moveto
75.4 46.29 lineto
65.6 50.32 lineto
closepath fill
1 setlinewidth
solid
0 0 0 edgecolor
newpath 70.25 55.55 moveto
75.4 46.29 lineto
65.6 50.32 lineto
closepath stroke
0 0 0 edgecolor
14 /Times-Roman set_font
46.9 81.4 moveto 34 ([0,2]) alignedtext
grestore
% 7->4
gsave
1 setlinewidth
0 0 0 edgecolor
newpath 372.66 308.42 moveto
361.4 293.81 343.83 271.02 330.13 253.25 curveto
stroke
0 0 0 edgecolor
newpath 332.65 250.78 moveto
323.77 245 lineto
327.1 255.05 lineto
closepath fill
1 setlinewidth
solid
0 0 0 edgecolor
newpath 332.65 250.78 moveto
323.77 245 lineto
327.1 255.05 lineto
closepath stroke
0 0 0 edgecolor
14 /Times-Roman set_font
352.9 273.4 moveto 34 ([1,0]) alignedtext
grestore
% 7->7
gsave
1 setlinewidth
0 0 0 edgecolor
newpath 400.33 330.7 moveto
412.14 333.2 423.9 330.64 423.9 323 curveto
423.9 317.63 418.08 314.77 410.53 314.41 curveto
stroke
0 0 0 edgecolor
newpath 409.99 310.95 moveto
400.33 315.3 lineto
410.6 317.92 lineto
closepath fill
1 setlinewidth
solid
0 0 0 edgecolor
newpath 409.99 310.95 moveto
400.33 315.3 lineto
410.6 317.92 lineto
closepath stroke
0 0 0 edgecolor
14 /Times-Roman set_font
423.9 319.4 moveto 34 ([0,0]) alignedtext
grestore
% 8->6
gsave
1 setlinewidth
0 0 0 edgecolor
newpath 82.45 217.43 moveto
71.4 209.96 56.79 198.74 46.9 186 curveto
40.45 177.7 35.22 167.47 31.24 158.09 curveto
stroke
0 0 0 edgecolor
newpath 34.48 156.76 moveto
27.55 148.75 lineto
27.97 159.34 lineto
closepath fill
1 setlinewidth
solid
0 0 0 edgecolor
newpath 34.48 156.76 moveto
27.55 148.75 lineto
27.97 159.34 lineto
closepath stroke
0 0 0 edgecolor
14 /Times-Roman set_font
46.9 173.4 moveto 34 ([1,0]) alignedtext
grestore
% 8->8
gsave
1 setlinewidth
0 0 0 edgecolor
newpath 114.33 235.37 moveto
126.14 238.09 137.9 235.3 137.9 227 curveto
137.9 221.16 132.08 218.05 124.53 217.67 curveto
stroke
0 0 0 edgecolor
newpath 123.96 214.2 moveto
114.33 218.63 lineto
124.62 221.17 lineto
closepath fill
1 setlinewidth
solid
0 0 0 edgecolor
newpath 123.96 214.2 moveto
114.33 218.63 lineto
124.62 221.17 lineto
closepath stroke
0 0 0 edgecolor
14 /Times-Roman set_font
137.9 223.4 moveto 34 ([0,0]) alignedtext
grestore
% 8->9
gsave
1 setlinewidth
0 0 0 edgecolor
newpath 107.45 210.96 moveto
114.94 198.79 125.9 181.85 136.9 168 curveto
141.4 162.32 146.61 156.49 151.61 151.18 curveto
stroke
0 0 0 edgecolor
newpath 154.25 153.48 moveto
158.68 143.85 lineto
149.22 148.62 lineto
closepath fill
1 setlinewidth
solid
0 0 0 edgecolor
newpath 154.25 153.48 moveto
158.68 143.85 lineto
149.22 148.62 lineto
closepath stroke
0 0 0 edgecolor
14 /Times-Roman set_font
136.9 173.4 moveto 71 ([1,1] [2,2]) alignedtext
grestore
% 8->10
gsave
1 setlinewidth
0 0 0 edgecolor
newpath 97.9 208.37 moveto
97.9 176.33 97.9 110.16 97.9 67.77 curveto
stroke
0 0 0 edgecolor
newpath 101.4 67.53 moveto
97.9 57.53 lineto
94.4 67.53 lineto
closepath fill
1 setlinewidth
solid
0 0 0 edgecolor
newpath 101.4 67.53 moveto
97.9 57.53 lineto
94.4 67.53 lineto
closepath stroke
0 0 0 edgecolor
14 /Times-Roman set_font
97.9 127.4 moveto 34 ([2,1]) alignedtext
grestore
% 9->9
gsave
1 setlinewidth
0 0 0 edgecolor
newpath 188.33 138.7 moveto
200.14 141.2 211.9 138.64 211.9 131 curveto
211.9 125.63 206.08 122.77 198.53 122.41 curveto
stroke
0 0 0 edgecolor
newpath 197.99 118.95 moveto
188.33 123.3 lineto
198.6 125.92 lineto
closepath fill
1 setlinewidth
solid
0 0 0 edgecolor
newpath 197.99 118.95 moveto
188.33 123.3 lineto
198.6 125.92 lineto
closepath stroke
0 0 0 edgecolor
14 /Times-Roman set_font
211.9 127.4 moveto 109 ([0,0] [1,1] [2,2]) alignedtext
grestore
% 9->10
gsave
1 setlinewidth
0 0 0 edgecolor
newpath 160.98 115.95 moveto
150.38 101.34 133.97 78.72 120.55 60.22 curveto
stroke
0 0 0 edgecolor
newpath 123.32 58.09 moveto
114.62 52.05 lineto
117.66 62.2 lineto
closepath fill
1 setlinewidth
solid
0 0 0 edgecolor
newpath 123.32 58.09 moveto
114.62 52.05 lineto
117.66 62.2 lineto
closepath stroke
0 0 0 edgecolor
14 /Times-Roman set_font
143.9 81.4 moveto 71 ([1,0] [2,1]) alignedtext
grestore
% 10->10
gsave
1 setlinewidth
0 0 0 edgecolor
newpath 124.13 39.24 moveto
136.76 40.51 147.9 37.09 147.9 29 curveto
147.9 23.18 142.14 19.78 134.22 18.8 curveto
stroke
0 0 0 edgecolor
newpath 134.15 15.3 moveto
124.13 18.76 lineto
134.12 22.3 lineto
closepath fill
1 setlinewidth
solid
0 0 0 edgecolor
newpath 134.15 15.3 moveto
124.13 18.76 lineto
134.12 22.3 lineto
closepath stroke
0 0 0 edgecolor
14 /Times-Roman set_font
147.9 25.4 moveto 34 ([0,2]) alignedtext
grestore
endpage
showpage
grestore
%%PageTrailer
%%EndPage: 1
%%Trailer
end
restore
%%EOF
