%!PS-Adobe-3.0 EPSF-3.0
%%Creator: graphviz version 2.26.3 (20100126.1600)
%%Title: FSA Utilities
%%Pages: 1
%%BoundingBox: 173 38 440 754
%%EndComments
save
%%BeginProlog
/DotDict 200 dict def
DotDict begin

/setupLatin1 {
mark
/EncodingVector 256 array def
 EncodingVector 0

ISOLatin1Encoding 0 255 getinterval putinterval
EncodingVector 45 /hyphen put

% Set up ISO Latin 1 character encoding
/starnetISO {
        dup dup findfont dup length dict begin
        { 1 index /FID ne { def }{ pop pop } ifelse
        } forall
        /Encoding EncodingVector def
        currentdict end definefont
} def
/Times-Roman starnetISO def
/Times-Italic starnetISO def
/Times-Bold starnetISO def
/Times-BoldItalic starnetISO def
/Helvetica starnetISO def
/Helvetica-Oblique starnetISO def
/Helvetica-Bold starnetISO def
/Helvetica-BoldOblique starnetISO def
/Courier starnetISO def
/Courier-Oblique starnetISO def
/Courier-Bold starnetISO def
/Courier-BoldOblique starnetISO def
cleartomark
} bind def

%%BeginResource: procset graphviz 0 0
/coord-font-family /Times-Roman def
/default-font-family /Times-Roman def
/coordfont coord-font-family findfont 8 scalefont def

/InvScaleFactor 1.0 def
/set_scale {
       dup 1 exch div /InvScaleFactor exch def
       scale
} bind def

% styles
/solid { [] 0 setdash } bind def
/dashed { [9 InvScaleFactor mul dup ] 0 setdash } bind def
/dotted { [1 InvScaleFactor mul 6 InvScaleFactor mul] 0 setdash } bind def
/invis {/fill {newpath} def /stroke {newpath} def /show {pop newpath} def} bind def
/bold { 2 setlinewidth } bind def
/filled { } bind def
/unfilled { } bind def
/rounded { } bind def
/diagonals { } bind def

% hooks for setting color 
/nodecolor { sethsbcolor } bind def
/edgecolor { sethsbcolor } bind def
/graphcolor { sethsbcolor } bind def
/nopcolor {pop pop pop} bind def

/beginpage {	% i j npages
	/npages exch def
	/j exch def
	/i exch def
	/str 10 string def
	npages 1 gt {
		gsave
			coordfont setfont
			0 0 moveto
			(\() show i str cvs show (,) show j str cvs show (\)) show
		grestore
	} if
} bind def

/set_font {
	findfont exch
	scalefont setfont
} def

% draw text fitted to its expected width
/alignedtext {			% width text
	/text exch def
	/width exch def
	gsave
		width 0 gt {
			[] 0 setdash
			text stringwidth pop width exch sub text length div 0 text ashow
		} if
	grestore
} def

/boxprim {				% xcorner ycorner xsize ysize
		4 2 roll
		moveto
		2 copy
		exch 0 rlineto
		0 exch rlineto
		pop neg 0 rlineto
		closepath
} bind def

/ellipse_path {
	/ry exch def
	/rx exch def
	/y exch def
	/x exch def
	matrix currentmatrix
	newpath
	x y translate
	rx ry scale
	0 0 1 0 360 arc
	setmatrix
} bind def

/endpage { showpage } bind def
/showpage { } def

/layercolorseq
	[	% layer color sequence - darkest to lightest
		[0 0 0]
		[.2 .8 .8]
		[.4 .8 .8]
		[.6 .8 .8]
		[.8 .8 .8]
	]
def

/layerlen layercolorseq length def

/setlayer {/maxlayer exch def /curlayer exch def
	layercolorseq curlayer 1 sub layerlen mod get
	aload pop sethsbcolor
	/nodecolor {nopcolor} def
	/edgecolor {nopcolor} def
	/graphcolor {nopcolor} def
} bind def

/onlayer { curlayer ne {invis} if } def

/onlayers {
	/myupper exch def
	/mylower exch def
	curlayer mylower lt
	curlayer myupper gt
	or
	{invis} if
} def

/curlayer 0 def

%%EndResource
%%EndProlog
%%BeginSetup
14 default-font-family set_font
1 setmiterlimit
% /arrowlength 10 def
% /arrowwidth 5 def

% make sure pdfmark is harmless for PS-interpreters other than Distiller
/pdfmark where {pop} {userdict /pdfmark /cleartomark load put} ifelse
% make '<<' and '>>' safe on PS Level 1 devices
/languagelevel where {pop languagelevel}{1} ifelse
2 lt {
    userdict (<<) cvn ([) cvn load put
    userdict (>>) cvn ([) cvn load put
} if

%%EndSetup
setupLatin1
%%Page: 1 1
%%PageBoundingBox: 173 38 440 754
%%PageOrientation: Portrait
0 0 1 beginpage
gsave
173 38 267 716 boxprim clip newpath
1 1 set_scale 0 rotate 176.5 43 translate
% start0
gsave
grestore
% 0
gsave
0.83922 0.48235 0.8549 nodecolor
181 611 17.98 18.38 ellipse_path fill
1 setlinewidth
filled
0.83922 0.48235 0.8549 nodecolor
181 611 17.98 18.38 ellipse_path stroke
1 setlinewidth
filled
0.83922 0.48235 0.8549 nodecolor
181 611 21.89 22.38 ellipse_path stroke
0 0 0 nodecolor
14 /Times-Roman set_font
176 607.4 moveto 10 (0) alignedtext
grestore
% start0->0
gsave
1 setlinewidth
0 0 0 edgecolor
newpath 181 671.68 moveto
181 663.38 181 653.3 181 643.77 curveto
stroke
0 0 0 edgecolor
newpath 184.5 643.74 moveto
181 633.74 lineto
177.5 643.74 lineto
closepath fill
1 setlinewidth
solid
0 0 0 edgecolor
newpath 184.5 643.74 moveto
181 633.74 lineto
177.5 643.74 lineto
closepath stroke
grestore
% 0->0
gsave
1 setlinewidth
0 0 0 edgecolor
newpath 201.82 618.44 moveto
213.83 619.96 225 617.48 225 611 curveto
225 606.44 219.48 603.86 212.02 603.26 curveto
stroke
0 0 0 edgecolor
newpath 211.72 599.77 moveto
201.82 603.56 lineto
211.92 606.77 lineto
closepath fill
1 setlinewidth
solid
0 0 0 edgecolor
newpath 211.72 599.77 moveto
201.82 603.56 lineto
211.92 606.77 lineto
closepath stroke
0 0 0 edgecolor
14 /Times-Roman set_font
225 607.4 moveto 34 ([0,0]) alignedtext
grestore
% 1
gsave
0.54118 0.25098 1 nodecolor
181 515 17.89 18.38 ellipse_path fill
1 setlinewidth
filled
0.54118 0.25098 1 nodecolor
181 515 17.89 18.38 ellipse_path stroke
0 0 0 nodecolor
14 /Times-Roman set_font
176 511.4 moveto 10 (1) alignedtext
grestore
% 0->1
gsave
1 setlinewidth
0 0 0 edgecolor
newpath 181 588.25 moveto
181 574.99 181 558.15 181 543.95 curveto
stroke
0 0 0 edgecolor
newpath 184.5 543.72 moveto
181 533.72 lineto
177.5 543.72 lineto
closepath fill
1 setlinewidth
solid
0 0 0 edgecolor
newpath 184.5 543.72 moveto
181 533.72 lineto
177.5 543.72 lineto
closepath stroke
0 0 0 edgecolor
14 /Times-Roman set_font
181 557.4 moveto 34 ([0,1]) alignedtext
grestore
% 2
gsave
0.54118 0.25098 1 nodecolor
181 423 17.89 18.38 ellipse_path fill
1 setlinewidth
filled
0.54118 0.25098 1 nodecolor
181 423 17.89 18.38 ellipse_path stroke
0 0 0 nodecolor
14 /Times-Roman set_font
176 419.4 moveto 10 (2) alignedtext
grestore
% 1->2
gsave
1 setlinewidth
0 0 0 edgecolor
newpath 181 496.38 moveto
181 483.54 181 466.22 181 451.63 curveto
stroke
0 0 0 edgecolor
newpath 184.5 451.59 moveto
181 441.59 lineto
177.5 451.59 lineto
closepath fill
1 setlinewidth
solid
0 0 0 edgecolor
newpath 184.5 451.59 moveto
181 441.59 lineto
177.5 451.59 lineto
closepath stroke
0 0 0 edgecolor
14 /Times-Roman set_font
181 465.4 moveto 34 ([0,0]) alignedtext
grestore
% 3
gsave
0.54118 0.25098 1 nodecolor
151 327 17.89 18.38 ellipse_path fill
1 setlinewidth
filled
0.54118 0.25098 1 nodecolor
151 327 17.89 18.38 ellipse_path stroke
0 0 0 nodecolor
14 /Times-Roman set_font
146 323.4 moveto 10 (3) alignedtext
grestore
% 2->3
gsave
1 setlinewidth
0 0 0 edgecolor
newpath 167.4 410.69 moveto
161.11 404.07 154.32 395.35 151 386 curveto
147.61 376.43 146.84 365.42 147.18 355.53 curveto
stroke
0 0 0 edgecolor
newpath 150.68 355.57 moveto
147.9 345.35 lineto
143.7 355.07 lineto
closepath fill
1 setlinewidth
solid
0 0 0 edgecolor
newpath 150.68 355.57 moveto
147.9 345.35 lineto
143.7 355.07 lineto
closepath stroke
0 0 0 edgecolor
14 /Times-Roman set_font
151 373.4 moveto 34 ([0,0]) alignedtext
grestore
% 4
gsave
0.023529 0.72157 1 nodecolor
213 327 17.98 18.38 ellipse_path fill
1 setlinewidth
filled
0.023529 0.72157 1 nodecolor
213 327 17.98 18.38 ellipse_path stroke
1 setlinewidth
filled
0.023529 0.72157 1 nodecolor
213 327 21.89 22.38 ellipse_path stroke
0 0 0 nodecolor
14 /Times-Roman set_font
208 323.4 moveto 10 (4) alignedtext
grestore
% 2->4
gsave
1 setlinewidth
0 0 0 edgecolor
newpath 186.87 405.39 moveto
191.25 392.25 197.35 373.94 202.56 358.32 curveto
stroke
0 0 0 edgecolor
newpath 205.98 359.12 moveto
205.82 348.53 lineto
199.34 356.91 lineto
closepath fill
1 setlinewidth
solid
0 0 0 edgecolor
newpath 205.98 359.12 moveto
205.82 348.53 lineto
199.34 356.91 lineto
closepath stroke
0 0 0 edgecolor
14 /Times-Roman set_font
198 373.4 moveto 34 ([1,0]) alignedtext
grestore
% 5
gsave
0.54118 0.25098 1 nodecolor
26 227 17.89 18.38 ellipse_path fill
1 setlinewidth
filled
0.54118 0.25098 1 nodecolor
26 227 17.89 18.38 ellipse_path stroke
0 0 0 nodecolor
14 /Times-Roman set_font
21 223.4 moveto 10 (5) alignedtext
grestore
% 3->5
gsave
1 setlinewidth
0 0 0 edgecolor
newpath 136.66 315.53 moveto
115.11 298.29 74.19 265.55 48.6 245.08 curveto
stroke
0 0 0 edgecolor
newpath 50.55 242.16 moveto
40.56 238.65 lineto
46.18 247.63 lineto
closepath fill
1 setlinewidth
solid
0 0 0 edgecolor
newpath 50.55 242.16 moveto
40.56 238.65 lineto
46.18 247.63 lineto
closepath stroke
0 0 0 edgecolor
14 /Times-Roman set_font
99 273.4 moveto 34 ([0,0]) alignedtext
grestore
% 6
gsave
0.54118 0.25098 1 nodecolor
151 227 17.89 18.38 ellipse_path fill
1 setlinewidth
filled
0.54118 0.25098 1 nodecolor
151 227 17.89 18.38 ellipse_path stroke
0 0 0 nodecolor
14 /Times-Roman set_font
146 223.4 moveto 10 (6) alignedtext
grestore
% 3->6
gsave
1 setlinewidth
0 0 0 edgecolor
newpath 151 308.19 moveto
151 293.52 151 272.9 151 256.11 curveto
stroke
0 0 0 edgecolor
newpath 154.5 255.72 moveto
151 245.72 lineto
147.5 255.72 lineto
closepath fill
1 setlinewidth
solid
0 0 0 edgecolor
newpath 154.5 255.72 moveto
151 245.72 lineto
147.5 255.72 lineto
closepath stroke
0 0 0 edgecolor
14 /Times-Roman set_font
151 273.4 moveto 34 ([1,0]) alignedtext
grestore
% 7
gsave
0.023529 0.72157 1 nodecolor
213 227 17.98 18.38 ellipse_path fill
1 setlinewidth
filled
0.023529 0.72157 1 nodecolor
213 227 17.98 18.38 ellipse_path stroke
1 setlinewidth
filled
0.023529 0.72157 1 nodecolor
213 227 21.89 22.38 ellipse_path stroke
0 0 0 nodecolor
14 /Times-Roman set_font
208 223.4 moveto 10 (7) alignedtext
grestore
% 4->7
gsave
1 setlinewidth
0 0 0 edgecolor
newpath 213 304.31 moveto
213 291.14 213 274.32 213 259.74 curveto
stroke
0 0 0 edgecolor
newpath 216.5 259.6 moveto
213 249.6 lineto
209.5 259.6 lineto
closepath fill
1 setlinewidth
solid
0 0 0 edgecolor
newpath 216.5 259.6 moveto
213 249.6 lineto
209.5 259.6 lineto
closepath stroke
0 0 0 edgecolor
14 /Times-Roman set_font
213 273.4 moveto 34 ([0,1]) alignedtext
grestore
% 8
gsave
0.54118 0.25098 1 nodecolor
18 131 17.89 18.38 ellipse_path fill
1 setlinewidth
filled
0.54118 0.25098 1 nodecolor
18 131 17.89 18.38 ellipse_path stroke
0 0 0 nodecolor
14 /Times-Roman set_font
13 127.4 moveto 10 (8) alignedtext
grestore
% 5->8
gsave
1 setlinewidth
0 0 0 edgecolor
newpath 24.46 208.49 moveto
23.31 194.68 21.71 175.55 20.4 159.75 curveto
stroke
0 0 0 edgecolor
newpath 23.86 159.13 moveto
19.54 149.45 lineto
16.88 159.71 lineto
closepath fill
1 setlinewidth
solid
0 0 0 edgecolor
newpath 23.86 159.13 moveto
19.54 149.45 lineto
16.88 159.71 lineto
closepath stroke
0 0 0 edgecolor
14 /Times-Roman set_font
23 173.4 moveto 34 ([1,1]) alignedtext
grestore
% 9
gsave
0.54118 0.25098 1 nodecolor
165 131 17.89 18.38 ellipse_path fill
1 setlinewidth
filled
0.54118 0.25098 1 nodecolor
165 131 17.89 18.38 ellipse_path stroke
0 0 0 nodecolor
14 /Times-Roman set_font
160 127.4 moveto 10 (9) alignedtext
grestore
% 6->9
gsave
1 setlinewidth
0 0 0 edgecolor
newpath 153.7 208.49 moveto
155.71 194.68 158.5 175.55 160.81 159.75 curveto
stroke
0 0 0 edgecolor
newpath 164.33 159.85 moveto
162.31 149.45 lineto
157.4 158.84 lineto
closepath fill
1 setlinewidth
solid
0 0 0 edgecolor
newpath 164.33 159.85 moveto
162.31 149.45 lineto
157.4 158.84 lineto
closepath stroke
0 0 0 edgecolor
14 /Times-Roman set_font
159 173.4 moveto 34 ([0,1]) alignedtext
grestore
% 8->8
gsave
1 setlinewidth
0 0 0 edgecolor
newpath 34.44 138.7 moveto
46.24 141.2 58 138.64 58 131 curveto
58 125.63 52.19 122.77 44.63 122.41 curveto
stroke
0 0 0 edgecolor
newpath 44.09 118.95 moveto
34.44 123.3 lineto
44.7 125.92 lineto
closepath fill
1 setlinewidth
solid
0 0 0 edgecolor
newpath 44.09 118.95 moveto
34.44 123.3 lineto
44.7 125.92 lineto
closepath stroke
0 0 0 edgecolor
14 /Times-Roman set_font
58 127.4 moveto 71 ([0,0] [1,1]) alignedtext
grestore
% 10
gsave
0.023529 0.72157 1 nodecolor
102 29 24.31 24.75 ellipse_path fill
1 setlinewidth
filled
0.023529 0.72157 1 nodecolor
102 29 24.31 24.75 ellipse_path stroke
1 setlinewidth
filled
0.023529 0.72157 1 nodecolor
102 29 28.24 28.75 ellipse_path stroke
0 0 0 nodecolor
14 /Times-Roman set_font
92.5 25.4 moveto 19 (10) alignedtext
grestore
% 8->10
gsave
1 setlinewidth
0 0 0 edgecolor
newpath 29.68 116.82 moveto
41.99 101.87 61.73 77.9 77.48 58.77 curveto
stroke
0 0 0 edgecolor
newpath 80.3 60.86 moveto
83.95 50.91 lineto
74.9 56.41 lineto
closepath fill
1 setlinewidth
solid
0 0 0 edgecolor
newpath 80.3 60.86 moveto
83.95 50.91 lineto
74.9 56.41 lineto
closepath stroke
0 0 0 edgecolor
14 /Times-Roman set_font
63 81.4 moveto 34 ([1,0]) alignedtext
grestore
% 9->10
gsave
1 setlinewidth
0 0 0 edgecolor
newpath 155.16 115.06 moveto
146.43 100.94 133.42 79.86 122.45 62.1 curveto
stroke
0 0 0 edgecolor
newpath 125.16 59.84 moveto
116.93 53.17 lineto
119.21 63.52 lineto
closepath fill
1 setlinewidth
solid
0 0 0 edgecolor
newpath 125.16 59.84 moveto
116.93 53.17 lineto
119.21 63.52 lineto
closepath stroke
0 0 0 edgecolor
14 /Times-Roman set_font
140 81.4 moveto 34 ([0,1]) alignedtext
grestore
% 10->10
gsave
1 setlinewidth
0 0 0 edgecolor
newpath 128.24 39.24 moveto
140.86 40.51 152 37.09 152 29 curveto
152 23.18 146.24 19.78 138.32 18.8 curveto
stroke
0 0 0 edgecolor
newpath 138.25 15.3 moveto
128.24 18.76 lineto
138.22 22.3 lineto
closepath fill
1 setlinewidth
solid
0 0 0 edgecolor
newpath 138.25 15.3 moveto
128.24 18.76 lineto
138.22 22.3 lineto
closepath stroke
0 0 0 edgecolor
14 /Times-Roman set_font
152 25.4 moveto 34 ([0,1]) alignedtext
grestore
endpage
showpage
grestore
%%PageTrailer
%%EndPage: 1
%%Trailer
end
restore
%%EOF
