%!PS-Adobe-3.0 EPSF-3.0
%%Creator: graphviz version 2.26.3 (20100126.1600)
%%Title: FSA Utilities
%%Pages: 1
%%BoundingBox: 42 36 571 1048
%%EndComments
save
%%BeginProlog
/DotDict 200 dict def
DotDict begin

/setupLatin1 {
mark
/EncodingVector 256 array def
 EncodingVector 0

ISOLatin1Encoding 0 255 getinterval putinterval
EncodingVector 45 /hyphen put

% Set up ISO Latin 1 character encoding
/starnetISO {
        dup dup findfont dup length dict begin
        { 1 index /FID ne { def }{ pop pop } ifelse
        } forall
        /Encoding EncodingVector def
        currentdict end definefont
} def
/Times-Roman starnetISO def
/Times-Italic starnetISO def
/Times-Bold starnetISO def
/Times-BoldItalic starnetISO def
/Helvetica starnetISO def
/Helvetica-Oblique starnetISO def
/Helvetica-Bold starnetISO def
/Helvetica-BoldOblique starnetISO def
/Courier starnetISO def
/Courier-Oblique starnetISO def
/Courier-Bold starnetISO def
/Courier-BoldOblique starnetISO def
cleartomark
} bind def

%%BeginResource: procset graphviz 0 0
/coord-font-family /Times-Roman def
/default-font-family /Times-Roman def
/coordfont coord-font-family findfont 8 scalefont def

/InvScaleFactor 1.0 def
/set_scale {
       dup 1 exch div /InvScaleFactor exch def
       scale
} bind def

% styles
/solid { [] 0 setdash } bind def
/dashed { [9 InvScaleFactor mul dup ] 0 setdash } bind def
/dotted { [1 InvScaleFactor mul 6 InvScaleFactor mul] 0 setdash } bind def
/invis {/fill {newpath} def /stroke {newpath} def /show {pop newpath} def} bind def
/bold { 2 setlinewidth } bind def
/filled { } bind def
/unfilled { } bind def
/rounded { } bind def
/diagonals { } bind def

% hooks for setting color 
/nodecolor { sethsbcolor } bind def
/edgecolor { sethsbcolor } bind def
/graphcolor { sethsbcolor } bind def
/nopcolor {pop pop pop} bind def

/beginpage {	% i j npages
	/npages exch def
	/j exch def
	/i exch def
	/str 10 string def
	npages 1 gt {
		gsave
			coordfont setfont
			0 0 moveto
			(\() show i str cvs show (,) show j str cvs show (\)) show
		grestore
	} if
} bind def

/set_font {
	findfont exch
	scalefont setfont
} def

% draw text fitted to its expected width
/alignedtext {			% width text
	/text exch def
	/width exch def
	gsave
		width 0 gt {
			[] 0 setdash
			text stringwidth pop width exch sub text length div 0 text ashow
		} if
	grestore
} def

/boxprim {				% xcorner ycorner xsize ysize
		4 2 roll
		moveto
		2 copy
		exch 0 rlineto
		0 exch rlineto
		pop neg 0 rlineto
		closepath
} bind def

/ellipse_path {
	/ry exch def
	/rx exch def
	/y exch def
	/x exch def
	matrix currentmatrix
	newpath
	x y translate
	rx ry scale
	0 0 1 0 360 arc
	setmatrix
} bind def

/endpage { showpage } bind def
/showpage { } def

/layercolorseq
	[	% layer color sequence - darkest to lightest
		[0 0 0]
		[.2 .8 .8]
		[.4 .8 .8]
		[.6 .8 .8]
		[.8 .8 .8]
	]
def

/layerlen layercolorseq length def

/setlayer {/maxlayer exch def /curlayer exch def
	layercolorseq curlayer 1 sub layerlen mod get
	aload pop sethsbcolor
	/nodecolor {nopcolor} def
	/edgecolor {nopcolor} def
	/graphcolor {nopcolor} def
} bind def

/onlayer { curlayer ne {invis} if } def

/onlayers {
	/myupper exch def
	/mylower exch def
	curlayer mylower lt
	curlayer myupper gt
	or
	{invis} if
} def

/curlayer 0 def

%%EndResource
%%EndProlog
%%BeginSetup
14 default-font-family set_font
1 setmiterlimit
% /arrowlength 10 def
% /arrowwidth 5 def

% make sure pdfmark is harmless for PS-interpreters other than Distiller
/pdfmark where {pop} {userdict /pdfmark /cleartomark load put} ifelse
% make '<<' and '>>' safe on PS Level 1 devices
/languagelevel where {pop languagelevel}{1} ifelse
2 lt {
    userdict (<<) cvn ([) cvn load put
    userdict (>>) cvn ([) cvn load put
} if

%%EndSetup
setupLatin1
%%Page: 1 1
%%PageBoundingBox: 42 36 571 1048
%%PageOrientation: Portrait
0 0 1 beginpage
gsave
42 36 529 1012 boxprim clip newpath
1 1 set_scale 0 rotate 45.5 41 translate
% start0
gsave
grestore
% 0
gsave
0.83922 0.48235 0.8549 nodecolor
84 907 17.98 18.38 ellipse_path fill
1 setlinewidth
filled
0.83922 0.48235 0.8549 nodecolor
84 907 17.98 18.38 ellipse_path stroke
1 setlinewidth
filled
0.83922 0.48235 0.8549 nodecolor
84 907 21.89 22.38 ellipse_path stroke
0 0 0 nodecolor
14 /Times-Roman set_font
79 903.4 moveto 10 (0) alignedtext
grestore
% start0->0
gsave
1 setlinewidth
0 0 0 edgecolor
newpath 84 967.68 moveto
84 959.38 84 949.3 84 939.77 curveto
stroke
0 0 0 edgecolor
newpath 87.5 939.74 moveto
84 929.74 lineto
80.5 939.74 lineto
closepath fill
1 setlinewidth
solid
0 0 0 edgecolor
newpath 87.5 939.74 moveto
84 929.74 lineto
80.5 939.74 lineto
closepath stroke
grestore
% 0->0
gsave
1 setlinewidth
0 0 0 edgecolor
newpath 104.82 914.44 moveto
116.83 915.96 128 913.48 128 907 curveto
128 902.44 122.48 899.86 115.02 899.26 curveto
stroke
0 0 0 edgecolor
newpath 114.72 895.77 moveto
104.82 899.56 lineto
114.92 902.77 lineto
closepath fill
1 setlinewidth
solid
0 0 0 edgecolor
newpath 114.72 895.77 moveto
104.82 899.56 lineto
114.92 902.77 lineto
closepath stroke
0 0 0 edgecolor
14 /Times-Roman set_font
128 903.4 moveto 34 ([0,0]) alignedtext
grestore
% 1
gsave
0.54118 0.25098 1 nodecolor
84 811 17.89 18.38 ellipse_path fill
1 setlinewidth
filled
0.54118 0.25098 1 nodecolor
84 811 17.89 18.38 ellipse_path stroke
0 0 0 nodecolor
14 /Times-Roman set_font
79 807.4 moveto 10 (1) alignedtext
grestore
% 0->1
gsave
1 setlinewidth
0 0 0 edgecolor
newpath 84 884.25 moveto
84 870.99 84 854.15 84 839.95 curveto
stroke
0 0 0 edgecolor
newpath 87.5 839.72 moveto
84 829.72 lineto
80.5 839.72 lineto
closepath fill
1 setlinewidth
solid
0 0 0 edgecolor
newpath 87.5 839.72 moveto
84 829.72 lineto
80.5 839.72 lineto
closepath stroke
0 0 0 edgecolor
14 /Times-Roman set_font
84 853.4 moveto 34 ([0,1]) alignedtext
grestore
% 2
gsave
0.54118 0.25098 1 nodecolor
54 719 17.89 18.38 ellipse_path fill
1 setlinewidth
filled
0.54118 0.25098 1 nodecolor
54 719 17.89 18.38 ellipse_path stroke
0 0 0 nodecolor
14 /Times-Roman set_font
49 715.4 moveto 10 (2) alignedtext
grestore
% 1->2
gsave
1 setlinewidth
0 0 0 edgecolor
newpath 70.4 798.69 moveto
64.11 792.07 57.32 783.35 54 774 curveto
51.05 765.68 50.23 756.2 50.39 747.48 curveto
stroke
0 0 0 edgecolor
newpath 53.89 747.54 moveto
50.99 737.35 lineto
46.9 747.13 lineto
closepath fill
1 setlinewidth
solid
0 0 0 edgecolor
newpath 53.89 747.54 moveto
50.99 737.35 lineto
46.9 747.13 lineto
closepath stroke
0 0 0 edgecolor
14 /Times-Roman set_font
54 761.4 moveto 34 ([0,0]) alignedtext
grestore
% 3
gsave
0.54118 0.25098 1 nodecolor
115 663 17.89 18.38 ellipse_path fill
1 setlinewidth
filled
0.54118 0.25098 1 nodecolor
115 663 17.89 18.38 ellipse_path stroke
0 0 0 nodecolor
14 /Times-Roman set_font
110 659.4 moveto 10 (3) alignedtext
grestore
% 1->3
gsave
1 setlinewidth
0 0 0 edgecolor
newpath 87.8 792.85 moveto
93.12 767.44 102.85 721.03 109.11 691.12 curveto
stroke
0 0 0 edgecolor
newpath 112.54 691.8 moveto
111.17 681.3 lineto
105.69 690.37 lineto
closepath fill
1 setlinewidth
solid
0 0 0 edgecolor
newpath 112.54 691.8 moveto
111.17 681.3 lineto
105.69 690.37 lineto
closepath stroke
0 0 0 edgecolor
14 /Times-Roman set_font
95 761.4 moveto 34 ([0,1]) alignedtext
grestore
% 4
gsave
0.54118 0.25098 1 nodecolor
54 607 17.89 18.38 ellipse_path fill
1 setlinewidth
filled
0.54118 0.25098 1 nodecolor
54 607 17.89 18.38 ellipse_path stroke
0 0 0 nodecolor
14 /Times-Roman set_font
49 603.4 moveto 10 (4) alignedtext
grestore
% 2->4
gsave
1 setlinewidth
0 0 0 edgecolor
newpath 52.79 700.19 moveto
52.46 694.36 52.16 687.92 52 682 curveto
51.54 665.12 51.54 660.88 52 644 curveto
52.07 641.41 52.17 638.72 52.28 636.03 curveto
stroke
0 0 0 edgecolor
newpath 55.79 635.98 moveto
52.79 625.81 lineto
48.8 635.63 lineto
closepath fill
1 setlinewidth
solid
0 0 0 edgecolor
newpath 55.79 635.98 moveto
52.79 625.81 lineto
48.8 635.63 lineto
closepath stroke
0 0 0 edgecolor
14 /Times-Roman set_font
52 659.4 moveto 34 ([0,0]) alignedtext
grestore
% 5
gsave
0.54118 0.25098 1 nodecolor
216 607 17.89 18.38 ellipse_path fill
1 setlinewidth
filled
0.54118 0.25098 1 nodecolor
216 607 17.89 18.38 ellipse_path stroke
0 0 0 nodecolor
14 /Times-Roman set_font
211 603.4 moveto 10 (5) alignedtext
grestore
% 2->5
gsave
1 setlinewidth
0 0 0 edgecolor
newpath 71.64 714.14 moveto
90.61 708.39 121.1 697.6 144 682 curveto
165.22 667.55 185.08 646.01 198.55 629.72 curveto
stroke
0 0 0 edgecolor
newpath 201.42 631.72 moveto
204.98 621.74 lineto
195.98 627.33 lineto
closepath fill
1 setlinewidth
solid
0 0 0 edgecolor
newpath 201.42 631.72 moveto
204.98 621.74 lineto
195.98 627.33 lineto
closepath stroke
0 0 0 edgecolor
14 /Times-Roman set_font
185 659.4 moveto 34 ([0,1]) alignedtext
grestore
% 6
gsave
0.023529 0.72157 1 nodecolor
76 137 17.98 18.38 ellipse_path fill
1 setlinewidth
filled
0.023529 0.72157 1 nodecolor
76 137 17.98 18.38 ellipse_path stroke
1 setlinewidth
filled
0.023529 0.72157 1 nodecolor
76 137 21.89 22.38 ellipse_path stroke
0 0 0 nodecolor
14 /Times-Roman set_font
71 133.4 moveto 10 (6) alignedtext
grestore
% 2->6
gsave
1 setlinewidth
0 0 0 edgecolor
newpath 42.02 704.84 moveto
26.11 684.56 0 645.42 0 607 curveto
0 607 0 607 0 241 curveto
0 206.34 27.85 175.54 49.83 156.62 curveto
stroke
0 0 0 edgecolor
newpath 52.12 159.27 moveto
57.6 150.2 lineto
47.66 153.87 lineto
closepath fill
1 setlinewidth
solid
0 0 0 edgecolor
newpath 52.12 159.27 moveto
57.6 150.2 lineto
47.66 153.87 lineto
closepath stroke
0 0 0 edgecolor
14 /Times-Roman set_font
0 435.4 moveto 34 ([1,1]) alignedtext
grestore
% 7
gsave
0.54118 0.25098 1 nodecolor
114 551 17.89 18.38 ellipse_path fill
1 setlinewidth
filled
0.54118 0.25098 1 nodecolor
114 551 17.89 18.38 ellipse_path stroke
0 0 0 nodecolor
14 /Times-Roman set_font
109 547.4 moveto 10 (7) alignedtext
grestore
% 3->7
gsave
1 setlinewidth
0 0 0 edgecolor
newpath 114.83 644.25 moveto
114.68 626.73 114.44 600.3 114.26 580.04 curveto
stroke
0 0 0 edgecolor
newpath 117.76 579.78 moveto
114.17 569.81 lineto
110.76 579.84 lineto
closepath fill
1 setlinewidth
solid
0 0 0 edgecolor
newpath 117.76 579.78 moveto
114.17 569.81 lineto
110.76 579.84 lineto
closepath stroke
0 0 0 edgecolor
14 /Times-Roman set_font
114 603.4 moveto 34 ([0,0]) alignedtext
grestore
% 8
gsave
0.54118 0.25098 1 nodecolor
57 439 17.89 18.38 ellipse_path fill
1 setlinewidth
filled
0.54118 0.25098 1 nodecolor
57 439 17.89 18.38 ellipse_path stroke
0 0 0 nodecolor
14 /Times-Roman set_font
52 435.4 moveto 10 (8) alignedtext
grestore
% 4->8
gsave
1 setlinewidth
0 0 0 edgecolor
newpath 52.21 588.57 moveto
51.71 582.65 51.24 576.05 51 570 curveto
49.58 534.81 52.06 494.32 54.26 467.78 curveto
stroke
0 0 0 edgecolor
newpath 57.76 467.92 moveto
55.13 457.65 lineto
50.78 467.31 lineto
closepath fill
1 setlinewidth
solid
0 0 0 edgecolor
newpath 57.76 467.92 moveto
55.13 457.65 lineto
50.78 467.31 lineto
closepath stroke
0 0 0 edgecolor
14 /Times-Roman set_font
51 547.4 moveto 34 ([1,1]) alignedtext
grestore
% 9
gsave
0.54118 0.25098 1 nodecolor
236 495 17.89 18.38 ellipse_path fill
1 setlinewidth
filled
0.54118 0.25098 1 nodecolor
236 495 17.89 18.38 ellipse_path stroke
0 0 0 nodecolor
14 /Times-Roman set_font
231 491.4 moveto 10 (9) alignedtext
grestore
% 5->9
gsave
1 setlinewidth
0 0 0 edgecolor
newpath 219.3 588.51 moveto
222.46 570.83 227.26 543.94 230.91 523.52 curveto
stroke
0 0 0 edgecolor
newpath 234.38 523.98 moveto
232.69 513.52 lineto
227.49 522.75 lineto
closepath fill
1 setlinewidth
solid
0 0 0 edgecolor
newpath 234.38 523.98 moveto
232.69 513.52 lineto
227.49 522.75 lineto
closepath stroke
0 0 0 edgecolor
14 /Times-Roman set_font
228 547.4 moveto 34 ([0,0]) alignedtext
grestore
% 10
gsave
0.54118 0.25098 1 nodecolor
112 309 24.24 24.75 ellipse_path fill
1 setlinewidth
filled
0.54118 0.25098 1 nodecolor
112 309 24.24 24.75 ellipse_path stroke
0 0 0 nodecolor
14 /Times-Roman set_font
102.5 305.4 moveto 19 (10) alignedtext
grestore
% 7->10
gsave
1 setlinewidth
0 0 0 edgecolor
newpath 113.85 532.41 moveto
113.51 492.03 112.72 395.75 112.29 343.74 curveto
stroke
0 0 0 edgecolor
newpath 115.79 343.63 moveto
112.2 333.66 lineto
108.79 343.69 lineto
closepath fill
1 setlinewidth
solid
0 0 0 edgecolor
newpath 115.79 343.63 moveto
112.2 333.66 lineto
108.79 343.69 lineto
closepath stroke
0 0 0 edgecolor
14 /Times-Roman set_font
113 435.4 moveto 34 ([1,0]) alignedtext
grestore
% 8->6
gsave
1 setlinewidth
0 0 0 edgecolor
newpath 53.78 420.49 moveto
50.31 399.57 45.02 364.46 43 334 curveto
41.53 311.83 40.55 306.09 43 284 curveto
47.49 243.54 58.72 197.94 66.83 168.4 curveto
stroke
0 0 0 edgecolor
newpath 70.23 169.23 moveto
69.56 158.66 lineto
63.49 167.35 lineto
closepath fill
1 setlinewidth
solid
0 0 0 edgecolor
newpath 70.23 169.23 moveto
69.56 158.66 lineto
63.49 167.35 lineto
closepath stroke
0 0 0 edgecolor
14 /Times-Roman set_font
43 305.4 moveto 34 ([0,1]) alignedtext
grestore
% 11
gsave
0.54118 0.25098 1 nodecolor
356 377 24.24 24.75 ellipse_path fill
1 setlinewidth
filled
0.54118 0.25098 1 nodecolor
356 377 24.24 24.75 ellipse_path stroke
0 0 0 nodecolor
14 /Times-Roman set_font
346.5 373.4 moveto 19 (11) alignedtext
grestore
% 9->11
gsave
1 setlinewidth
0 0 0 edgecolor
newpath 253.92 491.16 moveto
272.58 486.32 301.6 476.34 320 458 curveto
333 445.05 341.7 426.58 347.28 410.56 curveto
stroke
0 0 0 edgecolor
newpath 350.64 411.55 moveto
350.37 400.96 lineto
343.98 409.41 lineto
closepath fill
1 setlinewidth
solid
0 0 0 edgecolor
newpath 350.64 411.55 moveto
350.37 400.96 lineto
343.98 409.41 lineto
closepath stroke
0 0 0 edgecolor
14 /Times-Roman set_font
342 435.4 moveto 34 ([0,0]) alignedtext
grestore
% 12
gsave
0.54118 0.25098 1 nodecolor
296 309 24.24 24.75 ellipse_path fill
1 setlinewidth
filled
0.54118 0.25098 1 nodecolor
296 309 24.24 24.75 ellipse_path stroke
0 0 0 nodecolor
14 /Times-Roman set_font
286.5 305.4 moveto 19 (12) alignedtext
grestore
% 9->12
gsave
1 setlinewidth
0 0 0 edgecolor
newpath 245.26 478.76 moveto
248.63 472.42 252.27 465 255 458 curveto
270.01 419.48 281.8 373.35 288.81 342.73 curveto
stroke
0 0 0 edgecolor
newpath 292.23 343.49 moveto
291.01 332.97 lineto
285.4 341.96 lineto
closepath fill
1 setlinewidth
solid
0 0 0 edgecolor
newpath 292.23 343.49 moveto
291.01 332.97 lineto
285.4 341.96 lineto
closepath stroke
0 0 0 edgecolor
14 /Times-Roman set_font
267 435.4 moveto 34 ([1,0]) alignedtext
grestore
% 13
gsave
0.54118 0.25098 1 nodecolor
193 377 24.24 24.75 ellipse_path fill
1 setlinewidth
filled
0.54118 0.25098 1 nodecolor
193 377 24.24 24.75 ellipse_path stroke
0 0 0 nodecolor
14 /Times-Roman set_font
183.5 373.4 moveto 19 (13) alignedtext
grestore
% 9->13
gsave
1 setlinewidth
0 0 0 edgecolor
newpath 228.36 478.18 moveto
225.61 471.9 222.55 464.67 220 458 curveto
214.07 442.47 208.15 425.01 203.38 410.28 curveto
stroke
0 0 0 edgecolor
newpath 206.65 409.04 moveto
200.27 400.58 lineto
199.99 411.17 lineto
closepath fill
1 setlinewidth
solid
0 0 0 edgecolor
newpath 206.65 409.04 moveto
200.27 400.58 lineto
199.99 411.17 lineto
closepath stroke
0 0 0 edgecolor
14 /Times-Roman set_font
220 435.4 moveto 34 ([1,1]) alignedtext
grestore
% 10->6
gsave
1 setlinewidth
0 0 0 edgecolor
newpath 106.92 284.72 moveto
100.6 254.56 89.81 202.98 82.79 169.45 curveto
stroke
0 0 0 edgecolor
newpath 86.13 168.32 moveto
80.66 159.24 lineto
79.28 169.75 lineto
closepath fill
1 setlinewidth
solid
0 0 0 edgecolor
newpath 86.13 168.32 moveto
80.66 159.24 lineto
79.28 169.75 lineto
closepath stroke
0 0 0 edgecolor
14 /Times-Roman set_font
102 237.4 moveto 34 ([1,1]) alignedtext
grestore
% 14
gsave
0.54118 0.25098 1 nodecolor
384 241 24.24 24.75 ellipse_path fill
1 setlinewidth
filled
0.54118 0.25098 1 nodecolor
384 241 24.24 24.75 ellipse_path stroke
0 0 0 nodecolor
14 /Times-Roman set_font
374.5 237.4 moveto 19 (14) alignedtext
grestore
% 11->14
gsave
1 setlinewidth
0 0 0 edgecolor
newpath 360.94 353 moveto
365.39 331.38 371.98 299.36 376.98 275.09 curveto
stroke
0 0 0 edgecolor
newpath 380.43 275.72 moveto
379.01 265.22 lineto
373.57 274.31 lineto
closepath fill
1 setlinewidth
solid
0 0 0 edgecolor
newpath 380.43 275.72 moveto
379.01 265.22 lineto
373.57 274.31 lineto
closepath stroke
0 0 0 edgecolor
14 /Times-Roman set_font
374 305.4 moveto 34 ([1,1]) alignedtext
grestore
% 15
gsave
0.54118 0.25098 1 nodecolor
334 137 24.24 24.75 ellipse_path fill
1 setlinewidth
filled
0.54118 0.25098 1 nodecolor
334 137 24.24 24.75 ellipse_path stroke
0 0 0 nodecolor
14 /Times-Roman set_font
324.5 133.4 moveto 19 (15) alignedtext
grestore
% 12->15
gsave
1 setlinewidth
0 0 0 edgecolor
newpath 300.69 284.87 moveto
304.41 266.06 309.81 239.33 315 216 curveto
318.33 201.04 322.25 184.55 325.67 170.53 curveto
stroke
0 0 0 edgecolor
newpath 329.07 171.35 moveto
328.05 160.8 lineto
322.27 169.68 lineto
closepath fill
1 setlinewidth
solid
0 0 0 edgecolor
newpath 329.07 171.35 moveto
328.05 160.8 lineto
322.27 169.68 lineto
closepath stroke
0 0 0 edgecolor
14 /Times-Roman set_font
315 237.4 moveto 34 ([0,1]) alignedtext
grestore
% 16
gsave
0.54118 0.25098 1 nodecolor
184 241 24.24 24.75 ellipse_path fill
1 setlinewidth
filled
0.54118 0.25098 1 nodecolor
184 241 24.24 24.75 ellipse_path stroke
0 0 0 nodecolor
14 /Times-Roman set_font
174.5 237.4 moveto 19 (16) alignedtext
grestore
% 13->16
gsave
1 setlinewidth
0 0 0 edgecolor
newpath 191.37 352.37 moveto
189.95 330.9 187.87 299.53 186.29 275.55 curveto
stroke
0 0 0 edgecolor
newpath 189.77 275.19 moveto
185.62 265.45 lineto
182.79 275.65 lineto
closepath fill
1 setlinewidth
solid
0 0 0 edgecolor
newpath 189.77 275.19 moveto
185.62 265.45 lineto
182.79 275.65 lineto
closepath stroke
0 0 0 edgecolor
14 /Times-Roman set_font
190 305.4 moveto 34 ([0,0]) alignedtext
grestore
% 14->14
gsave
1 setlinewidth
0 0 0 edgecolor
newpath 406.25 250.28 moveto
418.61 252.02 430 248.92 430 241 curveto
430 235.37 424.24 232.18 416.47 231.42 curveto
stroke
0 0 0 edgecolor
newpath 416.14 227.93 moveto
406.25 231.72 lineto
416.34 234.93 lineto
closepath fill
1 setlinewidth
solid
0 0 0 edgecolor
newpath 416.14 227.93 moveto
406.25 231.72 lineto
416.34 234.93 lineto
closepath stroke
0 0 0 edgecolor
14 /Times-Roman set_font
430 237.4 moveto 34 ([0,0]) alignedtext
grestore
% 14->15
gsave
1 setlinewidth
0 0 0 edgecolor
newpath 368.4 222.16 moveto
362.97 214.93 357.2 206.4 353 198 curveto
348.7 189.4 345.14 179.63 342.3 170.48 curveto
stroke
0 0 0 edgecolor
newpath 345.66 169.49 moveto
339.51 160.86 lineto
338.94 171.44 lineto
closepath fill
1 setlinewidth
solid
0 0 0 edgecolor
newpath 345.66 169.49 moveto
339.51 160.86 lineto
338.94 171.44 lineto
closepath stroke
0 0 0 edgecolor
14 /Times-Roman set_font
353 185.4 moveto 34 ([1,0]) alignedtext
grestore
% 17
gsave
0.54118 0.25098 1 nodecolor
404 137 24.24 24.75 ellipse_path fill
1 setlinewidth
filled
0.54118 0.25098 1 nodecolor
404 137 24.24 24.75 ellipse_path stroke
0 0 0 nodecolor
14 /Times-Roman set_font
394.5 133.4 moveto 19 (17) alignedtext
grestore
% 14->17
gsave
1 setlinewidth
0 0 0 edgecolor
newpath 388.64 216.88 moveto
391.25 203.33 394.54 186.18 397.41 171.26 curveto
stroke
0 0 0 edgecolor
newpath 400.87 171.83 moveto
399.32 161.35 lineto
393.99 170.51 lineto
closepath fill
1 setlinewidth
solid
0 0 0 edgecolor
newpath 400.87 171.83 moveto
399.32 161.35 lineto
393.99 170.51 lineto
closepath stroke
0 0 0 edgecolor
14 /Times-Roman set_font
395 185.4 moveto 34 ([1,1]) alignedtext
grestore
% 18
gsave
0.023529 0.72157 1 nodecolor
369 29 24.31 24.75 ellipse_path fill
1 setlinewidth
filled
0.023529 0.72157 1 nodecolor
369 29 24.31 24.75 ellipse_path stroke
1 setlinewidth
filled
0.023529 0.72157 1 nodecolor
369 29 28.24 28.75 ellipse_path stroke
0 0 0 nodecolor
14 /Times-Roman set_font
359.5 25.4 moveto 19 (18) alignedtext
grestore
% 15->18
gsave
1 setlinewidth
0 0 0 edgecolor
newpath 333.89 112.42 moveto
334.48 101.08 336.09 87.6 340 76 curveto
341.76 70.78 344.2 65.53 346.91 60.53 curveto
stroke
0 0 0 edgecolor
newpath 349.96 62.26 moveto
352.02 51.86 lineto
343.93 58.7 lineto
closepath fill
1 setlinewidth
solid
0 0 0 edgecolor
newpath 349.96 62.26 moveto
352.02 51.86 lineto
343.93 58.7 lineto
closepath stroke
0 0 0 edgecolor
14 /Times-Roman set_font
340 81.4 moveto 34 ([0,1]) alignedtext
grestore
% 16->6
gsave
1 setlinewidth
0 0 0 edgecolor
newpath 166.38 223.88 moveto
153.76 211.63 136.36 194.78 121 180 curveto
114.17 173.43 106.74 166.32 99.92 159.8 curveto
stroke
0 0 0 edgecolor
newpath 101.92 156.87 moveto
92.27 152.5 lineto
97.09 161.94 lineto
closepath fill
1 setlinewidth
solid
0 0 0 edgecolor
newpath 101.92 156.87 moveto
92.27 152.5 lineto
97.09 161.94 lineto
closepath stroke
0 0 0 edgecolor
14 /Times-Roman set_font
138 185.4 moveto 34 ([1,0]) alignedtext
grestore
% 16->16
gsave
1 setlinewidth
0 0 0 edgecolor
newpath 206.25 250.28 moveto
218.61 252.02 230 248.92 230 241 curveto
230 235.37 224.24 232.18 216.47 231.42 curveto
stroke
0 0 0 edgecolor
newpath 216.14 227.93 moveto
206.25 231.72 lineto
216.34 234.93 lineto
closepath fill
1 setlinewidth
solid
0 0 0 edgecolor
newpath 216.14 227.93 moveto
206.25 231.72 lineto
216.34 234.93 lineto
closepath stroke
0 0 0 edgecolor
14 /Times-Roman set_font
230 237.4 moveto 34 ([0,0]) alignedtext
grestore
% 17->17
gsave
1 setlinewidth
0 0 0 edgecolor
newpath 426.25 146.28 moveto
438.61 148.02 450 144.92 450 137 curveto
450 131.37 444.24 128.18 436.47 127.42 curveto
stroke
0 0 0 edgecolor
newpath 436.14 123.93 moveto
426.25 127.72 lineto
436.34 130.93 lineto
closepath fill
1 setlinewidth
solid
0 0 0 edgecolor
newpath 436.14 123.93 moveto
426.25 127.72 lineto
436.34 130.93 lineto
closepath stroke
0 0 0 edgecolor
14 /Times-Roman set_font
450 133.4 moveto 71 ([0,0] [1,1]) alignedtext
grestore
% 17->18
gsave
1 setlinewidth
0 0 0 edgecolor
newpath 396.41 113.57 moveto
391.88 99.59 386.03 81.55 380.9 65.71 curveto
stroke
0 0 0 edgecolor
newpath 384.23 64.63 moveto
377.82 56.2 lineto
377.57 66.79 lineto
closepath fill
1 setlinewidth
solid
0 0 0 edgecolor
newpath 384.23 64.63 moveto
377.82 56.2 lineto
377.57 66.79 lineto
closepath stroke
0 0 0 edgecolor
14 /Times-Roman set_font
389 81.4 moveto 34 ([1,0]) alignedtext
grestore
% 18->18
gsave
1 setlinewidth
0 0 0 edgecolor
newpath 395.24 39.24 moveto
407.86 40.51 419 37.09 419 29 curveto
419 23.18 413.24 19.78 405.32 18.8 curveto
stroke
0 0 0 edgecolor
newpath 405.25 15.3 moveto
395.24 18.76 lineto
405.22 22.3 lineto
closepath fill
1 setlinewidth
solid
0 0 0 edgecolor
newpath 405.25 15.3 moveto
395.24 18.76 lineto
405.22 22.3 lineto
closepath stroke
0 0 0 edgecolor
14 /Times-Roman set_font
419 25.4 moveto 34 ([0,1]) alignedtext
grestore
endpage
showpage
grestore
%%PageTrailer
%%EndPage: 1
%%Trailer
end
restore
%%EOF
