%!PS-Adobe-3.0 EPSF-3.0
%%Creator: graphviz version 2.26.3 (20100126.1600)
%%Title: FSA Utilities
%%Pages: 1
%%BoundingBox: 36 36 591 768
%%EndComments
save
%%BeginProlog
/DotDict 200 dict def
DotDict begin

/setupLatin1 {
mark
/EncodingVector 256 array def
 EncodingVector 0

ISOLatin1Encoding 0 255 getinterval putinterval
EncodingVector 45 /hyphen put

% Set up ISO Latin 1 character encoding
/starnetISO {
        dup dup findfont dup length dict begin
        { 1 index /FID ne { def }{ pop pop } ifelse
        } forall
        /Encoding EncodingVector def
        currentdict end definefont
} def
/Times-Roman starnetISO def
/Times-Italic starnetISO def
/Times-Bold starnetISO def
/Times-BoldItalic starnetISO def
/Helvetica starnetISO def
/Helvetica-Oblique starnetISO def
/Helvetica-Bold starnetISO def
/Helvetica-BoldOblique starnetISO def
/Courier starnetISO def
/Courier-Oblique starnetISO def
/Courier-Bold starnetISO def
/Courier-BoldOblique starnetISO def
cleartomark
} bind def

%%BeginResource: procset graphviz 0 0
/coord-font-family /Times-Roman def
/default-font-family /Times-Roman def
/coordfont coord-font-family findfont 8 scalefont def

/InvScaleFactor 1.0 def
/set_scale {
       dup 1 exch div /InvScaleFactor exch def
       scale
} bind def

% styles
/solid { [] 0 setdash } bind def
/dashed { [9 InvScaleFactor mul dup ] 0 setdash } bind def
/dotted { [1 InvScaleFactor mul 6 InvScaleFactor mul] 0 setdash } bind def
/invis {/fill {newpath} def /stroke {newpath} def /show {pop newpath} def} bind def
/bold { 2 setlinewidth } bind def
/filled { } bind def
/unfilled { } bind def
/rounded { } bind def
/diagonals { } bind def

% hooks for setting color 
/nodecolor { sethsbcolor } bind def
/edgecolor { sethsbcolor } bind def
/graphcolor { sethsbcolor } bind def
/nopcolor {pop pop pop} bind def

/beginpage {	% i j npages
	/npages exch def
	/j exch def
	/i exch def
	/str 10 string def
	npages 1 gt {
		gsave
			coordfont setfont
			0 0 moveto
			(\() show i str cvs show (,) show j str cvs show (\)) show
		grestore
	} if
} bind def

/set_font {
	findfont exch
	scalefont setfont
} def

% draw text fitted to its expected width
/alignedtext {			% width text
	/text exch def
	/width exch def
	gsave
		width 0 gt {
			[] 0 setdash
			text stringwidth pop width exch sub text length div 0 text ashow
		} if
	grestore
} def

/boxprim {				% xcorner ycorner xsize ysize
		4 2 roll
		moveto
		2 copy
		exch 0 rlineto
		0 exch rlineto
		pop neg 0 rlineto
		closepath
} bind def

/ellipse_path {
	/ry exch def
	/rx exch def
	/y exch def
	/x exch def
	matrix currentmatrix
	newpath
	x y translate
	rx ry scale
	0 0 1 0 360 arc
	setmatrix
} bind def

/endpage { showpage } bind def
/showpage { } def

/layercolorseq
	[	% layer color sequence - darkest to lightest
		[0 0 0]
		[.2 .8 .8]
		[.4 .8 .8]
		[.6 .8 .8]
		[.8 .8 .8]
	]
def

/layerlen layercolorseq length def

/setlayer {/maxlayer exch def /curlayer exch def
	layercolorseq curlayer 1 sub layerlen mod get
	aload pop sethsbcolor
	/nodecolor {nopcolor} def
	/edgecolor {nopcolor} def
	/graphcolor {nopcolor} def
} bind def

/onlayer { curlayer ne {invis} if } def

/onlayers {
	/myupper exch def
	/mylower exch def
	curlayer mylower lt
	curlayer myupper gt
	or
	{invis} if
} def

/curlayer 0 def

%%EndResource
%%EndProlog
%%BeginSetup
14 default-font-family set_font
1 setmiterlimit
% /arrowlength 10 def
% /arrowwidth 5 def

% make sure pdfmark is harmless for PS-interpreters other than Distiller
/pdfmark where {pop} {userdict /pdfmark /cleartomark load put} ifelse
% make '<<' and '>>' safe on PS Level 1 devices
/languagelevel where {pop languagelevel}{1} ifelse
2 lt {
    userdict (<<) cvn ([) cvn load put
    userdict (>>) cvn ([) cvn load put
} if

%%EndSetup
setupLatin1
%%Page: 1 1
%%PageBoundingBox: 36 36 591 768
%%PageOrientation: Portrait
0 0 1 beginpage
gsave
36 36 555 732 boxprim clip newpath
1 1 set_scale 0 rotate 40 41 translate
% start0
gsave
grestore
% 0
gsave
0.83922 0.48235 0.8549 nodecolor
280 627 17.98 18.38 ellipse_path fill
1 setlinewidth
filled
0.83922 0.48235 0.8549 nodecolor
280 627 17.98 18.38 ellipse_path stroke
1 setlinewidth
filled
0.83922 0.48235 0.8549 nodecolor
280 627 21.89 22.38 ellipse_path stroke
0 0 0 nodecolor
14 /Times-Roman set_font
275 623.4 moveto 10 (0) alignedtext
grestore
% start0->0
gsave
1 setlinewidth
0 0 0 edgecolor
newpath 280 687.68 moveto
280 679.38 280 669.3 280 659.77 curveto
stroke
0 0 0 edgecolor
newpath 283.5 659.74 moveto
280 649.74 lineto
276.5 659.74 lineto
closepath fill
1 setlinewidth
solid
0 0 0 edgecolor
newpath 283.5 659.74 moveto
280 649.74 lineto
276.5 659.74 lineto
closepath stroke
grestore
% 0->0
gsave
1 setlinewidth
0 0 0 edgecolor
newpath 300.82 634.44 moveto
312.83 635.96 324 633.48 324 627 curveto
324 622.44 318.48 619.86 311.02 619.26 curveto
stroke
0 0 0 edgecolor
newpath 310.72 615.77 moveto
300.82 619.56 lineto
310.92 622.77 lineto
closepath fill
1 setlinewidth
solid
0 0 0 edgecolor
newpath 310.72 615.77 moveto
300.82 619.56 lineto
310.92 622.77 lineto
closepath stroke
0 0 0 edgecolor
14 /Times-Roman set_font
324 623.4 moveto 34 ([0,0]) alignedtext
grestore
% 1
gsave
0.54118 0.25098 1 nodecolor
280 531 17.89 18.38 ellipse_path fill
1 setlinewidth
filled
0.54118 0.25098 1 nodecolor
280 531 17.89 18.38 ellipse_path stroke
0 0 0 nodecolor
14 /Times-Roman set_font
275 527.4 moveto 10 (1) alignedtext
grestore
% 0->1
gsave
1 setlinewidth
0 0 0 edgecolor
newpath 280 604.25 moveto
280 590.99 280 574.15 280 559.95 curveto
stroke
0 0 0 edgecolor
newpath 283.5 559.72 moveto
280 549.72 lineto
276.5 559.72 lineto
closepath fill
1 setlinewidth
solid
0 0 0 edgecolor
newpath 283.5 559.72 moveto
280 549.72 lineto
276.5 559.72 lineto
closepath stroke
0 0 0 edgecolor
14 /Times-Roman set_font
280 573.4 moveto 34 ([0,1]) alignedtext
grestore
% 2
gsave
0.54118 0.25098 1 nodecolor
206 439 17.89 18.38 ellipse_path fill
1 setlinewidth
filled
0.54118 0.25098 1 nodecolor
206 439 17.89 18.38 ellipse_path stroke
0 0 0 nodecolor
14 /Times-Roman set_font
201 435.4 moveto 10 (2) alignedtext
grestore
% 1->2
gsave
1 setlinewidth
0 0 0 edgecolor
newpath 268.44 516.63 moveto
256.49 501.77 237.69 478.39 223.83 461.17 curveto
stroke
0 0 0 edgecolor
newpath 226.48 458.87 moveto
217.48 453.27 lineto
221.02 463.26 lineto
closepath fill
1 setlinewidth
solid
0 0 0 edgecolor
newpath 226.48 458.87 moveto
217.48 453.27 lineto
221.02 463.26 lineto
closepath stroke
0 0 0 edgecolor
14 /Times-Roman set_font
249 481.4 moveto 34 ([0,0]) alignedtext
grestore
% 3
gsave
0.023529 0.72157 1 nodecolor
102 137 17.98 18.38 ellipse_path fill
1 setlinewidth
filled
0.023529 0.72157 1 nodecolor
102 137 17.98 18.38 ellipse_path stroke
1 setlinewidth
filled
0.023529 0.72157 1 nodecolor
102 137 21.89 22.38 ellipse_path stroke
0 0 0 nodecolor
14 /Times-Roman set_font
97 133.4 moveto 10 (3) alignedtext
grestore
% 1->3
gsave
1 setlinewidth
0 0 0 edgecolor
newpath 292.88 517.59 moveto
307.69 500.69 330 470.09 330 439 curveto
330 439 330 439 330 235 curveto
330 192.85 196.79 157.88 134.01 143.74 curveto
stroke
0 0 0 edgecolor
newpath 134.38 140.24 moveto
123.86 141.5 lineto
132.87 147.07 lineto
closepath fill
1 setlinewidth
solid
0 0 0 edgecolor
newpath 134.38 140.24 moveto
123.86 141.5 lineto
132.87 147.07 lineto
closepath stroke
0 0 0 edgecolor
14 /Times-Roman set_font
330 343.4 moveto 34 ([1,1]) alignedtext
grestore
% 4
gsave
0.54118 0.25098 1 nodecolor
259 347 17.89 18.38 ellipse_path fill
1 setlinewidth
filled
0.54118 0.25098 1 nodecolor
259 347 17.89 18.38 ellipse_path stroke
0 0 0 nodecolor
14 /Times-Roman set_font
254 343.4 moveto 10 (4) alignedtext
grestore
% 2->4
gsave
1 setlinewidth
0 0 0 edgecolor
newpath 216.05 423.28 moveto
220.15 416.75 224.89 409.06 229 402 curveto
234.59 392.42 240.48 381.74 245.56 372.36 curveto
stroke
0 0 0 edgecolor
newpath 248.67 373.97 moveto
250.31 363.5 lineto
242.5 370.65 lineto
closepath fill
1 setlinewidth
solid
0 0 0 edgecolor
newpath 248.67 373.97 moveto
250.31 363.5 lineto
242.5 370.65 lineto
closepath stroke
0 0 0 edgecolor
14 /Times-Roman set_font
239 389.4 moveto 34 ([0,1]) alignedtext
grestore
% 5
gsave
0.54118 0.25098 1 nodecolor
18 291 17.89 18.38 ellipse_path fill
1 setlinewidth
filled
0.54118 0.25098 1 nodecolor
18 291 17.89 18.38 ellipse_path stroke
0 0 0 nodecolor
14 /Times-Roman set_font
13 287.4 moveto 10 (5) alignedtext
grestore
% 2->5
gsave
1 setlinewidth
0 0 0 edgecolor
newpath 190.35 429.83 moveto
178.45 422.66 161.82 412.23 148 402 curveto
107.75 372.2 64.08 333.46 38.99 310.51 curveto
stroke
0 0 0 edgecolor
newpath 41.25 307.84 moveto
31.52 303.65 lineto
36.51 312.99 lineto
closepath fill
1 setlinewidth
solid
0 0 0 edgecolor
newpath 41.25 307.84 moveto
31.52 303.65 lineto
36.51 312.99 lineto
closepath stroke
0 0 0 edgecolor
14 /Times-Roman set_font
148 389.4 moveto 34 ([1,0]) alignedtext
grestore
% 6
gsave
0.54118 0.25098 1 nodecolor
175 347 17.89 18.38 ellipse_path fill
1 setlinewidth
filled
0.54118 0.25098 1 nodecolor
175 347 17.89 18.38 ellipse_path stroke
0 0 0 nodecolor
14 /Times-Roman set_font
170 343.4 moveto 10 (6) alignedtext
grestore
% 2->6
gsave
1 setlinewidth
0 0 0 edgecolor
newpath 200.02 421.26 moveto
195.56 408.02 189.39 389.69 184.28 374.55 curveto
stroke
0 0 0 edgecolor
newpath 187.47 373.04 moveto
180.96 364.68 lineto
180.84 375.28 lineto
closepath fill
1 setlinewidth
solid
0 0 0 edgecolor
newpath 187.47 373.04 moveto
180.96 364.68 lineto
180.84 375.28 lineto
closepath stroke
0 0 0 edgecolor
14 /Times-Roman set_font
193 389.4 moveto 34 ([1,1]) alignedtext
grestore
% 7
gsave
0.54118 0.25098 1 nodecolor
382 235 17.89 18.38 ellipse_path fill
1 setlinewidth
filled
0.54118 0.25098 1 nodecolor
382 235 17.89 18.38 ellipse_path stroke
0 0 0 nodecolor
14 /Times-Roman set_font
377 231.4 moveto 10 (7) alignedtext
grestore
% 4->7
gsave
1 setlinewidth
0 0 0 edgecolor
newpath 272.63 334.59 moveto
293.97 315.16 335.41 277.42 360.71 254.39 curveto
stroke
0 0 0 edgecolor
newpath 363.27 256.79 moveto
368.31 247.47 lineto
358.56 251.61 lineto
closepath fill
1 setlinewidth
solid
0 0 0 edgecolor
newpath 363.27 256.79 moveto
368.31 247.47 lineto
358.56 251.61 lineto
closepath stroke
0 0 0 edgecolor
14 /Times-Roman set_font
338 287.4 moveto 34 ([1,0]) alignedtext
grestore
% 5->3
gsave
1 setlinewidth
0 0 0 edgecolor
newpath 12.25 273.19 moveto
8.2 257.44 4.81 234.21 13 216 curveto
25.38 188.46 52.62 166.62 73.73 152.95 curveto
stroke
0 0 0 edgecolor
newpath 75.69 155.85 moveto
82.34 147.6 lineto
72 149.9 lineto
closepath fill
1 setlinewidth
solid
0 0 0 edgecolor
newpath 75.69 155.85 moveto
82.34 147.6 lineto
72 149.9 lineto
closepath stroke
0 0 0 edgecolor
14 /Times-Roman set_font
13 231.4 moveto 34 ([0,1]) alignedtext
grestore
% 6->3
gsave
1 setlinewidth
0 0 0 edgecolor
newpath 159.57 336.94 moveto
138.08 321.9 100.09 291.28 85 254 curveto
73.63 225.91 81.03 191.3 89.33 167.03 curveto
stroke
0 0 0 edgecolor
newpath 92.62 168.23 moveto
92.77 157.64 lineto
86.05 165.83 lineto
closepath fill
1 setlinewidth
solid
0 0 0 edgecolor
newpath 92.62 168.23 moveto
92.77 157.64 lineto
86.05 165.83 lineto
closepath stroke
0 0 0 edgecolor
14 /Times-Roman set_font
85 231.4 moveto 34 ([1,1]) alignedtext
grestore
% 8
gsave
0.54118 0.25098 1 nodecolor
366 137 17.89 18.38 ellipse_path fill
1 setlinewidth
filled
0.54118 0.25098 1 nodecolor
366 137 17.89 18.38 ellipse_path stroke
0 0 0 nodecolor
14 /Times-Roman set_font
361 133.4 moveto 10 (8) alignedtext
grestore
% 6->8
gsave
1 setlinewidth
0 0 0 edgecolor
newpath 187.53 333.22 moveto
220.12 297.39 307.7 201.09 346.75 158.16 curveto
stroke
0 0 0 edgecolor
newpath 349.53 160.31 moveto
353.67 150.56 lineto
344.35 155.6 lineto
closepath fill
1 setlinewidth
solid
0 0 0 edgecolor
newpath 349.53 160.31 moveto
353.67 150.56 lineto
344.35 155.6 lineto
closepath stroke
0 0 0 edgecolor
14 /Times-Roman set_font
292 231.4 moveto 34 ([0,0]) alignedtext
grestore
% 9
gsave
0.54118 0.25098 1 nodecolor
148 235 17.89 18.38 ellipse_path fill
1 setlinewidth
filled
0.54118 0.25098 1 nodecolor
148 235 17.89 18.38 ellipse_path stroke
0 0 0 nodecolor
14 /Times-Roman set_font
143 231.4 moveto 10 (9) alignedtext
grestore
% 6->9
gsave
1 setlinewidth
0 0 0 edgecolor
newpath 170.66 329.01 moveto
166.38 311.23 159.76 283.79 154.78 263.13 curveto
stroke
0 0 0 edgecolor
newpath 158.16 262.22 moveto
152.42 253.32 lineto
151.36 263.86 lineto
closepath fill
1 setlinewidth
solid
0 0 0 edgecolor
newpath 158.16 262.22 moveto
152.42 253.32 lineto
151.36 263.86 lineto
closepath stroke
0 0 0 edgecolor
14 /Times-Roman set_font
166 287.4 moveto 34 ([0,1]) alignedtext
grestore
% 7->7
gsave
1 setlinewidth
0 0 0 edgecolor
newpath 398.44 242.7 moveto
410.24 245.2 422 242.64 422 235 curveto
422 229.63 416.19 226.77 408.63 226.41 curveto
stroke
0 0 0 edgecolor
newpath 408.09 222.95 moveto
398.44 227.3 lineto
408.7 229.92 lineto
closepath fill
1 setlinewidth
solid
0 0 0 edgecolor
newpath 408.09 222.95 moveto
398.44 227.3 lineto
408.7 229.92 lineto
closepath stroke
0 0 0 edgecolor
14 /Times-Roman set_font
422 231.4 moveto 34 ([0,0]) alignedtext
grestore
% 7->8
gsave
1 setlinewidth
0 0 0 edgecolor
newpath 374.86 217.97 moveto
372.58 211.79 370.31 204.68 369 198 curveto
366.96 187.57 366.05 175.97 365.71 165.7 curveto
stroke
0 0 0 edgecolor
newpath 369.21 165.52 moveto
365.53 155.59 lineto
362.21 165.65 lineto
closepath fill
1 setlinewidth
solid
0 0 0 edgecolor
newpath 369.21 165.52 moveto
365.53 155.59 lineto
362.21 165.65 lineto
closepath stroke
0 0 0 edgecolor
14 /Times-Roman set_font
369 185.4 moveto 34 ([1,0]) alignedtext
grestore
% 10
gsave
0.54118 0.25098 1 nodecolor
430 137 24.24 24.75 ellipse_path fill
1 setlinewidth
filled
0.54118 0.25098 1 nodecolor
430 137 24.24 24.75 ellipse_path stroke
0 0 0 nodecolor
14 /Times-Roman set_font
420.5 133.4 moveto 19 (10) alignedtext
grestore
% 7->10
gsave
1 setlinewidth
0 0 0 edgecolor
newpath 391.89 219.42 moveto
395.86 212.91 400.35 205.2 404 198 curveto
408.64 188.86 413.2 178.69 417.17 169.32 curveto
stroke
0 0 0 edgecolor
newpath 420.47 170.5 moveto
421.08 159.93 lineto
414.01 167.82 lineto
closepath fill
1 setlinewidth
solid
0 0 0 edgecolor
newpath 420.47 170.5 moveto
421.08 159.93 lineto
414.01 167.82 lineto
closepath stroke
0 0 0 edgecolor
14 /Times-Roman set_font
411 185.4 moveto 34 ([1,1]) alignedtext
grestore
% 11
gsave
0.023529 0.72157 1 nodecolor
398 29 24.31 24.75 ellipse_path fill
1 setlinewidth
filled
0.023529 0.72157 1 nodecolor
398 29 24.31 24.75 ellipse_path stroke
1 setlinewidth
filled
0.023529 0.72157 1 nodecolor
398 29 28.24 28.75 ellipse_path stroke
0 0 0 nodecolor
14 /Times-Roman set_font
388.5 25.4 moveto 19 (11) alignedtext
grestore
% 8->11
gsave
1 setlinewidth
0 0 0 edgecolor
newpath 364.1 118.43 moveto
363.44 106.12 363.74 89.77 368 76 curveto
369.68 70.57 372.17 65.15 375.01 60.03 curveto
stroke
0 0 0 edgecolor
newpath 378.18 61.56 moveto
380.4 51.2 lineto
372.2 57.92 lineto
closepath fill
1 setlinewidth
solid
0 0 0 edgecolor
newpath 378.18 61.56 moveto
380.4 51.2 lineto
372.2 57.92 lineto
closepath stroke
0 0 0 edgecolor
14 /Times-Roman set_font
368 81.4 moveto 34 ([0,1]) alignedtext
grestore
% 9->3
gsave
1 setlinewidth
0 0 0 edgecolor
newpath 139.99 217.93 moveto
133.4 203.9 123.92 183.69 116.07 166.98 curveto
stroke
0 0 0 edgecolor
newpath 119.09 165.18 moveto
111.67 157.61 lineto
112.76 168.15 lineto
closepath fill
1 setlinewidth
solid
0 0 0 edgecolor
newpath 119.09 165.18 moveto
111.67 157.61 lineto
112.76 168.15 lineto
closepath stroke
0 0 0 edgecolor
14 /Times-Roman set_font
131 185.4 moveto 34 ([1,0]) alignedtext
grestore
% 9->9
gsave
1 setlinewidth
0 0 0 edgecolor
newpath 164.44 242.7 moveto
176.24 245.2 188 242.64 188 235 curveto
188 229.63 182.19 226.77 174.63 226.41 curveto
stroke
0 0 0 edgecolor
newpath 174.09 222.95 moveto
164.44 227.3 lineto
174.7 229.92 lineto
closepath fill
1 setlinewidth
solid
0 0 0 edgecolor
newpath 174.09 222.95 moveto
164.44 227.3 lineto
174.7 229.92 lineto
closepath stroke
0 0 0 edgecolor
14 /Times-Roman set_font
188 231.4 moveto 34 ([0,0]) alignedtext
grestore
% 10->10
gsave
1 setlinewidth
0 0 0 edgecolor
newpath 452.25 146.28 moveto
464.61 148.02 476 144.92 476 137 curveto
476 131.37 470.24 128.18 462.47 127.42 curveto
stroke
0 0 0 edgecolor
newpath 462.14 123.93 moveto
452.25 127.72 lineto
462.34 130.93 lineto
closepath fill
1 setlinewidth
solid
0 0 0 edgecolor
newpath 462.14 123.93 moveto
452.25 127.72 lineto
462.34 130.93 lineto
closepath stroke
0 0 0 edgecolor
14 /Times-Roman set_font
476 133.4 moveto 71 ([0,0] [1,1]) alignedtext
grestore
% 10->11
gsave
1 setlinewidth
0 0 0 edgecolor
newpath 422.98 113.3 moveto
418.9 99.55 413.68 81.92 409.06 66.34 curveto
stroke
0 0 0 edgecolor
newpath 412.33 65.05 moveto
406.14 56.46 lineto
405.62 67.04 lineto
closepath fill
1 setlinewidth
solid
0 0 0 edgecolor
newpath 412.33 65.05 moveto
406.14 56.46 lineto
405.62 67.04 lineto
closepath stroke
0 0 0 edgecolor
14 /Times-Roman set_font
416 81.4 moveto 34 ([1,0]) alignedtext
grestore
% 11->11
gsave
1 setlinewidth
0 0 0 edgecolor
newpath 424.24 39.24 moveto
436.86 40.51 448 37.09 448 29 curveto
448 23.18 442.24 19.78 434.32 18.8 curveto
stroke
0 0 0 edgecolor
newpath 434.25 15.3 moveto
424.24 18.76 lineto
434.22 22.3 lineto
closepath fill
1 setlinewidth
solid
0 0 0 edgecolor
newpath 434.25 15.3 moveto
424.24 18.76 lineto
434.22 22.3 lineto
closepath stroke
0 0 0 edgecolor
14 /Times-Roman set_font
448 25.4 moveto 34 ([0,1]) alignedtext
grestore
endpage
showpage
grestore
%%PageTrailer
%%EndPage: 1
%%Trailer
end
restore
%%EOF
