%!PS-Adobe-3.0 EPSF-3.0
%%Creator: graphviz version 2.26.3 (20100126.1600)
%%Title: FSA Utilities
%%Pages: 1
%%BoundingBox: 36 36 619 1736
%%EndComments
save
%%BeginProlog
/DotDict 200 dict def
DotDict begin

/setupLatin1 {
mark
/EncodingVector 256 array def
 EncodingVector 0

ISOLatin1Encoding 0 255 getinterval putinterval
EncodingVector 45 /hyphen put

% Set up ISO Latin 1 character encoding
/starnetISO {
        dup dup findfont dup length dict begin
        { 1 index /FID ne { def }{ pop pop } ifelse
        } forall
        /Encoding EncodingVector def
        currentdict end definefont
} def
/Times-Roman starnetISO def
/Times-Italic starnetISO def
/Times-Bold starnetISO def
/Times-BoldItalic starnetISO def
/Helvetica starnetISO def
/Helvetica-Oblique starnetISO def
/Helvetica-Bold starnetISO def
/Helvetica-BoldOblique starnetISO def
/Courier starnetISO def
/Courier-Oblique starnetISO def
/Courier-Bold starnetISO def
/Courier-BoldOblique starnetISO def
cleartomark
} bind def

%%BeginResource: procset graphviz 0 0
/coord-font-family /Times-Roman def
/default-font-family /Times-Roman def
/coordfont coord-font-family findfont 8 scalefont def

/InvScaleFactor 1.0 def
/set_scale {
       dup 1 exch div /InvScaleFactor exch def
       scale
} bind def

% styles
/solid { [] 0 setdash } bind def
/dashed { [9 InvScaleFactor mul dup ] 0 setdash } bind def
/dotted { [1 InvScaleFactor mul 6 InvScaleFactor mul] 0 setdash } bind def
/invis {/fill {newpath} def /stroke {newpath} def /show {pop newpath} def} bind def
/bold { 2 setlinewidth } bind def
/filled { } bind def
/unfilled { } bind def
/rounded { } bind def
/diagonals { } bind def

% hooks for setting color 
/nodecolor { sethsbcolor } bind def
/edgecolor { sethsbcolor } bind def
/graphcolor { sethsbcolor } bind def
/nopcolor {pop pop pop} bind def

/beginpage {	% i j npages
	/npages exch def
	/j exch def
	/i exch def
	/str 10 string def
	npages 1 gt {
		gsave
			coordfont setfont
			0 0 moveto
			(\() show i str cvs show (,) show j str cvs show (\)) show
		grestore
	} if
} bind def

/set_font {
	findfont exch
	scalefont setfont
} def

% draw text fitted to its expected width
/alignedtext {			% width text
	/text exch def
	/width exch def
	gsave
		width 0 gt {
			[] 0 setdash
			text stringwidth pop width exch sub text length div 0 text ashow
		} if
	grestore
} def

/boxprim {				% xcorner ycorner xsize ysize
		4 2 roll
		moveto
		2 copy
		exch 0 rlineto
		0 exch rlineto
		pop neg 0 rlineto
		closepath
} bind def

/ellipse_path {
	/ry exch def
	/rx exch def
	/y exch def
	/x exch def
	matrix currentmatrix
	newpath
	x y translate
	rx ry scale
	0 0 1 0 360 arc
	setmatrix
} bind def

/endpage { showpage } bind def
/showpage { } def

/layercolorseq
	[	% layer color sequence - darkest to lightest
		[0 0 0]
		[.2 .8 .8]
		[.4 .8 .8]
		[.6 .8 .8]
		[.8 .8 .8]
	]
def

/layerlen layercolorseq length def

/setlayer {/maxlayer exch def /curlayer exch def
	layercolorseq curlayer 1 sub layerlen mod get
	aload pop sethsbcolor
	/nodecolor {nopcolor} def
	/edgecolor {nopcolor} def
	/graphcolor {nopcolor} def
} bind def

/onlayer { curlayer ne {invis} if } def

/onlayers {
	/myupper exch def
	/mylower exch def
	curlayer mylower lt
	curlayer myupper gt
	or
	{invis} if
} def

/curlayer 0 def

%%EndResource
%%EndProlog
%%BeginSetup
14 default-font-family set_font
1 setmiterlimit
% /arrowlength 10 def
% /arrowwidth 5 def

% make sure pdfmark is harmless for PS-interpreters other than Distiller
/pdfmark where {pop} {userdict /pdfmark /cleartomark load put} ifelse
% make '<<' and '>>' safe on PS Level 1 devices
/languagelevel where {pop languagelevel}{1} ifelse
2 lt {
    userdict (<<) cvn ([) cvn load put
    userdict (>>) cvn ([) cvn load put
} if

%%EndSetup
setupLatin1
%%Page: 1 1
%%PageBoundingBox: 36 36 619 1736
%%PageOrientation: Portrait
0 0 1 beginpage
gsave
36 36 583 1700 boxprim clip newpath
1 1 set_scale 0 rotate 40 41 translate
% start0
gsave
grestore
% 0
gsave
0.83922 0.48235 0.8549 nodecolor
229 1595 17.98 18.38 ellipse_path fill
1 setlinewidth
filled
0.83922 0.48235 0.8549 nodecolor
229 1595 17.98 18.38 ellipse_path stroke
1 setlinewidth
filled
0.83922 0.48235 0.8549 nodecolor
229 1595 21.89 22.38 ellipse_path stroke
0 0 0 nodecolor
14 /Times-Roman set_font
224 1591.4 moveto 10 (0) alignedtext
grestore
% start0->0
gsave
1 setlinewidth
0 0 0 edgecolor
newpath 229 1655.68 moveto
229 1647.38 229 1637.3 229 1627.77 curveto
stroke
0 0 0 edgecolor
newpath 232.5 1627.74 moveto
229 1617.74 lineto
225.5 1627.74 lineto
closepath fill
1 setlinewidth
solid
0 0 0 edgecolor
newpath 232.5 1627.74 moveto
229 1617.74 lineto
225.5 1627.74 lineto
closepath stroke
grestore
% 0->0
gsave
1 setlinewidth
0 0 0 edgecolor
newpath 249.82 1602.44 moveto
261.83 1603.96 273 1601.48 273 1595 curveto
273 1590.44 267.48 1587.86 260.02 1587.26 curveto
stroke
0 0 0 edgecolor
newpath 259.72 1583.77 moveto
249.82 1587.56 lineto
259.92 1590.77 lineto
closepath fill
1 setlinewidth
solid
0 0 0 edgecolor
newpath 259.72 1583.77 moveto
249.82 1587.56 lineto
259.92 1590.77 lineto
closepath stroke
0 0 0 edgecolor
14 /Times-Roman set_font
273 1591.4 moveto 10 (0) alignedtext
grestore
% 1
gsave
0.023529 0.72157 1 nodecolor
229 1495 17.98 18.38 ellipse_path fill
1 setlinewidth
filled
0.023529 0.72157 1 nodecolor
229 1495 17.98 18.38 ellipse_path stroke
1 setlinewidth
filled
0.023529 0.72157 1 nodecolor
229 1495 21.89 22.38 ellipse_path stroke
0 0 0 nodecolor
14 /Times-Roman set_font
224 1491.4 moveto 10 (1) alignedtext
grestore
% 0->1
gsave
1 setlinewidth
0 0 0 edgecolor
newpath 229 1572.31 moveto
229 1559.14 229 1542.32 229 1527.74 curveto
stroke
0 0 0 edgecolor
newpath 232.5 1527.6 moveto
229 1517.6 lineto
225.5 1527.6 lineto
closepath fill
1 setlinewidth
solid
0 0 0 edgecolor
newpath 232.5 1527.6 moveto
229 1517.6 lineto
225.5 1527.6 lineto
closepath stroke
0 0 0 edgecolor
14 /Times-Roman set_font
229 1541.4 moveto 10 (1) alignedtext
grestore
% 1->1
gsave
1 setlinewidth
0 0 0 edgecolor
newpath 249.37 1503.79 moveto
261.54 1505.74 273 1502.81 273 1495 curveto
273 1489.45 267.21 1486.36 259.49 1485.74 curveto
stroke
0 0 0 edgecolor
newpath 259.19 1482.25 moveto
249.37 1486.21 lineto
259.52 1489.24 lineto
closepath fill
1 setlinewidth
solid
0 0 0 edgecolor
newpath 259.19 1482.25 moveto
249.37 1486.21 lineto
259.52 1489.24 lineto
closepath stroke
0 0 0 edgecolor
14 /Times-Roman set_font
273 1491.4 moveto 10 (1) alignedtext
grestore
% 2
gsave
0.023529 0.72157 1 nodecolor
166 1395 17.98 18.38 ellipse_path fill
1 setlinewidth
filled
0.023529 0.72157 1 nodecolor
166 1395 17.98 18.38 ellipse_path stroke
1 setlinewidth
filled
0.023529 0.72157 1 nodecolor
166 1395 21.89 22.38 ellipse_path stroke
0 0 0 nodecolor
14 /Times-Roman set_font
161 1391.4 moveto 10 (2) alignedtext
grestore
% 1->2
gsave
1 setlinewidth
0 0 0 edgecolor
newpath 216.85 1475.72 moveto
207.44 1460.78 194.26 1439.86 183.68 1423.07 curveto
stroke
0 0 0 edgecolor
newpath 186.4 1420.82 moveto
178.11 1414.22 lineto
180.48 1424.55 lineto
closepath fill
1 setlinewidth
solid
0 0 0 edgecolor
newpath 186.4 1420.82 moveto
178.11 1414.22 lineto
180.48 1424.55 lineto
closepath stroke
0 0 0 edgecolor
14 /Times-Roman set_font
203 1441.4 moveto 10 (0) alignedtext
grestore
% 3
gsave
0.023529 0.72157 1 nodecolor
166 1295 17.98 18.38 ellipse_path fill
1 setlinewidth
filled
0.023529 0.72157 1 nodecolor
166 1295 17.98 18.38 ellipse_path stroke
1 setlinewidth
filled
0.023529 0.72157 1 nodecolor
166 1295 21.89 22.38 ellipse_path stroke
0 0 0 nodecolor
14 /Times-Roman set_font
161 1291.4 moveto 10 (3) alignedtext
grestore
% 2->3
gsave
1 setlinewidth
0 0 0 edgecolor
newpath 166 1372.31 moveto
166 1359.14 166 1342.32 166 1327.74 curveto
stroke
0 0 0 edgecolor
newpath 169.5 1327.6 moveto
166 1317.6 lineto
162.5 1327.6 lineto
closepath fill
1 setlinewidth
solid
0 0 0 edgecolor
newpath 169.5 1327.6 moveto
166 1317.6 lineto
162.5 1327.6 lineto
closepath stroke
0 0 0 edgecolor
14 /Times-Roman set_font
166 1341.4 moveto 10 (0) alignedtext
grestore
% 4
gsave
0.023529 0.72157 1 nodecolor
92 457 17.98 18.38 ellipse_path fill
1 setlinewidth
filled
0.023529 0.72157 1 nodecolor
92 457 17.98 18.38 ellipse_path stroke
1 setlinewidth
filled
0.023529 0.72157 1 nodecolor
92 457 21.89 22.38 ellipse_path stroke
0 0 0 nodecolor
14 /Times-Roman set_font
87 453.4 moveto 10 (4) alignedtext
grestore
% 2->4
gsave
1 setlinewidth
0 0 0 edgecolor
newpath 148.85 1380.27 moveto
129.89 1362.26 102 1329.83 102 1295 curveto
102 1295 102 1295 102 569 curveto
102 542.2 99.13 511.94 96.46 489.64 curveto
stroke
0 0 0 edgecolor
newpath 99.93 489.18 moveto
95.22 479.68 lineto
92.98 490.04 lineto
closepath fill
1 setlinewidth
solid
0 0 0 edgecolor
newpath 99.93 489.18 moveto
95.22 479.68 lineto
92.98 490.04 lineto
closepath stroke
0 0 0 edgecolor
14 /Times-Roman set_font
102 949.4 moveto 10 (1) alignedtext
grestore
% 3->3
gsave
1 setlinewidth
0 0 0 edgecolor
newpath 186.37 1303.79 moveto
198.54 1305.74 210 1302.81 210 1295 curveto
210 1289.45 204.21 1286.36 196.49 1285.74 curveto
stroke
0 0 0 edgecolor
newpath 196.19 1282.25 moveto
186.37 1286.21 lineto
196.52 1289.24 lineto
closepath fill
1 setlinewidth
solid
0 0 0 edgecolor
newpath 196.19 1282.25 moveto
186.37 1286.21 lineto
196.52 1289.24 lineto
closepath stroke
0 0 0 edgecolor
14 /Times-Roman set_font
210 1291.4 moveto 10 (0) alignedtext
grestore
% 5
gsave
0.023529 0.72157 1 nodecolor
316 1195 17.98 18.38 ellipse_path fill
1 setlinewidth
filled
0.023529 0.72157 1 nodecolor
316 1195 17.98 18.38 ellipse_path stroke
1 setlinewidth
filled
0.023529 0.72157 1 nodecolor
316 1195 21.89 22.38 ellipse_path stroke
0 0 0 nodecolor
14 /Times-Roman set_font
311 1191.4 moveto 10 (5) alignedtext
grestore
% 3->5
gsave
1 setlinewidth
0 0 0 edgecolor
newpath 184.69 1282.54 moveto
211 1265 259.08 1232.95 289.19 1212.87 curveto
stroke
0 0 0 edgecolor
newpath 291.16 1215.77 moveto
297.54 1207.31 lineto
287.28 1209.94 lineto
closepath fill
1 setlinewidth
solid
0 0 0 edgecolor
newpath 291.16 1215.77 moveto
297.54 1207.31 lineto
287.28 1209.94 lineto
closepath stroke
0 0 0 edgecolor
14 /Times-Roman set_font
254 1241.4 moveto 10 (1) alignedtext
grestore
% 4->1
gsave
1 setlinewidth
0 0 0 edgecolor
newpath 81.39 477.02 moveto
70.77 498.96 56 535.5 56 569 curveto
56 1395 56 1395 56 1395 curveto
56 1459.45 147.11 1483.02 197.1 1491.1 curveto
stroke
0 0 0 edgecolor
newpath 196.68 1494.58 moveto
207.09 1492.6 lineto
197.72 1487.66 lineto
closepath fill
1 setlinewidth
solid
0 0 0 edgecolor
newpath 196.68 1494.58 moveto
207.09 1492.6 lineto
197.72 1487.66 lineto
closepath stroke
0 0 0 edgecolor
14 /Times-Roman set_font
56 999.4 moveto 10 (1) alignedtext
grestore
% 6
gsave
0.023529 0.72157 1 nodecolor
128 349 17.98 18.38 ellipse_path fill
1 setlinewidth
filled
0.023529 0.72157 1 nodecolor
128 349 17.98 18.38 ellipse_path stroke
1 setlinewidth
filled
0.023529 0.72157 1 nodecolor
128 349 21.89 22.38 ellipse_path stroke
0 0 0 nodecolor
14 /Times-Roman set_font
123 345.4 moveto 10 (6) alignedtext
grestore
% 4->6
gsave
1 setlinewidth
0 0 0 edgecolor
newpath 99.11 435.66 moveto
104.35 419.94 111.57 398.29 117.48 380.57 curveto
stroke
0 0 0 edgecolor
newpath 120.94 381.26 moveto
120.78 370.66 lineto
114.3 379.04 lineto
closepath fill
1 setlinewidth
solid
0 0 0 edgecolor
newpath 120.94 381.26 moveto
120.78 370.66 lineto
114.3 379.04 lineto
closepath stroke
0 0 0 edgecolor
14 /Times-Roman set_font
114 397.4 moveto 10 (0) alignedtext
grestore
% 5->1
gsave
1 setlinewidth
0 0 0 edgecolor
newpath 315.84 1217.82 moveto
314.66 1264.64 307.4 1373.92 267 1454 curveto
263.51 1460.91 258.51 1467.49 253.28 1473.28 curveto
stroke
0 0 0 edgecolor
newpath 250.58 1471.04 moveto
246.11 1480.64 lineto
255.6 1475.92 lineto
closepath fill
1 setlinewidth
solid
0 0 0 edgecolor
newpath 250.58 1471.04 moveto
246.11 1480.64 lineto
255.6 1475.92 lineto
closepath stroke
0 0 0 edgecolor
14 /Times-Roman set_font
303 1341.4 moveto 10 (1) alignedtext
grestore
% 7
gsave
0.54118 0.25098 1 nodecolor
400 1099 17.89 18.38 ellipse_path fill
1 setlinewidth
filled
0.54118 0.25098 1 nodecolor
400 1099 17.89 18.38 ellipse_path stroke
0 0 0 nodecolor
14 /Times-Roman set_font
395 1095.4 moveto 10 (7) alignedtext
grestore
% 5->7
gsave
1 setlinewidth
0 0 0 edgecolor
newpath 331.02 1177.84 moveto
344.97 1161.89 365.81 1138.08 380.93 1120.8 curveto
stroke
0 0 0 edgecolor
newpath 383.89 1122.73 moveto
387.84 1112.9 lineto
378.62 1118.12 lineto
closepath fill
1 setlinewidth
solid
0 0 0 edgecolor
newpath 383.89 1122.73 moveto
387.84 1112.9 lineto
378.62 1118.12 lineto
closepath stroke
0 0 0 edgecolor
14 /Times-Roman set_font
365 1141.4 moveto 10 (0) alignedtext
grestore
% 6->3
gsave
1 setlinewidth
0 0 0 edgecolor
newpath 134.44 370.71 moveto
140.28 392.36 148 426.68 148 457 curveto
148 1195 148 1195 148 1195 curveto
148 1218.18 152.74 1243.9 157.36 1263.46 curveto
stroke
0 0 0 edgecolor
newpath 154.01 1264.49 moveto
159.81 1273.35 lineto
160.8 1262.81 lineto
closepath fill
1 setlinewidth
solid
0 0 0 edgecolor
newpath 154.01 1264.49 moveto
159.81 1273.35 lineto
160.8 1262.81 lineto
closepath stroke
0 0 0 edgecolor
14 /Times-Roman set_font
148 845.4 moveto 10 (0) alignedtext
grestore
% 8
gsave
0.023529 0.72157 1 nodecolor
128 247 17.98 18.38 ellipse_path fill
1 setlinewidth
filled
0.023529 0.72157 1 nodecolor
128 247 17.98 18.38 ellipse_path stroke
1 setlinewidth
filled
0.023529 0.72157 1 nodecolor
128 247 21.89 22.38 ellipse_path stroke
0 0 0 nodecolor
14 /Times-Roman set_font
123 243.4 moveto 10 (8) alignedtext
grestore
% 6->8
gsave
1 setlinewidth
0 0 0 edgecolor
newpath 128 326.36 moveto
128 312.63 128 294.87 128 279.64 curveto
stroke
0 0 0 edgecolor
newpath 131.5 279.57 moveto
128 269.57 lineto
124.5 279.57 lineto
closepath fill
1 setlinewidth
solid
0 0 0 edgecolor
newpath 131.5 279.57 moveto
128 269.57 lineto
124.5 279.57 lineto
closepath stroke
0 0 0 edgecolor
14 /Times-Roman set_font
128 293.4 moveto 10 (1) alignedtext
grestore
% 9
gsave
0.023529 0.72157 1 nodecolor
306 1003 17.98 18.38 ellipse_path fill
1 setlinewidth
filled
0.023529 0.72157 1 nodecolor
306 1003 17.98 18.38 ellipse_path stroke
1 setlinewidth
filled
0.023529 0.72157 1 nodecolor
306 1003 21.89 22.38 ellipse_path stroke
0 0 0 nodecolor
14 /Times-Roman set_font
301 999.4 moveto 10 (9) alignedtext
grestore
% 7->9
gsave
1 setlinewidth
0 0 0 edgecolor
newpath 386.93 1085.65 moveto
372.01 1070.41 347.32 1045.2 329.13 1026.62 curveto
stroke
0 0 0 edgecolor
newpath 331.28 1023.81 moveto
321.78 1019.12 lineto
326.28 1028.71 lineto
closepath fill
1 setlinewidth
solid
0 0 0 edgecolor
newpath 331.28 1023.81 moveto
321.78 1019.12 lineto
326.28 1028.71 lineto
closepath stroke
0 0 0 edgecolor
14 /Times-Roman set_font
361 1049.4 moveto 10 (0) alignedtext
grestore
% 10
gsave
0.023529 0.72157 1 nodecolor
479 29 24.31 24.75 ellipse_path fill
1 setlinewidth
filled
0.023529 0.72157 1 nodecolor
479 29 24.31 24.75 ellipse_path stroke
1 setlinewidth
filled
0.023529 0.72157 1 nodecolor
479 29 28.24 28.75 ellipse_path stroke
0 0 0 nodecolor
14 /Times-Roman set_font
469.5 25.4 moveto 19 (10) alignedtext
grestore
% 7->10
gsave
1 setlinewidth
0 0 0 edgecolor
newpath 416.51 1090.92 moveto
442.49 1076.92 490 1045.49 490 1003 curveto
490 1003 490 1003 490 849 curveto
490 767.23 565 762.77 565 681 curveto
565 681 565 681 565 141 curveto
565 104 535.1 71.69 510.57 51.41 curveto
stroke
0 0 0 edgecolor
newpath 512.51 48.48 moveto
502.5 45 lineto
508.15 53.96 lineto
closepath fill
1 setlinewidth
solid
0 0 0 edgecolor
newpath 512.51 48.48 moveto
502.5 45 lineto
508.15 53.96 lineto
closepath stroke
0 0 0 edgecolor
14 /Times-Roman set_font
565 565.4 moveto 10 (1) alignedtext
grestore
% 8->1
gsave
1 setlinewidth
0 0 0 edgecolor
newpath 106.58 253.17 moveto
70.14 265.13 0 295.15 0 349 curveto
0 1395 0 1395 0 1395 curveto
0 1435.35 33.19 1435.4 69 1454 curveto
110.22 1475.41 163.33 1486.14 196.78 1491.14 curveto
stroke
0 0 0 edgecolor
newpath 196.52 1494.63 moveto
206.91 1492.56 lineto
197.5 1487.7 lineto
closepath fill
1 setlinewidth
solid
0 0 0 edgecolor
newpath 196.52 1494.63 moveto
206.91 1492.56 lineto
197.5 1487.7 lineto
closepath stroke
0 0 0 edgecolor
14 /Times-Roman set_font
0 897.4 moveto 10 (1) alignedtext
grestore
% 11
gsave
0.023529 0.72157 1 nodecolor
311 141 24.31 24.75 ellipse_path fill
1 setlinewidth
filled
0.023529 0.72157 1 nodecolor
311 141 24.31 24.75 ellipse_path stroke
1 setlinewidth
filled
0.023529 0.72157 1 nodecolor
311 141 28.24 28.75 ellipse_path stroke
0 0 0 nodecolor
14 /Times-Roman set_font
301.5 137.4 moveto 19 (11) alignedtext
grestore
% 8->11
gsave
1 setlinewidth
0 0 0 edgecolor
newpath 147.24 235.86 moveto
178.25 217.9 239.66 182.32 277.83 160.21 curveto
stroke
0 0 0 edgecolor
newpath 279.64 163.21 moveto
286.54 155.17 lineto
276.13 157.15 lineto
closepath fill
1 setlinewidth
solid
0 0 0 edgecolor
newpath 279.64 163.21 moveto
286.54 155.17 lineto
276.13 157.15 lineto
closepath stroke
0 0 0 edgecolor
14 /Times-Roman set_font
224 193.4 moveto 10 (0) alignedtext
grestore
% 9->9
gsave
1 setlinewidth
0 0 0 edgecolor
newpath 326.37 1011.79 moveto
338.54 1013.74 350 1010.81 350 1003 curveto
350 997.45 344.21 994.36 336.49 993.74 curveto
stroke
0 0 0 edgecolor
newpath 336.19 990.25 moveto
326.37 994.21 lineto
336.52 997.24 lineto
closepath fill
1 setlinewidth
solid
0 0 0 edgecolor
newpath 336.19 990.25 moveto
326.37 994.21 lineto
336.52 997.24 lineto
closepath stroke
0 0 0 edgecolor
14 /Times-Roman set_font
350 999.4 moveto 10 (0) alignedtext
grestore
% 12
gsave
0.54118 0.25098 1 nodecolor
378 901 24.24 24.75 ellipse_path fill
1 setlinewidth
filled
0.54118 0.25098 1 nodecolor
378 901 24.24 24.75 ellipse_path stroke
0 0 0 nodecolor
14 /Times-Roman set_font
368.5 897.4 moveto 19 (12) alignedtext
grestore
% 9->12
gsave
1 setlinewidth
0 0 0 edgecolor
newpath 319.21 984.29 moveto
330.09 968.87 345.7 946.76 358.1 929.19 curveto
stroke
0 0 0 edgecolor
newpath 360.99 931.17 moveto
363.89 920.98 lineto
355.27 927.14 lineto
closepath fill
1 setlinewidth
solid
0 0 0 edgecolor
newpath 360.99 931.17 moveto
363.89 920.98 lineto
355.27 927.14 lineto
closepath stroke
0 0 0 edgecolor
14 /Times-Roman set_font
346 949.4 moveto 10 (1) alignedtext
grestore
% 10->11
gsave
1 setlinewidth
0 0 0 edgecolor
newpath 462.16 52.06 moveto
451.31 65.64 436.24 82.39 420 94 curveto
398.04 109.69 370.03 121.62 347.9 129.54 curveto
stroke
0 0 0 edgecolor
newpath 346.5 126.32 moveto
338.19 132.9 lineto
348.79 132.94 lineto
closepath fill
1 setlinewidth
solid
0 0 0 edgecolor
newpath 346.5 126.32 moveto
338.19 132.9 lineto
348.79 132.94 lineto
closepath stroke
0 0 0 edgecolor
14 /Times-Roman set_font
440 81.4 moveto 10 (0) alignedtext
grestore
% 13
gsave
0.023529 0.72157 1 nodecolor
503 681 24.31 24.75 ellipse_path fill
1 setlinewidth
filled
0.023529 0.72157 1 nodecolor
503 681 24.31 24.75 ellipse_path stroke
1 setlinewidth
filled
0.023529 0.72157 1 nodecolor
503 681 28.24 28.75 ellipse_path stroke
0 0 0 nodecolor
14 /Times-Roman set_font
493.5 677.4 moveto 19 (13) alignedtext
grestore
% 10->13
gsave
1 setlinewidth
0 0 0 edgecolor
newpath 485.23 56.92 moveto
489.72 79.48 495 112.13 495 141 curveto
495 569 495 569 495 569 curveto
495 593.46 496.92 620.85 498.88 642.42 curveto
stroke
0 0 0 edgecolor
newpath 495.41 642.87 moveto
499.84 652.5 lineto
502.38 642.21 lineto
closepath fill
1 setlinewidth
solid
0 0 0 edgecolor
newpath 495.41 642.87 moveto
499.84 652.5 lineto
502.38 642.21 lineto
closepath stroke
0 0 0 edgecolor
14 /Times-Roman set_font
495 345.4 moveto 10 (1) alignedtext
grestore
% 11->9
gsave
1 setlinewidth
0 0 0 edgecolor
newpath 304.81 169.19 moveto
300.68 190.46 296 220.42 296 247 curveto
296 457 296 457 296 457 curveto
296 531.8 306 550.2 306 625 curveto
306 901 306 901 306 901 curveto
306 924.12 306 950.18 306 970.17 curveto
stroke
0 0 0 edgecolor
newpath 302.5 970.31 moveto
306 980.31 lineto
309.5 970.31 lineto
closepath fill
1 setlinewidth
solid
0 0 0 edgecolor
newpath 302.5 970.31 moveto
306 980.31 lineto
309.5 970.31 lineto
closepath stroke
0 0 0 edgecolor
14 /Times-Roman set_font
305 565.4 moveto 10 (0) alignedtext
grestore
% 11->10
gsave
1 setlinewidth
0 0 0 edgecolor
newpath 334.71 125.19 moveto
364.11 105.6 414.31 72.13 447.07 50.29 curveto
stroke
0 0 0 edgecolor
newpath 449.03 53.19 moveto
455.41 44.73 lineto
445.14 47.36 lineto
closepath fill
1 setlinewidth
solid
0 0 0 edgecolor
newpath 449.03 53.19 moveto
455.41 44.73 lineto
445.14 47.36 lineto
closepath stroke
0 0 0 edgecolor
14 /Times-Roman set_font
405 81.4 moveto 10 (1) alignedtext
grestore
% 12->7
gsave
1 setlinewidth
0 0 0 edgecolor
newpath 380.73 925.54 moveto
384.8 962.23 392.47 1031.21 396.8 1070.22 curveto
stroke
0 0 0 edgecolor
newpath 393.35 1070.82 moveto
397.93 1080.37 lineto
400.3 1070.05 lineto
closepath fill
1 setlinewidth
solid
0 0 0 edgecolor
newpath 393.35 1070.82 moveto
397.93 1080.37 lineto
400.3 1070.05 lineto
closepath stroke
0 0 0 edgecolor
14 /Times-Roman set_font
391 999.4 moveto 10 (0) alignedtext
grestore
% 14
gsave
0.023529 0.72157 1 nodecolor
378 793 24.31 24.75 ellipse_path fill
1 setlinewidth
filled
0.023529 0.72157 1 nodecolor
378 793 24.31 24.75 ellipse_path stroke
1 setlinewidth
filled
0.023529 0.72157 1 nodecolor
378 793 28.24 28.75 ellipse_path stroke
0 0 0 nodecolor
14 /Times-Roman set_font
368.5 789.4 moveto 19 (14) alignedtext
grestore
% 12->14
gsave
1 setlinewidth
0 0 0 edgecolor
newpath 378 876.49 moveto
378 863.24 378 846.58 378 831.63 curveto
stroke
0 0 0 edgecolor
newpath 381.5 831.62 moveto
378 821.62 lineto
374.5 831.62 lineto
closepath fill
1 setlinewidth
solid
0 0 0 edgecolor
newpath 381.5 831.62 moveto
378 821.62 lineto
374.5 831.62 lineto
closepath stroke
0 0 0 edgecolor
14 /Times-Roman set_font
378 845.4 moveto 10 (1) alignedtext
grestore
% 13->1
gsave
1 setlinewidth
0 0 0 edgecolor
newpath 515.29 707.07 moveto
524.67 729.37 536 762.59 536 793 curveto
536 1395 536 1395 536 1395 curveto
536 1452.28 340.31 1481.84 261.41 1491.43 curveto
stroke
0 0 0 edgecolor
newpath 260.6 1488 moveto
251.08 1492.65 lineto
261.42 1494.95 lineto
closepath fill
1 setlinewidth
solid
0 0 0 edgecolor
newpath 260.6 1488 moveto
251.08 1492.65 lineto
261.42 1494.95 lineto
closepath stroke
0 0 0 edgecolor
14 /Times-Roman set_font
536 1095.4 moveto 10 (1) alignedtext
grestore
% 15
gsave
0.023529 0.72157 1 nodecolor
377 569 24.31 24.75 ellipse_path fill
1 setlinewidth
filled
0.023529 0.72157 1 nodecolor
377 569 24.31 24.75 ellipse_path stroke
1 setlinewidth
filled
0.023529 0.72157 1 nodecolor
377 569 28.24 28.75 ellipse_path stroke
0 0 0 nodecolor
14 /Times-Roman set_font
367.5 565.4 moveto 19 (15) alignedtext
grestore
% 13->15
gsave
1 setlinewidth
0 0 0 edgecolor
newpath 481.63 662 moveto
460.9 643.58 429.29 615.48 406.24 594.99 curveto
stroke
0 0 0 edgecolor
newpath 408.28 592.12 moveto
398.48 588.09 lineto
403.63 597.35 lineto
closepath fill
1 setlinewidth
solid
0 0 0 edgecolor
newpath 408.28 592.12 moveto
398.48 588.09 lineto
403.63 597.35 lineto
closepath stroke
0 0 0 edgecolor
14 /Times-Roman set_font
447 621.4 moveto 10 (0) alignedtext
grestore
% 14->13
gsave
1 setlinewidth
0 0 0 edgecolor
newpath 403.63 780.92 moveto
419.77 772.55 440.41 760.34 456 746 curveto
466.03 736.78 475.26 725.11 482.83 714.21 curveto
stroke
0 0 0 edgecolor
newpath 485.88 715.96 moveto
488.54 705.7 lineto
480.06 712.06 lineto
closepath fill
1 setlinewidth
solid
0 0 0 edgecolor
newpath 485.88 715.96 moveto
488.54 705.7 lineto
480.06 712.06 lineto
closepath stroke
0 0 0 edgecolor
14 /Times-Roman set_font
472 733.4 moveto 10 (1) alignedtext
grestore
% 14->15
gsave
1 setlinewidth
0 0 0 edgecolor
newpath 377.87 764.17 moveto
377.69 724.36 377.37 652.4 377.17 607.87 curveto
stroke
0 0 0 edgecolor
newpath 380.67 607.7 moveto
377.13 597.71 lineto
373.67 607.73 lineto
closepath fill
1 setlinewidth
solid
0 0 0 edgecolor
newpath 380.67 607.7 moveto
377.13 597.71 lineto
373.67 607.73 lineto
closepath stroke
0 0 0 edgecolor
14 /Times-Roman set_font
377 677.4 moveto 10 (0) alignedtext
grestore
% 15->4
gsave
1 setlinewidth
0 0 0 edgecolor
newpath 352.25 555.3 moveto
342.63 550.21 331.43 544.57 321 540 curveto
251.64 509.63 167.28 481.14 122.83 466.76 curveto
stroke
0 0 0 edgecolor
newpath 123.79 463.39 moveto
113.2 463.66 lineto
121.65 470.05 lineto
closepath fill
1 setlinewidth
solid
0 0 0 edgecolor
newpath 123.79 463.39 moveto
113.2 463.66 lineto
121.65 470.05 lineto
closepath stroke
0 0 0 edgecolor
14 /Times-Roman set_font
271 509.4 moveto 10 (1) alignedtext
grestore
% 16
gsave
0.023529 0.72157 1 nodecolor
371 457 24.31 24.75 ellipse_path fill
1 setlinewidth
filled
0.023529 0.72157 1 nodecolor
371 457 24.31 24.75 ellipse_path stroke
1 setlinewidth
filled
0.023529 0.72157 1 nodecolor
371 457 28.24 28.75 ellipse_path stroke
0 0 0 nodecolor
14 /Times-Roman set_font
361.5 453.4 moveto 19 (16) alignedtext
grestore
% 15->16
gsave
1 setlinewidth
0 0 0 edgecolor
newpath 376.45 540.19 moveto
376.14 528.9 375.69 515.83 375 504 curveto
374.85 501.33 374.67 498.58 374.47 495.81 curveto
stroke
0 0 0 edgecolor
newpath 377.96 495.52 moveto
373.7 485.82 lineto
370.98 496.05 lineto
closepath fill
1 setlinewidth
solid
0 0 0 edgecolor
newpath 377.96 495.52 moveto
373.7 485.82 lineto
370.98 496.05 lineto
closepath stroke
0 0 0 edgecolor
14 /Times-Roman set_font
375 509.4 moveto 10 (0) alignedtext
grestore
% 16->3
gsave
1 setlinewidth
0 0 0 edgecolor
newpath 348.13 473.46 moveto
302.39 507.24 204 584.59 204 625 curveto
204 1195 204 1195 204 1195 curveto
204 1220.54 193.04 1247.49 182.89 1266.97 curveto
stroke
0 0 0 edgecolor
newpath 179.74 1265.44 moveto
178.02 1275.9 lineto
185.88 1268.79 lineto
closepath fill
1 setlinewidth
solid
0 0 0 edgecolor
newpath 179.74 1265.44 moveto
178.02 1275.9 lineto
185.88 1268.79 lineto
closepath stroke
0 0 0 edgecolor
14 /Times-Roman set_font
204 897.4 moveto 10 (0) alignedtext
grestore
% 17
gsave
0.54118 0.25098 1 nodecolor
371 349 24.24 24.75 ellipse_path fill
1 setlinewidth
filled
0.54118 0.25098 1 nodecolor
371 349 24.24 24.75 ellipse_path stroke
0 0 0 nodecolor
14 /Times-Roman set_font
361.5 345.4 moveto 19 (17) alignedtext
grestore
% 16->17
gsave
1 setlinewidth
0 0 0 edgecolor
newpath 371 428.34 moveto
371 414.66 371 398.18 371 383.79 curveto
stroke
0 0 0 edgecolor
newpath 374.5 383.75 moveto
371 373.75 lineto
367.5 383.75 lineto
closepath fill
1 setlinewidth
solid
0 0 0 edgecolor
newpath 374.5 383.75 moveto
371 373.75 lineto
367.5 383.75 lineto
closepath stroke
0 0 0 edgecolor
14 /Times-Roman set_font
371 397.4 moveto 10 (1) alignedtext
grestore
% 17->1
gsave
1 setlinewidth
0 0 0 edgecolor
newpath 351.02 362.68 moveto
316.65 388 250 445.77 250 513 curveto
250 1395 250 1395 250 1395 curveto
250 1418.31 244.47 1444.03 239.08 1463.55 curveto
stroke
0 0 0 edgecolor
newpath 235.64 1462.85 moveto
236.23 1473.43 lineto
242.37 1464.79 lineto
closepath fill
1 setlinewidth
solid
0 0 0 edgecolor
newpath 235.64 1462.85 moveto
236.23 1473.43 lineto
242.37 1464.79 lineto
closepath stroke
0 0 0 edgecolor
14 /Times-Roman set_font
250 949.4 moveto 10 (1) alignedtext
grestore
% 17->7
gsave
1 setlinewidth
0 0 0 edgecolor
newpath 389.76 364.86 moveto
410.49 384.27 441 419.24 441 457 curveto
441 681 441 681 441 681 curveto
441 850.86 442.04 895 411 1062 curveto
410.42 1065.13 409.67 1068.37 408.85 1071.57 curveto
stroke
0 0 0 edgecolor
newpath 405.4 1070.92 moveto
406.03 1081.49 lineto
412.13 1072.83 lineto
closepath fill
1 setlinewidth
solid
0 0 0 edgecolor
newpath 405.4 1070.92 moveto
406.03 1081.49 lineto
412.13 1072.83 lineto
closepath stroke
0 0 0 edgecolor
14 /Times-Roman set_font
440 733.4 moveto 10 (0) alignedtext
grestore
endpage
showpage
grestore
%%PageTrailer
%%EndPage: 1
%%Trailer
end
restore
%%EOF
