%!PS-Adobe-3.0 EPSF-3.0
%%Creator: graphviz version 2.26.3 (20100126.1600)
%%Title: FSA Utilities
%%Pages: 1
%%BoundingBox: 211 136 402 656
%%EndComments
save
%%BeginProlog
/DotDict 200 dict def
DotDict begin

/setupLatin1 {
mark
/EncodingVector 256 array def
 EncodingVector 0

ISOLatin1Encoding 0 255 getinterval putinterval
EncodingVector 45 /hyphen put

% Set up ISO Latin 1 character encoding
/starnetISO {
        dup dup findfont dup length dict begin
        { 1 index /FID ne { def }{ pop pop } ifelse
        } forall
        /Encoding EncodingVector def
        currentdict end definefont
} def
/Times-Roman starnetISO def
/Times-Italic starnetISO def
/Times-Bold starnetISO def
/Times-BoldItalic starnetISO def
/Helvetica starnetISO def
/Helvetica-Oblique starnetISO def
/Helvetica-Bold starnetISO def
/Helvetica-BoldOblique starnetISO def
/Courier starnetISO def
/Courier-Oblique starnetISO def
/Courier-Bold starnetISO def
/Courier-BoldOblique starnetISO def
cleartomark
} bind def

%%BeginResource: procset graphviz 0 0
/coord-font-family /Times-Roman def
/default-font-family /Times-Roman def
/coordfont coord-font-family findfont 8 scalefont def

/InvScaleFactor 1.0 def
/set_scale {
       dup 1 exch div /InvScaleFactor exch def
       scale
} bind def

% styles
/solid { [] 0 setdash } bind def
/dashed { [9 InvScaleFactor mul dup ] 0 setdash } bind def
/dotted { [1 InvScaleFactor mul 6 InvScaleFactor mul] 0 setdash } bind def
/invis {/fill {newpath} def /stroke {newpath} def /show {pop newpath} def} bind def
/bold { 2 setlinewidth } bind def
/filled { } bind def
/unfilled { } bind def
/rounded { } bind def
/diagonals { } bind def

% hooks for setting color 
/nodecolor { sethsbcolor } bind def
/edgecolor { sethsbcolor } bind def
/graphcolor { sethsbcolor } bind def
/nopcolor {pop pop pop} bind def

/beginpage {	% i j npages
	/npages exch def
	/j exch def
	/i exch def
	/str 10 string def
	npages 1 gt {
		gsave
			coordfont setfont
			0 0 moveto
			(\() show i str cvs show (,) show j str cvs show (\)) show
		grestore
	} if
} bind def

/set_font {
	findfont exch
	scalefont setfont
} def

% draw text fitted to its expected width
/alignedtext {			% width text
	/text exch def
	/width exch def
	gsave
		width 0 gt {
			[] 0 setdash
			text stringwidth pop width exch sub text length div 0 text ashow
		} if
	grestore
} def

/boxprim {				% xcorner ycorner xsize ysize
		4 2 roll
		moveto
		2 copy
		exch 0 rlineto
		0 exch rlineto
		pop neg 0 rlineto
		closepath
} bind def

/ellipse_path {
	/ry exch def
	/rx exch def
	/y exch def
	/x exch def
	matrix currentmatrix
	newpath
	x y translate
	rx ry scale
	0 0 1 0 360 arc
	setmatrix
} bind def

/endpage { showpage } bind def
/showpage { } def

/layercolorseq
	[	% layer color sequence - darkest to lightest
		[0 0 0]
		[.2 .8 .8]
		[.4 .8 .8]
		[.6 .8 .8]
		[.8 .8 .8]
	]
def

/layerlen layercolorseq length def

/setlayer {/maxlayer exch def /curlayer exch def
	layercolorseq curlayer 1 sub layerlen mod get
	aload pop sethsbcolor
	/nodecolor {nopcolor} def
	/edgecolor {nopcolor} def
	/graphcolor {nopcolor} def
} bind def

/onlayer { curlayer ne {invis} if } def

/onlayers {
	/myupper exch def
	/mylower exch def
	curlayer mylower lt
	curlayer myupper gt
	or
	{invis} if
} def

/curlayer 0 def

%%EndResource
%%EndProlog
%%BeginSetup
14 default-font-family set_font
1 setmiterlimit
% /arrowlength 10 def
% /arrowwidth 5 def

% make sure pdfmark is harmless for PS-interpreters other than Distiller
/pdfmark where {pop} {userdict /pdfmark /cleartomark load put} ifelse
% make '<<' and '>>' safe on PS Level 1 devices
/languagelevel where {pop languagelevel}{1} ifelse
2 lt {
    userdict (<<) cvn ([) cvn load put
    userdict (>>) cvn ([) cvn load put
} if

%%EndSetup
setupLatin1
%%Page: 1 1
%%PageBoundingBox: 211 136 402 656
%%PageOrientation: Portrait
0 0 1 beginpage
gsave
211 136 191 520 boxprim clip newpath
1 1 set_scale 0 rotate 214.5 141 translate
% start0
gsave
grestore
% 0
gsave
0.83922 0.48235 0.8549 nodecolor
59 415 17.98 18.38 ellipse_path fill
1 setlinewidth
filled
0.83922 0.48235 0.8549 nodecolor
59 415 17.98 18.38 ellipse_path stroke
1 setlinewidth
filled
0.83922 0.48235 0.8549 nodecolor
59 415 21.89 22.38 ellipse_path stroke
0 0 0 nodecolor
14 /Times-Roman set_font
54 411.4 moveto 10 (0) alignedtext
grestore
% start0->0
gsave
1 setlinewidth
0 0 0 edgecolor
newpath 59 475.68 moveto
59 467.38 59 457.3 59 447.77 curveto
stroke
0 0 0 edgecolor
newpath 62.5 447.74 moveto
59 437.74 lineto
55.5 447.74 lineto
closepath fill
1 setlinewidth
solid
0 0 0 edgecolor
newpath 62.5 447.74 moveto
59 437.74 lineto
55.5 447.74 lineto
closepath stroke
grestore
% 0->0
gsave
1 setlinewidth
0 0 0 edgecolor
newpath 79.82 422.44 moveto
91.83 423.96 103 421.48 103 415 curveto
103 410.44 97.48 407.86 90.02 407.26 curveto
stroke
0 0 0 edgecolor
newpath 89.72 403.77 moveto
79.82 407.56 lineto
89.92 410.77 lineto
closepath fill
1 setlinewidth
solid
0 0 0 edgecolor
newpath 89.72 403.77 moveto
79.82 407.56 lineto
89.92 410.77 lineto
closepath stroke
0 0 0 edgecolor
14 /Times-Roman set_font
103 411.4 moveto 10 (0) alignedtext
grestore
% 1
gsave
0.023529 0.72157 1 nodecolor
59 315 17.98 18.38 ellipse_path fill
1 setlinewidth
filled
0.023529 0.72157 1 nodecolor
59 315 17.98 18.38 ellipse_path stroke
1 setlinewidth
filled
0.023529 0.72157 1 nodecolor
59 315 21.89 22.38 ellipse_path stroke
0 0 0 nodecolor
14 /Times-Roman set_font
54 311.4 moveto 10 (1) alignedtext
grestore
% 0->1
gsave
1 setlinewidth
0 0 0 edgecolor
newpath 59 392.31 moveto
59 379.14 59 362.32 59 347.74 curveto
stroke
0 0 0 edgecolor
newpath 62.5 347.6 moveto
59 337.6 lineto
55.5 347.6 lineto
closepath fill
1 setlinewidth
solid
0 0 0 edgecolor
newpath 62.5 347.6 moveto
59 337.6 lineto
55.5 347.6 lineto
closepath stroke
0 0 0 edgecolor
14 /Times-Roman set_font
59 361.4 moveto 10 (1) alignedtext
grestore
% 2
gsave
0.023529 0.72157 1 nodecolor
22 215 17.98 18.38 ellipse_path fill
1 setlinewidth
filled
0.023529 0.72157 1 nodecolor
22 215 17.98 18.38 ellipse_path stroke
1 setlinewidth
filled
0.023529 0.72157 1 nodecolor
22 215 21.89 22.38 ellipse_path stroke
0 0 0 nodecolor
14 /Times-Roman set_font
17 211.4 moveto 10 (2) alignedtext
grestore
% 1->2
gsave
1 setlinewidth
0 0 0 edgecolor
newpath 41.49 300.94 moveto
33.96 293.77 25.99 284.38 22 274 curveto
18.8 265.69 17.78 256.21 17.82 247.32 curveto
stroke
0 0 0 edgecolor
newpath 21.32 247.42 moveto
18.29 237.27 lineto
14.33 247.09 lineto
closepath fill
1 setlinewidth
solid
0 0 0 edgecolor
newpath 21.32 247.42 moveto
18.29 237.27 lineto
14.33 247.09 lineto
closepath stroke
0 0 0 edgecolor
14 /Times-Roman set_font
22 261.4 moveto 10 (0) alignedtext
grestore
% 3
gsave
0.023529 0.72157 1 nodecolor
116 215 17.98 18.38 ellipse_path fill
1 setlinewidth
filled
0.023529 0.72157 1 nodecolor
116 215 17.98 18.38 ellipse_path stroke
1 setlinewidth
filled
0.023529 0.72157 1 nodecolor
116 215 21.89 22.38 ellipse_path stroke
0 0 0 nodecolor
14 /Times-Roman set_font
111 211.4 moveto 10 (3) alignedtext
grestore
% 1->3
gsave
1 setlinewidth
0 0 0 edgecolor
newpath 70.26 295.24 moveto
78.69 280.45 90.35 260 99.78 243.45 curveto
stroke
0 0 0 edgecolor
newpath 102.85 245.14 moveto
104.76 234.72 lineto
96.77 241.67 lineto
closepath fill
1 setlinewidth
solid
0 0 0 edgecolor
newpath 102.85 245.14 moveto
104.76 234.72 lineto
96.77 241.67 lineto
closepath stroke
0 0 0 edgecolor
14 /Times-Roman set_font
92 261.4 moveto 10 (1) alignedtext
grestore
% 2->1
gsave
1 setlinewidth
0 0 0 edgecolor
newpath 29.84 236.18 moveto
34.98 250.09 41.81 268.53 47.56 284.07 curveto
stroke
0 0 0 edgecolor
newpath 44.4 285.63 moveto
51.15 293.79 lineto
50.97 283.2 lineto
closepath fill
1 setlinewidth
solid
0 0 0 edgecolor
newpath 44.4 285.63 moveto
51.15 293.79 lineto
50.97 283.2 lineto
closepath stroke
0 0 0 edgecolor
14 /Times-Roman set_font
43 261.4 moveto 10 (0) alignedtext
grestore
% 2->2
gsave
1 setlinewidth
0 0 0 edgecolor
newpath 42.37 223.79 moveto
54.54 225.74 66 222.81 66 215 curveto
66 209.45 60.21 206.36 52.49 205.74 curveto
stroke
0 0 0 edgecolor
newpath 52.19 202.25 moveto
42.37 206.21 lineto
52.52 209.24 lineto
closepath fill
1 setlinewidth
solid
0 0 0 edgecolor
newpath 52.19 202.25 moveto
42.37 206.21 lineto
52.52 209.24 lineto
closepath stroke
0 0 0 edgecolor
14 /Times-Roman set_font
66 211.4 moveto 10 (1) alignedtext
grestore
% 3->3
gsave
1 setlinewidth
0 0 0 edgecolor
newpath 136.37 223.79 moveto
148.54 225.74 160 222.81 160 215 curveto
160 209.45 154.21 206.36 146.49 205.74 curveto
stroke
0 0 0 edgecolor
newpath 146.19 202.25 moveto
136.37 206.21 lineto
146.52 209.24 lineto
closepath fill
1 setlinewidth
solid
0 0 0 edgecolor
newpath 146.19 202.25 moveto
136.37 206.21 lineto
146.52 209.24 lineto
closepath stroke
0 0 0 edgecolor
14 /Times-Roman set_font
160 211.4 moveto 10 (0) alignedtext
grestore
% 4
gsave
0.54118 0.25098 1 nodecolor
116 119 17.89 18.38 ellipse_path fill
1 setlinewidth
filled
0.54118 0.25098 1 nodecolor
116 119 17.89 18.38 ellipse_path stroke
0 0 0 nodecolor
14 /Times-Roman set_font
111 115.4 moveto 10 (4) alignedtext
grestore
% 3->4
gsave
1 setlinewidth
0 0 0 edgecolor
newpath 116 192.25 moveto
116 178.99 116 162.15 116 147.95 curveto
stroke
0 0 0 edgecolor
newpath 119.5 147.72 moveto
116 137.72 lineto
112.5 147.72 lineto
closepath fill
1 setlinewidth
solid
0 0 0 edgecolor
newpath 119.5 147.72 moveto
116 137.72 lineto
112.5 147.72 lineto
closepath stroke
0 0 0 edgecolor
14 /Times-Roman set_font
116 161.4 moveto 10 (1) alignedtext
grestore
% 5
gsave
0.023529 0.72157 1 nodecolor
116 23 17.98 18.38 ellipse_path fill
1 setlinewidth
filled
0.023529 0.72157 1 nodecolor
116 23 17.98 18.38 ellipse_path stroke
1 setlinewidth
filled
0.023529 0.72157 1 nodecolor
116 23 21.89 22.38 ellipse_path stroke
0 0 0 nodecolor
14 /Times-Roman set_font
111 19.4 moveto 10 (5) alignedtext
grestore
% 4->5
gsave
1 setlinewidth
0 0 0 edgecolor
newpath 116 100.49 moveto
116 87.86 116 70.79 116 55.88 curveto
stroke
0 0 0 edgecolor
newpath 119.5 55.51 moveto
116 45.51 lineto
112.5 55.51 lineto
closepath fill
1 setlinewidth
solid
0 0 0 edgecolor
newpath 119.5 55.51 moveto
116 45.51 lineto
112.5 55.51 lineto
closepath stroke
0 0 0 edgecolor
14 /Times-Roman set_font
116 69.4 moveto 23 (0 1) alignedtext
grestore
% 5->5
gsave
1 setlinewidth
0 0 0 edgecolor
newpath 136.37 31.79 moveto
148.54 33.74 160 30.81 160 23 curveto
160 17.45 154.21 14.36 146.49 13.74 curveto
stroke
0 0 0 edgecolor
newpath 146.19 10.25 moveto
136.37 14.21 lineto
146.52 17.24 lineto
closepath fill
1 setlinewidth
solid
0 0 0 edgecolor
newpath 146.19 10.25 moveto
136.37 14.21 lineto
146.52 17.24 lineto
closepath stroke
0 0 0 edgecolor
14 /Times-Roman set_font
160 19.4 moveto 23 (0 1) alignedtext
grestore
endpage
showpage
grestore
%%PageTrailer
%%EndPage: 1
%%Trailer
end
restore
%%EOF
