Starting log at:Friday 21st of April 2017 04:26:35 AM
   [\machine ] (2319 => 2319 states) in 0.083s
  [\not ] (2321 => 2320 states) in 0.188s
  [\machine ] (3 => 3 states) in 0.011s
 [\and ] (834 => 834 states) in 0.137s
[\min n] (5 => 5 states) in 0.692s
[total] (5 states) in 1.286s
