  [\machine ] (113 => 113 states) in 0.010s
 [\and ] (114 => 114 states) in 0.015s
[\exists n] (114 => 114 states) in 0.006s
[total] (114 states) in 0.040s
  [\machine ] (113 => 113 states) in 0.010s
 [\and ] (114 => 114 states) in 0.014s
[\exists n] (114 => 114 states) in 0.007s
[total] (114 states) in 0.041s
