  [\machine ] (79 => 79 states) in 0.009s
 [\and ] (80 => 80 states) in 0.012s
[\exists n] (80 => 80 states) in 0.007s
[total] (80 states) in 0.037s
  [\machine ] (79 => 79 states) in 0.008s
 [\and ] (80 => 80 states) in 0.013s
[\exists n] (80 => 80 states) in 0.006s
[total] (80 states) in 0.035s
