  [\machine ] (120 => 120 states) in 0.014s
 [\and ] (121 => 121 states) in 0.014s
[\exists n] (121 => 121 states) in 0.006s
[total] (121 states) in 0.044s
  [\machine ] (120 => 120 states) in 0.010s
 [\and ] (121 => 121 states) in 0.014s
[\exists n] (121 => 121 states) in 0.006s
[total] (121 states) in 0.041s
