  [\machine ] (109 => 109 states) in 0.010s
 [\and ] (110 => 110 states) in 0.016s
[\exists n] (110 => 110 states) in 0.006s
[total] (110 states) in 0.041s
  [\machine ] (109 => 109 states) in 0.010s
 [\and ] (110 => 110 states) in 0.014s
[\exists n] (110 => 110 states) in 0.006s
[total] (110 states) in 0.040s
