  [\machine ] (166 => 166 states) in 0.012s
 [\and ] (167 => 167 states) in 0.020s
[\exists n] (167 => 167 states) in 0.006s
[total] (167 states) in 0.051s
  [\machine ] (166 => 166 states) in 0.012s
 [\and ] (167 => 167 states) in 0.020s
[\exists n] (167 => 167 states) in 0.006s
[total] (167 states) in 0.051s
