Starting log at:Friday 21st of April 2017 04:27:16 AM
   [\machine ] (8 => 8 states) in 0.008s
  [\not ] (10 => 9 states) in 0.014s
  [\machine ] (3 => 3 states) in 0.007s
 [\and ] (10 => 10 states) in 0.019s
[\min n] (3 => 3 states) in 0.040s
[total] (3 states) in 0.097s
[total] (3 states) in 0.022s
