  [\machine ] (275 => 275 states) in 0.018s
 [\and ] (276 => 276 states) in 0.020s
[\exists n] (276 => 276 states) in 0.008s
[total] (276 states) in 0.067s
  [\machine ] (275 => 275 states) in 0.023s
 [\and ] (276 => 276 states) in 0.022s
[\exists n] (276 => 276 states) in 0.007s
[total] (276 states) in 0.069s
