digraph "FSA Utilities" { nodesep=0.3; center=true;start0 [shape=plaintext,label=""];
start0 -> 0 [label=""];0 [style=filled,shape=circle,color=orchid,peripheries=2];
start1 [shape=plaintext,label=""];
start1 -> 1 [label=""];1 [style=filled,shape=circle,color=olivedrab1,peripheries=1];
start2 [shape=plaintext,label=""];
start2 -> 2 [label=""];2 [style=filled,shape=circle,color=olivedrab1,peripheries=1];
start3 [shape=plaintext,label=""];
start3 -> 3 [label=""];3 [style=filled,shape=circle,color=olivedrab1,peripheries=1];
start4 [shape=plaintext,label=""];
start4 -> 4 [label=""];4 [style=filled,shape=circle,color=olivedrab1,peripheries=1];
start5 [shape=plaintext,label=""];
start5 -> 5 [label=""];5 [style=filled,shape=circle,color=olivedrab1,peripheries=1];
start6 [shape=plaintext,label=""];
start6 -> 6 [label=""];6 [style=filled,shape=circle,color=olivedrab1,peripheries=1];
start7 [shape=plaintext,label=""];
start7 -> 7 [label=""];7 [style=filled,shape=circle,color=olivedrab1,peripheries=1];
start8 [shape=plaintext,label=""];
start8 -> 8 [label=""];8 [style=filled,shape=circle,color=olivedrab1,peripheries=1];
start9 [shape=plaintext,label=""];
start9 -> 9 [label=""];9 [style=filled,shape=circle,color=olivedrab1,peripheries=1];
start10 [shape=plaintext,label=""];
start10 -> 10 [label=""];10 [style=filled,shape=circle,color=olivedrab1,peripheries=1];
1 -> 0 [label="0"];
2 -> 0 [label="1"];
3 -> 1 [label="0"];
4 -> 1 [label="1"];
6 -> 2 [label="0 1"];
5 -> 3 [label="0"];
6 -> 3 [label="1"];
8 -> 4 [label="0 1"];
6 -> 5 [label="0"];
7 -> 5 [label="1"];
7 -> 6 [label="0 1"];
7 -> 7 [label="0"];
7 -> 8 [label="1"];
9 -> 8 [label="0"];
6 -> 9 [label="1"];
10 -> 9 [label="0"];
9 -> 10 [label="0"];
}
