digraph "FSA Utilities" {
nodesep=0.3;
center=true;
start0 [shape=plaintext,label=""];
start0 -> 0 [label=""];0 [style=filled,shape=circle,color=orchid,peripheries=2];
1 [style=filled,shape=circle,color=lightblue1,peripheries=1];
2 [style=filled,shape=circle,color=lightblue1,peripheries=1];
3 [style=filled,shape=circle,color=tomato1,peripheries=2];
4 [style=filled,shape=circle,color=lightblue1,peripheries=1];
5 [style=filled,shape=circle,color=lightblue1,peripheries=1];
6 [style=filled,shape=circle,color=lightblue1,peripheries=1];
7 [style=filled,shape=circle,color=lightblue1,peripheries=1];
8 [style=filled,shape=circle,color=lightblue1,peripheries=1];
9 [style=filled,shape=circle,color=lightblue1,peripheries=1];
10 [style=filled,shape=circle,color=tomato1,peripheries=2];
0 -> 0 [label="[0,0]"];
0 -> 1 [label="[0,1]"];
0 -> 2 [label="[0,2]"];
1 -> 3 [label="[1,0]"];
2 -> 3 [label="[2,1]"];
5 -> 3 [label="[0,1]"];
6 -> 3 [label="[1,0]"];
2 -> 4 [label="[0,0]"];
2 -> 5 [label="[1,0]"];
2 -> 6 [label="[1,1]"];
4 -> 6 [label="[2,1]"];
6 -> 6 [label="[0,0]"];
4 -> 7 [label="[1,0] [2,2]"];
7 -> 7 [label="[0,0]"];
4 -> 8 [label="[2,0]"];
5 -> 8 [label="[0,2]"];
7 -> 8 [label="[1,0]"];
7 -> 9 [label="[1,1] [2,2]"];
9 -> 9 [label="[0,0] [1,1] [2,2]"];
7 -> 10 [label="[2,1]"];
8 -> 10 [label="[0,2]"];
9 -> 10 [label="[1,0] [2,1]"];
10 -> 10 [label="[0,2]"];
}
