digraph "FSA Utilities" {
nodesep=0.3;
center=true;
start0 [shape=plaintext,label=""];
start0 -> 0 [label=""];0 [style=filled,shape=circle,color=orchid,peripheries=2];
1 [style=filled,shape=circle,color=lightblue1,peripheries=1];
2 [style=filled,shape=circle,color=lightblue1,peripheries=1];
3 [style=filled,shape=circle,color=lightblue1,peripheries=1];
4 [style=filled,shape=circle,color=lightblue1,peripheries=1];
5 [style=filled,shape=circle,color=tomato1,peripheries=2];
6 [style=filled,shape=circle,color=lightblue1,peripheries=1];
7 [style=filled,shape=circle,color=lightblue1,peripheries=1];
8 [style=filled,shape=circle,color=lightblue1,peripheries=1];
9 [style=filled,shape=circle,color=lightblue1,peripheries=1];
10 [style=filled,shape=circle,color=lightblue1,peripheries=1];
11 [style=filled,shape=circle,color=lightblue1,peripheries=1];
12 [style=filled,shape=circle,color=lightblue1,peripheries=1];
13 [style=filled,shape=circle,color=lightblue1,peripheries=1];
14 [style=filled,shape=circle,color=lightblue1,peripheries=1];
15 [style=filled,shape=circle,color=lightblue1,peripheries=1];
16 [style=filled,shape=circle,color=lightblue1,peripheries=1];
17 [style=filled,shape=circle,color=tomato1,peripheries=2];
0 -> 0 [label="[0,0]"];
0 -> 1 [label="[0,1]"];
1 -> 2 [label="[0,0]"];
1 -> 3 [label="[0,1]"];
2 -> 4 [label="[0,0]"];
2 -> 5 [label="[1,0]"];
8 -> 5 [label="[0,1]"];
9 -> 5 [label="[1,0]"];
15 -> 5 [label="[1,0]"];
3 -> 6 [label="[0,0]"];
3 -> 7 [label="[0,1]"];
3 -> 8 [label="[1,0]"];
4 -> 9 [label="[1,0]"];
6 -> 10 [label="[0,1]"];
6 -> 11 [label="[1,1]"];
7 -> 12 [label="[1,0]"];
10 -> 13 [label="[1,1]"];
13 -> 13 [label="[0,0]"];
11 -> 14 [label="[0,1]"];
13 -> 14 [label="[1,0]"];
12 -> 15 [label="[0,0]"];
15 -> 15 [label="[0,0]"];
13 -> 16 [label="[1,1]"];
16 -> 16 [label="[0,0] [1,1]"];
14 -> 17 [label="[0,1]"];
16 -> 17 [label="[1,0]"];
17 -> 17 [label="[0,1]"];
}
