          [\machine ] (91 => 91 states) in 0.091s
         [\exists n] (91 => 57 states) in 0.051s
          [\machine ] (91 => 91 states) in 0.096s
         [\exists n] (91 => 57 states) in 0.050s
        [\and ] (125 => 125 states) in 0.124s
         [\machine ] (91 => 91 states) in 0.098s
        [\exists n] (91 => 57 states) in 0.049s
       [\and ] (303 => 303 states) in 0.174s
         [> b a] (3 => 2 states) in 0.012s
         [> c b] (3 => 2 states) in 0.012s
        [\and ] (4 => 4 states) in 0.024s
           [> d c] (3 => 2 states) in 0.017s
            [\machine ] (91 => 91 states) in 0.208s
           [\exists n] (91 => 57 states) in 0.111s
          [\and ] (93 => 93 states) in 0.283s
         [\exists d] (93 => 101 states) in 0.160s
        [\not ] (102 => 101 states) in 0.251s
       [\and ] (279 => 279 states) in 0.749s
      [\and ] (74 => 74 states) in 0.130s
     [\exists c] (74 => 50 states) in 0.017s
    [\exists b] (50 => 35 states) in 0.014s
   [\exists a] (35 => 2 states) in 0.009s
  [\not ] (3 => 1 states) in 0.016s
 [\exists i] (1 => 1 states) in 0.008s
[\not ] (3 => 2 states) in 0.016s
[total] (2 states) in 1.248s
[total] (2 states) in 0.029s
             [= d a] (3 => 1 states) in 0.013s
             [= d b] (3 => 1 states) in 0.014s
            [\or ] (3 => 3 states) in 0.024s
             [= d c] (3 => 1 states) in 0.014s
             [\not ] (58 => 58 states) in 0.290s
            [\or ] (114 => 114 states) in 0.577s
           [\or ] (450 => 450 states) in 2.526s
          [\not ] (451 => 449 states) in 2.303s
         [\exists d] (449 => 22 states) in 1.924s
        [\not ] (23 => 21 states) in 0.049s
       [\and ] (9 => 9 states) in 0.022s
      [\and ] (7 => 7 states) in 0.032s
     [\exists c] (7 => 5 states) in 0.010s
    [\exists b] (5 => 3 states) in 0.010s
   [\exists a] (3 => 2 states) in 0.009s
  [\not ] (4 => 3 states) in 0.021s
 [\exists i] (3 => 3 states) in 0.009s
[\not ] (4 => 2 states) in 0.019s
[total] (2 states) in 8.544s
[total] (2 states) in 0.028s
           [\machine ] (91 => 91 states) in 0.190s
          [\exists n] (91 => 57 states) in 0.111s
           [\machine ] (91 => 91 states) in 0.203s
          [\exists n] (91 => 57 states) in 0.117s
         [\and ] (125 => 125 states) in 0.276s
           [\machine ] (91 => 91 states) in 0.204s
          [\exists n] (91 => 57 states) in 0.112s
         [\and ] (125 => 125 states) in 0.282s
        [\and ] (785 => 785 states) in 0.625s
          [> b a] (3 => 2 states) in 0.018s
          [> c b] (3 => 2 states) in 0.018s
         [\and ] (4 => 4 states) in 0.037s
               [= z a] (3 => 1 states) in 0.021s
               [= z b] (3 => 1 states) in 0.021s
              [\or ] (3 => 3 states) in 0.033s
               [= z c] (3 => 1 states) in 0.022s
                 [\machine ] (91 => 91 states) in 0.449s
                [\exists n] (91 => 57 states) in 0.230s
               [\not ] (58 => 58 states) in 0.642s
              [\or ] (114 => 114 states) in 1.309s
             [\or ] (450 => 450 states) in 2.308s
            [\not ] (451 => 449 states) in 2.432s
           [\exists z] (449 => 22 states) in 3.900s
          [\not ] (23 => 21 states) in 0.088s
         [\and ] (41 => 41 states) in 0.048s
        [\and ] (17 => 17 states) in 0.034s
       [\and ] (1 => 1 states) in 0.060s
      [\exists d] (1 => 1 states) in 0.009s
     [\exists c] (1 => 1 states) in 0.009s
    [\exists b] (1 => 1 states) in 0.009s
   [\exists a] (1 => 1 states) in 0.009s
  [\not ] (3 => 1 states) in 0.019s
 [\exists i] (1 => 1 states) in 0.009s
[\not ] (2 => 1 states) in 0.018s
[total] (1 states) in 15.135s
              [\or ] (7 => 7 states) in 0.054s
               [= z d] (3 => 1 states) in 0.021s
              [\or ] (114 => 114 states) in 1.280s
             [\or ] (898 => 898 states) in 4.364s
            [\not ] (899 => 897 states) in 4.194s
           [\exists z] (897 => 314 states) in 1m44.307s
          [\not ] (315 => 313 states) in 1.375s
         [\and ] (242 => 242 states) in 0.171s
        [\and ] (68 => 68 states) in 0.078s
       [\and ] (43 => 43 states) in 0.077s
      [\exists d] (43 => 36 states) in 0.016s
     [\exists c] (36 => 30 states) in 0.015s
    [\exists b] (30 => 23 states) in 0.015s
   [\exists a] (23 => 3 states) in 0.016s
  [\not ] (4 => 2 states) in 0.024s
 [\exists i] (2 => 2 states) in 0.011s
[\not ] (3 => 3 states) in 0.023s
[total] (3 states) in 1m58.120s
