Starting log at:Tuesday 6th of August 2013 01:45:44 AM
    [\machine ] (12 => 12 states) in 0.015s
    [>= n 3] (12 => 3 states) in 0.020s
   [\and ] (12 => 12 states) in 0.027s
    [\machine ] (24 => 5 states) in 0.019s
      [\machine ] (6 => 5 states) in 0.016s
      [= 7*t+2*n m+2] (81 => 11 states) in 0.067s
     [\and ] (30 => 30 states) in 0.037s
      [\machine ] (6 => 5 states) in 0.015s
      [= 9*t+2*n m+2] (99 => 13 states) in 0.075s
     [\and ] (36 => 36 states) in 0.037s
    [\or ] (69 => 69 states) in 0.055s
   [\and ] (12 => 12 states) in 0.023s
  [\and ] (12 => 12 states) in 0.021s
 [\exists m] (12 => 5 states) in 0.009s
[\exists t] (5 => 3 states) in 0.009s
[total] (3 states) in 0.471s
