digraph "FSA Utilities" { nodesep=0.3; center=true;start0 [shape=plaintext,label=""];
start0 -> 0 [label=""];0 [style=filled,shape=circle,color=orchid,peripheries=2];
1 [style=filled,shape=circle,color=lightblue1,peripheries=1];
2 [style=filled,shape=circle,color=lightblue1,peripheries=1];
3 [style=filled,shape=circle,color=tomato1,peripheries=2];
4 [style=filled,shape=circle,color=lightblue1,peripheries=1];
5 [style=filled,shape=circle,color=lightblue1,peripheries=1];
6 [style=filled,shape=circle,color=lightblue1,peripheries=1];
7 [style=filled,shape=circle,color=lightblue1,peripheries=1];
8 [style=filled,shape=circle,color=lightblue1,peripheries=1];
9 [style=filled,shape=circle,color=lightblue1,peripheries=1];
10 [style=filled,shape=circle,color=lightblue1,peripheries=1];
11 [style=filled,shape=circle,color=lightblue1,peripheries=1];
12 [style=filled,shape=circle,color=lightblue1,peripheries=1];
13 [style=filled,shape=circle,color=lightblue1,peripheries=1];
14 [style=filled,shape=circle,color=lightblue1,peripheries=1];
15 [style=filled,shape=circle,color=lightblue1,peripheries=1];
16 [style=filled,shape=circle,color=lightblue1,peripheries=1];
17 [style=filled,shape=circle,color=lightblue1,peripheries=1];
18 [style=filled,shape=circle,color=lightblue1,peripheries=1];
19 [style=filled,shape=circle,color=lightblue1,peripheries=1];
20 [style=filled,shape=circle,color=lightblue1,peripheries=1];
21 [style=filled,shape=circle,color=lightblue1,peripheries=1];
22 [style=filled,shape=circle,color=lightblue1,peripheries=1];
23 [style=filled,shape=circle,color=lightblue1,peripheries=1];
0 -> 0 [label="[0,0]"];
0 -> 1 [label="[0,1]"];
1 -> 2 [label="[0,0]"];
1 -> 3 [label="[1,0]"];
4 -> 3 [label="[0,0]"];
7 -> 3 [label="[1,0]"];
15 -> 3 [label="[1,0]"];
19 -> 3 [label="[1,1]"];
21 -> 3 [label="[0,0]"];
22 -> 3 [label="[1,0]"];
23 -> 3 [label="[1,0]"];
1 -> 4 [label="[1,1]"];
10 -> 4 [label="[0,0]"];
12 -> 4 [label="[1,1]"];
2 -> 5 [label="[0,0]"];
2 -> 6 [label="[0,1]"];
2 -> 7 [label="[1,1]"];
5 -> 8 [label="[0,0]"];
5 -> 9 [label="[0,1]"];
5 -> 10 [label="[1,1]"];
6 -> 11 [label="[1,0]"];
8 -> 12 [label="[1,1]"];
9 -> 13 [label="[1,0]"];
9 -> 14 [label="[1,1]"];
10 -> 15 [label="[0,1]"];
11 -> 16 [label="[0,0]"];
13 -> 17 [label="[0,0]"];
17 -> 17 [label="[0,0]"];
13 -> 18 [label="[0,1]"];
14 -> 18 [label="[1,1]"];
17 -> 18 [label="[0,1]"];
18 -> 18 [label="[1,1]"];
20 -> 18 [label="[0,1]"];
23 -> 18 [label="[0,1]"];
13 -> 19 [label="[1,1]"];
14 -> 20 [label="[1,0]"];
15 -> 21 [label="[0,1]"];
17 -> 21 [label="[1,1]"];
19 -> 21 [label="[0,1]"];
20 -> 21 [label="[1,1]"];
21 -> 21 [label="[0,1]"];
23 -> 21 [label="[1,1]"];
16 -> 22 [label="[0,0]"];
22 -> 22 [label="[0,0]"];
18 -> 23 [label="[1,0]"];
20 -> 23 [label="[0,0]"];
23 -> 23 [label="[0,0]"];
}
