Starting log at:Thursday 30th of October 2014 03:12:31 AM
            [>= i0 n] (3 => 2 states) in 0.097s
            [\out= l+i0 j+i0] (22 => 11 states) in 1.029s
           [\or ] (23 => 23 states) in 1.400s
          [\not ] (24 => 22 states) in 1.343s
         [\exists i0] (22 => 14 states) in 0.391s
        [\not ] (15 => 13 states) in 0.211s
        [>= m+k n+l] (12 => 4 states) in 0.112s
       [\and ] (46 => 46 states) in 0.351s
       [>= l k] (3 => 2 states) in 0.038s
      [\and ] (72 => 72 states) in 0.568s
     [\exists l] (72 => 110 states) in 0.666s
    [\not ] (111 => 110 states) in 0.700s
   [\exists j] (110 => 64 states) in 0.197s
  [\not ] (65 => 64 states) in 0.107s
 [\exists k] (64 => 8 states) in 0.025s
[\min m] (7 => 7 states) in 0.053s
[total] (7 states) in 7.757s
