    [>= i0 n] (3 => 2 states) in 0.297s
    [\out= i+i0 j+i0] (28 => 17 states) in 1.721s
   [\or ] (35 => 35 states) in 1.411s
  [\not ] (36 => 34 states) in 1.364s
 [\exists i0] (34 => 75 states) in 1.401s
[\not ] (76 => 74 states) in 0.925s
[total] (74 states) in 7.668s
     [> s i] (3 => 2 states) in 0.278s
     [>= i j] (3 => 2 states) in 0.313s
    [\or ] (4 => 4 states) in 0.677s
     [\machine ] (74 => 74 states) in 0.699s
    [\not ] (76 => 75 states) in 1.692s
   [\or ] (171 => 171 states) in 2.932s
  [\not ] (172 => 170 states) in 2.534s
 [\exists i] (170 => 104 states) in 0.796s
[\not ] (105 => 104 states) in 1.205s
[total] (104 states) in 12.541s
        [> s j] (3 => 2 states) in 0.269s
        [> j r] (3 => 2 states) in 0.295s
       [\or ] (4 => 4 states) in 0.654s
       [\machine ] (104 => 104 states) in 1.620s
      [\or ] (206 => 206 states) in 3.220s
       [>= r j] (3 => 2 states) in 0.258s
       [\not ] (105 => 104 states) in 2.198s
      [\or ] (206 => 206 states) in 3.269s
     [\and ] (206 => 206 states) in 5.801s
    [\not ] (207 => 206 states) in 3.345s
   [\exists j] (206 => 15 states) in 1.828s
  [\not ] (16 => 14 states) in 0.528s
 [\exists r] (14 => 15 states) in 0.198s
[\exists s] (15 => 3 states) in 0.197s
[total] (3 states) in 27.645s
