digraph "FSA Utilities" { nodesep=0.3; center=true;start0 [shape=plaintext,label=""];
start0 -> 0 [label=""];0 [style=filled,shape=circle,color=orchid,peripheries=2];
1 [style=filled,shape=circle,color=tomato1,peripheries=2];
2 [style=filled,shape=circle,color=tomato1,peripheries=2];
3 [style=filled,shape=circle,color=tomato1,peripheries=2];
0 -> 0 [label="0"];
0 -> 1 [label="1"];
1 -> 2 [label="0"];
2 -> 2 [label="0"];
1 -> 3 [label="1"];
3 -> 3 [label="0 1"];
}
