digraph "FSA Utilities" { nodesep=0.3; center=true;start0 [shape=plaintext,label=""];
start0 -> 0 [label=""];0 [style=filled,shape=circle,color=orchid,peripheries=2];
1 [style=filled,shape=circle,color=tomato1,peripheries=2];
2 [style=filled,shape=circle,color=tomato1,peripheries=2];
3 [style=filled,shape=circle,color=tomato1,peripheries=2];
4 [style=filled,shape=circle,color=tomato1,peripheries=2];
5 [style=filled,shape=circle,color=lightblue1,peripheries=1];
6 [style=filled,shape=circle,color=tomato1,peripheries=2];
7 [style=filled,shape=circle,color=tomato1,peripheries=2];
8 [style=filled,shape=circle,color=lightblue1,peripheries=1];
0 -> 0 [label="0"];
0 -> 1 [label="1"];
0 -> 2 [label="2"];
2 -> 2 [label="2"];
0 -> 3 [label="3"];
1 -> 4 [label="0"];
2 -> 4 [label="3"];
3 -> 4 [label="3"];
5 -> 4 [label="3"];
1 -> 5 [label="1"];
3 -> 5 [label="2"];
5 -> 5 [label="2"];
1 -> 6 [label="2"];
1 -> 7 [label="3"];
2 -> 7 [label="0 1"];
6 -> 7 [label="3"];
7 -> 7 [label="0..3"];
8 -> 7 [label="3"];
6 -> 8 [label="2"];
8 -> 8 [label="2"];
}
