digraph "FSA Utilities" { nodesep=0.3; center=true;start0 [shape=plaintext,label=""];
start0 -> 0 [label=""];0 [style=filled,shape=circle,color=olivedrab1,peripheries=1];
1 [style=filled,shape=circle,color=lightblue1,peripheries=1];
2 [style=filled,shape=circle,color=lightblue1,peripheries=1];
3 [style=filled,shape=circle,color=tomato1,peripheries=2];
4 [style=filled,shape=circle,color=lightblue1,peripheries=1];
5 [style=filled,shape=circle,color=tomato1,peripheries=2];
6 [style=filled,shape=circle,color=lightblue1,peripheries=1];
7 [style=filled,shape=circle,color=tomato1,peripheries=2];
8 [style=filled,shape=circle,color=lightblue1,peripheries=1];
9 [style=filled,shape=circle,color=lightblue1,peripheries=1];
10 [style=filled,shape=circle,color=lightblue1,peripheries=1];
11 [style=filled,shape=circle,color=lightblue1,peripheries=1];
12 [style=filled,shape=circle,color=tomato1,peripheries=2];
13 [style=filled,shape=circle,color=lightblue1,peripheries=1];
14 [style=filled,shape=circle,color=lightblue1,peripheries=1];
15 [style=filled,shape=circle,color=tomato1,peripheries=2];
0 -> 0 [label="0"];
4 -> 0 [label="0"];
0 -> 1 [label="1"];
1 -> 2 [label="0"];
11 -> 2 [label="0"];
1 -> 3 [label="1"];
5 -> 3 [label="1"];
8 -> 3 [label="1"];
2 -> 4 [label="0"];
10 -> 4 [label="0"];
13 -> 4 [label="0"];
2 -> 5 [label="1"];
9 -> 5 [label="1"];
3 -> 6 [label="0"];
7 -> 6 [label="0"];
3 -> 7 [label="1"];
11 -> 7 [label="1"];
15 -> 7 [label="1"];
4 -> 8 [label="1"];
10 -> 8 [label="1"];
5 -> 9 [label="0"];
15 -> 9 [label="0"];
6 -> 10 [label="0"];
9 -> 10 [label="0"];
14 -> 10 [label="0"];
6 -> 11 [label="1"];
7 -> 12 [label="1"];
12 -> 12 [label="1"];
8 -> 13 [label="0"];
12 -> 14 [label="0"];
13 -> 15 [label="1"];
14 -> 15 [label="1"];
}
