digraph "FSA Utilities" { nodesep=0.3; center=true;start0 [shape=plaintext,label=""];
start0 -> 0 [label=""];0 [style=filled,shape=circle,color=olivedrab1,peripheries=1];
1 [style=filled,shape=circle,color=tomato1,peripheries=2];
2 [style=filled,shape=circle,color=lightblue1,peripheries=1];
3 [style=filled,shape=circle,color=lightblue1,peripheries=1];
4 [style=filled,shape=circle,color=tomato1,peripheries=2];
5 [style=filled,shape=circle,color=lightblue1,peripheries=1];
6 [style=filled,shape=circle,color=lightblue1,peripheries=1];
7 [style=filled,shape=circle,color=lightblue1,peripheries=1];
8 [style=filled,shape=circle,color=lightblue1,peripheries=1];
9 [style=filled,shape=circle,color=lightblue1,peripheries=1];
10 [style=filled,shape=circle,color=lightblue1,peripheries=1];
11 [style=filled,shape=circle,color=lightblue1,peripheries=1];
12 [style=filled,shape=circle,color=tomato1,peripheries=2];
13 [style=filled,shape=circle,color=lightblue1,peripheries=1];
14 [style=filled,shape=circle,color=lightblue1,peripheries=1];
15 [style=filled,shape=circle,color=lightblue1,peripheries=1];
16 [style=filled,shape=circle,color=lightblue1,peripheries=1];
17 [style=filled,shape=circle,color=lightblue1,peripheries=1];
18 [style=filled,shape=circle,color=lightblue1,peripheries=1];
19 [style=filled,shape=circle,color=lightblue1,peripheries=1];
20 [style=filled,shape=circle,color=lightblue1,peripheries=1];
21 [style=filled,shape=circle,color=lightblue1,peripheries=1];
22 [style=filled,shape=circle,color=lightblue1,peripheries=1];
23 [style=filled,shape=circle,color=lightblue1,peripheries=1];
24 [style=filled,shape=circle,color=lightblue1,peripheries=1];
25 [style=filled,shape=circle,color=lightblue1,peripheries=1];
26 [style=filled,shape=circle,color=lightblue1,peripheries=1];
27 [style=filled,shape=circle,color=lightblue1,peripheries=1];
28 [style=filled,shape=circle,color=lightblue1,peripheries=1];
29 [style=filled,shape=circle,color=lightblue1,peripheries=1];
0 -> 0 [label="[0,0]"];
0 -> 1 [label="[0,1]"];
1 -> 2 [label="[0,0]"];
1 -> 3 [label="[0,1]"];
1 -> 4 [label="[1,0]"];
2 -> 5 [label="[0,0]"];
2 -> 6 [label="[0,1]"];
2 -> 7 [label="[1,0]"];
3 -> 8 [label="[0,0]"];
3 -> 9 [label="[0,1]"];
9 -> 9 [label="[1,1]"];
16 -> 9 [label="[0,1]"];
26 -> 9 [label="[0,1]"];
3 -> 10 [label="[1,0]"];
3 -> 11 [label="[1,1]"];
11 -> 11 [label="[0,1]"];
26 -> 11 [label="[1,1]"];
28 -> 11 [label="[0,1]"];
4 -> 12 [label="[0,0]"];
7 -> 12 [label="[1,0]"];
17 -> 12 [label="[0,0]"];
21 -> 12 [label="[1,0]"];
28 -> 12 [label="[1,0]"];
29 -> 12 [label="[1,0]"];
5 -> 13 [label="[1,0]"];
5 -> 14 [label="[1,1]"];
6 -> 15 [label="[1,0]"];
6 -> 16 [label="[1,1]"];
7 -> 17 [label="[0,0]"];
14 -> 17 [label="[1,0]"];
22 -> 17 [label="[0,0]"];
25 -> 17 [label="[1,0]"];
8 -> 18 [label="[1,0]"];
8 -> 19 [label="[1,1]"];
15 -> 19 [label="[0,1]"];
20 -> 19 [label="[1,1]"];
25 -> 19 [label="[0,1]"];
9 -> 20 [label="[1,0]"];
16 -> 20 [label="[0,0]"];
26 -> 20 [label="[0,0]"];
10 -> 21 [label="[0,0]"];
11 -> 22 [label="[0,0]"];
16 -> 22 [label="[1,0]"];
26 -> 22 [label="[1,0]"];
28 -> 22 [label="[0,0]"];
13 -> 23 [label="[0,0]"];
18 -> 23 [label="[1,0]"];
13 -> 24 [label="[0,1]"];
18 -> 24 [label="[1,1]"];
23 -> 24 [label="[0,1]"];
27 -> 24 [label="[1,1]"];
29 -> 24 [label="[0,1]"];
14 -> 25 [label="[0,0]"];
19 -> 25 [label="[1,0]"];
24 -> 25 [label="[0,0]"];
14 -> 26 [label="[0,1]"];
19 -> 26 [label="[1,1]"];
24 -> 26 [label="[0,1]"];
15 -> 27 [label="[0,0]"];
20 -> 27 [label="[1,0]"];
25 -> 27 [label="[0,0]"];
16 -> 28 [label="[1,1]"];
23 -> 29 [label="[0,0]"];
27 -> 29 [label="[1,0]"];
29 -> 29 [label="[0,0]"];
}
