digraph "FSA Utilities" { nodesep=0.3; center=true;start0 [shape=plaintext,label=""];
start0 -> 0 [label=""];0 [style=filled,shape=circle,color=olivedrab1,peripheries=1];
1 [style=filled,shape=circle,color=lightblue1,peripheries=1];
2 [style=filled,shape=circle,color=tomato1,peripheries=2];
3 [style=filled,shape=circle,color=lightblue1,peripheries=1];
4 [style=filled,shape=circle,color=lightblue1,peripheries=1];
5 [style=filled,shape=circle,color=lightblue1,peripheries=1];
6 [style=filled,shape=circle,color=tomato1,peripheries=2];
7 [style=filled,shape=circle,color=lightblue1,peripheries=1];
8 [style=filled,shape=circle,color=lightblue1,peripheries=1];
9 [style=filled,shape=circle,color=lightblue1,peripheries=1];
10 [style=filled,shape=circle,color=lightblue1,peripheries=1];
11 [style=filled,shape=circle,color=lightblue1,peripheries=1];
12 [style=filled,shape=circle,color=lightblue1,peripheries=1];
13 [style=filled,shape=circle,color=lightblue1,peripheries=1];
14 [style=filled,shape=circle,color=lightblue1,peripheries=1];
15 [style=filled,shape=circle,color=lightblue1,peripheries=1];
16 [style=filled,shape=circle,color=lightblue1,peripheries=1];
17 [style=filled,shape=circle,color=lightblue1,peripheries=1];
18 [style=filled,shape=circle,color=lightblue1,peripheries=1];
0 -> 0 [label="[0,0,0]"];
0 -> 1 [label="[0,0,1]"];
0 -> 2 [label="[0,1,1]"];
1 -> 3 [label="[0,1,0]"];
2 -> 4 [label="[0,0,0]"];
2 -> 5 [label="[0,0,1]"];
2 -> 6 [label="[1,0,0]"];
7 -> 6 [label="[0,0,0]"];
8 -> 6 [label="[1,0,0]"];
14 -> 6 [label="[0,1,0]"];
17 -> 6 [label="[1,0,0]"];
18 -> 6 [label="[1,0,0]"];
2 -> 7 [label="[1,0,1]"];
7 -> 7 [label="[0,1,0]"];
17 -> 7 [label="[1,1,0]"];
2 -> 8 [label="[1,1,1]"];
8 -> 8 [label="[0,0,0]"];
3 -> 9 [label="[1,1,1]"];
4 -> 10 [label="[1,0,1]"];
5 -> 11 [label="[1,1,0]"];
11 -> 11 [label="[1,1,0]"];
17 -> 11 [label="[0,1,0]"];
9 -> 12 [label="[0,0,1]"];
12 -> 12 [label="[0,0,0]"];
9 -> 13 [label="[0,1,1]"];
12 -> 13 [label="[0,1,0]"];
15 -> 13 [label="[1,0,0]"];
18 -> 13 [label="[0,1,0]"];
9 -> 14 [label="[1,1,1]"];
12 -> 14 [label="[1,1,0]"];
16 -> 14 [label="[0,0,0]"];
18 -> 14 [label="[1,1,0]"];
10 -> 15 [label="[0,0,1]"];
13 -> 15 [label="[0,0,0]"];
15 -> 15 [label="[1,1,0]"];
10 -> 16 [label="[1,0,1]"];
13 -> 16 [label="[1,0,0]"];
16 -> 16 [label="[0,1,0]"];
11 -> 17 [label="[1,0,0]"];
17 -> 17 [label="[0,0,0]"];
13 -> 18 [label="[1,1,0]"];
18 -> 18 [label="[0,0,0]"];
}
