Starting log at:Tuesday 26th of February 2013 03:44:01 PM
 [>= p 1] (6 => 2 states) in 0.014s
     [\out= n+i n+p+i] (8 => 8 states) in 0.057s
     [>= i p] (3 => 2 states) in 0.024s
    [\or ] (16 => 16 states) in 0.036s
   [\not ] (17 => 16 states) in 0.051s
  [\exists i] (6 => 7 states) in 0.091s
 [\not ] (8 => 6 states) in 0.045s
[\and ] (6 => 6 states) in 0.024s
[total] (6 states) in 0.358s
