digraph "FSA Utilities" { nodesep=0.3; center=true;start0 [shape=plaintext,label=""];
start0 -> 0 [label=""];0 [style=filled,shape=circle,color=orchid,peripheries=2];
1 [style=filled,shape=circle,color=tomato1,peripheries=2];
2 [style=filled,shape=circle,color=lightblue1,peripheries=1];
3 [style=filled,shape=circle,color=lightblue1,peripheries=1];
4 [style=filled,shape=circle,color=tomato1,peripheries=2];
5 [style=filled,shape=circle,color=tomato1,peripheries=2];
6 [style=filled,shape=circle,color=tomato1,peripheries=2];
7 [style=filled,shape=circle,color=tomato1,peripheries=2];
8 [style=filled,shape=circle,color=tomato1,peripheries=2];
9 [style=filled,shape=circle,color=tomato1,peripheries=2];
10 [style=filled,shape=circle,color=lightblue1,peripheries=1];
11 [style=filled,shape=circle,color=tomato1,peripheries=2];
12 [style=filled,shape=circle,color=lightblue1,peripheries=1];
13 [style=filled,shape=circle,color=tomato1,peripheries=2];
14 [style=filled,shape=circle,color=lightblue1,peripheries=1];
15 [style=filled,shape=circle,color=tomato1,peripheries=2];
16 [style=filled,shape=circle,color=lightblue1,peripheries=1];
17 [style=filled,shape=circle,color=tomato1,peripheries=2];
18 [style=filled,shape=circle,color=lightblue1,peripheries=1];
19 [style=filled,shape=circle,color=tomato1,peripheries=2];
20 [style=filled,shape=circle,color=tomato1,peripheries=2];
21 [style=filled,shape=circle,color=lightblue1,peripheries=1];
22 [style=filled,shape=circle,color=lightblue1,peripheries=1];
23 [style=filled,shape=circle,color=tomato1,peripheries=2];
24 [style=filled,shape=circle,color=lightblue1,peripheries=1];
25 [style=filled,shape=circle,color=tomato1,peripheries=2];
26 [style=filled,shape=circle,color=tomato1,peripheries=2];
27 [style=filled,shape=circle,color=tomato1,peripheries=2];
28 [style=filled,shape=circle,color=lightblue1,peripheries=1];
29 [style=filled,shape=circle,color=lightblue1,peripheries=1];
30 [style=filled,shape=circle,color=lightblue1,peripheries=1];
31 [style=filled,shape=circle,color=lightblue1,peripheries=1];
32 [style=filled,shape=circle,color=tomato1,peripheries=2];
33 [style=filled,shape=circle,color=lightblue1,peripheries=1];
0 -> 0 [label="[0,0,0]"];
1 -> 0 [label="[0,0,1]"];
4 -> 0 [label="[1,0,0]"];
5 -> 0 [label="[0,0,0] [1,0,1]"];
11 -> 0 [label="[0,0,0]"];
19 -> 0 [label="[0,0,0]"];
27 -> 0 [label="[0,0,1] [1,0,0]"];
0 -> 1 [label="[0,0,1]"];
4 -> 1 [label="[1,0,1]"];
11 -> 1 [label="[0,0,1]"];
0 -> 2 [label="[0,1,0]"];
3 -> 2 [label="[1,1,1]"];
4 -> 2 [label="[1,1,0]"];
6 -> 2 [label="[1,1,1]"];
7 -> 2 [label="[0,0,1] [0,1,0]"];
9 -> 2 [label="[0,0,1] [0,1,0] [1,0,0]"];
11 -> 2 [label="[0,1,0]"];
14 -> 2 [label="[1,1,1]"];
15 -> 2 [label="[0,0,1] [0,1,0] [1,0,0]"];
22 -> 2 [label="[1,1,1]"];
23 -> 2 [label="[0,0,1] [0,1,0] [1,0,0]"];
29 -> 2 [label="[1,0,1]"];
33 -> 2 [label="[1,1,1]"];
0 -> 3 [label="[0,1,1]"];
0 -> 4 [label="[1,0,0]"];
1 -> 4 [label="[1,0,1]"];
19 -> 4 [label="[1,0,0]"];
0 -> 5 [label="[1,0,1]"];
0 -> 6 [label="[1,1,0]"];
0 -> 7 [label="[1,1,1]"];
1 -> 8 [label="[0,0,0]"];
4 -> 8 [label="[0,0,0]"];
5 -> 8 [label="[0,0,1] [1,0,0]"];
8 -> 8 [label="[0,0,0]"];
11 -> 8 [label="[1,0,0]"];
19 -> 8 [label="[0,0,1]"];
27 -> 8 [label="[0,0,0] [1,0,1]"];
1 -> 9 [label="[0,1,0]"];
19 -> 9 [label="[0,1,1]"];
29 -> 9 [label="[1,0,0]"];
1 -> 10 [label="[0,1,1]"];
7 -> 10 [label="[1,0,0]"];
19 -> 10 [label="[0,1,0]"];
1 -> 11 [label="[1,0,0]"];
8 -> 11 [label="[1,0,0]"];
19 -> 11 [label="[1,0,1]"];
1 -> 12 [label="[1,1,0]"];
19 -> 12 [label="[1,1,1]"];
1 -> 13 [label="[1,1,1]"];
19 -> 13 [label="[1,1,0]"];
2 -> 14 [label="[0,0,0]"];
10 -> 14 [label="[0,0,0]"];
18 -> 14 [label="[0,1,1] [1,0,1] [1,1,0]"];
22 -> 14 [label="[0,0,0]"];
23 -> 14 [label="[0,1,1] [1,0,1] [1,1,0]"];
25 -> 14 [label="[0,1,1] [1,0,1] [1,1,0]"];
26 -> 14 [label="[0,1,1] [1,0,1] [1,1,0]"];
28 -> 14 [label="[1,1,0]"];
2 -> 15 [label="[0,0,1] [0,1,0] [1,0,0]"];
4 -> 15 [label="[0,1,0]"];
7 -> 15 [label="[1,0,1]"];
8 -> 15 [label="[0,1,0]"];
10 -> 15 [label="[0,0,1] [0,1,0] [1,0,0]"];
11 -> 15 [label="[1,1,0]"];
18 -> 15 [label="[1,1,1]"];
22 -> 15 [label="[0,0,1] [0,1,0] [1,0,0]"];
23 -> 15 [label="[1,1,1]"];
25 -> 15 [label="[1,1,1]"];
26 -> 15 [label="[1,1,1]"];
28 -> 15 [label="[1,1,1]"];
29 -> 15 [label="[0,0,1] [0,1,0]"];
3 -> 16 [label="[0,0,0]"];
10 -> 16 [label="[1,1,1]"];
12 -> 16 [label="[1,0,1]"];
13 -> 16 [label="[0,0,1]"];
17 -> 16 [label="[0,0,1]"];
20 -> 16 [label="[0,0,1]"];
21 -> 16 [label="[0,0,0] [1,1,1]"];
24 -> 16 [label="[1,1,1]"];
25 -> 16 [label="[0,0,1]"];
26 -> 16 [label="[0,0,1]"];
29 -> 16 [label="[1,1,0]"];
30 -> 16 [label="[1,1,1]"];
32 -> 16 [label="[0,0,1]"];
3 -> 17 [label="[0,0,1]"];
7 -> 17 [label="[1,1,0]"];
9 -> 17 [label="[1,1,1]"];
12 -> 17 [label="[0,0,1]"];
13 -> 17 [label="[1,0,1]"];
16 -> 17 [label="[0,0,1]"];
20 -> 17 [label="[0,0,0] [1,1,1]"];
21 -> 17 [label="[0,0,1]"];
24 -> 17 [label="[0,0,1]"];
26 -> 17 [label="[0,0,0]"];
31 -> 17 [label="[1,1,1]"];
32 -> 17 [label="[1,1,1]"];
33 -> 17 [label="[0,0,1]"];
3 -> 18 [label="[0,1,1] [1,0,1] [1,1,0]"];
6 -> 18 [label="[1,1,0]"];
9 -> 18 [label="[0,0,0]"];
14 -> 18 [label="[0,1,1] [1,0,1] [1,1,0]"];
15 -> 18 [label="[0,0,0]"];
22 -> 18 [label="[0,1,1] [1,0,1] [1,1,0]"];
23 -> 18 [label="[0,0,0]"];
33 -> 18 [label="[0,1,1] [1,0,1] [1,1,0]"];
4 -> 19 [label="[0,0,1]"];
8 -> 19 [label="[0,0,1]"];
11 -> 19 [label="[1,0,1]"];
4 -> 20 [label="[0,1,1]"];
11 -> 20 [label="[1,1,1]"];
4 -> 21 [label="[1,1,1]"];
11 -> 21 [label="[0,1,1]"];
5 -> 22 [label="[0,1,0] [1,1,1]"];
27 -> 22 [label="[0,1,1] [1,1,0]"];
29 -> 22 [label="[0,0,0]"];
5 -> 23 [label="[0,1,1] [1,1,0]"];
7 -> 23 [label="[0,0,0]"];
27 -> 23 [label="[0,1,0] [1,1,1]"];
6 -> 24 [label="[0,0,1]"];
6 -> 25 [label="[0,1,1] [1,0,1]"];
8 -> 26 [label="[0,1,1]"];
8 -> 27 [label="[1,0,1]"];
8 -> 28 [label="[1,1,0]"];
8 -> 29 [label="[1,1,1]"];
9 -> 30 [label="[0,1,1] [1,0,1]"];
20 -> 30 [label="[0,1,1] [1,0,1]"];
31 -> 30 [label="[0,1,1] [1,0,1]"];
32 -> 30 [label="[0,1,1] [1,0,1]"];
10 -> 31 [label="[0,1,1] [1,0,1]"];
21 -> 31 [label="[0,1,1] [1,0,1]"];
24 -> 31 [label="[0,1,1] [1,0,1]"];
30 -> 31 [label="[0,1,1] [1,0,1]"];
28 -> 32 [label="[0,0,1]"];
28 -> 33 [label="[0,1,1] [1,0,1]"];
}
