Starting log at:Tuesday 26th of February 2013 03:44:03 PM
    [\out= n+i m+l-1*i] (12 => 12 states) in 0.079s
    [>= i l] (3 => 2 states) in 0.022s
   [\or ] (16 => 16 states) in 0.059s
  [\not ] (17 => 16 states) in 0.063s
 [\exists i] (35 => 42 states) in 0.317s
[\not ] (43 => 41 states) in 0.069s
[total] (41 states) in 0.651s
