 [\machine ] (18 => 18 states) in 0.019s
      [>= i j] (3 => 2 states) in 0.021s
      [> m n] (3 => 2 states) in 0.016s
     [\and ] (4 => 4 states) in 0.042s
      [>= j+m i+n] (12 => 4 states) in 0.025s
      [\machine ] (18 => 18 states) in 0.03s
     [\and ] (48 => 49 states) in 0.098s
    [\and ] (43 => 44 states) in 0.089s
   [\exists m] (44 => 28 states) in 0.039s
  [\exists j] (28 => 10 states) in 0.026s
 [\not ] (11 => 10 states) in 0.04s
[\and ] (4 => 5 states) in 0.04s
[total] (5 states) in 0.511s
[total] (5 states) in 0.003s
[total] (5 states) in 0.002s
[total] (5 states) in 0.002s
[total] (5 states) in 0.003s
[total] (5 states) in 0.003s
[total] (5 states) in 0.002s
[total] (5 states) in 0.002s
[total] (5 states) in 0.002s
[total] (5 states) in 0.003s
[total] (5 states) in 0.002s
[total] (5 states) in 0.002s
[total] (5 states) in 0.002s
[total] (5 states) in 0.002s
[total] (5 states) in 0.002s
[total] (5 states) in 0.002s
[total] (5 states) in 0.002s
[total] (5 states) in 0.002s
[total] (5 states) in 0.002s
[total] (5 states) in 0.002s
[total] (5 states) in 0.002s
[total] (5 states) in 0.002s
[total] (5 states) in 0.002s
[total] (5 states) in 0.002s
[total] (5 states) in 0.002s
[total] (5 states) in 0.002s
[total] (5 states) in 0.004s
[total] (5 states) in 0.003s
[total] (5 states) in 0.002s
[total] (5 states) in 0.002s
[total] (5 states) in 0.003s
[total] (5 states) in 0.002s
[total] (5 states) in 0.002s
[total] (5 states) in 0.002s
[total] (5 states) in 0.002s
[total] (5 states) in 0.003s
[total] (5 states) in 0.002s
[total] (5 states) in 0.003s
[total] (5 states) in 0.002s
[total] (5 states) in 0.002s
[total] (5 states) in 0.003s
[total] (5 states) in 0.003s
[total] (5 states) in 0.002s
[total] (5 states) in 0.005s
[total] (5 states) in 0.003s
[total] (5 states) in 0.002s
[total] (5 states) in 0.003s
[total] (5 states) in 0.002s
[total] (5 states) in 0.002s
[total] (5 states) in 0.002s
[total] (5 states) in 0.002s
[total] (5 states) in 0.003s
[total] (5 states) in 0.003s
[total] (5 states) in 0.003s
[total] (5 states) in 0.002s
 [\machine ] (17 => 17 states) in 0.017s
      [>= i j] (3 => 2 states) in 0.025s
      [> m n] (3 => 2 states) in 0.018s
     [\and ] (4 => 4 states) in 0.038s
      [>= j+m i+n] (12 => 4 states) in 0.034s
      [\machine ] (17 => 17 states) in 0.039s
     [\and ] (48 => 48 states) in 0.108s
    [\and ] (43 => 43 states) in 0.080s
   [\exists m] (43 => 27 states) in 0.033s
  [\exists j] (27 => 10 states) in 0.032s
 [\not ] (11 => 10 states) in 0.031s
[\and ] (4 => 4 states) in 0.035s
[total] (4 states) in 0.529s
 [\machine ] (17 => 17 states) in 0.021s
      [\machine ] (17 => 17 states) in 0.029s
     [\and ] (48 => 48 states) in 0.083s
    [\and ] (43 => 43 states) in 0.077s
   [\exists m] (43 => 27 states) in 0.028s
  [\exists j] (27 => 10 states) in 0.020s
 [\not ] (11 => 10 states) in 0.034s
[\and ] (4 => 4 states) in 0.028s
[total] (4 states) in 0.358s
[total] (4 states) in 0.009s
[total] (4 states) in 0.012s
[total] (4 states) in 0.009s
[total] (4 states) in 0.021s
[total] (4 states) in 0.039s
[total] (4 states) in 0.025s
[total] (4 states) in 0.024s
[total] (4 states) in 0.015s
[total] (4 states) in 0.035s
[total] (4 states) in 0.009s
 [\machine ] (17 => 17 states) in 0.027s
      [>= i j] (3 => 2 states) in 0.034s
      [> m n] (3 => 2 states) in 0.023s
     [\and ] (4 => 4 states) in 0.049s
      [>= j+m i+n] (12 => 4 states) in 0.035s
      [\machine ] (17 => 17 states) in 0.033s
     [\and ] (48 => 48 states) in 0.101s
    [\and ] (43 => 43 states) in 0.071s
   [\exists m] (43 => 27 states) in 0.025s
  [\exists j] (27 => 10 states) in 0.027s
 [\not ] (11 => 10 states) in 0.040s
[\and ] (4 => 4 states) in 0.039s
[total] (4 states) in 0.543s
 [\machine ] (17 => 17 states) in 0.015s
      [>= i j] (3 => 2 states) in 0.011s
      [> m n] (3 => 2 states) in 0.010s
     [\and ] (4 => 4 states) in 0.021s
      [>= j+m i+n] (12 => 4 states) in 0.015s
      [\machine ] (17 => 17 states) in 0.018s
     [\and ] (48 => 48 states) in 0.048s
    [\and ] (43 => 43 states) in 0.037s
   [\exists m] (43 => 27 states) in 0.014s
  [\exists j] (27 => 10 states) in 0.011s
 [\not ] (11 => 10 states) in 0.019s
[\and ] (4 => 4 states) in 0.018s
[total] (4 states) in 0.259s
 [\machine ] (17 => 17 states) in 0.010s
      [\machine ] (17 => 17 states) in 0.016s
     [\and ] (48 => 48 states) in 0.044s
    [\and ] (43 => 43 states) in 0.036s
   [\exists m] (43 => 27 states) in 0.013s
  [\exists j] (27 => 10 states) in 0.010s
 [\not ] (11 => 10 states) in 0.018s
[\and ] (4 => 4 states) in 0.017s
[total] (4 states) in 0.184s
[total] (4 states) in 0.009s
[total] (4 states) in 0.009s
[total] (4 states) in 0.009s
