digraph "FSA Utilities" { nodesep=0.3; center=true;start0 [shape=plaintext,label=""];
start0 -> 0 [label=""];0 [style=filled,shape=circle,color=olivedrab1,peripheries=1];
1 [style=filled,shape=circle,color=lightblue1,peripheries=1];
2 [style=filled,shape=circle,color=lightblue1,peripheries=1];
3 [style=filled,shape=circle,color=tomato1,peripheries=2];
4 [style=filled,shape=circle,color=lightblue1,peripheries=1];
5 [style=filled,shape=circle,color=tomato1,peripheries=2];
6 [style=filled,shape=circle,color=tomato1,peripheries=2];
7 [style=filled,shape=circle,color=lightblue1,peripheries=1];
8 [style=filled,shape=circle,color=lightblue1,peripheries=1];
9 [style=filled,shape=circle,color=lightblue1,peripheries=1];
10 [style=filled,shape=circle,color=tomato1,peripheries=2];
11 [style=filled,shape=circle,color=lightblue1,peripheries=1];
12 [style=filled,shape=circle,color=lightblue1,peripheries=1];
13 [style=filled,shape=circle,color=lightblue1,peripheries=1];
14 [style=filled,shape=circle,color=lightblue1,peripheries=1];
15 [style=filled,shape=circle,color=tomato1,peripheries=2];
16 [style=filled,shape=circle,color=tomato1,peripheries=2];
17 [style=filled,shape=circle,color=lightblue1,peripheries=1];
18 [style=filled,shape=circle,color=tomato1,peripheries=2];
19 [style=filled,shape=circle,color=lightblue1,peripheries=1];
20 [style=filled,shape=circle,color=tomato1,peripheries=2];
21 [style=filled,shape=circle,color=tomato1,peripheries=2];
22 [style=filled,shape=circle,color=lightblue1,peripheries=1];
23 [style=filled,shape=circle,color=lightblue1,peripheries=1];
24 [style=filled,shape=circle,color=lightblue1,peripheries=1];
25 [style=filled,shape=circle,color=lightblue1,peripheries=1];
26 [style=filled,shape=circle,color=lightblue1,peripheries=1];
27 [style=filled,shape=circle,color=lightblue1,peripheries=1];
28 [style=filled,shape=circle,color=tomato1,peripheries=2];
29 [style=filled,shape=circle,color=tomato1,peripheries=2];
30 [style=filled,shape=circle,color=tomato1,peripheries=2];
31 [style=filled,shape=circle,color=tomato1,peripheries=2];
32 [style=filled,shape=circle,color=lightblue1,peripheries=1];
33 [style=filled,shape=circle,color=tomato1,peripheries=2];
34 [style=filled,shape=circle,color=tomato1,peripheries=2];
35 [style=filled,shape=circle,color=tomato1,peripheries=2];
36 [style=filled,shape=circle,color=tomato1,peripheries=2];
37 [style=filled,shape=circle,color=tomato1,peripheries=2];
38 [style=filled,shape=circle,color=lightblue1,peripheries=1];
39 [style=filled,shape=circle,color=lightblue1,peripheries=1];
40 [style=filled,shape=circle,color=lightblue1,peripheries=1];
41 [style=filled,shape=circle,color=lightblue1,peripheries=1];
42 [style=filled,shape=circle,color=lightblue1,peripheries=1];
43 [style=filled,shape=circle,color=lightblue1,peripheries=1];
44 [style=filled,shape=circle,color=lightblue1,peripheries=1];
45 [style=filled,shape=circle,color=lightblue1,peripheries=1];
46 [style=filled,shape=circle,color=tomato1,peripheries=2];
47 [style=filled,shape=circle,color=tomato1,peripheries=2];
48 [style=filled,shape=circle,color=lightblue1,peripheries=1];
49 [style=filled,shape=circle,color=lightblue1,peripheries=1];
0 -> 0 [label="[0,0]"];
0 -> 1 [label="[1,0]"];
0 -> 2 [label="[1,1]"];
1 -> 3 [label="[0,0]"];
1 -> 4 [label="[0,1]"];
1 -> 5 [label="[1,0]"];
3 -> 5 [label="[0,0] [0,1] [1,0]"];
5 -> 5 [label="[0,0] [0,1] [1,0] [1,1]"];
6 -> 5 [label="[1,0] [1,1]"];
8 -> 5 [label="[1,0]"];
10 -> 5 [label="[1,0] [1,1]"];
11 -> 5 [label="[0,0] [1,0]"];
13 -> 5 [label="[1,0]"];
15 -> 5 [label="[0,0] [0,1] [1,0]"];
16 -> 5 [label="[0,0] [0,1]"];
18 -> 5 [label="[1,0] [1,1]"];
19 -> 5 [label="[1,0]"];
20 -> 5 [label="[0,0] [1,0]"];
23 -> 5 [label="[1,0] [1,1]"];
26 -> 5 [label="[1,0]"];
28 -> 5 [label="[1,0] [1,1]"];
29 -> 5 [label="[1,0] [1,1]"];
30 -> 5 [label="[1,0] [1,1]"];
31 -> 5 [label="[0,0] [0,1] [1,0]"];
32 -> 5 [label="[1,0]"];
33 -> 5 [label="[0,0] [0,1]"];
36 -> 5 [label="[0,0] [1,0]"];
38 -> 5 [label="[0,0] [1,0]"];
40 -> 5 [label="[0,0] [1,0]"];
44 -> 5 [label="[1,0] [1,1]"];
45 -> 5 [label="[1,0] [1,1]"];
46 -> 5 [label="[0,0] [1,0]"];
1 -> 6 [label="[1,1]"];
2 -> 7 [label="[0,0]"];
7 -> 7 [label="[0,0]"];
9 -> 7 [label="[0,0]"];
2 -> 8 [label="[1,0]"];
2 -> 9 [label="[1,1]"];
7 -> 9 [label="[1,1]"];
9 -> 9 [label="[1,1]"];
3 -> 10 [label="[1,1]"];
4 -> 11 [label="[0,0]"];
4 -> 12 [label="[0,1]"];
4 -> 13 [label="[1,0]"];
4 -> 14 [label="[1,1]"];
7 -> 14 [label="[1,0]"];
12 -> 14 [label="[1,1]"];
17 -> 14 [label="[1,1]"];
25 -> 14 [label="[1,0] [1,1]"];
27 -> 14 [label="[1,1]"];
6 -> 15 [label="[0,0]"];
6 -> 16 [label="[0,1]"];
8 -> 16 [label="[0,0]"];
8 -> 17 [label="[0,1]"];
17 -> 17 [label="[0,1]"];
19 -> 17 [label="[0,1]"];
8 -> 18 [label="[1,1]"];
13 -> 18 [label="[1,1]"];
19 -> 18 [label="[1,1]"];
26 -> 18 [label="[1,1]"];
32 -> 18 [label="[1,1]"];
38 -> 18 [label="[1,1]"];
46 -> 18 [label="[1,1]"];
9 -> 19 [label="[1,0]"];
10 -> 20 [label="[0,0]"];
10 -> 21 [label="[0,1]"];
13 -> 21 [label="[0,0]"];
11 -> 22 [label="[0,1]"];
11 -> 23 [label="[1,1]"];
12 -> 24 [label="[0,0]"];
12 -> 25 [label="[0,1]"];
14 -> 25 [label="[0,0] [0,1]"];
25 -> 25 [label="[0,0] [0,1]"];
27 -> 25 [label="[0,1]"];
42 -> 25 [label="[0,1]"];
12 -> 26 [label="[1,0]"];
13 -> 27 [label="[0,1]"];
24 -> 27 [label="[0,1]"];
26 -> 27 [label="[0,1]"];
32 -> 27 [label="[0,1]"];
43 -> 27 [label="[0,1]"];
14 -> 28 [label="[1,0] [1,1]"];
39 -> 28 [label="[1,0] [1,1]"];
42 -> 28 [label="[1,0] [1,1]"];
47 -> 28 [label="[1,0] [1,1]"];
15 -> 29 [label="[1,1]"];
20 -> 29 [label="[1,1]"];
16 -> 30 [label="[1,0] [1,1]"];
21 -> 30 [label="[1,0] [1,1]"];
17 -> 31 [label="[0,0]"];
18 -> 31 [label="[0,0]"];
17 -> 32 [label="[1,0]"];
27 -> 32 [label="[1,0]"];
18 -> 33 [label="[0,1]"];
19 -> 33 [label="[0,0]"];
28 -> 33 [label="[0,0] [0,1]"];
20 -> 34 [label="[0,1]"];
21 -> 35 [label="[0,0] [0,1]"];
22 -> 36 [label="[0,0]"];
29 -> 36 [label="[0,0]"];
34 -> 36 [label="[0,0]"];
44 -> 36 [label="[0,0]"];
48 -> 36 [label="[0,0]"];
22 -> 37 [label="[0,1]"];
24 -> 37 [label="[0,0]"];
29 -> 37 [label="[0,1]"];
30 -> 37 [label="[0,0] [0,1]"];
32 -> 37 [label="[0,0]"];
34 -> 37 [label="[0,1]"];
35 -> 37 [label="[0,0] [0,1]"];
43 -> 37 [label="[0,0]"];
44 -> 37 [label="[0,1]"];
45 -> 37 [label="[0,0] [0,1]"];
48 -> 37 [label="[0,1]"];
49 -> 37 [label="[0,0] [0,1]"];
22 -> 38 [label="[1,0]"];
22 -> 39 [label="[1,1]"];
24 -> 39 [label="[1,0]"];
23 -> 40 [label="[0,0]"];
23 -> 41 [label="[0,1]"];
26 -> 41 [label="[0,0]"];
24 -> 42 [label="[1,1]"];
43 -> 42 [label="[1,1]"];
27 -> 43 [label="[0,0]"];
42 -> 43 [label="[0,0]"];
31 -> 44 [label="[1,1]"];
36 -> 44 [label="[1,1]"];
40 -> 44 [label="[1,1]"];
33 -> 45 [label="[1,0] [1,1]"];
37 -> 45 [label="[1,0] [1,1]"];
41 -> 45 [label="[1,0] [1,1]"];
34 -> 46 [label="[1,0]"];
48 -> 46 [label="[1,0]"];
34 -> 47 [label="[1,1]"];
35 -> 47 [label="[1,0] [1,1]"];
43 -> 47 [label="[1,0]"];
48 -> 47 [label="[1,1]"];
49 -> 47 [label="[1,0] [1,1]"];
36 -> 48 [label="[0,1]"];
38 -> 48 [label="[0,1]"];
40 -> 48 [label="[0,1]"];
46 -> 48 [label="[0,1]"];
37 -> 49 [label="[0,0] [0,1]"];
39 -> 49 [label="[0,0] [0,1]"];
41 -> 49 [label="[0,0] [0,1]"];
47 -> 49 [label="[0,0] [0,1]"];
}
