    [> i j] (3 => 2 states) in 0.017s
        [>= i0 n] (3 => 2 states) in 0.016s
        [\match j+i0 i+i0] (16 => 8 states) in 0.029s
       [\or ] (16 => 16 states) in 0.061s
      [\not ] (17 => 16 states) in 0.06s
     [\exists i0] (16 => 22 states) in 0.038s
    [\not ] (23 => 22 states) in 0.047s
   [\and ] (24 => 25 states) in 0.056s
  [\exists j] (25 => 11 states) in 0.021s
 [\not ] (12 => 11 states) in 0.041s
[\and ] (14 => 15 states) in 0.044s
[total] (15 states) in 0.452s
[total] (15 states) in 0.004s
[total] (15 states) in 0.003s
[total] (15 states) in 0.003s
[total] (15 states) in 0.003s
[total] (15 states) in 0.003s
 [\machine ] (22 => 22 states) in 0.028s
[\exists e] (22 => 15 states) in 0.024s
[total] (15 states) in 0.057s
[total] (15 states) in 0.003s
[total] (15 states) in 0.003s
[total] (15 states) in 0.003s
[total] (15 states) in 0.003s
[total] (15 states) in 0.002s
[total] (15 states) in 0.003s
[total] (15 states) in 0.002s
[total] (15 states) in 0.003s
[total] (15 states) in 0.003s
[total] (15 states) in 0.003s
[total] (15 states) in 0.003s
[total] (15 states) in 0.003s
[total] (15 states) in 0.003s
[total] (15 states) in 0.003s
[total] (15 states) in 0.003s
[total] (15 states) in 0.003s
[total] (15 states) in 0.003s
[total] (15 states) in 0.004s
