digraph "FSA Utilities" { nodesep=0.3; center=true;start0 [shape=plaintext,label=""];
start0 -> 0 [label=""];0 [style=filled,shape=circle,color=orchid,peripheries=2];
1 [style=filled,shape=circle,color=tomato1,peripheries=2];
2 [style=filled,shape=circle,color=tomato1,peripheries=2];
3 [style=filled,shape=circle,color=lightblue1,peripheries=1];
4 [style=filled,shape=circle,color=lightblue1,peripheries=1];
5 [style=filled,shape=circle,color=tomato1,peripheries=2];
6 [style=filled,shape=circle,color=lightblue1,peripheries=1];
7 [style=filled,shape=circle,color=tomato1,peripheries=2];
8 [style=filled,shape=circle,color=lightblue1,peripheries=1];
9 [style=filled,shape=circle,color=tomato1,peripheries=2];
0 -> 0 [label="[0,0]"];
0 -> 1 [label="[1,0]"];
0 -> 2 [label="[1,1]"];
0 -> 3 [label="[0,1]"];
1 -> 3 [label="[1,0]"];
2 -> 3 [label="[0,0]"];
3 -> 3 [label="[0,0] [0,1] [1,0] [1,1]"];
4 -> 3 [label="[0,0] [1,0] [1,1]"];
6 -> 3 [label="[0,0] [1,0]"];
7 -> 3 [label="[0,1] [1,0] [1,1]"];
8 -> 3 [label="[0,0] [0,1] [1,1]"];
9 -> 3 [label="[0,1] [1,1]"];
1 -> 4 [label="[0,0]"];
2 -> 4 [label="[1,1]"];
5 -> 4 [label="[0,0] [1,1]"];
7 -> 4 [label="[0,0]"];
9 -> 4 [label="[0,0]"];
1 -> 5 [label="[0,1] [1,1]"];
2 -> 6 [label="[0,1] [1,0]"];
5 -> 6 [label="[0,1] [1,0]"];
8 -> 6 [label="[1,0]"];
9 -> 6 [label="[1,0]"];
4 -> 7 [label="[0,1]"];
6 -> 8 [label="[0,1]"];
6 -> 9 [label="[1,1]"];
}
