digraph "FSA Utilities" { nodesep=0.3; center=true;start0 [shape=plaintext,label=""];
start0 -> 0 [label=""];0 [style=filled,shape=circle,color=olivedrab1,peripheries=1];
1 [style=filled,shape=circle,color=tomato1,peripheries=2];
2 [style=filled,shape=circle,color=lightblue1,peripheries=1];
3 [style=filled,shape=circle,color=tomato1,peripheries=2];
4 [style=filled,shape=circle,color=lightblue1,peripheries=1];
5 [style=filled,shape=circle,color=lightblue1,peripheries=1];
6 [style=filled,shape=circle,color=lightblue1,peripheries=1];
7 [style=filled,shape=circle,color=lightblue1,peripheries=1];
8 [style=filled,shape=circle,color=tomato1,peripheries=2];
9 [style=filled,shape=circle,color=lightblue1,peripheries=1];
10 [style=filled,shape=circle,color=tomato1,peripheries=2];
11 [style=filled,shape=circle,color=lightblue1,peripheries=1];
12 [style=filled,shape=circle,color=lightblue1,peripheries=1];
13 [style=filled,shape=circle,color=lightblue1,peripheries=1];
0 -> 0 [label="[0,0]"];
0 -> 1 [label="[1,0]"];
0 -> 2 [label="[1,1]"];
2 -> 2 [label="[0,0]"];
6 -> 2 [label="[1,1]"];
1 -> 3 [label="[0,0] [1,0]"];
4 -> 3 [label="[1,1]"];
7 -> 3 [label="[0,1] [1,1]"];
9 -> 3 [label="[0,1]"];
11 -> 3 [label="[1,1]"];
13 -> 3 [label="[0,1]"];
1 -> 4 [label="[0,1]"];
2 -> 5 [label="[1,0]"];
10 -> 5 [label="[0,1]"];
2 -> 6 [label="[1,1]"];
6 -> 6 [label="[0,0]"];
4 -> 7 [label="[0,0]"];
5 -> 7 [label="[1,0]"];
4 -> 8 [label="[0,1]"];
6 -> 8 [label="[1,0]"];
12 -> 8 [label="[0,1]"];
5 -> 9 [label="[0,0]"];
5 -> 10 [label="[0,1]"];
7 -> 11 [label="[0,0]"];
9 -> 11 [label="[1,0]"];
11 -> 11 [label="[0,0]"];
8 -> 12 [label="[0,1]"];
10 -> 13 [label="[1,1]"];
12 -> 13 [label="[0,0]"];
}
