digraph "FSA Utilities" { nodesep=0.3; center=true;start0 [shape=plaintext,label=""];
start0 -> 0 [label=""];0 [style=filled,shape=circle,color=olivedrab1,peripheries=1];
1 [style=filled,shape=circle,color=tomato1,peripheries=2];
2 [style=filled,shape=circle,color=lightblue1,peripheries=1];
3 [style=filled,shape=circle,color=lightblue1,peripheries=1];
4 [style=filled,shape=circle,color=lightblue1,peripheries=1];
5 [style=filled,shape=circle,color=lightblue1,peripheries=1];
6 [style=filled,shape=circle,color=lightblue1,peripheries=1];
7 [style=filled,shape=circle,color=lightblue1,peripheries=1];
8 [style=filled,shape=circle,color=tomato1,peripheries=2];
9 [style=filled,shape=circle,color=tomato1,peripheries=2];
0 -> 0 [label="0"];
7 -> 0 [label="0"];
0 -> 1 [label="1"];
2 -> 1 [label="1"];
5 -> 1 [label="1"];
1 -> 2 [label="0"];
8 -> 2 [label="0"];
9 -> 2 [label="0"];
1 -> 3 [label="1"];
2 -> 4 [label="0"];
3 -> 5 [label="0"];
6 -> 5 [label="0"];
3 -> 6 [label="1"];
8 -> 6 [label="1"];
4 -> 7 [label="0"];
5 -> 7 [label="0"];
4 -> 8 [label="1"];
7 -> 8 [label="1"];
6 -> 9 [label="1"];
9 -> 9 [label="1"];
}
