digraph "FSA Utilities" { nodesep=0.3; center=true;start0 [shape=plaintext,label=""];
start0 -> 0 [label=""];0 [style=filled,shape=circle,color=olivedrab1,peripheries=1];
1 [style=filled,shape=circle,color=lightblue1,peripheries=1];
2 [style=filled,shape=circle,color=lightblue1,peripheries=1];
3 [style=filled,shape=circle,color=lightblue1,peripheries=1];
4 [style=filled,shape=circle,color=lightblue1,peripheries=1];
5 [style=filled,shape=circle,color=tomato1,peripheries=2];
6 [style=filled,shape=circle,color=tomato1,peripheries=2];
7 [style=filled,shape=circle,color=lightblue1,peripheries=1];
8 [style=filled,shape=circle,color=lightblue1,peripheries=1];
0 -> 0 [label="[0,0]"];
0 -> 1 [label="[0,1]"];
1 -> 2 [label="[0,0]"];
1 -> 3 [label="[1,0]"];
7 -> 3 [label="[0,1] [1,0]"];
1 -> 4 [label="[1,1]"];
7 -> 4 [label="[1,1]"];
8 -> 4 [label="[0,0]"];
2 -> 5 [label="[0,0]"];
4 -> 5 [label="[1,1]"];
6 -> 5 [label="[0,0]"];
2 -> 6 [label="[1,0]"];
8 -> 6 [label="[0,1] [1,0]"];
3 -> 7 [label="[0,1] [1,0]"];
3 -> 8 [label="[1,1]"];
4 -> 8 [label="[0,0]"];
}
