digraph "FSA Utilities" { nodesep=0.3; center=true;start0 [shape=plaintext,label=""];
start0 -> 0 [label=""];0 [style=filled,shape=circle,color=olivedrab1,peripheries=1];
1 [style=filled,shape=circle,color=lightblue1,peripheries=1];
2 [style=filled,shape=circle,color=lightblue1,peripheries=1];
3 [style=filled,shape=circle,color=lightblue1,peripheries=1];
4 [style=filled,shape=circle,color=tomato1,peripheries=2];
5 [style=filled,shape=circle,color=tomato1,peripheries=2];
6 [style=filled,shape=circle,color=lightblue1,peripheries=1];
7 [style=filled,shape=circle,color=lightblue1,peripheries=1];
8 [style=filled,shape=circle,color=lightblue1,peripheries=1];
9 [style=filled,shape=circle,color=lightblue1,peripheries=1];
10 [style=filled,shape=circle,color=tomato1,peripheries=2];
11 [style=filled,shape=circle,color=tomato1,peripheries=2];
12 [style=filled,shape=circle,color=tomato1,peripheries=2];
13 [style=filled,shape=circle,color=tomato1,peripheries=2];
14 [style=filled,shape=circle,color=tomato1,peripheries=2];
15 [style=filled,shape=circle,color=lightblue1,peripheries=1];
16 [style=filled,shape=circle,color=lightblue1,peripheries=1];
17 [style=filled,shape=circle,color=lightblue1,peripheries=1];
18 [style=filled,shape=circle,color=lightblue1,peripheries=1];
19 [style=filled,shape=circle,color=lightblue1,peripheries=1];
20 [style=filled,shape=circle,color=tomato1,peripheries=2];
21 [style=filled,shape=circle,color=lightblue1,peripheries=1];
0 -> 0 [label="[0,0,0]"];
0 -> 1 [label="[0,0,1]"];
0 -> 2 [label="[0,1,0]"];
0 -> 3 [label="[0,1,1]"];
0 -> 4 [label="[1,0,1]"];
0 -> 5 [label="[1,1,1]"];
1 -> 6 [label="[1,0,0]"];
5 -> 6 [label="[0,1,1]"];
7 -> 6 [label="[1,0,0]"];
14 -> 6 [label="[0,1,1]"];
16 -> 6 [label="[1,0,0]"];
21 -> 6 [label="[0,1,1]"];
1 -> 7 [label="[1,1,0]"];
4 -> 7 [label="[0,1,1]"];
15 -> 7 [label="[0,1,1]"];
2 -> 8 [label="[0,0,1]"];
15 -> 8 [label="[0,0,1]"];
2 -> 9 [label="[1,0,1]"];
4 -> 9 [label="[1,0,1]"];
12 -> 9 [label="[0,0,0]"];
15 -> 9 [label="[1,0,1]"];
3 -> 10 [label="[1,0,0]"];
9 -> 10 [label="[0,1,1]"];
10 -> 10 [label="[0,0,0] [0,0,1] [0,1,0] [0,1,1]"];
11 -> 10 [label="[0,0,0]"];
12 -> 10 [label="[0,0,1] [0,1,1]"];
13 -> 10 [label="[0,0,0]"];
16 -> 10 [label="[1,1,0]"];
18 -> 10 [label="[0,1,1]"];
20 -> 10 [label="[0,0,1]"];
3 -> 11 [label="[1,0,1]"];
7 -> 11 [label="[1,1,0]"];
11 -> 11 [label="[0,0,1] [0,1,0]"];
13 -> 11 [label="[0,0,1] [0,1,0]"];
14 -> 11 [label="[0,0,1]"];
16 -> 11 [label="[1,1,1]"];
17 -> 11 [label="[1,1,1]"];
4 -> 12 [label="[0,0,0]"];
5 -> 12 [label="[1,1,1]"];
14 -> 12 [label="[0,0,0] [1,1,1]"];
20 -> 12 [label="[0,0,0]"];
21 -> 12 [label="[1,1,1]"];
4 -> 13 [label="[0,0,1]"];
6 -> 13 [label="[1,0,0]"];
4 -> 14 [label="[0,1,0] [1,1,1]"];
15 -> 14 [label="[1,1,1]"];
5 -> 15 [label="[0,1,0] [1,0,1]"];
14 -> 15 [label="[0,1,0] [1,0,1]"];
21 -> 15 [label="[0,1,0] [1,0,1]"];
6 -> 16 [label="[1,1,0]"];
8 -> 17 [label="[1,1,0]"];
13 -> 17 [label="[1,1,0]"];
9 -> 18 [label="[0,0,1]"];
17 -> 18 [label="[1,1,0]"];
18 -> 18 [label="[0,0,1] [0,1,0]"];
19 -> 18 [label="[0,0,1] [0,1,1]"];
20 -> 18 [label="[0,1,1]"];
9 -> 19 [label="[0,1,0]"];
12 -> 20 [label="[0,1,0]"];
15 -> 21 [label="[0,1,0]"];
}
