digraph "FSA Utilities" { nodesep=0.3; center=true;start0 [shape=plaintext,label=""];
start0 -> 0 [label=""];0 [style=filled,shape=circle,color=olivedrab1,peripheries=1];
1 [style=filled,shape=circle,color=lightblue1,peripheries=1];
2 [style=filled,shape=circle,color=lightblue1,peripheries=1];
3 [style=filled,shape=circle,color=lightblue1,peripheries=1];
4 [style=filled,shape=circle,color=lightblue1,peripheries=1];
5 [style=filled,shape=circle,color=lightblue1,peripheries=1];
6 [style=filled,shape=circle,color=lightblue1,peripheries=1];
7 [style=filled,shape=circle,color=tomato1,peripheries=2];
8 [style=filled,shape=circle,color=lightblue1,peripheries=1];
9 [style=filled,shape=circle,color=lightblue1,peripheries=1];
10 [style=filled,shape=circle,color=lightblue1,peripheries=1];
11 [style=filled,shape=circle,color=lightblue1,peripheries=1];
12 [style=filled,shape=circle,color=lightblue1,peripheries=1];
13 [style=filled,shape=circle,color=lightblue1,peripheries=1];
14 [style=filled,shape=circle,color=tomato1,peripheries=2];
15 [style=filled,shape=circle,color=lightblue1,peripheries=1];
16 [style=filled,shape=circle,color=tomato1,peripheries=2];
17 [style=filled,shape=circle,color=tomato1,peripheries=2];
18 [style=filled,shape=circle,color=tomato1,peripheries=2];
19 [style=filled,shape=circle,color=tomato1,peripheries=2];
20 [style=filled,shape=circle,color=lightblue1,peripheries=1];
21 [style=filled,shape=circle,color=lightblue1,peripheries=1];
22 [style=filled,shape=circle,color=lightblue1,peripheries=1];
23 [style=filled,shape=circle,color=lightblue1,peripheries=1];
24 [style=filled,shape=circle,color=tomato1,peripheries=2];
25 [style=filled,shape=circle,color=lightblue1,peripheries=1];
26 [style=filled,shape=circle,color=tomato1,peripheries=2];
27 [style=filled,shape=circle,color=tomato1,peripheries=2];
28 [style=filled,shape=circle,color=tomato1,peripheries=2];
29 [style=filled,shape=circle,color=tomato1,peripheries=2];
0 -> 0 [label="[0,0,0]"];
2 -> 0 [label="[0,0,0] [0,1,0]"];
0 -> 1 [label="[0,0,1]"];
0 -> 2 [label="[0,1,0]"];
0 -> 3 [label="[0,1,1]"];
0 -> 4 [label="[1,0,1]"];
5 -> 4 [label="[1,0,1]"];
11 -> 4 [label="[0,1,0]"];
13 -> 4 [label="[1,0,1]"];
0 -> 5 [label="[1,1,1]"];
4 -> 5 [label="[1,1,1]"];
13 -> 5 [label="[1,1,1]"];
15 -> 5 [label="[0,1,0]"];
1 -> 6 [label="[1,0,0]"];
7 -> 6 [label="[1,0,0]"];
8 -> 6 [label="[1,0,0]"];
11 -> 6 [label="[0,1,1]"];
14 -> 6 [label="[1,0,0]"];
17 -> 6 [label="[1,0,0]"];
19 -> 6 [label="[1,0,0]"];
24 -> 6 [label="[1,0,0]"];
29 -> 6 [label="[1,0,0]"];
1 -> 7 [label="[1,1,0]"];
14 -> 7 [label="[1,1,0]"];
15 -> 7 [label="[0,1,1]"];
24 -> 7 [label="[1,1,0]"];
2 -> 8 [label="[0,0,1] [0,1,1]"];
2 -> 9 [label="[1,0,1] [1,1,1]"];
4 -> 9 [label="[0,0,0]"];
9 -> 9 [label="[0,0,0]"];
11 -> 9 [label="[0,0,0] [1,1,1]"];
15 -> 9 [label="[1,0,1]"];
21 -> 9 [label="[0,0,0] [0,1,0]"];
25 -> 9 [label="[1,0,1] [1,1,1]"];
3 -> 10 [label="[1,0,0] [1,1,0]"];
4 -> 10 [label="[0,0,1]"];
9 -> 10 [label="[0,0,1]"];
11 -> 10 [label="[0,0,1]"];
12 -> 10 [label="[1,1,0]"];
16 -> 10 [label="[1,0,0]"];
21 -> 10 [label="[0,0,1] [0,1,1]"];
26 -> 10 [label="[1,0,0] [1,1,0]"];
4 -> 11 [label="[0,1,0]"];
9 -> 11 [label="[1,1,1]"];
15 -> 11 [label="[1,1,1]"];
4 -> 12 [label="[0,1,1]"];
10 -> 12 [label="[1,1,0]"];
16 -> 12 [label="[1,1,0]"];
4 -> 13 [label="[1,0,1]"];
5 -> 13 [label="[0,0,0] [1,1,1]"];
13 -> 13 [label="[0,0,0]"];
15 -> 13 [label="[0,0,0]"];
21 -> 13 [label="[1,0,1] [1,1,1]"];
25 -> 13 [label="[0,0,0] [0,1,0]"];
5 -> 14 [label="[0,0,1]"];
7 -> 14 [label="[1,1,0]"];
22 -> 14 [label="[1,1,0]"];
5 -> 15 [label="[0,1,0]"];
9 -> 15 [label="[1,0,1]"];
11 -> 15 [label="[1,0,1]"];
5 -> 16 [label="[0,1,1]"];
10 -> 16 [label="[1,0,0]"];
12 -> 16 [label="[1,0,0]"];
6 -> 17 [label="[1,0,0]"];
15 -> 17 [label="[0,0,1]"];
6 -> 18 [label="[1,0,1]"];
7 -> 18 [label="[0,0,0] [1,1,1]"];
14 -> 18 [label="[0,1,1]"];
16 -> 18 [label="[0,0,0]"];
17 -> 18 [label="[0,1,1]"];
18 -> 18 [label="[0,0,0]"];
19 -> 18 [label="[0,0,0]"];
20 -> 18 [label="[1,1,0]"];
22 -> 18 [label="[1,1,1]"];
23 -> 18 [label="[1,0,0]"];
28 -> 18 [label="[0,1,1]"];
6 -> 19 [label="[1,1,0]"];
8 -> 19 [label="[1,1,0]"];
17 -> 19 [label="[1,1,0]"];
29 -> 19 [label="[1,1,0]"];
6 -> 20 [label="[1,1,1]"];
8 -> 20 [label="[1,1,1]"];
17 -> 20 [label="[1,1,1]"];
29 -> 20 [label="[1,1,1]"];
9 -> 21 [label="[0,1,0]"];
9 -> 22 [label="[0,1,1]"];
10 -> 23 [label="[0,1,0]"];
13 -> 24 [label="[0,0,1]"];
13 -> 25 [label="[0,1,0]"];
13 -> 26 [label="[0,1,1]"];
14 -> 27 [label="[0,0,0]"];
17 -> 27 [label="[0,0,0]"];
24 -> 27 [label="[0,0,0] [0,0,1] [0,1,0] [0,1,1]"];
26 -> 27 [label="[0,0,0] [0,0,1] [0,1,0] [0,1,1]"];
27 -> 27 [label="[0,0,0] [0,0,1] [0,1,0] [0,1,1]"];
28 -> 27 [label="[0,0,0]"];
29 -> 27 [label="[0,0,0] [0,0,1] [0,1,0] [0,1,1]"];
14 -> 28 [label="[0,0,1] [0,1,0]"];
17 -> 28 [label="[0,0,1] [0,1,0]"];
19 -> 28 [label="[1,1,1]"];
22 -> 28 [label="[1,0,1]"];
28 -> 28 [label="[0,0,1] [0,1,0]"];
19 -> 29 [label="[1,1,0]"];
22 -> 29 [label="[1,0,0]"];
25 -> 29 [label="[0,0,1] [0,1,1]"];
}
