digraph "FSA Utilities" { nodesep=0.3; center=true;start0 [shape=plaintext,label=""];
start0 -> 0 [label=""];0 [style=filled,shape=circle,color=orchid,peripheries=2];
1 [style=filled,shape=circle,color=tomato1,peripheries=2];
2 [style=filled,shape=circle,color=tomato1,peripheries=2];
3 [style=filled,shape=circle,color=tomato1,peripheries=2];
4 [style=filled,shape=circle,color=tomato1,peripheries=2];
5 [style=filled,shape=circle,color=tomato1,peripheries=2];
6 [style=filled,shape=circle,color=lightblue1,peripheries=1];
7 [style=filled,shape=circle,color=tomato1,peripheries=2];
0 -> 1 [label="b"];
1 -> 2 [label="b"];
2 -> 3 [label="a"];
3 -> 4 [label="a b"];
4 -> 5 [label="a b"];
5 -> 6 [label="a"];
5 -> 7 [label="b"];
6 -> 7 [label="a"];
}
