Starting log at:Monday 6th of January 2014 09:17:36 PM
   [> n 0] (3 => 2 states) in 0.122s
   [= 2*m 3*n] (18 => 4 states) in 0.354s
  [\and ] (5 => 5 states) in 0.079s
      [>= i0 m-n] (6 => 4 states) in 1.893s
      [\out= i+i0 i+n+i0] (16 => 16 states) in 10.916s
     [\or ] (56 => 56 states) in 13.325s
    [\not ] (57 => 56 states) in 14.241s
   [\exists i0] (56 => 49 states) in 22.475s
  [\not ] (50 => 48 states) in 1.701s
 [\and ] (7 => 7 states) in 0.069s
[\exists m] (7 => 6 states) in 0.022s
[total] (6 states) in 1m10.708s
