digraph "FSA Utilities" { nodesep=0.3; center=true;start0 [shape=plaintext,label=""];
start0 -> 0 [label=""];0 [style=filled,shape=circle,color=olivedrab1,peripheries=1];
1 [style=filled,shape=circle,color=tomato1,peripheries=2];
0 -> 0 [label="[0,0] [0,1]"];
0 -> 1 [label="[1,0] [1,1]"];
1 -> 1 [label="[0,0] [0,1] [1,0] [1,1]"];
}
