digraph "FSA Utilities" { nodesep=0.3; center=true;start0 [shape=plaintext,label=""];
start0 -> 0 [label=""];0 [style=filled,shape=circle,color=olivedrab1,peripheries=1];
1 [style=filled,shape=circle,color=tomato1,peripheries=2];
2 [style=filled,shape=circle,color=lightblue1,peripheries=1];
3 [style=filled,shape=circle,color=lightblue1,peripheries=1];
4 [style=filled,shape=circle,color=lightblue1,peripheries=1];
5 [style=filled,shape=circle,color=tomato1,peripheries=2];
6 [style=filled,shape=circle,color=lightblue1,peripheries=1];
7 [style=filled,shape=circle,color=lightblue1,peripheries=1];
8 [style=filled,shape=circle,color=lightblue1,peripheries=1];
9 [style=filled,shape=circle,color=lightblue1,peripheries=1];
10 [style=filled,shape=circle,color=lightblue1,peripheries=1];
11 [style=filled,shape=circle,color=lightblue1,peripheries=1];
12 [style=filled,shape=circle,color=lightblue1,peripheries=1];
13 [style=filled,shape=circle,color=lightblue1,peripheries=1];
14 [style=filled,shape=circle,color=lightblue1,peripheries=1];
15 [style=filled,shape=circle,color=lightblue1,peripheries=1];
16 [style=filled,shape=circle,color=lightblue1,peripheries=1];
17 [style=filled,shape=circle,color=tomato1,peripheries=2];
0 -> 0 [label="[0,0]"];
0 -> 1 [label="[0,1]"];
0 -> 2 [label="[1,1]"];
6 -> 2 [label="[0,0]"];
12 -> 2 [label="[1,1]"];
1 -> 3 [label="[0,0]"];
1 -> 4 [label="[0,1]"];
1 -> 5 [label="[1,0]"];
2 -> 5 [label="[0,0]"];
6 -> 5 [label="[1,0]"];
12 -> 5 [label="[1,0]"];
13 -> 5 [label="[0,1]"];
1 -> 6 [label="[1,1]"];
3 -> 7 [label="[1,0]"];
3 -> 8 [label="[1,1]"];
4 -> 9 [label="[1,0]"];
8 -> 9 [label="[0,0]"];
4 -> 10 [label="[1,1]"];
8 -> 10 [label="[0,1]"];
10 -> 10 [label="[1,1]"];
12 -> 10 [label="[0,1]"];
14 -> 10 [label="[0,1]"];
7 -> 11 [label="[0,0]"];
9 -> 11 [label="[1,0]"];
7 -> 12 [label="[0,1]"];
7 -> 13 [label="[1,1]"];
9 -> 14 [label="[1,1]"];
11 -> 14 [label="[0,1]"];
15 -> 14 [label="[1,1]"];
16 -> 14 [label="[0,1]"];
17 -> 14 [label="[0,1]"];
10 -> 15 [label="[1,0]"];
12 -> 15 [label="[0,0]"];
14 -> 15 [label="[0,0]"];
11 -> 16 [label="[0,0]"];
15 -> 17 [label="[1,0]"];
16 -> 17 [label="[0,0]"];
17 -> 17 [label="[0,0]"];
}
