Starting log at:Thursday 15th of August 2013 06:32:02 PM
      [>= l j] (3 => 2 states) in 0.076s
      [> j+n l] (6 => 3 states) in 0.114s
     [\and ] (4 => 4 states) in 0.224s
         [>= i0 n] (3 => 2 states) in 0.237s
         [\out= i+i0 j+i0] (24 => 13 states) in 4.218s
        [\or ] (27 => 27 states) in 3.864s
       [\not ] (28 => 26 states) in 3.805s
      [\exists i0] (26 => 15 states) in 1.444s
     [\not ] (16 => 14 states) in 0.359s
    [\and ] (27 => 27 states) in 0.317s
   [\exists j] (27 => 55 states) in 0.198s
  [\not ] (56 => 55 states) in 0.391s
 [\exists l] (55 => 1 states) in 0.071s
[\not ] (2 => 1 states) in 0.069s
[total] (1 states) in 16.384s
