Starting log at:Thursday 15th of August 2013 06:24:19 PM
      [>= l j] (3 => 2 states) in 0.076s
      [> j+n l] (6 => 3 states) in 0.111s
     [\and ] (4 => 4 states) in 0.200s
         [>= i0 n] (3 => 2 states) in 0.240s
         [\out= i+i0 j+i0] (24 => 13 states) in 4.170s
        [\or ] (27 => 27 states) in 3.776s
       [\not ] (28 => 26 states) in 3.863s
      [\exists i0] (26 => 30 states) in 1.794s
     [\not ] (31 => 29 states) in 0.705s
    [\and ] (44 => 44 states) in 0.452s
   [\exists j] (44 => 79 states) in 0.290s
  [\not ] (80 => 79 states) in 0.562s
 [\exists l] (79 => 1 states) in 0.087s
[\not ] (2 => 1 states) in 0.070s
[total] (1 states) in 17.534s
