Starting log at:Thursday 15th of August 2013 06:34:11 PM
      [>= l j] (3 => 2 states) in 0.077s
      [> j+n l] (6 => 3 states) in 0.111s
     [\and ] (4 => 4 states) in 0.207s
         [>= i0 n] (3 => 2 states) in 0.246s
         [\out= i+i0 j+i0] (24 => 13 states) in 4.305s
        [\or ] (27 => 27 states) in 3.813s
       [\not ] (28 => 26 states) in 3.810s
      [\exists i0] (26 => 37 states) in 2.352s
     [\not ] (38 => 36 states) in 0.857s
    [\and ] (54 => 54 states) in 0.436s
   [\exists j] (54 => 118 states) in 0.409s
  [\not ] (119 => 118 states) in 0.843s
 [\exists l] (118 => 1 states) in 0.118s
[\not ] (2 => 1 states) in 0.076s
[total] (1 states) in 18.825s
