Starting log at:Thursday 15th of August 2013 06:37:16 PM
      [>= l j] (3 => 2 states) in 0.086s
      [> j+n l] (6 => 3 states) in 0.111s
     [\and ] (4 => 4 states) in 0.201s
         [>= i0 n] (3 => 2 states) in 0.242s
         [\out= i+i0 j+i0] (28 => 17 states) in 5.301s
        [\or ] (35 => 35 states) in 5.056s
       [\not ] (36 => 34 states) in 5.172s
      [\exists i0] (34 => 86 states) in 4.753s
     [\not ] (87 => 85 states) in 2.096s
    [\and ] (135 => 135 states) in 1.111s
   [\exists j] (135 => 1082 states) in 1.640s
  [\not ] (1083 => 1082 states) in 4.026s
 [\exists l] (1082 => 1 states) in 1.038s
[\not ] (2 => 1 states) in 0.071s
[total] (1 states) in 33.799s
