Starting log at:Thursday 15th of August 2013 06:47:22 PM
      [>= l j] (3 => 2 states) in 0.076s
      [> j+n l] (6 => 3 states) in 0.131s
     [\and ] (4 => 4 states) in 0.198s
         [>= i0 n] (3 => 2 states) in 0.246s
         [\out= i+i0 j+i0] (22 => 11 states) in 3.609s
        [\or ] (23 => 23 states) in 3.192s
       [\not ] (24 => 22 states) in 2.976s
      [\exists i0] (22 => 22 states) in 0.710s
     [\not ] (23 => 21 states) in 0.535s
    [\and ] (60 => 60 states) in 0.633s
   [\exists j] (60 => 88 states) in 0.386s
  [\not ] (89 => 88 states) in 0.634s
 [\exists l] (88 => 1 states) in 0.103s
[\not ] (2 => 1 states) in 0.066s
[total] (1 states) in 14.378s
