Starting log at:Monday 5th of August 2013 05:31:51 PM
    [\machine ] (9 => 9 states) in 0.013s
    [>= n 0] (3 => 1 states) in 0.012s
   [\and ] (9 => 9 states) in 0.024s
    [\machine ] (8 => 5 states) in 0.014s
    [= 11*t+n m+1] (72 => 13 states) in 0.059s
   [\and ] (9 => 9 states) in 0.021s
  [\and ] (9 => 9 states) in 0.020s
 [\exists m] (9 => 5 states) in 0.010s
[\exists t] (5 => 3 states) in 0.009s
[total] (3 states) in 0.199s
