digraph "FSA Utilities" { nodesep=0.3; center=true;start0 [shape=plaintext,label=""];
start0 -> 0 [label=""];0 [style=filled,shape=circle,color=olivedrab1,peripheries=1];
1 [style=filled,shape=circle,color=tomato1,peripheries=2];
2 [style=filled,shape=circle,color=lightblue1,peripheries=1];
3 [style=filled,shape=circle,color=lightblue1,peripheries=1];
4 [style=filled,shape=circle,color=tomato1,peripheries=2];
5 [style=filled,shape=circle,color=lightblue1,peripheries=1];
6 [style=filled,shape=circle,color=lightblue1,peripheries=1];
7 [style=filled,shape=circle,color=lightblue1,peripheries=1];
8 [style=filled,shape=circle,color=tomato1,peripheries=2];
9 [style=filled,shape=circle,color=tomato1,peripheries=2];
10 [style=filled,shape=circle,color=lightblue1,peripheries=1];
11 [style=filled,shape=circle,color=lightblue1,peripheries=1];
12 [style=filled,shape=circle,color=lightblue1,peripheries=1];
0 -> 0 [label="[0,0]"];
0 -> 1 [label="[0,1]"];
0 -> 2 [label="[1,1]"];
1 -> 3 [label="[0,1]"];
1 -> 4 [label="[1,0]"];
6 -> 4 [label="[1,0]"];
1 -> 5 [label="[1,1]"];
2 -> 5 [label="[0,1]"];
8 -> 5 [label="[0,0] [1,0]"];
11 -> 5 [label="[1,0]"];
12 -> 5 [label="[0,0] [1,0]"];
2 -> 6 [label="[1,1]"];
9 -> 6 [label="[0,0]"];
3 -> 7 [label="[1,0]"];
5 -> 8 [label="[0,0] [1,0]"];
6 -> 9 [label="[0,0]"];
7 -> 10 [label="[1,0]"];
11 -> 10 [label="[0,0]"];
10 -> 11 [label="[0,0]"];
10 -> 12 [label="[1,0]"];
}
