digraph "FSA Utilities" { nodesep=0.3; center=true;start0 [shape=plaintext,label=""];
start0 -> 0 [label=""];0 [style=filled,shape=circle,color=olivedrab1,peripheries=1];
1 [style=filled,shape=circle,color=lightblue1,peripheries=1];
2 [style=filled,shape=circle,color=tomato1,peripheries=2];
3 [style=filled,shape=circle,color=tomato1,peripheries=2];
4 [style=filled,shape=circle,color=lightblue1,peripheries=1];
5 [style=filled,shape=circle,color=lightblue1,peripheries=1];
6 [style=filled,shape=circle,color=lightblue1,peripheries=1];
7 [style=filled,shape=circle,color=tomato1,peripheries=2];
8 [style=filled,shape=circle,color=tomato1,peripheries=2];
9 [style=filled,shape=circle,color=tomato1,peripheries=2];
10 [style=filled,shape=circle,color=tomato1,peripheries=2];
11 [style=filled,shape=circle,color=tomato1,peripheries=2];
12 [style=filled,shape=circle,color=lightblue1,peripheries=1];
13 [style=filled,shape=circle,color=tomato1,peripheries=2];
14 [style=filled,shape=circle,color=tomato1,peripheries=2];
15 [style=filled,shape=circle,color=lightblue1,peripheries=1];
16 [style=filled,shape=circle,color=lightblue1,peripheries=1];
17 [style=filled,shape=circle,color=lightblue1,peripheries=1];
18 [style=filled,shape=circle,color=tomato1,peripheries=2];
19 [style=filled,shape=circle,color=tomato1,peripheries=2];
0 -> 0 [label="[0,0]"];
0 -> 1 [label="[0,1]"];
0 -> 2 [label="[1,0]"];
0 -> 3 [label="[1,1]"];
1 -> 4 [label="[0,0]"];
1 -> 5 [label="[1,0]"];
1 -> 6 [label="[1,1]"];
4 -> 6 [label="[1,0]"];
15 -> 6 [label="[0,0]"];
2 -> 7 [label="[0,0]"];
2 -> 8 [label="[0,1]"];
5 -> 8 [label="[0,1]"];
2 -> 9 [label="[1,0]"];
5 -> 9 [label="[1,0]"];
2 -> 10 [label="[1,1]"];
5 -> 10 [label="[1,1]"];
7 -> 10 [label="[0,1] [1,1]"];
11 -> 10 [label="[0,0] [0,1] [1,0] [1,1]"];
12 -> 10 [label="[0,1] [1,0]"];
13 -> 10 [label="[0,0] [0,1] [1,0]"];
16 -> 10 [label="[0,1] [1,1]"];
3 -> 11 [label="[0,0]"];
3 -> 12 [label="[0,1]"];
15 -> 12 [label="[1,0]"];
3 -> 13 [label="[1,0]"];
3 -> 14 [label="[1,1]"];
8 -> 14 [label="[0,0]"];
4 -> 15 [label="[1,1]"];
5 -> 16 [label="[0,0]"];
6 -> 17 [label="[1,1]"];
12 -> 17 [label="[0,0]"];
15 -> 17 [label="[1,1]"];
7 -> 18 [label="[0,0]"];
8 -> 18 [label="[0,1] [1,0]"];
9 -> 18 [label="[0,1]"];
12 -> 18 [label="[1,1]"];
13 -> 18 [label="[1,1]"];
14 -> 18 [label="[0,0]"];
7 -> 19 [label="[1,0]"];
8 -> 19 [label="[1,1]"];
9 -> 19 [label="[0,0] [1,0] [1,1]"];
10 -> 19 [label="[0,0] [0,1] [1,0] [1,1]"];
14 -> 19 [label="[0,1] [1,0] [1,1]"];
16 -> 19 [label="[1,0]"];
17 -> 19 [label="[0,1] [1,0] [1,1]"];
18 -> 19 [label="[0,0]"];
}
