digraph "FSA Utilities" { nodesep=0.3; center=true;start0 [shape=plaintext,label=""];
start0 -> 0 [label=""];0 [style=filled,shape=circle,color=olivedrab1,peripheries=1];
1 [style=filled,shape=circle,color=tomato1,peripheries=2];
2 [style=filled,shape=circle,color=lightblue1,peripheries=1];
3 [style=filled,shape=circle,color=tomato1,peripheries=2];
4 [style=filled,shape=circle,color=tomato1,peripheries=2];
5 [style=filled,shape=circle,color=tomato1,peripheries=2];
6 [style=filled,shape=circle,color=tomato1,peripheries=2];
7 [style=filled,shape=circle,color=tomato1,peripheries=2];
8 [style=filled,shape=circle,color=tomato1,peripheries=2];
9 [style=filled,shape=circle,color=tomato1,peripheries=2];
10 [style=filled,shape=circle,color=tomato1,peripheries=2];
11 [style=filled,shape=circle,color=tomato1,peripheries=2];
12 [style=filled,shape=circle,color=tomato1,peripheries=2];
0 -> 0 [label="[0,0]"];
2 -> 0 [label="[0,0] [1,0]"];
0 -> 1 [label="[0,1]"];
2 -> 1 [label="[0,1] [1,1]"];
0 -> 2 [label="[1,0]"];
0 -> 3 [label="[1,1]"];
1 -> 4 [label="[0,0]"];
1 -> 5 [label="[0,1]"];
1 -> 6 [label="[1,0]"];
1 -> 7 [label="[1,1]"];
4 -> 7 [label="[1,0] [1,1]"];
8 -> 7 [label="[0,0] [0,1] [1,0] [1,1]"];
9 -> 7 [label="[0,0] [0,1] [1,0]"];
3 -> 8 [label="[0,0]"];
3 -> 9 [label="[0,1] [1,0]"];
3 -> 10 [label="[1,1]"];
6 -> 10 [label="[0,0]"];
4 -> 11 [label="[0,0]"];
5 -> 11 [label="[1,0]"];
6 -> 11 [label="[0,1] [1,0]"];
9 -> 11 [label="[1,1]"];
10 -> 11 [label="[0,0]"];
4 -> 12 [label="[0,1]"];
5 -> 12 [label="[0,0] [0,1] [1,1]"];
6 -> 12 [label="[1,1]"];
7 -> 12 [label="[0,0] [0,1] [1,0] [1,1]"];
10 -> 12 [label="[0,1] [1,0] [1,1]"];
11 -> 12 [label="[0,0]"];
}
