digraph "FSA Utilities" { nodesep=0.3; center=true;start0 [shape=plaintext,label=""];
start0 -> 0 [label=""];0 [style=filled,shape=circle,color=olivedrab1,peripheries=1];
1 [style=filled,shape=circle,color=lightblue1,peripheries=1];
2 [style=filled,shape=circle,color=lightblue1,peripheries=1];
3 [style=filled,shape=circle,color=lightblue1,peripheries=1];
4 [style=filled,shape=circle,color=lightblue1,peripheries=1];
5 [style=filled,shape=circle,color=lightblue1,peripheries=1];
6 [style=filled,shape=circle,color=tomato1,peripheries=2];
7 [style=filled,shape=circle,color=lightblue1,peripheries=1];
8 [style=filled,shape=circle,color=tomato1,peripheries=2];
9 [style=filled,shape=circle,color=lightblue1,peripheries=1];
10 [style=filled,shape=circle,color=lightblue1,peripheries=1];
11 [style=filled,shape=circle,color=tomato1,peripheries=2];
12 [style=filled,shape=circle,color=lightblue1,peripheries=1];
13 [style=filled,shape=circle,color=lightblue1,peripheries=1];
14 [style=filled,shape=circle,color=lightblue1,peripheries=1];
15 [style=filled,shape=circle,color=lightblue1,peripheries=1];
16 [style=filled,shape=circle,color=lightblue1,peripheries=1];
17 [style=filled,shape=circle,color=lightblue1,peripheries=1];
18 [style=filled,shape=circle,color=lightblue1,peripheries=1];
19 [style=filled,shape=circle,color=lightblue1,peripheries=1];
20 [style=filled,shape=circle,color=tomato1,peripheries=2];
21 [style=filled,shape=circle,color=lightblue1,peripheries=1];
22 [style=filled,shape=circle,color=lightblue1,peripheries=1];
23 [style=filled,shape=circle,color=lightblue1,peripheries=1];
24 [style=filled,shape=circle,color=tomato1,peripheries=2];
0 -> 1 [label="[0,0]"];
0 -> 2 [label="[0,1]"];
0 -> 3 [label="[1,0]"];
0 -> 4 [label="[1,1]"];
1 -> 5 [label="[0,0]"];
1 -> 6 [label="[0,1]"];
1 -> 7 [label="[1,0]"];
1 -> 8 [label="[1,1]"];
2 -> 9 [label="[0,1]"];
6 -> 9 [label="[0,1]"];
7 -> 9 [label="[0,1]"];
13 -> 9 [label="[0,1]"];
16 -> 9 [label="[0,0]"];
17 -> 9 [label="[0,1]"];
19 -> 9 [label="[0,0]"];
21 -> 9 [label="[0,0]"];
23 -> 9 [label="[0,0]"];
2 -> 10 [label="[1,0]"];
3 -> 11 [label="[0,1]"];
24 -> 11 [label="[0,0]"];
3 -> 12 [label="[1,0]"];
4 -> 13 [label="[0,0]"];
4 -> 14 [label="[0,1]"];
4 -> 15 [label="[1,0]"];
8 -> 15 [label="[1,0]"];
15 -> 15 [label="[1,0]"];
19 -> 15 [label="[1,0]"];
4 -> 16 [label="[1,1]"];
5 -> 17 [label="[0,0]"];
17 -> 17 [label="[0,0]"];
5 -> 18 [label="[1,0]"];
17 -> 18 [label="[1,0]"];
5 -> 19 [label="[1,1]"];
14 -> 19 [label="[1,0]"];
17 -> 19 [label="[1,1]"];
21 -> 19 [label="[1,0]"];
6 -> 20 [label="[0,0]"];
7 -> 20 [label="[1,1]"];
8 -> 20 [label="[0,0]"];
9 -> 20 [label="[1,0]"];
11 -> 20 [label="[0,0] [1,0]"];
12 -> 20 [label="[0,1]"];
16 -> 20 [label="[1,0]"];
20 -> 20 [label="[0,0]"];
8 -> 21 [label="[0,1]"];
14 -> 21 [label="[0,1]"];
15 -> 21 [label="[0,1]"];
19 -> 21 [label="[0,1]"];
21 -> 21 [label="[0,1]"];
8 -> 22 [label="[1,1]"];
14 -> 22 [label="[1,1]"];
15 -> 22 [label="[1,1]"];
19 -> 22 [label="[1,1]"];
21 -> 22 [label="[1,1]"];
10 -> 23 [label="[1,1]"];
16 -> 23 [label="[1,1]"];
18 -> 24 [label="[1,1]"];
22 -> 24 [label="[1,0]"];
}
