digraph "FSA Utilities" { nodesep=0.3; center=true;start0 [shape=plaintext,label=""];
start0 -> 0 [label=""];0 [style=filled,shape=circle,color=orchid,peripheries=2];
1 [style=filled,shape=circle,color=lightblue1,peripheries=1];
2 [style=filled,shape=circle,color=lightblue1,peripheries=1];
3 [style=filled,shape=circle,color=tomato1,peripheries=2];
4 [style=filled,shape=circle,color=lightblue1,peripheries=1];
0 -> 0 [label="0"];
3 -> 0 [label="0"];
0 -> 1 [label="1"];
1 -> 1 [label="1"];
4 -> 1 [label="1"];
1 -> 2 [label="0"];
2 -> 3 [label="0"];
4 -> 3 [label="0"];
2 -> 4 [label="1"];
3 -> 4 [label="1"];
}
