  [> p 0] (3 => 2 states) in 0.019s
      [> m j] (3 => 2 states) in 0.018s
      [\out= j j+p] (7 => 6 states) in 0.064s
     [\or ] (10 => 10 states) in 0.050s
    [\not ] (11 => 9 states) in 0.048s
   [\exists j] (9 => 2 states) in 0.019s
  [\not ] (3 => 1 states) in 0.028s
 [\and ] (1 => 1 states) in 0.028s
[\exists m] (1 => 1 states) in 0.012s
[total] (1 states) in 0.315s
[total] (1 states) in 0.345s
[total] (1 states) in 0.355s
[total] (1 states) in 0.377s
[total] (1 states) in 0.354s
[total] (1 states) in 0.362s
[total] (1 states) in 0.350s
[total] (1 states) in 0.345s
[total] (1 states) in 0.354s
[total] (1 states) in 0.368s
[total] (1 states) in 0.355s
