Starting log at:Thursday 15th of August 2013 06:42:00 PM
 [> p 0] (3 => 2 states) in 0.033s
    [\out= j j+p] (11 => 8 states) in 0.107s
   [\not ] (10 => 8 states) in 0.082s
  [\exists j] (8 => 2 states) in 0.035s
 [\not ] (3 => 1 states) in 0.046s
[\and ] (1 => 1 states) in 0.053s
[total] (1 states) in 0.383s
