  [> p 0] (3 => 2 states) in 0.220s
      [> m j] (3 => 2 states) in 0.193s
      [\out= j j+p] (4 => 2 states) in 0.480s
     [\or ] (4 => 4 states) in 0.422s
    [\not ] (5 => 4 states) in 0.431s
   [\exists j] (4 => 2 states) in 0.202s
  [\not ] (3 => 2 states) in 0.416s
 [\and ] (3 => 3 states) in 0.405s
[\exists m] (3 => 3 states) in 0.223s
[total] (3 states) in 3.219s
