Starting log at:Thursday 15th of August 2013 06:26:47 PM
 [> p 0] (3 => 2 states) in 0.031s
    [\out= j j+p] (11 => 8 states) in 0.082s
   [\not ] (10 => 8 states) in 0.060s
  [\exists j] (8 => 2 states) in 0.026s
 [\not ] (3 => 1 states) in 0.055s
[\and ] (1 => 1 states) in 0.061s
[total] (1 states) in 0.347s
