Starting log at:Thursday 15th of August 2013 06:39:30 PM
 [> p 0] (3 => 2 states) in 0.027s
    [\out= j j+p] (7 => 6 states) in 0.084s
   [\not ] (8 => 6 states) in 0.085s
  [\exists j] (6 => 2 states) in 0.036s
 [\not ] (3 => 1 states) in 0.072s
[\and ] (1 => 1 states) in 0.060s
[total] (1 states) in 0.402s
