digraph "FSA Utilities" { nodesep=0.3; center=true;start0 [shape=plaintext,label=""];
start0 -> 0 [label=""];0 [style=filled,shape=circle,color=orchid,peripheries=2];
1 [style=filled,shape=circle,color=tomato1,peripheries=2];
2 [style=filled,shape=circle,color=tomato1,peripheries=2];
3 [style=filled,shape=circle,color=tomato1,peripheries=2];
4 [style=filled,shape=circle,color=tomato1,peripheries=2];
5 [style=filled,shape=circle,color=tomato1,peripheries=2];
6 [style=filled,shape=circle,color=tomato1,peripheries=2];
7 [style=filled,shape=circle,color=tomato1,peripheries=2];
8 [style=filled,shape=circle,color=tomato1,peripheries=2];
9 [style=filled,shape=circle,color=tomato1,peripheries=2];
10 [style=filled,shape=circle,color=tomato1,peripheries=2];
11 [style=filled,shape=circle,color=tomato1,peripheries=2];
12 [style=filled,shape=circle,color=tomato1,peripheries=2];
13 [style=filled,shape=circle,color=tomato1,peripheries=2];
14 [style=filled,shape=circle,color=tomato1,peripheries=2];
15 [style=filled,shape=circle,color=tomato1,peripheries=2];
0 -> 1 [label="0"];
0 -> 2 [label="1"];
1 -> 3 [label="0"];
2 -> 3 [label="1"];
3 -> 3 [label="0 1"];
4 -> 3 [label="1"];
5 -> 3 [label="1"];
7 -> 3 [label="1"];
11 -> 3 [label="1"];
14 -> 3 [label="1"];
15 -> 3 [label="1"];
1 -> 4 [label="1"];
4 -> 5 [label="0"];
12 -> 5 [label="1"];
5 -> 6 [label="0"];
6 -> 6 [label="0"];
12 -> 6 [label="0"];
2 -> 7 [label="0"];
7 -> 8 [label="0"];
8 -> 9 [label="0"];
9 -> 9 [label="0"];
13 -> 9 [label="0"];
15 -> 9 [label="0"];
8 -> 10 [label="1"];
9 -> 11 [label="1"];
10 -> 12 [label="0"];
11 -> 12 [label="0"];
10 -> 13 [label="1"];
13 -> 14 [label="1"];
14 -> 15 [label="0"];
}
